 k:1 p:1 accuracy: 0.895462
 k:1 p:2 accuracy: 0.897871
 k:1 p:3 accuracy: 0.897871
 k:1 p:4 accuracy: 0.902633
 k:1 p:5 accuracy: 0.902633
 k:1 p:6 accuracy: 0.902633
 k:1 p:7 accuracy: 0.902633
 k:1 p:8 accuracy: 0.902633
 k:1 p:9 accuracy: 0.902633
 k:1 p:10 accuracy: 0.902633
 k:2 p:1 accuracy: 0.890756
 k:2 p:2 accuracy: 0.895518
 k:2 p:3 accuracy: 0.888403
 k:2 p:4 accuracy: 0.893165
 k:2 p:5 accuracy: 0.888403
 k:2 p:6 accuracy: 0.883641
 k:2 p:7 accuracy: 0.883641
 k:2 p:8 accuracy: 0.883641
 k:2 p:9 accuracy: 0.883641
 k:2 p:10 accuracy: 0.883641
 k:3 p:1 accuracy: 0.888403
 k:3 p:2 accuracy: 0.883641
 k:3 p:3 accuracy: 0.888403
 k:3 p:4 accuracy: 0.888403
 k:3 p:5 accuracy: 0.888403
 k:3 p:6 accuracy: 0.888403
 k:3 p:7 accuracy: 0.888403
 k:3 p:8 accuracy: 0.888403
 k:3 p:9 accuracy: 0.888403
 k:3 p:10 accuracy: 0.888403
 k:4 p:1 accuracy: 0.900224
 k:4 p:2 accuracy: 0.888347
 k:4 p:3 accuracy: 0.883585
 k:4 p:4 accuracy: 0.883585
 k:4 p:5 accuracy: 0.883585
 k:4 p:6 accuracy: 0.878824
 k:4 p:7 accuracy: 0.874062
 k:4 p:8 accuracy: 0.874062
 k:4 p:9 accuracy: 0.878824
 k:4 p:10 accuracy: 0.878824
 k:5 p:1 accuracy: 0.900224
 k:5 p:2 accuracy: 0.897815
 k:5 p:3 accuracy: 0.895462
 k:5 p:4 accuracy: 0.895462
 k:5 p:5 accuracy: 0.900224
 k:5 p:6 accuracy: 0.900224
 k:5 p:7 accuracy: 0.900224
 k:5 p:8 accuracy: 0.900224
 k:5 p:9 accuracy: 0.900224
 k:5 p:10 accuracy: 0.900224
 k:6 p:1 accuracy: 0.907339
 k:6 p:2 accuracy: 0.900168
 k:6 p:3 accuracy: 0.900168
 k:6 p:4 accuracy: 0.909692
 k:6 p:5 accuracy: 0.902577
 k:6 p:6 accuracy: 0.902577
 k:6 p:7 accuracy: 0.902577
 k:6 p:8 accuracy: 0.902577
 k:6 p:9 accuracy: 0.902577
 k:6 p:10 accuracy: 0.902577
 k:7 p:1 accuracy: 0.909636
 k:7 p:2 accuracy: 0.914454
 k:7 p:3 accuracy: 0.914454
 k:7 p:4 accuracy: 0.914454
 k:7 p:5 accuracy: 0.914454
 k:7 p:6 accuracy: 0.914454
 k:7 p:7 accuracy: 0.914454
 k:7 p:8 accuracy: 0.909692
 k:7 p:9 accuracy: 0.909692
 k:7 p:10 accuracy: 0.909692
 k:8 p:1 accuracy: 0.902521
 k:8 p:2 accuracy: 0.919216
 k:8 p:3 accuracy: 0.907339
 k:8 p:4 accuracy: 0.904986
 k:8 p:5 accuracy: 0.907395
 k:8 p:6 accuracy: 0.902633
 k:8 p:7 accuracy: 0.902633
 k:8 p:8 accuracy: 0.902633
 k:8 p:9 accuracy: 0.902633
 k:8 p:10 accuracy: 0.897871
 k:9 p:1 accuracy: 0.909636
 k:9 p:2 accuracy: 0.912045
 k:9 p:3 accuracy: 0.909692
 k:9 p:4 accuracy: 0.909692
 k:9 p:5 accuracy: 0.914454
 k:9 p:6 accuracy: 0.914454
 k:9 p:7 accuracy: 0.916863
 k:9 p:8 accuracy: 0.916863
 k:9 p:9 accuracy: 0.914510
 k:9 p:10 accuracy: 0.914510
 k:10 p:1 accuracy: 0.916807
 k:10 p:2 accuracy: 0.907339
 k:10 p:3 accuracy: 0.912101
 k:10 p:4 accuracy: 0.912101
 k:10 p:5 accuracy: 0.902577
 k:10 p:6 accuracy: 0.904986
 k:10 p:7 accuracy: 0.900224
 k:10 p:8 accuracy: 0.900224
 k:10 p:9 accuracy: 0.900224
 k:10 p:10 accuracy: 0.900224
