%!PS-Adobe-3.0 EPSF-3.0
%%Creator: (MATLAB, The Mathworks, Inc. Version 9.0.0.341360 \(R2016a\). Operating System: Linux)
%%Title: (/home/shivram/main/Work/1. Research/1. Ongoing/5. LDRP Face/2. Exp/1. Results/AT&T/ATT-ARR.eps)
%%CreationDate: 2017-08-16T15:48:10
%%Pages: (atend)
%%BoundingBox: 0 0 573 384
%%LanguageLevel: 3
%%EndComments
%%BeginProlog
%%BeginResource: procset (Apache XML Graphics Std ProcSet) 1.2 0
%%Version: 1.2 0
%%Copyright: (Copyright 2001-2003,2010 The Apache Software Foundation. License terms: http://www.apache.org/licenses/LICENSE-2.0)
/bd{bind def}bind def
/ld{load def}bd
/GR/grestore ld
/M/moveto ld
/LJ/setlinejoin ld
/C/curveto ld
/f/fill ld
/LW/setlinewidth ld
/GC/setgray ld
/t/show ld
/N/newpath ld
/CT/concat ld
/cp/closepath ld
/S/stroke ld
/L/lineto ld
/CC/setcmykcolor ld
/A/ashow ld
/GS/gsave ld
/RC/setrgbcolor ld
/RM/rmoveto ld
/ML/setmiterlimit ld
/re {4 2 roll M
1 index 0 rlineto
0 exch rlineto
neg 0 rlineto
cp } bd
/_ctm matrix def
/_tm matrix def
/BT { _ctm currentmatrix pop matrix _tm copy pop 0 0 moveto } bd
/ET { _ctm setmatrix } bd
/iTm { _ctm setmatrix _tm concat } bd
/Tm { _tm astore pop iTm 0 0 moveto } bd
/ux 0.0 def
/uy 0.0 def
/F {
  /Tp exch def
  /Tf exch def
  Tf findfont Tp scalefont setfont
  /cf Tf def  /cs Tp def
} bd
/ULS {currentpoint /uy exch def /ux exch def} bd
/ULE {
  /Tcx currentpoint pop def
  gsave
  newpath
  cf findfont cs scalefont dup
  /FontMatrix get 0 get /Ts exch def /FontInfo get dup
  /UnderlinePosition get Ts mul /To exch def
  /UnderlineThickness get Ts mul /Tt exch def
  ux uy To add moveto  Tcx uy To add lineto
  Tt setlinewidth stroke
  grestore
} bd
/OLE {
  /Tcx currentpoint pop def
  gsave
  newpath
  cf findfont cs scalefont dup
  /FontMatrix get 0 get /Ts exch def /FontInfo get dup
  /UnderlinePosition get Ts mul /To exch def
  /UnderlineThickness get Ts mul /Tt exch def
  ux uy To add cs add moveto Tcx uy To add cs add lineto
  Tt setlinewidth stroke
  grestore
} bd
/SOE {
  /Tcx currentpoint pop def
  gsave
  newpath
  cf findfont cs scalefont dup
  /FontMatrix get 0 get /Ts exch def /FontInfo get dup
  /UnderlinePosition get Ts mul /To exch def
  /UnderlineThickness get Ts mul /Tt exch def
  ux uy To add cs 10 mul 26 idiv add moveto Tcx uy To add cs 10 mul 26 idiv add lineto
  Tt setlinewidth stroke
  grestore
} bd
/QT {
/Y22 exch store
/X22 exch store
/Y21 exch store
/X21 exch store
currentpoint
/Y21 load 2 mul add 3 div exch
/X21 load 2 mul add 3 div exch
/X21 load 2 mul /X22 load add 3 div
/Y21 load 2 mul /Y22 load add 3 div
/X22 load /Y22 load curveto
} bd
/SSPD {
dup length /d exch dict def
{
/v exch def
/k exch def
currentpagedevice k known {
/cpdv currentpagedevice k get def
v cpdv ne {
/upd false def
/nullv v type /nulltype eq def
/nullcpdv cpdv type /nulltype eq def
nullv nullcpdv or
{
/upd true def
} {
/sametype v type cpdv type eq def
sametype {
v type /arraytype eq {
/vlen v length def
/cpdvlen cpdv length def
vlen cpdvlen eq {
0 1 vlen 1 sub {
/i exch def
/obj v i get def
/cpdobj cpdv i get def
obj cpdobj ne {
/upd true def
exit
} if
} for
} {
/upd true def
} ifelse
} {
v type /dicttype eq {
v {
/dv exch def
/dk exch def
/cpddv cpdv dk get def
dv cpddv ne {
/upd true def
exit
} if
} forall
} {
/upd true def
} ifelse
} ifelse
} if
} ifelse
upd true eq {
d k v put
} if
} if
} if
} forall
d length 0 gt {
d setpagedevice
} if
} bd
%%EndResource
%%BeginResource: procset (Apache XML Graphics EPS ProcSet) 1.0 0
%%Version: 1.0 0
%%Copyright: (Copyright 2002-2003 The Apache Software Foundation. License terms: http://www.apache.org/licenses/LICENSE-2.0)
/BeginEPSF { %def
/b4_Inc_state save def         % Save state for cleanup
/dict_count countdictstack def % Count objects on dict stack
/op_count count 1 sub def      % Count objects on operand stack
userdict begin                 % Push userdict on dict stack
/showpage { } def              % Redefine showpage, { } = null proc
0 setgray 0 setlinecap         % Prepare graphics state
1 setlinewidth 0 setlinejoin
10 setmiterlimit [ ] 0 setdash newpath
/languagelevel where           % If level not equal to 1 then
{pop languagelevel             % set strokeadjust and
1 ne                           % overprint to their defaults.
{false setstrokeadjust false setoverprint
} if
} if
} bd
/EndEPSF { %def
count op_count sub {pop} repeat            % Clean up stacks
countdictstack dict_count sub {end} repeat
b4_Inc_state restore
} bd
%%EndResource
%FOPBeginFontDict
%%IncludeResource: font Courier-Bold
%%IncludeResource: font Helvetica
%%IncludeResource: font Courier-BoldOblique
%%IncludeResource: font Courier-Oblique
%%IncludeResource: font Times-Roman
%%IncludeResource: font Helvetica-BoldOblique
%%IncludeResource: font Helvetica-Bold
%%IncludeResource: font Helvetica-Oblique
%%IncludeResource: font Times-BoldItalic
%%IncludeResource: font Courier
%%IncludeResource: font Times-Italic
%%IncludeResource: font Times-Bold
%%IncludeResource: font Symbol
%%IncludeResource: font ZapfDingbats
%FOPEndFontDict
%%BeginResource: encoding WinAnsiEncoding
/WinAnsiEncoding [
/.notdef /.notdef /.notdef /.notdef /.notdef
/.notdef /.notdef /.notdef /.notdef /.notdef
/.notdef /.notdef /.notdef /.notdef /.notdef
/.notdef /.notdef /.notdef /.notdef /.notdef
/.notdef /.notdef /.notdef /.notdef /.notdef
/.notdef /.notdef /.notdef /.notdef /.notdef
/.notdef /.notdef /space /exclam /quotedbl
/numbersign /dollar /percent /ampersand /quotesingle
/parenleft /parenright /asterisk /plus /comma
/hyphen /period /slash /zero /one
/two /three /four /five /six
/seven /eight /nine /colon /semicolon
/less /equal /greater /question /at
/A /B /C /D /E
/F /G /H /I /J
/K /L /M /N /O
/P /Q /R /S /T
/U /V /W /X /Y
/Z /bracketleft /backslash /bracketright /asciicircum
/underscore /quoteleft /a /b /c
/d /e /f /g /h
/i /j /k /l /m
/n /o /p /q /r
/s /t /u /v /w
/x /y /z /braceleft /bar
/braceright /asciitilde /bullet /Euro /bullet
/quotesinglbase /florin /quotedblbase /ellipsis /dagger
/daggerdbl /circumflex /perthousand /Scaron /guilsinglleft
/OE /bullet /Zcaron /bullet /bullet
/quoteleft /quoteright /quotedblleft /quotedblright /bullet
/endash /emdash /asciitilde /trademark /scaron
/guilsinglright /oe /bullet /zcaron /Ydieresis
/space /exclamdown /cent /sterling /currency
/yen /brokenbar /section /dieresis /copyright
/ordfeminine /guillemotleft /logicalnot /sfthyphen /registered
/macron /degree /plusminus /twosuperior /threesuperior
/acute /mu /paragraph /middot /cedilla
/onesuperior /ordmasculine /guillemotright /onequarter /onehalf
/threequarters /questiondown /Agrave /Aacute /Acircumflex
/Atilde /Adieresis /Aring /AE /Ccedilla
/Egrave /Eacute /Ecircumflex /Edieresis /Igrave
/Iacute /Icircumflex /Idieresis /Eth /Ntilde
/Ograve /Oacute /Ocircumflex /Otilde /Odieresis
/multiply /Oslash /Ugrave /Uacute /Ucircumflex
/Udieresis /Yacute /Thorn /germandbls /agrave
/aacute /acircumflex /atilde /adieresis /aring
/ae /ccedilla /egrave /eacute /ecircumflex
/edieresis /igrave /iacute /icircumflex /idieresis
/eth /ntilde /ograve /oacute /ocircumflex
/otilde /odieresis /divide /oslash /ugrave
/uacute /ucircumflex /udieresis /yacute /thorn
/ydieresis
] def
%%EndResource
%FOPBeginFontReencode
/Courier-Bold findfont
dup length dict begin
  {1 index /FID ne {def} {pop pop} ifelse} forall
  /Encoding WinAnsiEncoding def
  currentdict
end
/Courier-Bold exch definefont pop
/Helvetica findfont
dup length dict begin
  {1 index /FID ne {def} {pop pop} ifelse} forall
  /Encoding WinAnsiEncoding def
  currentdict
end
/Helvetica exch definefont pop
/Courier-BoldOblique findfont
dup length dict begin
  {1 index /FID ne {def} {pop pop} ifelse} forall
  /Encoding WinAnsiEncoding def
  currentdict
end
/Courier-BoldOblique exch definefont pop
/Courier-Oblique findfont
dup length dict begin
  {1 index /FID ne {def} {pop pop} ifelse} forall
  /Encoding WinAnsiEncoding def
  currentdict
end
/Courier-Oblique exch definefont pop
/Times-Roman findfont
dup length dict begin
  {1 index /FID ne {def} {pop pop} ifelse} forall
  /Encoding WinAnsiEncoding def
  currentdict
end
/Times-Roman exch definefont pop
/Helvetica-BoldOblique findfont
dup length dict begin
  {1 index /FID ne {def} {pop pop} ifelse} forall
  /Encoding WinAnsiEncoding def
  currentdict
end
/Helvetica-BoldOblique exch definefont pop
/Helvetica-Bold findfont
dup length dict begin
  {1 index /FID ne {def} {pop pop} ifelse} forall
  /Encoding WinAnsiEncoding def
  currentdict
end
/Helvetica-Bold exch definefont pop
/Helvetica-Oblique findfont
dup length dict begin
  {1 index /FID ne {def} {pop pop} ifelse} forall
  /Encoding WinAnsiEncoding def
  currentdict
end
/Helvetica-Oblique exch definefont pop
/Times-BoldItalic findfont
dup length dict begin
  {1 index /FID ne {def} {pop pop} ifelse} forall
  /Encoding WinAnsiEncoding def
  currentdict
end
/Times-BoldItalic exch definefont pop
/Courier findfont
dup length dict begin
  {1 index /FID ne {def} {pop pop} ifelse} forall
  /Encoding WinAnsiEncoding def
  currentdict
end
/Courier exch definefont pop
/Times-Italic findfont
dup length dict begin
  {1 index /FID ne {def} {pop pop} ifelse} forall
  /Encoding WinAnsiEncoding def
  currentdict
end
/Times-Italic exch definefont pop
/Times-Bold findfont
dup length dict begin
  {1 index /FID ne {def} {pop pop} ifelse} forall
  /Encoding WinAnsiEncoding def
  currentdict
end
/Times-Bold exch definefont pop
%FOPEndFontReencode
%%EndProlog
%%Page: 1 1
%%PageBoundingBox: 0 0 573 384
%%BeginPageSetup
[1 0 0 -1 0 384] CT
%%EndPageSetup
GS
[0.75 0 0 0.75 0 0] CT
1 GC
N
0 0 764 512 re
f
GR
GS
[0.75 0 0 0.75 0 0] CT
1 GC
N
0 0 764 512 re
f
GR
GS
[0.75 0 0 0.75 0 0] CT
1 GC
N
89 421 M
744 421 L
744 51 L
89 51 L
cp
f
GR
GS
[0.75 0 0 0.75 0 0] CT
0.149 GC
2 setlinecap
1 LJ
0.667 LW
N
89 421 M
744 421 L
S
GR
GS
[0.75 0 0 0.75 0 0] CT
0.149 GC
2 setlinecap
1 LJ
0.667 LW
N
89 51 M
744 51 L
S
GR
GS
[0.75 0 0 0.75 0 0] CT
0.149 GC
2 setlinecap
1 LJ
0.667 LW
N
89 421 M
89 414.45 L
S
GR
GS
[0.75 0 0 0.75 0 0] CT
0.149 GC
2 setlinecap
1 LJ
0.667 LW
N
161.778 421 M
161.778 414.45 L
S
GR
GS
[0.75 0 0 0.75 0 0] CT
0.149 GC
2 setlinecap
1 LJ
0.667 LW
N
234.556 421 M
234.556 414.45 L
S
GR
GS
[0.75 0 0 0.75 0 0] CT
0.149 GC
2 setlinecap
1 LJ
0.667 LW
N
307.333 421 M
307.333 414.45 L
S
GR
GS
[0.75 0 0 0.75 0 0] CT
0.149 GC
2 setlinecap
1 LJ
0.667 LW
N
380.111 421 M
380.111 414.45 L
S
GR
GS
[0.75 0 0 0.75 0 0] CT
0.149 GC
2 setlinecap
1 LJ
0.667 LW
N
452.889 421 M
452.889 414.45 L
S
GR
GS
[0.75 0 0 0.75 0 0] CT
0.149 GC
2 setlinecap
1 LJ
0.667 LW
N
525.667 421 M
525.667 414.45 L
S
GR
GS
[0.75 0 0 0.75 0 0] CT
0.149 GC
2 setlinecap
1 LJ
0.667 LW
N
598.444 421 M
598.444 414.45 L
S
GR
GS
[0.75 0 0 0.75 0 0] CT
0.149 GC
2 setlinecap
1 LJ
0.667 LW
N
671.222 421 M
671.222 414.45 L
S
GR
GS
[0.75 0 0 0.75 0 0] CT
0.149 GC
2 setlinecap
1 LJ
0.667 LW
N
744 421 M
744 414.45 L
S
GR
GS
[0.75 0 0 0.75 0 0] CT
0.149 GC
2 setlinecap
1 LJ
0.667 LW
N
89 51 M
89 57.55 L
S
GR
GS
[0.75 0 0 0.75 0 0] CT
0.149 GC
2 setlinecap
1 LJ
0.667 LW
N
161.778 51 M
161.778 57.55 L
S
GR
GS
[0.75 0 0 0.75 0 0] CT
0.149 GC
2 setlinecap
1 LJ
0.667 LW
N
234.556 51 M
234.556 57.55 L
S
GR
GS
[0.75 0 0 0.75 0 0] CT
0.149 GC
2 setlinecap
1 LJ
0.667 LW
N
307.333 51 M
307.333 57.55 L
S
GR
GS
[0.75 0 0 0.75 0 0] CT
0.149 GC
2 setlinecap
1 LJ
0.667 LW
N
380.111 51 M
380.111 57.55 L
S
GR
GS
[0.75 0 0 0.75 0 0] CT
0.149 GC
2 setlinecap
1 LJ
0.667 LW
N
452.889 51 M
452.889 57.55 L
S
GR
GS
[0.75 0 0 0.75 0 0] CT
0.149 GC
2 setlinecap
1 LJ
0.667 LW
N
525.667 51 M
525.667 57.55 L
S
GR
GS
[0.75 0 0 0.75 0 0] CT
0.149 GC
2 setlinecap
1 LJ
0.667 LW
N
598.444 51 M
598.444 57.55 L
S
GR
GS
[0.75 0 0 0.75 0 0] CT
0.149 GC
2 setlinecap
1 LJ
0.667 LW
N
671.222 51 M
671.222 57.55 L
S
GR
GS
[0.75 0 0 0.75 0 0] CT
0.149 GC
2 setlinecap
1 LJ
0.667 LW
N
744 51 M
744 57.55 L
S
GR
GS
[0.75 0 0 0.75 66.75 322.55001] CT
0.149 GC
/Times 32 F
GS
[1 0 0 1 0 0] CT
-10.5 30 moveto 
1 -1 scale
(1) t 
GR
GR
GS
[0.75 0 0 0.75 121.33333 322.55001] CT
0.149 GC
/Times 32 F
GS
[1 0 0 1 0 0] CT
-10.5 30 moveto 
1 -1 scale
(2) t 
GR
GR
GS
[0.75 0 0 0.75 175.91667 322.55001] CT
0.149 GC
/Times 32 F
GS
[1 0 0 1 0 0] CT
-10.5 30 moveto 
1 -1 scale
(3) t 
GR
GR
GS
[0.75 0 0 0.75 230.50001 322.55001] CT
0.149 GC
/Times 32 F
GS
[1 0 0 1 0 0] CT
-10.5 30 moveto 
1 -1 scale
(4) t 
GR
GR
GS
[0.75 0 0 0.75 285.08334 322.55001] CT
0.149 GC
/Times 32 F
GS
[1 0 0 1 0 0] CT
-10.5 30 moveto 
1 -1 scale
(5) t 
GR
GR
GS
[0.75 0 0 0.75 339.66666 322.55001] CT
0.149 GC
/Times 32 F
GS
[1 0 0 1 0 0] CT
-10.5 30 moveto 
1 -1 scale
(6) t 
GR
GR
GS
[0.75 0 0 0.75 394.25002 322.55001] CT
0.149 GC
/Times 32 F
GS
[1 0 0 1 0 0] CT
-10.5 30 moveto 
1 -1 scale
(7) t 
GR
GR
GS
[0.75 0 0 0.75 448.83334 322.55001] CT
0.149 GC
/Times 32 F
GS
[1 0 0 1 0 0] CT
-10.5 30 moveto 
1 -1 scale
(8) t 
GR
GR
GS
[0.75 0 0 0.75 503.41667 322.55001] CT
0.149 GC
/Times 32 F
GS
[1 0 0 1 0 0] CT
-10.5 30 moveto 
1 -1 scale
(9) t 
GR
GR
GS
[0.75 0 0 0.75 558 322.55001] CT
0.149 GC
/Times 32 F
GS
[1 0 0 1 0 0] CT
-20.5 30 moveto 
1 -1 scale
(10) t 
GR
GR
GS
[0.75 0 0 0.75 312.37523 352.05] CT
0.149 GC
/Times 35.2 F
GS
[1 0 0 1 0 0] CT
-210 33 moveto 
1 -1 scale
(Number of Top Matches) t 
GR
GR
GS
[0.75 0 0 0.75 0 0] CT
0.149 GC
2 setlinecap
1 LJ
0.667 LW
N
89 421 M
89 51 L
S
GR
GS
[0.75 0 0 0.75 0 0] CT
0.149 GC
2 setlinecap
1 LJ
0.667 LW
N
744 421 M
744 51 L
S
GR
GS
[0.75 0 0 0.75 0 0] CT
0.149 GC
2 setlinecap
1 LJ
0.667 LW
N
89 421 M
95.55 421 L
S
GR
GS
[0.75 0 0 0.75 0 0] CT
0.149 GC
2 setlinecap
1 LJ
0.667 LW
N
89 364.939 M
95.55 364.939 L
S
GR
GS
[0.75 0 0 0.75 0 0] CT
0.149 GC
2 setlinecap
1 LJ
0.667 LW
N
89 308.879 M
95.55 308.879 L
S
GR
GS
[0.75 0 0 0.75 0 0] CT
0.149 GC
2 setlinecap
1 LJ
0.667 LW
N
89 252.818 M
95.55 252.818 L
S
GR
GS
[0.75 0 0 0.75 0 0] CT
0.149 GC
2 setlinecap
1 LJ
0.667 LW
N
89 196.758 M
95.55 196.758 L
S
GR
GS
[0.75 0 0 0.75 0 0] CT
0.149 GC
2 setlinecap
1 LJ
0.667 LW
N
89 140.697 M
95.55 140.697 L
S
GR
GS
[0.75 0 0 0.75 0 0] CT
0.149 GC
2 setlinecap
1 LJ
0.667 LW
N
89 84.636 M
95.55 84.636 L
S
GR
GS
[0.75 0 0 0.75 0 0] CT
0.149 GC
2 setlinecap
1 LJ
0.667 LW
N
89 51 M
95.55 51 L
S
GR
GS
[0.75 0 0 0.75 0 0] CT
0.149 GC
2 setlinecap
1 LJ
0.667 LW
N
744 421 M
737.45 421 L
S
GR
GS
[0.75 0 0 0.75 0 0] CT
0.149 GC
2 setlinecap
1 LJ
0.667 LW
N
744 364.939 M
737.45 364.939 L
S
GR
GS
[0.75 0 0 0.75 0 0] CT
0.149 GC
2 setlinecap
1 LJ
0.667 LW
N
744 308.879 M
737.45 308.879 L
S
GR
GS
[0.75 0 0 0.75 0 0] CT
0.149 GC
2 setlinecap
1 LJ
0.667 LW
N
744 252.818 M
737.45 252.818 L
S
GR
GS
[0.75 0 0 0.75 0 0] CT
0.149 GC
2 setlinecap
1 LJ
0.667 LW
N
744 196.758 M
737.45 196.758 L
S
GR
GS
[0.75 0 0 0.75 0 0] CT
0.149 GC
2 setlinecap
1 LJ
0.667 LW
N
744 140.697 M
737.45 140.697 L
S
GR
GS
[0.75 0 0 0.75 0 0] CT
0.149 GC
2 setlinecap
1 LJ
0.667 LW
N
744 84.636 M
737.45 84.636 L
S
GR
GS
[0.75 0 0 0.75 0 0] CT
0.149 GC
2 setlinecap
1 LJ
0.667 LW
N
744 51 M
737.45 51 L
S
GR
GS
[0.75 0 0 0.75 59.95 315.75] CT
0.149 GC
/Times 32 F
GS
[1 0 0 1 0 0] CT
-41 11 moveto 
1 -1 scale
(10) t 
GR
GR
GS
[0.75 0 0 0.75 59.95 273.70454] CT
0.149 GC
/Times 32 F
GS
[1 0 0 1 0 0] CT
-41 11 moveto 
1 -1 scale
(20) t 
GR
GR
GS
[0.75 0 0 0.75 59.95 231.65909] CT
0.149 GC
/Times 32 F
GS
[1 0 0 1 0 0] CT
-41 11 moveto 
1 -1 scale
(30) t 
GR
GR
GS
[0.75 0 0 0.75 59.95 189.61363] CT
0.149 GC
/Times 32 F
GS
[1 0 0 1 0 0] CT
-41 11 moveto 
1 -1 scale
(40) t 
GR
GR
GS
[0.75 0 0 0.75 59.95 147.56818] CT
0.149 GC
/Times 32 F
GS
[1 0 0 1 0 0] CT
-41 11 moveto 
1 -1 scale
(50) t 
GR
GR
GS
[0.75 0 0 0.75 59.95 105.52273] CT
0.149 GC
/Times 32 F
GS
[1 0 0 1 0 0] CT
-41 11 moveto 
1 -1 scale
(60) t 
GR
GR
GS
[0.75 0 0 0.75 59.95 63.47727] CT
0.149 GC
/Times 32 F
GS
[1 0 0 1 0 0] CT
-41 11 moveto 
1 -1 scale
(70) t 
GR
GR
GS
[0.75 0 0 0.75 59.95 38.25] CT
0.149 GC
/Times 32 F
GS
[1 0 0 1 0 0] CT
-41 11 moveto 
1 -1 scale
(76) t 
GR
GR
GS
[0 -0.75 0.75 0 26.2 176.99987] CT
0.149 GC
/Times 35.2 F
GS
[1 0 0 1 0 0] CT
-72.5 -9 moveto 
1 -1 scale
(ARR \(%\)) t 
GR
GR
GS
[0.75 0 0 0.75 312.3753 33.29999] CT
/Times 35.2 F
GS
[1 0 0 1 0 0] CT
-136.5 -9 moveto 
1 -1 scale
(AT&T Database) t 
GR
GR
GS
[0.75 0 0 0.75 0 0] CT
1 0.6 0.784 RC
1 LJ
2 LW
N
89 421 M
161.778 367.742 L
234.556 321.773 L
307.333 281.129 L
380.111 247.212 L
452.889 220.443 L
525.667 198.86 L
598.444 178.818 L
671.222 161.439 L
744 148.545 L
S
GR
GS
[0.75 0 0 0.75 0 0] CT
1 GC
N
87.278 416.652 M
93.943 420.5 L
87.278 424.348 L
cp
f
GR
GS
[0.75 0 0 0.75 0 0] CT
1 0.6 0.784 RC
10.0 ML
2 LW
N
87.278 416.652 M
93.943 420.5 L
87.278 424.348 L
cp
S
GR
GS
[0.75 0 0 0.75 0 0] CT
1 GC
N
159.278 363.652 M
165.943 367.5 L
159.278 371.348 L
cp
f
GR
GS
[0.75 0 0 0.75 0 0] CT
1 0.6 0.784 RC
10.0 ML
2 LW
N
159.278 363.652 M
165.943 367.5 L
159.278 371.348 L
cp
S
GR
GS
[0.75 0 0 0.75 0 0] CT
1 GC
N
232.278 317.652 M
238.943 321.5 L
232.278 325.348 L
cp
f
GR
GS
[0.75 0 0 0.75 0 0] CT
1 0.6 0.784 RC
10.0 ML
2 LW
N
232.278 317.652 M
238.943 321.5 L
232.278 325.348 L
cp
S
GR
GS
[0.75 0 0 0.75 0 0] CT
1 GC
N
305.278 277.652 M
311.943 281.5 L
305.278 285.348 L
cp
f
GR
GS
[0.75 0 0 0.75 0 0] CT
1 0.6 0.784 RC
10.0 ML
2 LW
N
305.278 277.652 M
311.943 281.5 L
305.278 285.348 L
cp
S
GR
GS
[0.75 0 0 0.75 0 0] CT
1 GC
N
378.278 243.652 M
384.943 247.5 L
378.278 251.348 L
cp
f
GR
GS
[0.75 0 0 0.75 0 0] CT
1 0.6 0.784 RC
10.0 ML
2 LW
N
378.278 243.652 M
384.943 247.5 L
378.278 251.348 L
cp
S
GR
GS
[0.75 0 0 0.75 0 0] CT
1 GC
N
450.278 216.652 M
456.943 220.5 L
450.278 224.348 L
cp
f
GR
GS
[0.75 0 0 0.75 0 0] CT
1 0.6 0.784 RC
10.0 ML
2 LW
N
450.278 216.652 M
456.943 220.5 L
450.278 224.348 L
cp
S
GR
GS
[0.75 0 0 0.75 0 0] CT
1 GC
N
523.278 194.652 M
529.943 198.5 L
523.278 202.348 L
cp
f
GR
GS
[0.75 0 0 0.75 0 0] CT
1 0.6 0.784 RC
10.0 ML
2 LW
N
523.278 194.652 M
529.943 198.5 L
523.278 202.348 L
cp
S
GR
GS
[0.75 0 0 0.75 0 0] CT
1 GC
N
596.278 174.652 M
602.943 178.5 L
596.278 182.348 L
cp
f
GR
GS
[0.75 0 0 0.75 0 0] CT
1 0.6 0.784 RC
10.0 ML
2 LW
N
596.278 174.652 M
602.943 178.5 L
596.278 182.348 L
cp
S
GR
GS
[0.75 0 0 0.75 0 0] CT
1 GC
N
669.278 157.652 M
675.943 161.5 L
669.278 165.348 L
cp
f
GR
GS
[0.75 0 0 0.75 0 0] CT
1 0.6 0.784 RC
10.0 ML
2 LW
N
669.278 157.652 M
675.943 161.5 L
669.278 165.348 L
cp
S
GR
GS
[0.75 0 0 0.75 0 0] CT
1 GC
N
742.278 144.652 M
748.943 148.5 L
742.278 152.348 L
cp
f
GR
GS
[0.75 0 0 0.75 0 0] CT
1 0.6 0.784 RC
10.0 ML
2 LW
N
742.278 144.652 M
748.943 148.5 L
742.278 152.348 L
cp
S
GR
GS
[0.75 0 0 0.75 0 0] CT
0.6 0.2 0 RC
1 LJ
2 LW
N
89 421 M
161.778 368.443 L
234.556 322.193 L
307.333 282.53 L
380.111 247.492 L
452.889 221.985 L
525.667 199.701 L
598.444 182.322 L
671.222 166.485 L
744 153.591 L
S
GR
GS
[0.75 0 0 0.75 0 0] CT
1 GC
N
85.057 420.5 M
91.722 416.652 L
91.722 424.348 L
cp
f
GR
GS
[0.75 0 0 0.75 0 0] CT
0.6 0.2 0 RC
10.0 ML
2 LW
N
85.057 420.5 M
91.722 416.652 L
91.722 424.348 L
cp
S
GR
GS
[0.75 0 0 0.75 0 0] CT
1 GC
N
157.057 368.5 M
163.722 364.652 L
163.722 372.348 L
cp
f
GR
GS
[0.75 0 0 0.75 0 0] CT
0.6 0.2 0 RC
10.0 ML
2 LW
N
157.057 368.5 M
163.722 364.652 L
163.722 372.348 L
cp
S
GR
GS
[0.75 0 0 0.75 0 0] CT
1 GC
N
230.057 322.5 M
236.722 318.652 L
236.722 326.348 L
cp
f
GR
GS
[0.75 0 0 0.75 0 0] CT
0.6 0.2 0 RC
10.0 ML
2 LW
N
230.057 322.5 M
236.722 318.652 L
236.722 326.348 L
cp
S
GR
GS
[0.75 0 0 0.75 0 0] CT
1 GC
N
303.057 282.5 M
309.722 278.652 L
309.722 286.348 L
cp
f
GR
GS
[0.75 0 0 0.75 0 0] CT
0.6 0.2 0 RC
10.0 ML
2 LW
N
303.057 282.5 M
309.722 278.652 L
309.722 286.348 L
cp
S
GR
GS
[0.75 0 0 0.75 0 0] CT
1 GC
N
376.057 247.5 M
382.722 243.652 L
382.722 251.348 L
cp
f
GR
GS
[0.75 0 0 0.75 0 0] CT
0.6 0.2 0 RC
10.0 ML
2 LW
N
376.057 247.5 M
382.722 243.652 L
382.722 251.348 L
cp
S
GR
GS
[0.75 0 0 0.75 0 0] CT
1 GC
N
448.057 221.5 M
454.722 217.652 L
454.722 225.348 L
cp
f
GR
GS
[0.75 0 0 0.75 0 0] CT
0.6 0.2 0 RC
10.0 ML
2 LW
N
448.057 221.5 M
454.722 217.652 L
454.722 225.348 L
cp
S
GR
GS
[0.75 0 0 0.75 0 0] CT
1 GC
N
521.057 199.5 M
527.722 195.652 L
527.722 203.348 L
cp
f
GR
GS
[0.75 0 0 0.75 0 0] CT
0.6 0.2 0 RC
10.0 ML
2 LW
N
521.057 199.5 M
527.722 195.652 L
527.722 203.348 L
cp
S
GR
GS
[0.75 0 0 0.75 0 0] CT
1 GC
N
594.057 182.5 M
600.722 178.652 L
600.722 186.348 L
cp
f
GR
GS
[0.75 0 0 0.75 0 0] CT
0.6 0.2 0 RC
10.0 ML
2 LW
N
594.057 182.5 M
600.722 178.652 L
600.722 186.348 L
cp
S
GR
GS
[0.75 0 0 0.75 0 0] CT
1 GC
N
667.057 166.5 M
673.722 162.652 L
673.722 170.348 L
cp
f
GR
GS
[0.75 0 0 0.75 0 0] CT
0.6 0.2 0 RC
10.0 ML
2 LW
N
667.057 166.5 M
673.722 162.652 L
673.722 170.348 L
cp
S
GR
GS
[0.75 0 0 0.75 0 0] CT
1 GC
N
740.057 153.5 M
746.722 149.652 L
746.722 157.348 L
cp
f
GR
GS
[0.75 0 0 0.75 0 0] CT
0.6 0.2 0 RC
10.0 ML
2 LW
N
740.057 153.5 M
746.722 149.652 L
746.722 157.348 L
cp
S
GR
GS
[0.75 0 0 0.75 0 0] CT
0.929 0.694 0.125 RC
1 LJ
2 LW
N
89 421 M
161.778 372.227 L
234.556 332.985 L
307.333 296.686 L
380.111 266.413 L
452.889 242.447 L
525.667 223.246 L
598.444 206.148 L
671.222 191.011 L
744 179.379 L
S
GR
GS
[0.75 0 0 0.75 0 0] CT
1 GC
N
86.33 419.47 M
88.716 419.47 L
89.5 417.167 L
90.284 419.47 L
92.67 419.47 L
90.768 420.912 L
91.459 423.197 L
89.5 421.833 L
87.541 423.197 L
88.232 420.912 L
86.33 419.47 L
cp
f
GR
GS
[0.75 0 0 0.75 0 0] CT
0.929 0.694 0.125 RC
10.0 ML
2 LW
N
86.33 419.47 M
88.716 419.47 L
89.5 417.167 L
90.284 419.47 L
92.67 419.47 L
90.768 420.912 L
91.459 423.197 L
89.5 421.833 L
87.541 423.197 L
88.232 420.912 L
cp
S
GR
GS
[0.75 0 0 0.75 0 0] CT
1 GC
N
158.33 371.47 M
160.716 371.47 L
161.5 369.167 L
162.284 371.47 L
164.67 371.47 L
162.768 372.912 L
163.459 375.197 L
161.5 373.833 L
159.541 375.197 L
160.232 372.912 L
158.33 371.47 L
cp
f
GR
GS
[0.75 0 0 0.75 0 0] CT
0.929 0.694 0.125 RC
10.0 ML
2 LW
N
158.33 371.47 M
160.716 371.47 L
161.5 369.167 L
162.284 371.47 L
164.67 371.47 L
162.768 372.912 L
163.459 375.197 L
161.5 373.833 L
159.541 375.197 L
160.232 372.912 L
cp
S
GR
GS
[0.75 0 0 0.75 0 0] CT
1 GC
N
231.33 331.47 M
233.716 331.47 L
234.5 329.167 L
235.284 331.47 L
237.67 331.47 L
235.768 332.912 L
236.459 335.197 L
234.5 333.833 L
232.541 335.197 L
233.232 332.912 L
231.33 331.47 L
cp
f
GR
GS
[0.75 0 0 0.75 0 0] CT
0.929 0.694 0.125 RC
10.0 ML
2 LW
N
231.33 331.47 M
233.716 331.47 L
234.5 329.167 L
235.284 331.47 L
237.67 331.47 L
235.768 332.912 L
236.459 335.197 L
234.5 333.833 L
232.541 335.197 L
233.232 332.912 L
cp
S
GR
GS
[0.75 0 0 0.75 0 0] CT
1 GC
N
304.33 295.47 M
306.716 295.47 L
307.5 293.167 L
308.284 295.47 L
310.67 295.47 L
308.768 296.912 L
309.459 299.197 L
307.5 297.833 L
305.541 299.197 L
306.232 296.912 L
304.33 295.47 L
cp
f
GR
GS
[0.75 0 0 0.75 0 0] CT
0.929 0.694 0.125 RC
10.0 ML
2 LW
N
304.33 295.47 M
306.716 295.47 L
307.5 293.167 L
308.284 295.47 L
310.67 295.47 L
308.768 296.912 L
309.459 299.197 L
307.5 297.833 L
305.541 299.197 L
306.232 296.912 L
cp
S
GR
GS
[0.75 0 0 0.75 0 0] CT
1 GC
N
377.33 265.47 M
379.716 265.47 L
380.5 263.167 L
381.284 265.47 L
383.67 265.47 L
381.768 266.912 L
382.459 269.197 L
380.5 267.833 L
378.541 269.197 L
379.232 266.912 L
377.33 265.47 L
cp
f
GR
GS
[0.75 0 0 0.75 0 0] CT
0.929 0.694 0.125 RC
10.0 ML
2 LW
N
377.33 265.47 M
379.716 265.47 L
380.5 263.167 L
381.284 265.47 L
383.67 265.47 L
381.768 266.912 L
382.459 269.197 L
380.5 267.833 L
378.541 269.197 L
379.232 266.912 L
cp
S
GR
GS
[0.75 0 0 0.75 0 0] CT
1 GC
N
449.33 241.47 M
451.716 241.47 L
452.5 239.167 L
453.284 241.47 L
455.67 241.47 L
453.768 242.912 L
454.459 245.197 L
452.5 243.833 L
450.541 245.197 L
451.232 242.912 L
449.33 241.47 L
cp
f
GR
GS
[0.75 0 0 0.75 0 0] CT
0.929 0.694 0.125 RC
10.0 ML
2 LW
N
449.33 241.47 M
451.716 241.47 L
452.5 239.167 L
453.284 241.47 L
455.67 241.47 L
453.768 242.912 L
454.459 245.197 L
452.5 243.833 L
450.541 245.197 L
451.232 242.912 L
cp
S
GR
GS
[0.75 0 0 0.75 0 0] CT
1 GC
N
522.33 222.47 M
524.716 222.47 L
525.5 220.167 L
526.284 222.47 L
528.67 222.47 L
526.768 223.912 L
527.459 226.197 L
525.5 224.833 L
523.541 226.197 L
524.232 223.912 L
522.33 222.47 L
cp
f
GR
GS
[0.75 0 0 0.75 0 0] CT
0.929 0.694 0.125 RC
10.0 ML
2 LW
N
522.33 222.47 M
524.716 222.47 L
525.5 220.167 L
526.284 222.47 L
528.67 222.47 L
526.768 223.912 L
527.459 226.197 L
525.5 224.833 L
523.541 226.197 L
524.232 223.912 L
cp
S
GR
GS
[0.75 0 0 0.75 0 0] CT
1 GC
N
595.33 205.47 M
597.716 205.47 L
598.5 203.167 L
599.284 205.47 L
601.67 205.47 L
599.768 206.912 L
600.459 209.197 L
598.5 207.833 L
596.541 209.197 L
597.232 206.912 L
595.33 205.47 L
cp
f
GR
GS
[0.75 0 0 0.75 0 0] CT
0.929 0.694 0.125 RC
10.0 ML
2 LW
N
595.33 205.47 M
597.716 205.47 L
598.5 203.167 L
599.284 205.47 L
601.67 205.47 L
599.768 206.912 L
600.459 209.197 L
598.5 207.833 L
596.541 209.197 L
597.232 206.912 L
cp
S
GR
GS
[0.75 0 0 0.75 0 0] CT
1 GC
N
668.33 190.47 M
670.716 190.47 L
671.5 188.167 L
672.284 190.47 L
674.67 190.47 L
672.768 191.912 L
673.459 194.197 L
671.5 192.833 L
669.541 194.197 L
670.232 191.912 L
668.33 190.47 L
cp
f
GR
GS
[0.75 0 0 0.75 0 0] CT
0.929 0.694 0.125 RC
10.0 ML
2 LW
N
668.33 190.47 M
670.716 190.47 L
671.5 188.167 L
672.284 190.47 L
674.67 190.47 L
672.768 191.912 L
673.459 194.197 L
671.5 192.833 L
669.541 194.197 L
670.232 191.912 L
cp
S
GR
GS
[0.75 0 0 0.75 0 0] CT
1 GC
N
741.33 178.47 M
743.716 178.47 L
744.5 176.167 L
745.284 178.47 L
747.67 178.47 L
745.768 179.912 L
746.459 182.197 L
744.5 180.833 L
742.541 182.197 L
743.232 179.912 L
741.33 178.47 L
cp
f
GR
GS
[0.75 0 0 0.75 0 0] CT
0.929 0.694 0.125 RC
10.0 ML
2 LW
N
741.33 178.47 M
743.716 178.47 L
744.5 176.167 L
745.284 178.47 L
747.67 178.47 L
745.768 179.912 L
746.459 182.197 L
744.5 180.833 L
742.541 182.197 L
743.232 179.912 L
cp
S
GR
GS
[0.75 0 0 0.75 0 0] CT
0 1 1 RC
1 LJ
2 LW
N
89 421 M
161.778 369.284 L
234.556 324.155 L
307.333 284.633 L
380.111 253.659 L
452.889 230.254 L
525.667 209.091 L
598.444 192.133 L
671.222 177.417 L
744 165.504 L
S
GR
GS
[0.75 0 0 0.75 0 0] CT
1 GC
N
89.5 424.943 M
92.833 420.5 L
89.5 416.057 L
86.167 420.5 L
cp
f
GR
GS
[0.75 0 0 0.75 0 0] CT
0 1 1 RC
10.0 ML
2 LW
N
89.5 424.943 M
92.833 420.5 L
89.5 416.057 L
86.167 420.5 L
cp
S
GR
GS
[0.75 0 0 0.75 0 0] CT
1 GC
N
161.5 373.943 M
164.833 369.5 L
161.5 365.057 L
158.167 369.5 L
cp
f
GR
GS
[0.75 0 0 0.75 0 0] CT
0 1 1 RC
10.0 ML
2 LW
N
161.5 373.943 M
164.833 369.5 L
161.5 365.057 L
158.167 369.5 L
cp
S
GR
GS
[0.75 0 0 0.75 0 0] CT
1 GC
N
234.5 328.943 M
237.833 324.5 L
234.5 320.057 L
231.167 324.5 L
cp
f
GR
GS
[0.75 0 0 0.75 0 0] CT
0 1 1 RC
10.0 ML
2 LW
N
234.5 328.943 M
237.833 324.5 L
234.5 320.057 L
231.167 324.5 L
cp
S
GR
GS
[0.75 0 0 0.75 0 0] CT
1 GC
N
307.5 288.943 M
310.833 284.5 L
307.5 280.057 L
304.167 284.5 L
cp
f
GR
GS
[0.75 0 0 0.75 0 0] CT
0 1 1 RC
10.0 ML
2 LW
N
307.5 288.943 M
310.833 284.5 L
307.5 280.057 L
304.167 284.5 L
cp
S
GR
GS
[0.75 0 0 0.75 0 0] CT
1 GC
N
380.5 257.943 M
383.833 253.5 L
380.5 249.057 L
377.167 253.5 L
cp
f
GR
GS
[0.75 0 0 0.75 0 0] CT
0 1 1 RC
10.0 ML
2 LW
N
380.5 257.943 M
383.833 253.5 L
380.5 249.057 L
377.167 253.5 L
cp
S
GR
GS
[0.75 0 0 0.75 0 0] CT
1 GC
N
452.5 234.943 M
455.833 230.5 L
452.5 226.057 L
449.167 230.5 L
cp
f
GR
GS
[0.75 0 0 0.75 0 0] CT
0 1 1 RC
10.0 ML
2 LW
N
452.5 234.943 M
455.833 230.5 L
452.5 226.057 L
449.167 230.5 L
cp
S
GR
GS
[0.75 0 0 0.75 0 0] CT
1 GC
N
525.5 213.943 M
528.833 209.5 L
525.5 205.057 L
522.167 209.5 L
cp
f
GR
GS
[0.75 0 0 0.75 0 0] CT
0 1 1 RC
10.0 ML
2 LW
N
525.5 213.943 M
528.833 209.5 L
525.5 205.057 L
522.167 209.5 L
cp
S
GR
GS
[0.75 0 0 0.75 0 0] CT
1 GC
N
598.5 196.943 M
601.833 192.5 L
598.5 188.057 L
595.167 192.5 L
cp
f
GR
GS
[0.75 0 0 0.75 0 0] CT
0 1 1 RC
10.0 ML
2 LW
N
598.5 196.943 M
601.833 192.5 L
598.5 188.057 L
595.167 192.5 L
cp
S
GR
GS
[0.75 0 0 0.75 0 0] CT
1 GC
N
671.5 181.943 M
674.833 177.5 L
671.5 173.057 L
668.167 177.5 L
cp
f
GR
GS
[0.75 0 0 0.75 0 0] CT
0 1 1 RC
10.0 ML
2 LW
N
671.5 181.943 M
674.833 177.5 L
671.5 173.057 L
668.167 177.5 L
cp
S
GR
GS
[0.75 0 0 0.75 0 0] CT
1 GC
N
744.5 169.943 M
747.833 165.5 L
744.5 161.057 L
741.167 165.5 L
cp
f
GR
GS
[0.75 0 0 0.75 0 0] CT
0 1 1 RC
10.0 ML
2 LW
N
744.5 169.943 M
747.833 165.5 L
744.5 161.057 L
741.167 165.5 L
cp
S
GR
GS
[0.75 0 0 0.75 0 0] CT
0 1 0 RC
1 LJ
2 LW
N
89 421 M
161.778 366.061 L
234.556 316.027 L
307.333 271.739 L
380.111 231.655 L
452.889 200.121 L
525.667 174.894 L
598.444 153.03 L
671.222 134.39 L
744 119.254 L
S
GR
GS
[0.75 0 0 0.75 0 0] CT
1 GC
N
86.9 423.1 M
86.9 417.9 L
92.1 417.9 L
92.1 423.1 L
cp
f
GR
GS
[0.75 0 0 0.75 0 0] CT
0 1 0 RC
10.0 ML
2 LW
N
86.9 423.1 M
86.9 417.9 L
92.1 417.9 L
92.1 423.1 L
cp
S
GR
GS
[0.75 0 0 0.75 0 0] CT
1 GC
N
158.9 369.1 M
158.9 363.9 L
164.1 363.9 L
164.1 369.1 L
cp
f
GR
GS
[0.75 0 0 0.75 0 0] CT
0 1 0 RC
10.0 ML
2 LW
N
158.9 369.1 M
158.9 363.9 L
164.1 363.9 L
164.1 369.1 L
cp
S
GR
GS
[0.75 0 0 0.75 0 0] CT
1 GC
N
231.9 319.1 M
231.9 313.9 L
237.1 313.9 L
237.1 319.1 L
cp
f
GR
GS
[0.75 0 0 0.75 0 0] CT
0 1 0 RC
10.0 ML
2 LW
N
231.9 319.1 M
231.9 313.9 L
237.1 313.9 L
237.1 319.1 L
cp
S
GR
GS
[0.75 0 0 0.75 0 0] CT
1 GC
N
304.9 274.1 M
304.9 268.9 L
310.1 268.9 L
310.1 274.1 L
cp
f
GR
GS
[0.75 0 0 0.75 0 0] CT
0 1 0 RC
10.0 ML
2 LW
N
304.9 274.1 M
304.9 268.9 L
310.1 268.9 L
310.1 274.1 L
cp
S
GR
GS
[0.75 0 0 0.75 0 0] CT
1 GC
N
377.9 234.1 M
377.9 228.9 L
383.1 228.9 L
383.1 234.1 L
cp
f
GR
GS
[0.75 0 0 0.75 0 0] CT
0 1 0 RC
10.0 ML
2 LW
N
377.9 234.1 M
377.9 228.9 L
383.1 228.9 L
383.1 234.1 L
cp
S
GR
GS
[0.75 0 0 0.75 0 0] CT
1 GC
N
449.9 203.1 M
449.9 197.9 L
455.1 197.9 L
455.1 203.1 L
cp
f
GR
GS
[0.75 0 0 0.75 0 0] CT
0 1 0 RC
10.0 ML
2 LW
N
449.9 203.1 M
449.9 197.9 L
455.1 197.9 L
455.1 203.1 L
cp
S
GR
GS
[0.75 0 0 0.75 0 0] CT
1 GC
N
522.9 177.1 M
522.9 171.9 L
528.1 171.9 L
528.1 177.1 L
cp
f
GR
GS
[0.75 0 0 0.75 0 0] CT
0 1 0 RC
10.0 ML
2 LW
N
522.9 177.1 M
522.9 171.9 L
528.1 171.9 L
528.1 177.1 L
cp
S
GR
GS
[0.75 0 0 0.75 0 0] CT
1 GC
N
595.9 156.1 M
595.9 150.9 L
601.1 150.9 L
601.1 156.1 L
cp
f
GR
GS
[0.75 0 0 0.75 0 0] CT
0 1 0 RC
10.0 ML
2 LW
N
595.9 156.1 M
595.9 150.9 L
601.1 150.9 L
601.1 156.1 L
cp
S
GR
GS
[0.75 0 0 0.75 0 0] CT
1 GC
N
668.9 137.1 M
668.9 131.9 L
674.1 131.9 L
674.1 137.1 L
cp
f
GR
GS
[0.75 0 0 0.75 0 0] CT
0 1 0 RC
10.0 ML
2 LW
N
668.9 137.1 M
668.9 131.9 L
674.1 131.9 L
674.1 137.1 L
cp
S
GR
GS
[0.75 0 0 0.75 0 0] CT
1 GC
N
741.9 122.1 M
741.9 116.9 L
747.1 116.9 L
747.1 122.1 L
cp
f
GR
GS
[0.75 0 0 0.75 0 0] CT
0 1 0 RC
10.0 ML
2 LW
N
741.9 122.1 M
741.9 116.9 L
747.1 116.9 L
747.1 122.1 L
cp
S
GR
GS
[0.75 0 0 0.75 0 0] CT
0 0 1 RC
1 LJ
2 LW
N
89 421 M
161.778 376.432 L
234.556 338.03 L
307.333 304.534 L
380.111 275.943 L
452.889 253.519 L
525.667 235.439 L
598.444 218.902 L
671.222 204.606 L
744 191.852 L
S
GR
GS
[0.75 0 0 0.75 0 0] CT
1 GC
N
85.057 420.5 M
91.722 416.652 L
91.722 424.348 L
cp
f
GR
GS
[0.75 0 0 0.75 0 0] CT
0 0 1 RC
10.0 ML
2 LW
N
85.057 420.5 M
91.722 416.652 L
91.722 424.348 L
cp
S
GR
GS
[0.75 0 0 0.75 0 0] CT
1 GC
N
157.057 376.5 M
163.722 372.652 L
163.722 380.348 L
cp
f
GR
GS
[0.75 0 0 0.75 0 0] CT
0 0 1 RC
10.0 ML
2 LW
N
157.057 376.5 M
163.722 372.652 L
163.722 380.348 L
cp
S
GR
GS
[0.75 0 0 0.75 0 0] CT
1 GC
N
230.057 338.5 M
236.722 334.652 L
236.722 342.348 L
cp
f
GR
GS
[0.75 0 0 0.75 0 0] CT
0 0 1 RC
10.0 ML
2 LW
N
230.057 338.5 M
236.722 334.652 L
236.722 342.348 L
cp
S
GR
GS
[0.75 0 0 0.75 0 0] CT
1 GC
N
303.057 304.5 M
309.722 300.652 L
309.722 308.348 L
cp
f
GR
GS
[0.75 0 0 0.75 0 0] CT
0 0 1 RC
10.0 ML
2 LW
N
303.057 304.5 M
309.722 300.652 L
309.722 308.348 L
cp
S
GR
GS
[0.75 0 0 0.75 0 0] CT
1 GC
N
376.057 275.5 M
382.722 271.652 L
382.722 279.348 L
cp
f
GR
GS
[0.75 0 0 0.75 0 0] CT
0 0 1 RC
10.0 ML
2 LW
N
376.057 275.5 M
382.722 271.652 L
382.722 279.348 L
cp
S
GR
GS
[0.75 0 0 0.75 0 0] CT
1 GC
N
448.057 253.5 M
454.722 249.652 L
454.722 257.348 L
cp
f
GR
GS
[0.75 0 0 0.75 0 0] CT
0 0 1 RC
10.0 ML
2 LW
N
448.057 253.5 M
454.722 249.652 L
454.722 257.348 L
cp
S
GR
GS
[0.75 0 0 0.75 0 0] CT
1 GC
N
521.057 235.5 M
527.722 231.652 L
527.722 239.348 L
cp
f
GR
GS
[0.75 0 0 0.75 0 0] CT
0 0 1 RC
10.0 ML
2 LW
N
521.057 235.5 M
527.722 231.652 L
527.722 239.348 L
cp
S
GR
GS
[0.75 0 0 0.75 0 0] CT
1 GC
N
594.057 218.5 M
600.722 214.652 L
600.722 222.348 L
cp
f
GR
GS
[0.75 0 0 0.75 0 0] CT
0 0 1 RC
10.0 ML
2 LW
N
594.057 218.5 M
600.722 214.652 L
600.722 222.348 L
cp
S
GR
GS
[0.75 0 0 0.75 0 0] CT
1 GC
N
667.057 204.5 M
673.722 200.652 L
673.722 208.348 L
cp
f
GR
GS
[0.75 0 0 0.75 0 0] CT
0 0 1 RC
10.0 ML
2 LW
N
667.057 204.5 M
673.722 200.652 L
673.722 208.348 L
cp
S
GR
GS
[0.75 0 0 0.75 0 0] CT
1 GC
N
740.057 191.5 M
746.722 187.652 L
746.722 195.348 L
cp
f
GR
GS
[0.75 0 0 0.75 0 0] CT
0 0 1 RC
10.0 ML
2 LW
N
740.057 191.5 M
746.722 187.652 L
746.722 195.348 L
cp
S
GR
GS
[0.75 0 0 0.75 0 0] CT
1 0 1 RC
1 LJ
2 LW
N
89 421 M
161.778 365.5 L
234.556 312.383 L
307.333 263.189 L
380.111 217.08 L
452.889 183.023 L
525.667 152.189 L
598.444 125.981 L
671.222 103.837 L
744 84.496 L
S
GR
GS
[0.75 0 0 0.75 0 0] CT
1 0 1 RC
1 LJ
2 LW
N
86 420.5 M
93 420.5 L
S
GR
GS
[0.75 0 0 0.75 0 0] CT
1 0 1 RC
1 LJ
2 LW
N
89.5 424 M
89.5 417 L
S
GR
GS
[0.75 0 0 0.75 0 0] CT
1 0 1 RC
1 LJ
2 LW
N
158 365.5 M
165 365.5 L
S
GR
GS
[0.75 0 0 0.75 0 0] CT
1 0 1 RC
1 LJ
2 LW
N
161.5 369 M
161.5 362 L
S
GR
GS
[0.75 0 0 0.75 0 0] CT
1 0 1 RC
1 LJ
2 LW
N
231 312.5 M
238 312.5 L
S
GR
GS
[0.75 0 0 0.75 0 0] CT
1 0 1 RC
1 LJ
2 LW
N
234.5 316 M
234.5 309 L
S
GR
GS
[0.75 0 0 0.75 0 0] CT
1 0 1 RC
1 LJ
2 LW
N
304 263.5 M
311 263.5 L
S
GR
GS
[0.75 0 0 0.75 0 0] CT
1 0 1 RC
1 LJ
2 LW
N
307.5 267 M
307.5 260 L
S
GR
GS
[0.75 0 0 0.75 0 0] CT
1 0 1 RC
1 LJ
2 LW
N
377 217.5 M
384 217.5 L
S
GR
GS
[0.75 0 0 0.75 0 0] CT
1 0 1 RC
1 LJ
2 LW
N
380.5 221 M
380.5 214 L
S
GR
GS
[0.75 0 0 0.75 0 0] CT
1 0 1 RC
1 LJ
2 LW
N
449 183.5 M
456 183.5 L
S
GR
GS
[0.75 0 0 0.75 0 0] CT
1 0 1 RC
1 LJ
2 LW
N
452.5 187 M
452.5 180 L
S
GR
GS
[0.75 0 0 0.75 0 0] CT
1 0 1 RC
1 LJ
2 LW
N
522 152.5 M
529 152.5 L
S
GR
GS
[0.75 0 0 0.75 0 0] CT
1 0 1 RC
1 LJ
2 LW
N
525.5 156 M
525.5 149 L
S
GR
GS
[0.75 0 0 0.75 0 0] CT
1 0 1 RC
1 LJ
2 LW
N
595 125.5 M
602 125.5 L
S
GR
GS
[0.75 0 0 0.75 0 0] CT
1 0 1 RC
1 LJ
2 LW
N
598.5 129 M
598.5 122 L
S
GR
GS
[0.75 0 0 0.75 0 0] CT
1 0 1 RC
1 LJ
2 LW
N
668 103.5 M
675 103.5 L
S
GR
GS
[0.75 0 0 0.75 0 0] CT
1 0 1 RC
1 LJ
2 LW
N
671.5 107 M
671.5 100 L
S
GR
GS
[0.75 0 0 0.75 0 0] CT
1 0 1 RC
1 LJ
2 LW
N
741 84.5 M
748 84.5 L
S
GR
GS
[0.75 0 0 0.75 0 0] CT
1 0 1 RC
1 LJ
2 LW
N
744.5 88 M
744.5 81 L
S
GR
GS
[0.75 0 0 0.75 0 0] CT
1 0 0 RC
1 LJ
2 LW
N
89 421 M
161.778 365.36 L
234.556 311.822 L
307.333 260.947 L
380.111 213.576 L
452.889 178.398 L
525.667 147.004 L
598.444 119.254 L
671.222 94.727 L
744 76.367 L
S
GR
GS
[0.75 0 0 0.75 0 0] CT
1 GC
N
86.9 423.1 M
86.9 417.9 L
92.1 417.9 L
92.1 423.1 L
cp
f
GR
GS
[0.75 0 0 0.75 0 0] CT
1 0 0 RC
10.0 ML
2 LW
N
86.9 423.1 M
86.9 417.9 L
92.1 417.9 L
92.1 423.1 L
cp
S
GR
GS
[0.75 0 0 0.75 0 0] CT
1 GC
N
158.9 368.1 M
158.9 362.9 L
164.1 362.9 L
164.1 368.1 L
cp
f
GR
GS
[0.75 0 0 0.75 0 0] CT
1 0 0 RC
10.0 ML
2 LW
N
158.9 368.1 M
158.9 362.9 L
164.1 362.9 L
164.1 368.1 L
cp
S
GR
GS
[0.75 0 0 0.75 0 0] CT
1 GC
N
231.9 314.1 M
231.9 308.9 L
237.1 308.9 L
237.1 314.1 L
cp
f
GR
GS
[0.75 0 0 0.75 0 0] CT
1 0 0 RC
10.0 ML
2 LW
N
231.9 314.1 M
231.9 308.9 L
237.1 308.9 L
237.1 314.1 L
cp
S
GR
GS
[0.75 0 0 0.75 0 0] CT
1 GC
N
304.9 263.1 M
304.9 257.9 L
310.1 257.9 L
310.1 263.1 L
cp
f
GR
GS
[0.75 0 0 0.75 0 0] CT
1 0 0 RC
10.0 ML
2 LW
N
304.9 263.1 M
304.9 257.9 L
310.1 257.9 L
310.1 263.1 L
cp
S
GR
GS
[0.75 0 0 0.75 0 0] CT
1 GC
N
377.9 216.1 M
377.9 210.9 L
383.1 210.9 L
383.1 216.1 L
cp
f
GR
GS
[0.75 0 0 0.75 0 0] CT
1 0 0 RC
10.0 ML
2 LW
N
377.9 216.1 M
377.9 210.9 L
383.1 210.9 L
383.1 216.1 L
cp
S
GR
GS
[0.75 0 0 0.75 0 0] CT
1 GC
N
449.9 181.1 M
449.9 175.9 L
455.1 175.9 L
455.1 181.1 L
cp
f
GR
GS
[0.75 0 0 0.75 0 0] CT
1 0 0 RC
10.0 ML
2 LW
N
449.9 181.1 M
449.9 175.9 L
455.1 175.9 L
455.1 181.1 L
cp
S
GR
GS
[0.75 0 0 0.75 0 0] CT
1 GC
N
522.9 150.1 M
522.9 144.9 L
528.1 144.9 L
528.1 150.1 L
cp
f
GR
GS
[0.75 0 0 0.75 0 0] CT
1 0 0 RC
10.0 ML
2 LW
N
522.9 150.1 M
522.9 144.9 L
528.1 144.9 L
528.1 150.1 L
cp
S
GR
GS
[0.75 0 0 0.75 0 0] CT
1 GC
N
595.9 122.1 M
595.9 116.9 L
601.1 116.9 L
601.1 122.1 L
cp
f
GR
GS
[0.75 0 0 0.75 0 0] CT
1 0 0 RC
10.0 ML
2 LW
N
595.9 122.1 M
595.9 116.9 L
601.1 116.9 L
601.1 122.1 L
cp
S
GR
GS
[0.75 0 0 0.75 0 0] CT
1 GC
N
668.9 97.1 M
668.9 91.9 L
674.1 91.9 L
674.1 97.1 L
cp
f
GR
GS
[0.75 0 0 0.75 0 0] CT
1 0 0 RC
10.0 ML
2 LW
N
668.9 97.1 M
668.9 91.9 L
674.1 91.9 L
674.1 97.1 L
cp
S
GR
GS
[0.75 0 0 0.75 0 0] CT
1 GC
N
741.9 79.1 M
741.9 73.9 L
747.1 73.9 L
747.1 79.1 L
cp
f
GR
GS
[0.75 0 0 0.75 0 0] CT
1 0 0 RC
10.0 ML
2 LW
N
741.9 79.1 M
741.9 73.9 L
747.1 73.9 L
747.1 79.1 L
cp
S
GR
GS
[0.75 0 0 0.75 0 0] CT
1 LJ
2 LW
N
89 421 M
161.778 365.08 L
234.556 310.561 L
307.333 257.443 L
380.111 207.689 L
452.889 168.027 L
525.667 132.288 L
598.444 99.913 L
671.222 73.144 L
744 52.121 L
S
GR
GS
[0.75 0 0 0.75 0 0] CT
1 GC
N
92.833 420.5 M
91.857 418.143 L
89.5 417.167 L
87.143 418.143 L
86.167 420.5 L
87.143 422.857 L
89.5 423.833 L
91.857 422.857 L
92.833 420.5 L
cp
f
GR
GS
[0.75 0 0 0.75 0 0] CT
1 LJ
2 LW
N
92.833 420.5 M
92.197 418.541 L
90.53 417.33 L
88.47 417.33 L
86.803 418.541 L
86.167 420.5 L
86.803 422.459 L
88.47 423.67 L
90.53 423.67 L
92.197 422.459 L
cp
S
GR
GS
[0.75 0 0 0.75 0 0] CT
1 GC
N
164.833 365.5 M
163.857 363.143 L
161.5 362.167 L
159.143 363.143 L
158.167 365.5 L
159.143 367.857 L
161.5 368.833 L
163.857 367.857 L
164.833 365.5 L
cp
f
GR
GS
[0.75 0 0 0.75 0 0] CT
1 LJ
2 LW
N
164.833 365.5 M
164.197 363.541 L
162.53 362.33 L
160.47 362.33 L
158.803 363.541 L
158.167 365.5 L
158.803 367.459 L
160.47 368.67 L
162.53 368.67 L
164.197 367.459 L
cp
S
GR
GS
[0.75 0 0 0.75 0 0] CT
1 GC
N
237.833 310.5 M
236.857 308.143 L
234.5 307.167 L
232.143 308.143 L
231.167 310.5 L
232.143 312.857 L
234.5 313.833 L
236.857 312.857 L
237.833 310.5 L
cp
f
GR
GS
[0.75 0 0 0.75 0 0] CT
1 LJ
2 LW
N
237.833 310.5 M
237.197 308.541 L
235.53 307.33 L
233.47 307.33 L
231.803 308.541 L
231.167 310.5 L
231.803 312.459 L
233.47 313.67 L
235.53 313.67 L
237.197 312.459 L
cp
S
GR
GS
[0.75 0 0 0.75 0 0] CT
1 GC
N
310.833 257.5 M
309.857 255.143 L
307.5 254.167 L
305.143 255.143 L
304.167 257.5 L
305.143 259.857 L
307.5 260.833 L
309.857 259.857 L
310.833 257.5 L
cp
f
GR
GS
[0.75 0 0 0.75 0 0] CT
1 LJ
2 LW
N
310.833 257.5 M
310.197 255.541 L
308.53 254.33 L
306.47 254.33 L
304.803 255.541 L
304.167 257.5 L
304.803 259.459 L
306.47 260.67 L
308.53 260.67 L
310.197 259.459 L
cp
S
GR
GS
[0.75 0 0 0.75 0 0] CT
1 GC
N
383.833 207.5 M
382.857 205.143 L
380.5 204.167 L
378.143 205.143 L
377.167 207.5 L
378.143 209.857 L
380.5 210.833 L
382.857 209.857 L
383.833 207.5 L
cp
f
GR
GS
[0.75 0 0 0.75 0 0] CT
1 LJ
2 LW
N
383.833 207.5 M
383.197 205.541 L
381.53 204.33 L
379.47 204.33 L
377.803 205.541 L
377.167 207.5 L
377.803 209.459 L
379.47 210.67 L
381.53 210.67 L
383.197 209.459 L
cp
S
GR
GS
[0.75 0 0 0.75 0 0] CT
1 GC
N
455.833 168.5 M
454.857 166.143 L
452.5 165.167 L
450.143 166.143 L
449.167 168.5 L
450.143 170.857 L
452.5 171.833 L
454.857 170.857 L
455.833 168.5 L
cp
f
GR
GS
[0.75 0 0 0.75 0 0] CT
1 LJ
2 LW
N
455.833 168.5 M
455.197 166.541 L
453.53 165.33 L
451.47 165.33 L
449.803 166.541 L
449.167 168.5 L
449.803 170.459 L
451.47 171.67 L
453.53 171.67 L
455.197 170.459 L
cp
S
GR
GS
[0.75 0 0 0.75 0 0] CT
1 GC
N
528.833 132.5 M
527.857 130.143 L
525.5 129.167 L
523.143 130.143 L
522.167 132.5 L
523.143 134.857 L
525.5 135.833 L
527.857 134.857 L
528.833 132.5 L
cp
f
GR
GS
[0.75 0 0 0.75 0 0] CT
1 LJ
2 LW
N
528.833 132.5 M
528.197 130.541 L
526.53 129.33 L
524.47 129.33 L
522.803 130.541 L
522.167 132.5 L
522.803 134.459 L
524.47 135.67 L
526.53 135.67 L
528.197 134.459 L
cp
S
GR
GS
[0.75 0 0 0.75 0 0] CT
1 GC
N
601.833 99.5 M
600.857 97.143 L
598.5 96.167 L
596.143 97.143 L
595.167 99.5 L
596.143 101.857 L
598.5 102.833 L
600.857 101.857 L
601.833 99.5 L
cp
f
GR
GS
[0.75 0 0 0.75 0 0] CT
1 LJ
2 LW
N
601.833 99.5 M
601.197 97.541 L
599.53 96.33 L
597.47 96.33 L
595.803 97.541 L
595.167 99.5 L
595.803 101.459 L
597.47 102.67 L
599.53 102.67 L
601.197 101.459 L
cp
S
GR
GS
[0.75 0 0 0.75 0 0] CT
1 GC
N
674.833 73.5 M
673.857 71.143 L
671.5 70.167 L
669.143 71.143 L
668.167 73.5 L
669.143 75.857 L
671.5 76.833 L
673.857 75.857 L
674.833 73.5 L
cp
f
GR
GS
[0.75 0 0 0.75 0 0] CT
1 LJ
2 LW
N
674.833 73.5 M
674.197 71.541 L
672.53 70.33 L
670.47 70.33 L
668.803 71.541 L
668.167 73.5 L
668.803 75.459 L
670.47 76.67 L
672.53 76.67 L
674.197 75.459 L
cp
S
GR
GS
[0.75 0 0 0.75 0 0] CT
1 GC
N
747.833 52.5 M
746.857 50.143 L
744.5 49.167 L
742.143 50.143 L
741.167 52.5 L
742.143 54.857 L
744.5 55.833 L
746.857 54.857 L
747.833 52.5 L
cp
f
GR
GS
[0.75 0 0 0.75 0 0] CT
1 LJ
2 LW
N
747.833 52.5 M
747.197 50.541 L
745.53 49.33 L
743.47 49.33 L
741.803 50.541 L
741.167 52.5 L
741.803 54.459 L
743.47 55.67 L
745.53 55.67 L
747.197 54.459 L
cp
S
GR
GS
[0.75 0 0 0.75 0 0] CT
1 GC
N
102 333 M
102 64 L
208 64 L
208 333 L
cp
f
GR
GS
[0.75 0 0 0.75 104.25 60.37501] CT
/Times 24 F
GS
[1 0 0 1 0 0] CT
0 8.5 moveto 
1 -1 scale
(LBP) t 
GR
GR
GS
[0.75 0 0 0.75 0 0] CT
1 0.6 0.784 RC
1 LJ
2 LW
N
106 80.5 M
136 80.5 L
S
GR
GS
[0.75 0 0 0.75 0 0] CT
1 GC
N
119.278 76.652 M
125.943 80.5 L
119.278 84.348 L
cp
f
GR
GS
[0.75 0 0 0.75 0 0] CT
1 0.6 0.784 RC
10.0 ML
2 LW
N
119.278 76.652 M
125.943 80.5 L
119.278 84.348 L
cp
S
GR
GS
[0.75 0 0 0.75 104.25 82.49999] CT
/Times 24 F
GS
[1 0 0 1 0 0] CT
0 8.5 moveto 
1 -1 scale
(LTP) t 
GR
GR
GS
[0.75 0 0 0.75 0 0] CT
0.6 0.2 0 RC
1 LJ
2 LW
N
106 110 M
136 110 L
S
GR
GS
[0.75 0 0 0.75 0 0] CT
1 GC
N
117.057 109.5 M
123.722 105.652 L
123.722 113.348 L
cp
f
GR
GS
[0.75 0 0 0.75 0 0] CT
0.6 0.2 0 RC
10.0 ML
2 LW
N
117.057 109.5 M
123.722 105.652 L
123.722 113.348 L
cp
S
GR
GS
[0.75 0 0 0.75 104.25 104.625] CT
/Times 24 F
GS
[1 0 0 1 0 0] CT
0 8.5 moveto 
1 -1 scale
(LDP) t 
GR
GR
GS
[0.75 0 0 0.75 0 0] CT
0.929 0.694 0.125 RC
1 LJ
2 LW
N
106 139.5 M
136 139.5 L
S
GR
GS
[0.75 0 0 0.75 0 0] CT
1 GC
N
118.33 138.47 M
120.716 138.47 L
121.5 136.167 L
122.284 138.47 L
124.67 138.47 L
122.768 139.912 L
123.459 142.197 L
121.5 140.833 L
119.541 142.197 L
120.232 139.912 L
118.33 138.47 L
cp
f
GR
GS
[0.75 0 0 0.75 0 0] CT
0.929 0.694 0.125 RC
10.0 ML
2 LW
N
118.33 138.47 M
120.716 138.47 L
121.5 136.167 L
122.284 138.47 L
124.67 138.47 L
122.768 139.912 L
123.459 142.197 L
121.5 140.833 L
119.541 142.197 L
120.232 139.912 L
cp
S
GR
GS
[0.75 0 0 0.75 104.25 126.75] CT
/Times 24 F
GS
[1 0 0 1 0 0] CT
0 8.5 moveto 
1 -1 scale
(LDN) t 
GR
GR
GS
[0.75 0 0 0.75 0 0] CT
0 1 1 RC
1 LJ
2 LW
N
106 169 M
136 169 L
S
GR
GS
[0.75 0 0 0.75 0 0] CT
1 GC
N
121.5 172.943 M
124.833 168.5 L
121.5 164.057 L
118.167 168.5 L
cp
f
GR
GS
[0.75 0 0 0.75 0 0] CT
0 1 1 RC
10.0 ML
2 LW
N
121.5 172.943 M
124.833 168.5 L
121.5 164.057 L
118.167 168.5 L
cp
S
GR
GS
[0.75 0 0 0.75 104.25 148.875] CT
/Times 24 F
GS
[1 0 0 1 0 0] CT
0 8.5 moveto 
1 -1 scale
(LVP) t 
GR
GR
GS
[0.75 0 0 0.75 0 0] CT
0 1 0 RC
1 LJ
2 LW
N
106 198.5 M
136 198.5 L
S
GR
GS
[0.75 0 0 0.75 0 0] CT
1 GC
N
118.9 201.1 M
118.9 195.9 L
124.1 195.9 L
124.1 201.1 L
cp
f
GR
GS
[0.75 0 0 0.75 0 0] CT
0 1 0 RC
10.0 ML
2 LW
N
118.9 201.1 M
118.9 195.9 L
124.1 195.9 L
124.1 201.1 L
cp
S
GR
GS
[0.75 0 0 0.75 104.25 171] CT
/Times 24 F
GS
[1 0 0 1 0 0] CT
0 8.5 moveto 
1 -1 scale
(LDGP) t 
GR
GR
GS
[0.75 0 0 0.75 0 0] CT
0 0 1 RC
1 LJ
2 LW
N
106 228 M
136 228 L
S
GR
GS
[0.75 0 0 0.75 0 0] CT
1 GC
N
117.057 227.5 M
123.722 223.652 L
123.722 231.348 L
cp
f
GR
GS
[0.75 0 0 0.75 0 0] CT
0 0 1 RC
10.0 ML
2 LW
N
117.057 227.5 M
123.722 223.652 L
123.722 231.348 L
cp
S
GR
GS
[0.75 0 0 0.75 104.25 193.125] CT
/Times 24 F
GS
[1 0 0 1 0 0] CT
0 8.5 moveto 
1 -1 scale
(DCP) t 
GR
GR
GS
[0.75 0 0 0.75 0 0] CT
1 0 1 RC
1 LJ
2 LW
N
106 257.5 M
136 257.5 L
S
GR
GS
[0.75 0 0 0.75 0 0] CT
1 0 1 RC
1 LJ
2 LW
N
118 257.5 M
125 257.5 L
S
GR
GS
[0.75 0 0 0.75 0 0] CT
1 0 1 RC
1 LJ
2 LW
N
121.5 261 M
121.5 254 L
S
GR
GS
[0.75 0 0 0.75 104.25 215.25] CT
/Times 24 F
GS
[1 0 0 1 0 0] CT
0 8.5 moveto 
1 -1 scale
(LGHP) t 
GR
GR
GS
[0.75 0 0 0.75 0 0] CT
1 0 0 RC
1 LJ
2 LW
N
106 287 M
136 287 L
S
GR
GS
[0.75 0 0 0.75 0 0] CT
1 GC
N
118.9 290.1 M
118.9 284.9 L
124.1 284.9 L
124.1 290.1 L
cp
f
GR
GS
[0.75 0 0 0.75 0 0] CT
1 0 0 RC
10.0 ML
2 LW
N
118.9 290.1 M
118.9 284.9 L
124.1 284.9 L
124.1 290.1 L
cp
S
GR
GS
[0.75 0 0 0.75 104.25 237.375] CT
/Times 24 F
GS
[1 0 0 1 0 0] CT
0 8.5 moveto 
1 -1 scale
(LDRP) t 
GR
GR
GS
[0.75 0 0 0.75 0 0] CT
1 LJ
2 LW
N
106 316.5 M
136 316.5 L
S
GR
GS
[0.75 0 0 0.75 0 0] CT
1 GC
N
124.833 316.5 M
123.857 314.143 L
121.5 313.167 L
119.143 314.143 L
118.167 316.5 L
119.143 318.857 L
121.5 319.833 L
123.857 318.857 L
124.833 316.5 L
cp
f
GR
GS
[0.75 0 0 0.75 0 0] CT
1 LJ
2 LW
N
124.833 316.5 M
124.197 314.541 L
122.53 313.33 L
120.47 313.33 L
118.803 314.541 L
118.167 316.5 L
118.803 318.459 L
120.47 319.67 L
122.53 319.67 L
124.197 318.459 L
cp
S
GR
GS
[0.75 0 0 0.75 0 0] CT
0.149 GC
10.0 ML
0.667 LW
N
102 333 M
102 64 L
208 64 L
208 333 L
cp
S
GR
%%Trailer
%%Pages: 1
%%EOF
