%!PS-Adobe-3.0 EPSF-3.0
%%Creator: (MATLAB, The Mathworks, Inc. Version 9.0.0.341360 \(R2016a\). Operating System: Linux)
%%Title: (/home/shivram/main/Work/1. Research/1. Ongoing/5. LDRP Face/2. Exp/1. Results/AT&T/ATT-ANMRR.eps)
%%CreationDate: 2017-08-16T15:48:34
%%Pages: (atend)
%%BoundingBox: 0 0 573 384
%%LanguageLevel: 3
%%EndComments
%%BeginProlog
%%BeginResource: procset (Apache XML Graphics Std ProcSet) 1.2 0
%%Version: 1.2 0
%%Copyright: (Copyright 2001-2003,2010 The Apache Software Foundation. License terms: http://www.apache.org/licenses/LICENSE-2.0)
/bd{bind def}bind def
/ld{load def}bd
/GR/grestore ld
/M/moveto ld
/LJ/setlinejoin ld
/C/curveto ld
/f/fill ld
/LW/setlinewidth ld
/GC/setgray ld
/t/show ld
/N/newpath ld
/CT/concat ld
/cp/closepath ld
/S/stroke ld
/L/lineto ld
/CC/setcmykcolor ld
/A/ashow ld
/GS/gsave ld
/RC/setrgbcolor ld
/RM/rmoveto ld
/ML/setmiterlimit ld
/re {4 2 roll M
1 index 0 rlineto
0 exch rlineto
neg 0 rlineto
cp } bd
/_ctm matrix def
/_tm matrix def
/BT { _ctm currentmatrix pop matrix _tm copy pop 0 0 moveto } bd
/ET { _ctm setmatrix } bd
/iTm { _ctm setmatrix _tm concat } bd
/Tm { _tm astore pop iTm 0 0 moveto } bd
/ux 0.0 def
/uy 0.0 def
/F {
  /Tp exch def
  /Tf exch def
  Tf findfont Tp scalefont setfont
  /cf Tf def  /cs Tp def
} bd
/ULS {currentpoint /uy exch def /ux exch def} bd
/ULE {
  /Tcx currentpoint pop def
  gsave
  newpath
  cf findfont cs scalefont dup
  /FontMatrix get 0 get /Ts exch def /FontInfo get dup
  /UnderlinePosition get Ts mul /To exch def
  /UnderlineThickness get Ts mul /Tt exch def
  ux uy To add moveto  Tcx uy To add lineto
  Tt setlinewidth stroke
  grestore
} bd
/OLE {
  /Tcx currentpoint pop def
  gsave
  newpath
  cf findfont cs scalefont dup
  /FontMatrix get 0 get /Ts exch def /FontInfo get dup
  /UnderlinePosition get Ts mul /To exch def
  /UnderlineThickness get Ts mul /Tt exch def
  ux uy To add cs add moveto Tcx uy To add cs add lineto
  Tt setlinewidth stroke
  grestore
} bd
/SOE {
  /Tcx currentpoint pop def
  gsave
  newpath
  cf findfont cs scalefont dup
  /FontMatrix get 0 get /Ts exch def /FontInfo get dup
  /UnderlinePosition get Ts mul /To exch def
  /UnderlineThickness get Ts mul /Tt exch def
  ux uy To add cs 10 mul 26 idiv add moveto Tcx uy To add cs 10 mul 26 idiv add lineto
  Tt setlinewidth stroke
  grestore
} bd
/QT {
/Y22 exch store
/X22 exch store
/Y21 exch store
/X21 exch store
currentpoint
/Y21 load 2 mul add 3 div exch
/X21 load 2 mul add 3 div exch
/X21 load 2 mul /X22 load add 3 div
/Y21 load 2 mul /Y22 load add 3 div
/X22 load /Y22 load curveto
} bd
/SSPD {
dup length /d exch dict def
{
/v exch def
/k exch def
currentpagedevice k known {
/cpdv currentpagedevice k get def
v cpdv ne {
/upd false def
/nullv v type /nulltype eq def
/nullcpdv cpdv type /nulltype eq def
nullv nullcpdv or
{
/upd true def
} {
/sametype v type cpdv type eq def
sametype {
v type /arraytype eq {
/vlen v length def
/cpdvlen cpdv length def
vlen cpdvlen eq {
0 1 vlen 1 sub {
/i exch def
/obj v i get def
/cpdobj cpdv i get def
obj cpdobj ne {
/upd true def
exit
} if
} for
} {
/upd true def
} ifelse
} {
v type /dicttype eq {
v {
/dv exch def
/dk exch def
/cpddv cpdv dk get def
dv cpddv ne {
/upd true def
exit
} if
} forall
} {
/upd true def
} ifelse
} ifelse
} if
} ifelse
upd true eq {
d k v put
} if
} if
} if
} forall
d length 0 gt {
d setpagedevice
} if
} bd
%%EndResource
%%BeginResource: procset (Apache XML Graphics EPS ProcSet) 1.0 0
%%Version: 1.0 0
%%Copyright: (Copyright 2002-2003 The Apache Software Foundation. License terms: http://www.apache.org/licenses/LICENSE-2.0)
/BeginEPSF { %def
/b4_Inc_state save def         % Save state for cleanup
/dict_count countdictstack def % Count objects on dict stack
/op_count count 1 sub def      % Count objects on operand stack
userdict begin                 % Push userdict on dict stack
/showpage { } def              % Redefine showpage, { } = null proc
0 setgray 0 setlinecap         % Prepare graphics state
1 setlinewidth 0 setlinejoin
10 setmiterlimit [ ] 0 setdash newpath
/languagelevel where           % If level not equal to 1 then
{pop languagelevel             % set strokeadjust and
1 ne                           % overprint to their defaults.
{false setstrokeadjust false setoverprint
} if
} if
} bd
/EndEPSF { %def
count op_count sub {pop} repeat            % Clean up stacks
countdictstack dict_count sub {end} repeat
b4_Inc_state restore
} bd
%%EndResource
%FOPBeginFontDict
%%IncludeResource: font Courier-Bold
%%IncludeResource: font Helvetica
%%IncludeResource: font Courier-BoldOblique
%%IncludeResource: font Courier-Oblique
%%IncludeResource: font Times-Roman
%%IncludeResource: font Helvetica-BoldOblique
%%IncludeResource: font Helvetica-Bold
%%IncludeResource: font Helvetica-Oblique
%%IncludeResource: font Times-BoldItalic
%%IncludeResource: font Courier
%%IncludeResource: font Times-Italic
%%IncludeResource: font Times-Bold
%%IncludeResource: font Symbol
%%IncludeResource: font ZapfDingbats
%FOPEndFontDict
%%BeginResource: encoding WinAnsiEncoding
/WinAnsiEncoding [
/.notdef /.notdef /.notdef /.notdef /.notdef
/.notdef /.notdef /.notdef /.notdef /.notdef
/.notdef /.notdef /.notdef /.notdef /.notdef
/.notdef /.notdef /.notdef /.notdef /.notdef
/.notdef /.notdef /.notdef /.notdef /.notdef
/.notdef /.notdef /.notdef /.notdef /.notdef
/.notdef /.notdef /space /exclam /quotedbl
/numbersign /dollar /percent /ampersand /quotesingle
/parenleft /parenright /asterisk /plus /comma
/hyphen /period /slash /zero /one
/two /three /four /five /six
/seven /eight /nine /colon /semicolon
/less /equal /greater /question /at
/A /B /C /D /E
/F /G /H /I /J
/K /L /M /N /O
/P /Q /R /S /T
/U /V /W /X /Y
/Z /bracketleft /backslash /bracketright /asciicircum
/underscore /quoteleft /a /b /c
/d /e /f /g /h
/i /j /k /l /m
/n /o /p /q /r
/s /t /u /v /w
/x /y /z /braceleft /bar
/braceright /asciitilde /bullet /Euro /bullet
/quotesinglbase /florin /quotedblbase /ellipsis /dagger
/daggerdbl /circumflex /perthousand /Scaron /guilsinglleft
/OE /bullet /Zcaron /bullet /bullet
/quoteleft /quoteright /quotedblleft /quotedblright /bullet
/endash /emdash /asciitilde /trademark /scaron
/guilsinglright /oe /bullet /zcaron /Ydieresis
/space /exclamdown /cent /sterling /currency
/yen /brokenbar /section /dieresis /copyright
/ordfeminine /guillemotleft /logicalnot /sfthyphen /registered
/macron /degree /plusminus /twosuperior /threesuperior
/acute /mu /paragraph /middot /cedilla
/onesuperior /ordmasculine /guillemotright /onequarter /onehalf
/threequarters /questiondown /Agrave /Aacute /Acircumflex
/Atilde /Adieresis /Aring /AE /Ccedilla
/Egrave /Eacute /Ecircumflex /Edieresis /Igrave
/Iacute /Icircumflex /Idieresis /Eth /Ntilde
/Ograve /Oacute /Ocircumflex /Otilde /Odieresis
/multiply /Oslash /Ugrave /Uacute /Ucircumflex
/Udieresis /Yacute /Thorn /germandbls /agrave
/aacute /acircumflex /atilde /adieresis /aring
/ae /ccedilla /egrave /eacute /ecircumflex
/edieresis /igrave /iacute /icircumflex /idieresis
/eth /ntilde /ograve /oacute /ocircumflex
/otilde /odieresis /divide /oslash /ugrave
/uacute /ucircumflex /udieresis /yacute /thorn
/ydieresis
] def
%%EndResource
%FOPBeginFontReencode
/Courier-Bold findfont
dup length dict begin
  {1 index /FID ne {def} {pop pop} ifelse} forall
  /Encoding WinAnsiEncoding def
  currentdict
end
/Courier-Bold exch definefont pop
/Helvetica findfont
dup length dict begin
  {1 index /FID ne {def} {pop pop} ifelse} forall
  /Encoding WinAnsiEncoding def
  currentdict
end
/Helvetica exch definefont pop
/Courier-BoldOblique findfont
dup length dict begin
  {1 index /FID ne {def} {pop pop} ifelse} forall
  /Encoding WinAnsiEncoding def
  currentdict
end
/Courier-BoldOblique exch definefont pop
/Courier-Oblique findfont
dup length dict begin
  {1 index /FID ne {def} {pop pop} ifelse} forall
  /Encoding WinAnsiEncoding def
  currentdict
end
/Courier-Oblique exch definefont pop
/Times-Roman findfont
dup length dict begin
  {1 index /FID ne {def} {pop pop} ifelse} forall
  /Encoding WinAnsiEncoding def
  currentdict
end
/Times-Roman exch definefont pop
/Helvetica-BoldOblique findfont
dup length dict begin
  {1 index /FID ne {def} {pop pop} ifelse} forall
  /Encoding WinAnsiEncoding def
  currentdict
end
/Helvetica-BoldOblique exch definefont pop
/Helvetica-Bold findfont
dup length dict begin
  {1 index /FID ne {def} {pop pop} ifelse} forall
  /Encoding WinAnsiEncoding def
  currentdict
end
/Helvetica-Bold exch definefont pop
/Helvetica-Oblique findfont
dup length dict begin
  {1 index /FID ne {def} {pop pop} ifelse} forall
  /Encoding WinAnsiEncoding def
  currentdict
end
/Helvetica-Oblique exch definefont pop
/Times-BoldItalic findfont
dup length dict begin
  {1 index /FID ne {def} {pop pop} ifelse} forall
  /Encoding WinAnsiEncoding def
  currentdict
end
/Times-BoldItalic exch definefont pop
/Courier findfont
dup length dict begin
  {1 index /FID ne {def} {pop pop} ifelse} forall
  /Encoding WinAnsiEncoding def
  currentdict
end
/Courier exch definefont pop
/Times-Italic findfont
dup length dict begin
  {1 index /FID ne {def} {pop pop} ifelse} forall
  /Encoding WinAnsiEncoding def
  currentdict
end
/Times-Italic exch definefont pop
/Times-Bold findfont
dup length dict begin
  {1 index /FID ne {def} {pop pop} ifelse} forall
  /Encoding WinAnsiEncoding def
  currentdict
end
/Times-Bold exch definefont pop
%FOPEndFontReencode
%%EndProlog
%%Page: 1 1
%%PageBoundingBox: 0 0 573 384
%%BeginPageSetup
[1 0 0 -1 0 384] CT
%%EndPageSetup
GS
[0.75 0 0 0.75 0 0] CT
1 GC
N
0 0 764 512 re
f
GR
GS
[0.75 0 0 0.75 0 0] CT
1 GC
N
0 0 764 512 re
f
GR
GS
[0.75 0 0 0.75 0 0] CT
1 GC
N
90 421 M
745 421 L
745 51 L
90 51 L
cp
f
GR
GS
[0.75 0 0 0.75 0 0] CT
0.149 GC
2 setlinecap
1 LJ
0.667 LW
N
90 421 M
745 421 L
S
GR
GS
[0.75 0 0 0.75 0 0] CT
0.149 GC
2 setlinecap
1 LJ
0.667 LW
N
90 51 M
745 51 L
S
GR
GS
[0.75 0 0 0.75 0 0] CT
0.149 GC
2 setlinecap
1 LJ
0.667 LW
N
90 421 M
90 414.45 L
S
GR
GS
[0.75 0 0 0.75 0 0] CT
0.149 GC
2 setlinecap
1 LJ
0.667 LW
N
162.778 421 M
162.778 414.45 L
S
GR
GS
[0.75 0 0 0.75 0 0] CT
0.149 GC
2 setlinecap
1 LJ
0.667 LW
N
235.556 421 M
235.556 414.45 L
S
GR
GS
[0.75 0 0 0.75 0 0] CT
0.149 GC
2 setlinecap
1 LJ
0.667 LW
N
308.333 421 M
308.333 414.45 L
S
GR
GS
[0.75 0 0 0.75 0 0] CT
0.149 GC
2 setlinecap
1 LJ
0.667 LW
N
381.111 421 M
381.111 414.45 L
S
GR
GS
[0.75 0 0 0.75 0 0] CT
0.149 GC
2 setlinecap
1 LJ
0.667 LW
N
453.889 421 M
453.889 414.45 L
S
GR
GS
[0.75 0 0 0.75 0 0] CT
0.149 GC
2 setlinecap
1 LJ
0.667 LW
N
526.667 421 M
526.667 414.45 L
S
GR
GS
[0.75 0 0 0.75 0 0] CT
0.149 GC
2 setlinecap
1 LJ
0.667 LW
N
599.444 421 M
599.444 414.45 L
S
GR
GS
[0.75 0 0 0.75 0 0] CT
0.149 GC
2 setlinecap
1 LJ
0.667 LW
N
672.222 421 M
672.222 414.45 L
S
GR
GS
[0.75 0 0 0.75 0 0] CT
0.149 GC
2 setlinecap
1 LJ
0.667 LW
N
745 421 M
745 414.45 L
S
GR
GS
[0.75 0 0 0.75 0 0] CT
0.149 GC
2 setlinecap
1 LJ
0.667 LW
N
90 51 M
90 57.55 L
S
GR
GS
[0.75 0 0 0.75 0 0] CT
0.149 GC
2 setlinecap
1 LJ
0.667 LW
N
162.778 51 M
162.778 57.55 L
S
GR
GS
[0.75 0 0 0.75 0 0] CT
0.149 GC
2 setlinecap
1 LJ
0.667 LW
N
235.556 51 M
235.556 57.55 L
S
GR
GS
[0.75 0 0 0.75 0 0] CT
0.149 GC
2 setlinecap
1 LJ
0.667 LW
N
308.333 51 M
308.333 57.55 L
S
GR
GS
[0.75 0 0 0.75 0 0] CT
0.149 GC
2 setlinecap
1 LJ
0.667 LW
N
381.111 51 M
381.111 57.55 L
S
GR
GS
[0.75 0 0 0.75 0 0] CT
0.149 GC
2 setlinecap
1 LJ
0.667 LW
N
453.889 51 M
453.889 57.55 L
S
GR
GS
[0.75 0 0 0.75 0 0] CT
0.149 GC
2 setlinecap
1 LJ
0.667 LW
N
526.667 51 M
526.667 57.55 L
S
GR
GS
[0.75 0 0 0.75 0 0] CT
0.149 GC
2 setlinecap
1 LJ
0.667 LW
N
599.444 51 M
599.444 57.55 L
S
GR
GS
[0.75 0 0 0.75 0 0] CT
0.149 GC
2 setlinecap
1 LJ
0.667 LW
N
672.222 51 M
672.222 57.55 L
S
GR
GS
[0.75 0 0 0.75 0 0] CT
0.149 GC
2 setlinecap
1 LJ
0.667 LW
N
745 51 M
745 57.55 L
S
GR
GS
[0.75 0 0 0.75 67.5 322.55001] CT
0.149 GC
/Times 32 F
GS
[1 0 0 1 0 0] CT
-10.5 30 moveto 
1 -1 scale
(1) t 
GR
GR
GS
[0.75 0 0 0.75 122.08333 322.55001] CT
0.149 GC
/Times 32 F
GS
[1 0 0 1 0 0] CT
-10.5 30 moveto 
1 -1 scale
(2) t 
GR
GR
GS
[0.75 0 0 0.75 176.66667 322.55001] CT
0.149 GC
/Times 32 F
GS
[1 0 0 1 0 0] CT
-10.5 30 moveto 
1 -1 scale
(3) t 
GR
GR
GS
[0.75 0 0 0.75 231.25001 322.55001] CT
0.149 GC
/Times 32 F
GS
[1 0 0 1 0 0] CT
-10.5 30 moveto 
1 -1 scale
(4) t 
GR
GR
GS
[0.75 0 0 0.75 285.83334 322.55001] CT
0.149 GC
/Times 32 F
GS
[1 0 0 1 0 0] CT
-10.5 30 moveto 
1 -1 scale
(5) t 
GR
GR
GS
[0.75 0 0 0.75 340.41666 322.55001] CT
0.149 GC
/Times 32 F
GS
[1 0 0 1 0 0] CT
-10.5 30 moveto 
1 -1 scale
(6) t 
GR
GR
GS
[0.75 0 0 0.75 395.00002 322.55001] CT
0.149 GC
/Times 32 F
GS
[1 0 0 1 0 0] CT
-10.5 30 moveto 
1 -1 scale
(7) t 
GR
GR
GS
[0.75 0 0 0.75 449.58334 322.55001] CT
0.149 GC
/Times 32 F
GS
[1 0 0 1 0 0] CT
-10.5 30 moveto 
1 -1 scale
(8) t 
GR
GR
GS
[0.75 0 0 0.75 504.16667 322.55001] CT
0.149 GC
/Times 32 F
GS
[1 0 0 1 0 0] CT
-10.5 30 moveto 
1 -1 scale
(9) t 
GR
GR
GS
[0.75 0 0 0.75 558.75 322.55001] CT
0.149 GC
/Times 32 F
GS
[1 0 0 1 0 0] CT
-20.5 30 moveto 
1 -1 scale
(10) t 
GR
GR
GS
[0.75 0 0 0.75 313.12523 352.05] CT
0.149 GC
/Times 35.2 F
GS
[1 0 0 1 0 0] CT
-210 33 moveto 
1 -1 scale
(Number of Top Matches) t 
GR
GR
GS
[0.75 0 0 0.75 0 0] CT
0.149 GC
2 setlinecap
1 LJ
0.667 LW
N
90 421 M
90 51 L
S
GR
GS
[0.75 0 0 0.75 0 0] CT
0.149 GC
2 setlinecap
1 LJ
0.667 LW
N
745 421 M
745 51 L
S
GR
GS
[0.75 0 0 0.75 0 0] CT
0.149 GC
2 setlinecap
1 LJ
0.667 LW
N
90 421 M
96.55 421 L
S
GR
GS
[0.75 0 0 0.75 0 0] CT
0.149 GC
2 setlinecap
1 LJ
0.667 LW
N
90 338.778 M
96.55 338.778 L
S
GR
GS
[0.75 0 0 0.75 0 0] CT
0.149 GC
2 setlinecap
1 LJ
0.667 LW
N
90 256.556 M
96.55 256.556 L
S
GR
GS
[0.75 0 0 0.75 0 0] CT
0.149 GC
2 setlinecap
1 LJ
0.667 LW
N
90 174.333 M
96.55 174.333 L
S
GR
GS
[0.75 0 0 0.75 0 0] CT
0.149 GC
2 setlinecap
1 LJ
0.667 LW
N
90 92.111 M
96.55 92.111 L
S
GR
GS
[0.75 0 0 0.75 0 0] CT
0.149 GC
2 setlinecap
1 LJ
0.667 LW
N
745 421 M
738.45 421 L
S
GR
GS
[0.75 0 0 0.75 0 0] CT
0.149 GC
2 setlinecap
1 LJ
0.667 LW
N
745 338.778 M
738.45 338.778 L
S
GR
GS
[0.75 0 0 0.75 0 0] CT
0.149 GC
2 setlinecap
1 LJ
0.667 LW
N
745 256.556 M
738.45 256.556 L
S
GR
GS
[0.75 0 0 0.75 0 0] CT
0.149 GC
2 setlinecap
1 LJ
0.667 LW
N
745 174.333 M
738.45 174.333 L
S
GR
GS
[0.75 0 0 0.75 0 0] CT
0.149 GC
2 setlinecap
1 LJ
0.667 LW
N
745 92.111 M
738.45 92.111 L
S
GR
GS
[0.75 0 0 0.75 60.7 315.75] CT
0.149 GC
/Times 32 F
GS
[1 0 0 1 0 0] CT
-21 11 moveto 
1 -1 scale
(0) t 
GR
GR
GS
[0.75 0 0 0.75 60.7 254.08333] CT
0.149 GC
/Times 32 F
GS
[1 0 0 1 0 0] CT
-41 11 moveto 
1 -1 scale
(10) t 
GR
GR
GS
[0.75 0 0 0.75 60.7 192.41666] CT
0.149 GC
/Times 32 F
GS
[1 0 0 1 0 0] CT
-41 11 moveto 
1 -1 scale
(20) t 
GR
GR
GS
[0.75 0 0 0.75 60.7 130.75] CT
0.149 GC
/Times 32 F
GS
[1 0 0 1 0 0] CT
-41 11 moveto 
1 -1 scale
(30) t 
GR
GR
GS
[0.75 0 0 0.75 60.7 69.08334] CT
0.149 GC
/Times 32 F
GS
[1 0 0 1 0 0] CT
-41 11 moveto 
1 -1 scale
(40) t 
GR
GR
GS
[0 -0.75 0.75 0 26.95 176.99987] CT
0.149 GC
/Times 35.2 F
GS
[1 0 0 1 0 0] CT
-100.5 -9 moveto 
1 -1 scale
(ANMRR \(%\)) t 
GR
GR
GS
[0.75 0 0 0.75 313.12532 33.29999] CT
/Times 35.2 F
GS
[1 0 0 1 0 0] CT
-136.5 -9 moveto 
1 -1 scale
(AT&T Database) t 
GR
GR
GS
[0.75 0 0 0.75 0 0] CT
1 0.6 0.784 RC
1 LJ
2 LW
N
90 421 M
162.778 421 L
235.556 414.281 L
308.333 393.316 L
381.111 354.055 L
453.889 310.354 L
526.667 255.665 L
599.444 207.653 L
672.222 163.046 L
745 120.04 L
S
GR
GS
[0.75 0 0 0.75 0 0] CT
1 GC
N
88.278 416.652 M
94.943 420.5 L
88.278 424.348 L
cp
f
GR
GS
[0.75 0 0 0.75 0 0] CT
1 0.6 0.784 RC
10.0 ML
2 LW
N
88.278 416.652 M
94.943 420.5 L
88.278 424.348 L
cp
S
GR
GS
[0.75 0 0 0.75 0 0] CT
1 GC
N
160.278 416.652 M
166.943 420.5 L
160.278 424.348 L
cp
f
GR
GS
[0.75 0 0 0.75 0 0] CT
1 0.6 0.784 RC
10.0 ML
2 LW
N
160.278 416.652 M
166.943 420.5 L
160.278 424.348 L
cp
S
GR
GS
[0.75 0 0 0.75 0 0] CT
1 GC
N
233.278 410.652 M
239.943 414.5 L
233.278 418.348 L
cp
f
GR
GS
[0.75 0 0 0.75 0 0] CT
1 0.6 0.784 RC
10.0 ML
2 LW
N
233.278 410.652 M
239.943 414.5 L
233.278 418.348 L
cp
S
GR
GS
[0.75 0 0 0.75 0 0] CT
1 GC
N
306.278 389.652 M
312.943 393.5 L
306.278 397.348 L
cp
f
GR
GS
[0.75 0 0 0.75 0 0] CT
1 0.6 0.784 RC
10.0 ML
2 LW
N
306.278 389.652 M
312.943 393.5 L
306.278 397.348 L
cp
S
GR
GS
[0.75 0 0 0.75 0 0] CT
1 GC
N
379.278 350.652 M
385.943 354.5 L
379.278 358.348 L
cp
f
GR
GS
[0.75 0 0 0.75 0 0] CT
1 0.6 0.784 RC
10.0 ML
2 LW
N
379.278 350.652 M
385.943 354.5 L
379.278 358.348 L
cp
S
GR
GS
[0.75 0 0 0.75 0 0] CT
1 GC
N
451.278 306.652 M
457.943 310.5 L
451.278 314.348 L
cp
f
GR
GS
[0.75 0 0 0.75 0 0] CT
1 0.6 0.784 RC
10.0 ML
2 LW
N
451.278 306.652 M
457.943 310.5 L
451.278 314.348 L
cp
S
GR
GS
[0.75 0 0 0.75 0 0] CT
1 GC
N
524.278 251.652 M
530.943 255.5 L
524.278 259.348 L
cp
f
GR
GS
[0.75 0 0 0.75 0 0] CT
1 0.6 0.784 RC
10.0 ML
2 LW
N
524.278 251.652 M
530.943 255.5 L
524.278 259.348 L
cp
S
GR
GS
[0.75 0 0 0.75 0 0] CT
1 GC
N
597.278 203.652 M
603.943 207.5 L
597.278 211.348 L
cp
f
GR
GS
[0.75 0 0 0.75 0 0] CT
1 0.6 0.784 RC
10.0 ML
2 LW
N
597.278 203.652 M
603.943 207.5 L
597.278 211.348 L
cp
S
GR
GS
[0.75 0 0 0.75 0 0] CT
1 GC
N
670.278 159.652 M
676.943 163.5 L
670.278 167.348 L
cp
f
GR
GS
[0.75 0 0 0.75 0 0] CT
1 0.6 0.784 RC
10.0 ML
2 LW
N
670.278 159.652 M
676.943 163.5 L
670.278 167.348 L
cp
S
GR
GS
[0.75 0 0 0.75 0 0] CT
1 GC
N
743.278 116.652 M
749.943 120.5 L
743.278 124.348 L
cp
f
GR
GS
[0.75 0 0 0.75 0 0] CT
1 0.6 0.784 RC
10.0 ML
2 LW
N
743.278 116.652 M
749.943 120.5 L
743.278 124.348 L
cp
S
GR
GS
[0.75 0 0 0.75 0 0] CT
0.6 0.2 0 RC
1 LJ
2 LW
N
90 421 M
162.778 421 L
235.556 412.645 L
308.333 390.929 L
381.111 353.286 L
453.889 306.552 L
526.667 252.179 L
599.444 200.509 L
672.222 155.767 L
745 113.489 L
S
GR
GS
[0.75 0 0 0.75 0 0] CT
1 GC
N
86.057 420.5 M
92.722 416.652 L
92.722 424.348 L
cp
f
GR
GS
[0.75 0 0 0.75 0 0] CT
0.6 0.2 0 RC
10.0 ML
2 LW
N
86.057 420.5 M
92.722 416.652 L
92.722 424.348 L
cp
S
GR
GS
[0.75 0 0 0.75 0 0] CT
1 GC
N
158.057 420.5 M
164.722 416.652 L
164.722 424.348 L
cp
f
GR
GS
[0.75 0 0 0.75 0 0] CT
0.6 0.2 0 RC
10.0 ML
2 LW
N
158.057 420.5 M
164.722 416.652 L
164.722 424.348 L
cp
S
GR
GS
[0.75 0 0 0.75 0 0] CT
1 GC
N
231.057 412.5 M
237.722 408.652 L
237.722 416.348 L
cp
f
GR
GS
[0.75 0 0 0.75 0 0] CT
0.6 0.2 0 RC
10.0 ML
2 LW
N
231.057 412.5 M
237.722 408.652 L
237.722 416.348 L
cp
S
GR
GS
[0.75 0 0 0.75 0 0] CT
1 GC
N
304.057 390.5 M
310.722 386.652 L
310.722 394.348 L
cp
f
GR
GS
[0.75 0 0 0.75 0 0] CT
0.6 0.2 0 RC
10.0 ML
2 LW
N
304.057 390.5 M
310.722 386.652 L
310.722 394.348 L
cp
S
GR
GS
[0.75 0 0 0.75 0 0] CT
1 GC
N
377.057 353.5 M
383.722 349.652 L
383.722 357.348 L
cp
f
GR
GS
[0.75 0 0 0.75 0 0] CT
0.6 0.2 0 RC
10.0 ML
2 LW
N
377.057 353.5 M
383.722 349.652 L
383.722 357.348 L
cp
S
GR
GS
[0.75 0 0 0.75 0 0] CT
1 GC
N
449.057 306.5 M
455.722 302.652 L
455.722 310.348 L
cp
f
GR
GS
[0.75 0 0 0.75 0 0] CT
0.6 0.2 0 RC
10.0 ML
2 LW
N
449.057 306.5 M
455.722 302.652 L
455.722 310.348 L
cp
S
GR
GS
[0.75 0 0 0.75 0 0] CT
1 GC
N
522.057 252.5 M
528.722 248.652 L
528.722 256.348 L
cp
f
GR
GS
[0.75 0 0 0.75 0 0] CT
0.6 0.2 0 RC
10.0 ML
2 LW
N
522.057 252.5 M
528.722 248.652 L
528.722 256.348 L
cp
S
GR
GS
[0.75 0 0 0.75 0 0] CT
1 GC
N
595.057 200.5 M
601.722 196.652 L
601.722 204.348 L
cp
f
GR
GS
[0.75 0 0 0.75 0 0] CT
0.6 0.2 0 RC
10.0 ML
2 LW
N
595.057 200.5 M
601.722 196.652 L
601.722 204.348 L
cp
S
GR
GS
[0.75 0 0 0.75 0 0] CT
1 GC
N
668.057 155.5 M
674.722 151.652 L
674.722 159.348 L
cp
f
GR
GS
[0.75 0 0 0.75 0 0] CT
0.6 0.2 0 RC
10.0 ML
2 LW
N
668.057 155.5 M
674.722 151.652 L
674.722 159.348 L
cp
S
GR
GS
[0.75 0 0 0.75 0 0] CT
1 GC
N
741.057 113.5 M
747.722 109.652 L
747.722 117.348 L
cp
f
GR
GS
[0.75 0 0 0.75 0 0] CT
0.6 0.2 0 RC
10.0 ML
2 LW
N
741.057 113.5 M
747.722 109.652 L
747.722 117.348 L
cp
S
GR
GS
[0.75 0 0 0.75 0 0] CT
0.929 0.694 0.125 RC
1 LJ
2 LW
N
90 421 M
162.778 416.491 L
235.556 391.736 L
308.333 356.449 L
381.111 306.101 L
453.889 253.483 L
526.667 201.387 L
599.444 155.436 L
672.222 112.681 L
745 73.399 L
S
GR
GS
[0.75 0 0 0.75 0 0] CT
1 GC
N
87.33 419.47 M
89.716 419.47 L
90.5 417.167 L
91.284 419.47 L
93.67 419.47 L
91.768 420.912 L
92.459 423.197 L
90.5 421.833 L
88.541 423.197 L
89.232 420.912 L
87.33 419.47 L
cp
f
GR
GS
[0.75 0 0 0.75 0 0] CT
0.929 0.694 0.125 RC
10.0 ML
2 LW
N
87.33 419.47 M
89.716 419.47 L
90.5 417.167 L
91.284 419.47 L
93.67 419.47 L
91.768 420.912 L
92.459 423.197 L
90.5 421.833 L
88.541 423.197 L
89.232 420.912 L
cp
S
GR
GS
[0.75 0 0 0.75 0 0] CT
1 GC
N
159.33 415.47 M
161.716 415.47 L
162.5 413.167 L
163.284 415.47 L
165.67 415.47 L
163.768 416.912 L
164.459 419.197 L
162.5 417.833 L
160.541 419.197 L
161.232 416.912 L
159.33 415.47 L
cp
f
GR
GS
[0.75 0 0 0.75 0 0] CT
0.929 0.694 0.125 RC
10.0 ML
2 LW
N
159.33 415.47 M
161.716 415.47 L
162.5 413.167 L
163.284 415.47 L
165.67 415.47 L
163.768 416.912 L
164.459 419.197 L
162.5 417.833 L
160.541 419.197 L
161.232 416.912 L
cp
S
GR
GS
[0.75 0 0 0.75 0 0] CT
1 GC
N
232.33 390.47 M
234.716 390.47 L
235.5 388.167 L
236.284 390.47 L
238.67 390.47 L
236.768 391.912 L
237.459 394.197 L
235.5 392.833 L
233.541 394.197 L
234.232 391.912 L
232.33 390.47 L
cp
f
GR
GS
[0.75 0 0 0.75 0 0] CT
0.929 0.694 0.125 RC
10.0 ML
2 LW
N
232.33 390.47 M
234.716 390.47 L
235.5 388.167 L
236.284 390.47 L
238.67 390.47 L
236.768 391.912 L
237.459 394.197 L
235.5 392.833 L
233.541 394.197 L
234.232 391.912 L
cp
S
GR
GS
[0.75 0 0 0.75 0 0] CT
1 GC
N
305.33 355.47 M
307.716 355.47 L
308.5 353.167 L
309.284 355.47 L
311.67 355.47 L
309.768 356.912 L
310.459 359.197 L
308.5 357.833 L
306.541 359.197 L
307.232 356.912 L
305.33 355.47 L
cp
f
GR
GS
[0.75 0 0 0.75 0 0] CT
0.929 0.694 0.125 RC
10.0 ML
2 LW
N
305.33 355.47 M
307.716 355.47 L
308.5 353.167 L
309.284 355.47 L
311.67 355.47 L
309.768 356.912 L
310.459 359.197 L
308.5 357.833 L
306.541 359.197 L
307.232 356.912 L
cp
S
GR
GS
[0.75 0 0 0.75 0 0] CT
1 GC
N
378.33 305.47 M
380.716 305.47 L
381.5 303.167 L
382.284 305.47 L
384.67 305.47 L
382.768 306.912 L
383.459 309.197 L
381.5 307.833 L
379.541 309.197 L
380.232 306.912 L
378.33 305.47 L
cp
f
GR
GS
[0.75 0 0 0.75 0 0] CT
0.929 0.694 0.125 RC
10.0 ML
2 LW
N
378.33 305.47 M
380.716 305.47 L
381.5 303.167 L
382.284 305.47 L
384.67 305.47 L
382.768 306.912 L
383.459 309.197 L
381.5 307.833 L
379.541 309.197 L
380.232 306.912 L
cp
S
GR
GS
[0.75 0 0 0.75 0 0] CT
1 GC
N
450.33 252.47 M
452.716 252.47 L
453.5 250.167 L
454.284 252.47 L
456.67 252.47 L
454.768 253.912 L
455.459 256.197 L
453.5 254.833 L
451.541 256.197 L
452.232 253.912 L
450.33 252.47 L
cp
f
GR
GS
[0.75 0 0 0.75 0 0] CT
0.929 0.694 0.125 RC
10.0 ML
2 LW
N
450.33 252.47 M
452.716 252.47 L
453.5 250.167 L
454.284 252.47 L
456.67 252.47 L
454.768 253.912 L
455.459 256.197 L
453.5 254.833 L
451.541 256.197 L
452.232 253.912 L
cp
S
GR
GS
[0.75 0 0 0.75 0 0] CT
1 GC
N
523.33 200.47 M
525.716 200.47 L
526.5 198.167 L
527.284 200.47 L
529.67 200.47 L
527.768 201.912 L
528.459 204.197 L
526.5 202.833 L
524.541 204.197 L
525.232 201.912 L
523.33 200.47 L
cp
f
GR
GS
[0.75 0 0 0.75 0 0] CT
0.929 0.694 0.125 RC
10.0 ML
2 LW
N
523.33 200.47 M
525.716 200.47 L
526.5 198.167 L
527.284 200.47 L
529.67 200.47 L
527.768 201.912 L
528.459 204.197 L
526.5 202.833 L
524.541 204.197 L
525.232 201.912 L
cp
S
GR
GS
[0.75 0 0 0.75 0 0] CT
1 GC
N
596.33 154.47 M
598.716 154.47 L
599.5 152.167 L
600.284 154.47 L
602.67 154.47 L
600.768 155.912 L
601.459 158.197 L
599.5 156.833 L
597.541 158.197 L
598.232 155.912 L
596.33 154.47 L
cp
f
GR
GS
[0.75 0 0 0.75 0 0] CT
0.929 0.694 0.125 RC
10.0 ML
2 LW
N
596.33 154.47 M
598.716 154.47 L
599.5 152.167 L
600.284 154.47 L
602.67 154.47 L
600.768 155.912 L
601.459 158.197 L
599.5 156.833 L
597.541 158.197 L
598.232 155.912 L
cp
S
GR
GS
[0.75 0 0 0.75 0 0] CT
1 GC
N
669.33 111.47 M
671.716 111.47 L
672.5 109.167 L
673.284 111.47 L
675.67 111.47 L
673.768 112.912 L
674.459 115.197 L
672.5 113.833 L
670.541 115.197 L
671.232 112.912 L
669.33 111.47 L
cp
f
GR
GS
[0.75 0 0 0.75 0 0] CT
0.929 0.694 0.125 RC
10.0 ML
2 LW
N
669.33 111.47 M
671.716 111.47 L
672.5 109.167 L
673.284 111.47 L
675.67 111.47 L
673.768 112.912 L
674.459 115.197 L
672.5 113.833 L
670.541 115.197 L
671.232 112.912 L
cp
S
GR
GS
[0.75 0 0 0.75 0 0] CT
1 GC
N
742.33 72.47 M
744.716 72.47 L
745.5 70.167 L
746.284 72.47 L
748.67 72.47 L
746.768 73.912 L
747.459 76.197 L
745.5 74.833 L
743.541 76.197 L
744.232 73.912 L
742.33 72.47 L
cp
f
GR
GS
[0.75 0 0 0.75 0 0] CT
0.929 0.694 0.125 RC
10.0 ML
2 LW
N
742.33 72.47 M
744.716 72.47 L
745.5 70.167 L
746.284 72.47 L
748.67 72.47 L
746.768 73.912 L
747.459 76.197 L
745.5 74.833 L
743.541 76.197 L
744.232 73.912 L
cp
S
GR
GS
[0.75 0 0 0.75 0 0] CT
0 1 1 RC
1 LJ
2 LW
N
90 421 M
162.778 421 L
235.556 414.325 L
308.333 384.099 L
381.111 342.067 L
453.889 286.969 L
526.667 233.442 L
599.444 183.384 L
672.222 137.923 L
745 96.408 L
S
GR
GS
[0.75 0 0 0.75 0 0] CT
1 GC
N
90.5 424.943 M
93.833 420.5 L
90.5 416.057 L
87.167 420.5 L
cp
f
GR
GS
[0.75 0 0 0.75 0 0] CT
0 1 1 RC
10.0 ML
2 LW
N
90.5 424.943 M
93.833 420.5 L
90.5 416.057 L
87.167 420.5 L
cp
S
GR
GS
[0.75 0 0 0.75 0 0] CT
1 GC
N
162.5 424.943 M
165.833 420.5 L
162.5 416.057 L
159.167 420.5 L
cp
f
GR
GS
[0.75 0 0 0.75 0 0] CT
0 1 1 RC
10.0 ML
2 LW
N
162.5 424.943 M
165.833 420.5 L
162.5 416.057 L
159.167 420.5 L
cp
S
GR
GS
[0.75 0 0 0.75 0 0] CT
1 GC
N
235.5 418.943 M
238.833 414.5 L
235.5 410.057 L
232.167 414.5 L
cp
f
GR
GS
[0.75 0 0 0.75 0 0] CT
0 1 1 RC
10.0 ML
2 LW
N
235.5 418.943 M
238.833 414.5 L
235.5 410.057 L
232.167 414.5 L
cp
S
GR
GS
[0.75 0 0 0.75 0 0] CT
1 GC
N
308.5 388.943 M
311.833 384.5 L
308.5 380.057 L
305.167 384.5 L
cp
f
GR
GS
[0.75 0 0 0.75 0 0] CT
0 1 1 RC
10.0 ML
2 LW
N
308.5 388.943 M
311.833 384.5 L
308.5 380.057 L
305.167 384.5 L
cp
S
GR
GS
[0.75 0 0 0.75 0 0] CT
1 GC
N
381.5 346.943 M
384.833 342.5 L
381.5 338.057 L
378.167 342.5 L
cp
f
GR
GS
[0.75 0 0 0.75 0 0] CT
0 1 1 RC
10.0 ML
2 LW
N
381.5 346.943 M
384.833 342.5 L
381.5 338.057 L
378.167 342.5 L
cp
S
GR
GS
[0.75 0 0 0.75 0 0] CT
1 GC
N
453.5 290.943 M
456.833 286.5 L
453.5 282.057 L
450.167 286.5 L
cp
f
GR
GS
[0.75 0 0 0.75 0 0] CT
0 1 1 RC
10.0 ML
2 LW
N
453.5 290.943 M
456.833 286.5 L
453.5 282.057 L
450.167 286.5 L
cp
S
GR
GS
[0.75 0 0 0.75 0 0] CT
1 GC
N
526.5 237.943 M
529.833 233.5 L
526.5 229.057 L
523.167 233.5 L
cp
f
GR
GS
[0.75 0 0 0.75 0 0] CT
0 1 1 RC
10.0 ML
2 LW
N
526.5 237.943 M
529.833 233.5 L
526.5 229.057 L
523.167 233.5 L
cp
S
GR
GS
[0.75 0 0 0.75 0 0] CT
1 GC
N
599.5 187.943 M
602.833 183.5 L
599.5 179.057 L
596.167 183.5 L
cp
f
GR
GS
[0.75 0 0 0.75 0 0] CT
0 1 1 RC
10.0 ML
2 LW
N
599.5 187.943 M
602.833 183.5 L
599.5 179.057 L
596.167 183.5 L
cp
S
GR
GS
[0.75 0 0 0.75 0 0] CT
1 GC
N
672.5 141.943 M
675.833 137.5 L
672.5 133.057 L
669.167 137.5 L
cp
f
GR
GS
[0.75 0 0 0.75 0 0] CT
0 1 1 RC
10.0 ML
2 LW
N
672.5 141.943 M
675.833 137.5 L
672.5 133.057 L
669.167 137.5 L
cp
S
GR
GS
[0.75 0 0 0.75 0 0] CT
1 GC
N
745.5 100.943 M
748.833 96.5 L
745.5 92.057 L
742.167 96.5 L
cp
f
GR
GS
[0.75 0 0 0.75 0 0] CT
0 1 1 RC
10.0 ML
2 LW
N
745.5 100.943 M
748.833 96.5 L
745.5 92.057 L
742.167 96.5 L
cp
S
GR
GS
[0.75 0 0 0.75 0 0] CT
0 1 0 RC
1 LJ
2 LW
N
90 421 M
162.778 421 L
235.556 418.392 L
308.333 407.506 L
381.111 384.584 L
453.889 348.503 L
526.667 300.66 L
599.444 253.555 L
672.222 207.355 L
745 162.782 L
S
GR
GS
[0.75 0 0 0.75 0 0] CT
1 GC
N
87.9 423.1 M
87.9 417.9 L
93.1 417.9 L
93.1 423.1 L
cp
f
GR
GS
[0.75 0 0 0.75 0 0] CT
0 1 0 RC
10.0 ML
2 LW
N
87.9 423.1 M
87.9 417.9 L
93.1 417.9 L
93.1 423.1 L
cp
S
GR
GS
[0.75 0 0 0.75 0 0] CT
1 GC
N
159.9 423.1 M
159.9 417.9 L
165.1 417.9 L
165.1 423.1 L
cp
f
GR
GS
[0.75 0 0 0.75 0 0] CT
0 1 0 RC
10.0 ML
2 LW
N
159.9 423.1 M
159.9 417.9 L
165.1 417.9 L
165.1 423.1 L
cp
S
GR
GS
[0.75 0 0 0.75 0 0] CT
1 GC
N
232.9 421.1 M
232.9 415.9 L
238.1 415.9 L
238.1 421.1 L
cp
f
GR
GS
[0.75 0 0 0.75 0 0] CT
0 1 0 RC
10.0 ML
2 LW
N
232.9 421.1 M
232.9 415.9 L
238.1 415.9 L
238.1 421.1 L
cp
S
GR
GS
[0.75 0 0 0.75 0 0] CT
1 GC
N
305.9 410.1 M
305.9 404.9 L
311.1 404.9 L
311.1 410.1 L
cp
f
GR
GS
[0.75 0 0 0.75 0 0] CT
0 1 0 RC
10.0 ML
2 LW
N
305.9 410.1 M
305.9 404.9 L
311.1 404.9 L
311.1 410.1 L
cp
S
GR
GS
[0.75 0 0 0.75 0 0] CT
1 GC
N
378.9 387.1 M
378.9 381.9 L
384.1 381.9 L
384.1 387.1 L
cp
f
GR
GS
[0.75 0 0 0.75 0 0] CT
0 1 0 RC
10.0 ML
2 LW
N
378.9 387.1 M
378.9 381.9 L
384.1 381.9 L
384.1 387.1 L
cp
S
GR
GS
[0.75 0 0 0.75 0 0] CT
1 GC
N
450.9 351.1 M
450.9 345.9 L
456.1 345.9 L
456.1 351.1 L
cp
f
GR
GS
[0.75 0 0 0.75 0 0] CT
0 1 0 RC
10.0 ML
2 LW
N
450.9 351.1 M
450.9 345.9 L
456.1 345.9 L
456.1 351.1 L
cp
S
GR
GS
[0.75 0 0 0.75 0 0] CT
1 GC
N
523.9 303.1 M
523.9 297.9 L
529.1 297.9 L
529.1 303.1 L
cp
f
GR
GS
[0.75 0 0 0.75 0 0] CT
0 1 0 RC
10.0 ML
2 LW
N
523.9 303.1 M
523.9 297.9 L
529.1 297.9 L
529.1 303.1 L
cp
S
GR
GS
[0.75 0 0 0.75 0 0] CT
1 GC
N
596.9 256.1 M
596.9 250.9 L
602.1 250.9 L
602.1 256.1 L
cp
f
GR
GS
[0.75 0 0 0.75 0 0] CT
0 1 0 RC
10.0 ML
2 LW
N
596.9 256.1 M
596.9 250.9 L
602.1 250.9 L
602.1 256.1 L
cp
S
GR
GS
[0.75 0 0 0.75 0 0] CT
1 GC
N
669.9 210.1 M
669.9 204.9 L
675.1 204.9 L
675.1 210.1 L
cp
f
GR
GS
[0.75 0 0 0.75 0 0] CT
0 1 0 RC
10.0 ML
2 LW
N
669.9 210.1 M
669.9 204.9 L
675.1 204.9 L
675.1 210.1 L
cp
S
GR
GS
[0.75 0 0 0.75 0 0] CT
1 GC
N
742.9 165.1 M
742.9 159.9 L
748.1 159.9 L
748.1 165.1 L
cp
f
GR
GS
[0.75 0 0 0.75 0 0] CT
0 1 0 RC
10.0 ML
2 LW
N
742.9 165.1 M
742.9 159.9 L
748.1 159.9 L
748.1 165.1 L
cp
S
GR
GS
[0.75 0 0 0.75 0 0] CT
0 0 1 RC
1 LJ
2 LW
N
90 421 M
162.778 414.767 L
235.556 377.767 L
308.333 331.219 L
381.111 281.196 L
453.889 228.375 L
526.667 175.243 L
599.444 129.592 L
672.222 88.943 L
745 53.201 L
S
GR
GS
[0.75 0 0 0.75 0 0] CT
1 GC
N
86.057 420.5 M
92.722 416.652 L
92.722 424.348 L
cp
f
GR
GS
[0.75 0 0 0.75 0 0] CT
0 0 1 RC
10.0 ML
2 LW
N
86.057 420.5 M
92.722 416.652 L
92.722 424.348 L
cp
S
GR
GS
[0.75 0 0 0.75 0 0] CT
1 GC
N
158.057 414.5 M
164.722 410.652 L
164.722 418.348 L
cp
f
GR
GS
[0.75 0 0 0.75 0 0] CT
0 0 1 RC
10.0 ML
2 LW
N
158.057 414.5 M
164.722 410.652 L
164.722 418.348 L
cp
S
GR
GS
[0.75 0 0 0.75 0 0] CT
1 GC
N
231.057 377.5 M
237.722 373.652 L
237.722 381.348 L
cp
f
GR
GS
[0.75 0 0 0.75 0 0] CT
0 0 1 RC
10.0 ML
2 LW
N
231.057 377.5 M
237.722 373.652 L
237.722 381.348 L
cp
S
GR
GS
[0.75 0 0 0.75 0 0] CT
1 GC
N
304.057 331.5 M
310.722 327.652 L
310.722 335.348 L
cp
f
GR
GS
[0.75 0 0 0.75 0 0] CT
0 0 1 RC
10.0 ML
2 LW
N
304.057 331.5 M
310.722 327.652 L
310.722 335.348 L
cp
S
GR
GS
[0.75 0 0 0.75 0 0] CT
1 GC
N
377.057 281.5 M
383.722 277.652 L
383.722 285.348 L
cp
f
GR
GS
[0.75 0 0 0.75 0 0] CT
0 0 1 RC
10.0 ML
2 LW
N
377.057 281.5 M
383.722 277.652 L
383.722 285.348 L
cp
S
GR
GS
[0.75 0 0 0.75 0 0] CT
1 GC
N
449.057 228.5 M
455.722 224.652 L
455.722 232.348 L
cp
f
GR
GS
[0.75 0 0 0.75 0 0] CT
0 0 1 RC
10.0 ML
2 LW
N
449.057 228.5 M
455.722 224.652 L
455.722 232.348 L
cp
S
GR
GS
[0.75 0 0 0.75 0 0] CT
1 GC
N
522.057 175.5 M
528.722 171.652 L
528.722 179.348 L
cp
f
GR
GS
[0.75 0 0 0.75 0 0] CT
0 0 1 RC
10.0 ML
2 LW
N
522.057 175.5 M
528.722 171.652 L
528.722 179.348 L
cp
S
GR
GS
[0.75 0 0 0.75 0 0] CT
1 GC
N
595.057 129.5 M
601.722 125.652 L
601.722 133.348 L
cp
f
GR
GS
[0.75 0 0 0.75 0 0] CT
0 0 1 RC
10.0 ML
2 LW
N
595.057 129.5 M
601.722 125.652 L
601.722 133.348 L
cp
S
GR
GS
[0.75 0 0 0.75 0 0] CT
1 GC
N
668.057 88.5 M
674.722 84.652 L
674.722 92.348 L
cp
f
GR
GS
[0.75 0 0 0.75 0 0] CT
0 0 1 RC
10.0 ML
2 LW
N
668.057 88.5 M
674.722 84.652 L
674.722 92.348 L
cp
S
GR
GS
[0.75 0 0 0.75 0 0] CT
1 GC
N
741.057 53.5 M
747.722 49.652 L
747.722 57.348 L
cp
f
GR
GS
[0.75 0 0 0.75 0 0] CT
0 0 1 RC
10.0 ML
2 LW
N
741.057 53.5 M
747.722 49.652 L
747.722 57.348 L
cp
S
GR
GS
[0.75 0 0 0.75 0 0] CT
1 0 1 RC
1 LJ
2 LW
N
90 421 M
162.778 421 L
235.556 420.779 L
308.333 415.496 L
381.111 405.696 L
453.889 376.861 L
526.667 336.826 L
599.444 296.258 L
672.222 252.592 L
745 210.763 L
S
GR
GS
[0.75 0 0 0.75 0 0] CT
1 0 1 RC
1 LJ
2 LW
N
87 420.5 M
94 420.5 L
S
GR
GS
[0.75 0 0 0.75 0 0] CT
1 0 1 RC
1 LJ
2 LW
N
90.5 424 M
90.5 417 L
S
GR
GS
[0.75 0 0 0.75 0 0] CT
1 0 1 RC
1 LJ
2 LW
N
159 420.5 M
166 420.5 L
S
GR
GS
[0.75 0 0 0.75 0 0] CT
1 0 1 RC
1 LJ
2 LW
N
162.5 424 M
162.5 417 L
S
GR
GS
[0.75 0 0 0.75 0 0] CT
1 0 1 RC
1 LJ
2 LW
N
232 420.5 M
239 420.5 L
S
GR
GS
[0.75 0 0 0.75 0 0] CT
1 0 1 RC
1 LJ
2 LW
N
235.5 424 M
235.5 417 L
S
GR
GS
[0.75 0 0 0.75 0 0] CT
1 0 1 RC
1 LJ
2 LW
N
305 415.5 M
312 415.5 L
S
GR
GS
[0.75 0 0 0.75 0 0] CT
1 0 1 RC
1 LJ
2 LW
N
308.5 419 M
308.5 412 L
S
GR
GS
[0.75 0 0 0.75 0 0] CT
1 0 1 RC
1 LJ
2 LW
N
378 405.5 M
385 405.5 L
S
GR
GS
[0.75 0 0 0.75 0 0] CT
1 0 1 RC
1 LJ
2 LW
N
381.5 409 M
381.5 402 L
S
GR
GS
[0.75 0 0 0.75 0 0] CT
1 0 1 RC
1 LJ
2 LW
N
450 376.5 M
457 376.5 L
S
GR
GS
[0.75 0 0 0.75 0 0] CT
1 0 1 RC
1 LJ
2 LW
N
453.5 380 M
453.5 373 L
S
GR
GS
[0.75 0 0 0.75 0 0] CT
1 0 1 RC
1 LJ
2 LW
N
523 336.5 M
530 336.5 L
S
GR
GS
[0.75 0 0 0.75 0 0] CT
1 0 1 RC
1 LJ
2 LW
N
526.5 340 M
526.5 333 L
S
GR
GS
[0.75 0 0 0.75 0 0] CT
1 0 1 RC
1 LJ
2 LW
N
596 296.5 M
603 296.5 L
S
GR
GS
[0.75 0 0 0.75 0 0] CT
1 0 1 RC
1 LJ
2 LW
N
599.5 300 M
599.5 293 L
S
GR
GS
[0.75 0 0 0.75 0 0] CT
1 0 1 RC
1 LJ
2 LW
N
669 252.5 M
676 252.5 L
S
GR
GS
[0.75 0 0 0.75 0 0] CT
1 0 1 RC
1 LJ
2 LW
N
672.5 256 M
672.5 249 L
S
GR
GS
[0.75 0 0 0.75 0 0] CT
1 0 1 RC
1 LJ
2 LW
N
742 210.5 M
749 210.5 L
S
GR
GS
[0.75 0 0 0.75 0 0] CT
1 0 1 RC
1 LJ
2 LW
N
745.5 214 M
745.5 207 L
S
GR
GS
[0.75 0 0 0.75 0 0] CT
1 0 0 RC
1 LJ
2 LW
N
90 421 M
162.778 421 L
235.556 421 L
308.333 418.116 L
381.111 412.062 L
453.889 385.989 L
526.667 345.882 L
599.444 306.237 L
672.222 266.31 L
745 222.261 L
S
GR
GS
[0.75 0 0 0.75 0 0] CT
1 GC
N
87.9 423.1 M
87.9 417.9 L
93.1 417.9 L
93.1 423.1 L
cp
f
GR
GS
[0.75 0 0 0.75 0 0] CT
1 0 0 RC
10.0 ML
2 LW
N
87.9 423.1 M
87.9 417.9 L
93.1 417.9 L
93.1 423.1 L
cp
S
GR
GS
[0.75 0 0 0.75 0 0] CT
1 GC
N
159.9 423.1 M
159.9 417.9 L
165.1 417.9 L
165.1 423.1 L
cp
f
GR
GS
[0.75 0 0 0.75 0 0] CT
1 0 0 RC
10.0 ML
2 LW
N
159.9 423.1 M
159.9 417.9 L
165.1 417.9 L
165.1 423.1 L
cp
S
GR
GS
[0.75 0 0 0.75 0 0] CT
1 GC
N
232.9 423.1 M
232.9 417.9 L
238.1 417.9 L
238.1 423.1 L
cp
f
GR
GS
[0.75 0 0 0.75 0 0] CT
1 0 0 RC
10.0 ML
2 LW
N
232.9 423.1 M
232.9 417.9 L
238.1 417.9 L
238.1 423.1 L
cp
S
GR
GS
[0.75 0 0 0.75 0 0] CT
1 GC
N
305.9 421.1 M
305.9 415.9 L
311.1 415.9 L
311.1 421.1 L
cp
f
GR
GS
[0.75 0 0 0.75 0 0] CT
1 0 0 RC
10.0 ML
2 LW
N
305.9 421.1 M
305.9 415.9 L
311.1 415.9 L
311.1 421.1 L
cp
S
GR
GS
[0.75 0 0 0.75 0 0] CT
1 GC
N
378.9 415.1 M
378.9 409.9 L
384.1 409.9 L
384.1 415.1 L
cp
f
GR
GS
[0.75 0 0 0.75 0 0] CT
1 0 0 RC
10.0 ML
2 LW
N
378.9 415.1 M
378.9 409.9 L
384.1 409.9 L
384.1 415.1 L
cp
S
GR
GS
[0.75 0 0 0.75 0 0] CT
1 GC
N
450.9 388.1 M
450.9 382.9 L
456.1 382.9 L
456.1 388.1 L
cp
f
GR
GS
[0.75 0 0 0.75 0 0] CT
1 0 0 RC
10.0 ML
2 LW
N
450.9 388.1 M
450.9 382.9 L
456.1 382.9 L
456.1 388.1 L
cp
S
GR
GS
[0.75 0 0 0.75 0 0] CT
1 GC
N
523.9 348.1 M
523.9 342.9 L
529.1 342.9 L
529.1 348.1 L
cp
f
GR
GS
[0.75 0 0 0.75 0 0] CT
1 0 0 RC
10.0 ML
2 LW
N
523.9 348.1 M
523.9 342.9 L
529.1 342.9 L
529.1 348.1 L
cp
S
GR
GS
[0.75 0 0 0.75 0 0] CT
1 GC
N
596.9 309.1 M
596.9 303.9 L
602.1 303.9 L
602.1 309.1 L
cp
f
GR
GS
[0.75 0 0 0.75 0 0] CT
1 0 0 RC
10.0 ML
2 LW
N
596.9 309.1 M
596.9 303.9 L
602.1 303.9 L
602.1 309.1 L
cp
S
GR
GS
[0.75 0 0 0.75 0 0] CT
1 GC
N
669.9 269.1 M
669.9 263.9 L
675.1 263.9 L
675.1 269.1 L
cp
f
GR
GS
[0.75 0 0 0.75 0 0] CT
1 0 0 RC
10.0 ML
2 LW
N
669.9 269.1 M
669.9 263.9 L
675.1 263.9 L
675.1 269.1 L
cp
S
GR
GS
[0.75 0 0 0.75 0 0] CT
1 GC
N
742.9 225.1 M
742.9 219.9 L
748.1 219.9 L
748.1 225.1 L
cp
f
GR
GS
[0.75 0 0 0.75 0 0] CT
1 0 0 RC
10.0 ML
2 LW
N
742.9 225.1 M
742.9 219.9 L
748.1 219.9 L
748.1 225.1 L
cp
S
GR
GS
[0.75 0 0 0.75 0 0] CT
1 LJ
2 LW
N
90 421 M
162.778 421 L
235.556 421 L
308.333 420.337 L
381.111 418.029 L
453.889 402.633 L
526.667 370.814 L
599.444 335.943 L
672.222 298.227 L
745 254.778 L
S
GR
GS
[0.75 0 0 0.75 0 0] CT
1 GC
N
93.833 420.5 M
92.857 418.143 L
90.5 417.167 L
88.143 418.143 L
87.167 420.5 L
88.143 422.857 L
90.5 423.833 L
92.857 422.857 L
93.833 420.5 L
cp
f
GR
GS
[0.75 0 0 0.75 0 0] CT
1 LJ
2 LW
N
93.833 420.5 M
93.197 418.541 L
91.53 417.33 L
89.47 417.33 L
87.803 418.541 L
87.167 420.5 L
87.803 422.459 L
89.47 423.67 L
91.53 423.67 L
93.197 422.459 L
cp
S
GR
GS
[0.75 0 0 0.75 0 0] CT
1 GC
N
165.833 420.5 M
164.857 418.143 L
162.5 417.167 L
160.143 418.143 L
159.167 420.5 L
160.143 422.857 L
162.5 423.833 L
164.857 422.857 L
165.833 420.5 L
cp
f
GR
GS
[0.75 0 0 0.75 0 0] CT
1 LJ
2 LW
N
165.833 420.5 M
165.197 418.541 L
163.53 417.33 L
161.47 417.33 L
159.803 418.541 L
159.167 420.5 L
159.803 422.459 L
161.47 423.67 L
163.53 423.67 L
165.197 422.459 L
cp
S
GR
GS
[0.75 0 0 0.75 0 0] CT
1 GC
N
238.833 420.5 M
237.857 418.143 L
235.5 417.167 L
233.143 418.143 L
232.167 420.5 L
233.143 422.857 L
235.5 423.833 L
237.857 422.857 L
238.833 420.5 L
cp
f
GR
GS
[0.75 0 0 0.75 0 0] CT
1 LJ
2 LW
N
238.833 420.5 M
238.197 418.541 L
236.53 417.33 L
234.47 417.33 L
232.803 418.541 L
232.167 420.5 L
232.803 422.459 L
234.47 423.67 L
236.53 423.67 L
238.197 422.459 L
cp
S
GR
GS
[0.75 0 0 0.75 0 0] CT
1 GC
N
311.833 420.5 M
310.857 418.143 L
308.5 417.167 L
306.143 418.143 L
305.167 420.5 L
306.143 422.857 L
308.5 423.833 L
310.857 422.857 L
311.833 420.5 L
cp
f
GR
GS
[0.75 0 0 0.75 0 0] CT
1 LJ
2 LW
N
311.833 420.5 M
311.197 418.541 L
309.53 417.33 L
307.47 417.33 L
305.803 418.541 L
305.167 420.5 L
305.803 422.459 L
307.47 423.67 L
309.53 423.67 L
311.197 422.459 L
cp
S
GR
GS
[0.75 0 0 0.75 0 0] CT
1 GC
N
384.833 418.5 M
383.857 416.143 L
381.5 415.167 L
379.143 416.143 L
378.167 418.5 L
379.143 420.857 L
381.5 421.833 L
383.857 420.857 L
384.833 418.5 L
cp
f
GR
GS
[0.75 0 0 0.75 0 0] CT
1 LJ
2 LW
N
384.833 418.5 M
384.197 416.541 L
382.53 415.33 L
380.47 415.33 L
378.803 416.541 L
378.167 418.5 L
378.803 420.459 L
380.47 421.67 L
382.53 421.67 L
384.197 420.459 L
cp
S
GR
GS
[0.75 0 0 0.75 0 0] CT
1 GC
N
456.833 402.5 M
455.857 400.143 L
453.5 399.167 L
451.143 400.143 L
450.167 402.5 L
451.143 404.857 L
453.5 405.833 L
455.857 404.857 L
456.833 402.5 L
cp
f
GR
GS
[0.75 0 0 0.75 0 0] CT
1 LJ
2 LW
N
456.833 402.5 M
456.197 400.541 L
454.53 399.33 L
452.47 399.33 L
450.803 400.541 L
450.167 402.5 L
450.803 404.459 L
452.47 405.67 L
454.53 405.67 L
456.197 404.459 L
cp
S
GR
GS
[0.75 0 0 0.75 0 0] CT
1 GC
N
529.833 370.5 M
528.857 368.143 L
526.5 367.167 L
524.143 368.143 L
523.167 370.5 L
524.143 372.857 L
526.5 373.833 L
528.857 372.857 L
529.833 370.5 L
cp
f
GR
GS
[0.75 0 0 0.75 0 0] CT
1 LJ
2 LW
N
529.833 370.5 M
529.197 368.541 L
527.53 367.33 L
525.47 367.33 L
523.803 368.541 L
523.167 370.5 L
523.803 372.459 L
525.47 373.67 L
527.53 373.67 L
529.197 372.459 L
cp
S
GR
GS
[0.75 0 0 0.75 0 0] CT
1 GC
N
602.833 335.5 M
601.857 333.143 L
599.5 332.167 L
597.143 333.143 L
596.167 335.5 L
597.143 337.857 L
599.5 338.833 L
601.857 337.857 L
602.833 335.5 L
cp
f
GR
GS
[0.75 0 0 0.75 0 0] CT
1 LJ
2 LW
N
602.833 335.5 M
602.197 333.541 L
600.53 332.33 L
598.47 332.33 L
596.803 333.541 L
596.167 335.5 L
596.803 337.459 L
598.47 338.67 L
600.53 338.67 L
602.197 337.459 L
cp
S
GR
GS
[0.75 0 0 0.75 0 0] CT
1 GC
N
675.833 298.5 M
674.857 296.143 L
672.5 295.167 L
670.143 296.143 L
669.167 298.5 L
670.143 300.857 L
672.5 301.833 L
674.857 300.857 L
675.833 298.5 L
cp
f
GR
GS
[0.75 0 0 0.75 0 0] CT
1 LJ
2 LW
N
675.833 298.5 M
675.197 296.541 L
673.53 295.33 L
671.47 295.33 L
669.803 296.541 L
669.167 298.5 L
669.803 300.459 L
671.47 301.67 L
673.53 301.67 L
675.197 300.459 L
cp
S
GR
GS
[0.75 0 0 0.75 0 0] CT
1 GC
N
748.833 254.5 M
747.857 252.143 L
745.5 251.167 L
743.143 252.143 L
742.167 254.5 L
743.143 256.857 L
745.5 257.833 L
747.857 256.857 L
748.833 254.5 L
cp
f
GR
GS
[0.75 0 0 0.75 0 0] CT
1 LJ
2 LW
N
748.833 254.5 M
748.197 252.541 L
746.53 251.33 L
744.47 251.33 L
742.803 252.541 L
742.167 254.5 L
742.803 256.459 L
744.47 257.67 L
746.53 257.67 L
748.197 256.459 L
cp
S
GR
GS
[0.75 0 0 0.75 0 0] CT
1 GC
N
103 333 M
103 64 L
209 64 L
209 333 L
cp
f
GR
GS
[0.75 0 0 0.75 105 60.37501] CT
/Times 24 F
GS
[1 0 0 1 0 0] CT
0 8.5 moveto 
1 -1 scale
(LBP) t 
GR
GR
GS
[0.75 0 0 0.75 0 0] CT
1 0.6 0.784 RC
1 LJ
2 LW
N
107 80.5 M
137 80.5 L
S
GR
GS
[0.75 0 0 0.75 0 0] CT
1 GC
N
120.278 76.652 M
126.943 80.5 L
120.278 84.348 L
cp
f
GR
GS
[0.75 0 0 0.75 0 0] CT
1 0.6 0.784 RC
10.0 ML
2 LW
N
120.278 76.652 M
126.943 80.5 L
120.278 84.348 L
cp
S
GR
GS
[0.75 0 0 0.75 105 82.49999] CT
/Times 24 F
GS
[1 0 0 1 0 0] CT
0 8.5 moveto 
1 -1 scale
(LTP) t 
GR
GR
GS
[0.75 0 0 0.75 0 0] CT
0.6 0.2 0 RC
1 LJ
2 LW
N
107 110 M
137 110 L
S
GR
GS
[0.75 0 0 0.75 0 0] CT
1 GC
N
118.057 109.5 M
124.722 105.652 L
124.722 113.348 L
cp
f
GR
GS
[0.75 0 0 0.75 0 0] CT
0.6 0.2 0 RC
10.0 ML
2 LW
N
118.057 109.5 M
124.722 105.652 L
124.722 113.348 L
cp
S
GR
GS
[0.75 0 0 0.75 105 104.625] CT
/Times 24 F
GS
[1 0 0 1 0 0] CT
0 8.5 moveto 
1 -1 scale
(LDP) t 
GR
GR
GS
[0.75 0 0 0.75 0 0] CT
0.929 0.694 0.125 RC
1 LJ
2 LW
N
107 139.5 M
137 139.5 L
S
GR
GS
[0.75 0 0 0.75 0 0] CT
1 GC
N
119.33 138.47 M
121.716 138.47 L
122.5 136.167 L
123.284 138.47 L
125.67 138.47 L
123.768 139.912 L
124.459 142.197 L
122.5 140.833 L
120.541 142.197 L
121.232 139.912 L
119.33 138.47 L
cp
f
GR
GS
[0.75 0 0 0.75 0 0] CT
0.929 0.694 0.125 RC
10.0 ML
2 LW
N
119.33 138.47 M
121.716 138.47 L
122.5 136.167 L
123.284 138.47 L
125.67 138.47 L
123.768 139.912 L
124.459 142.197 L
122.5 140.833 L
120.541 142.197 L
121.232 139.912 L
cp
S
GR
GS
[0.75 0 0 0.75 105 126.75] CT
/Times 24 F
GS
[1 0 0 1 0 0] CT
0 8.5 moveto 
1 -1 scale
(LDN) t 
GR
GR
GS
[0.75 0 0 0.75 0 0] CT
0 1 1 RC
1 LJ
2 LW
N
107 169 M
137 169 L
S
GR
GS
[0.75 0 0 0.75 0 0] CT
1 GC
N
122.5 172.943 M
125.833 168.5 L
122.5 164.057 L
119.167 168.5 L
cp
f
GR
GS
[0.75 0 0 0.75 0 0] CT
0 1 1 RC
10.0 ML
2 LW
N
122.5 172.943 M
125.833 168.5 L
122.5 164.057 L
119.167 168.5 L
cp
S
GR
GS
[0.75 0 0 0.75 105 148.875] CT
/Times 24 F
GS
[1 0 0 1 0 0] CT
0 8.5 moveto 
1 -1 scale
(LVP) t 
GR
GR
GS
[0.75 0 0 0.75 0 0] CT
0 1 0 RC
1 LJ
2 LW
N
107 198.5 M
137 198.5 L
S
GR
GS
[0.75 0 0 0.75 0 0] CT
1 GC
N
119.9 201.1 M
119.9 195.9 L
125.1 195.9 L
125.1 201.1 L
cp
f
GR
GS
[0.75 0 0 0.75 0 0] CT
0 1 0 RC
10.0 ML
2 LW
N
119.9 201.1 M
119.9 195.9 L
125.1 195.9 L
125.1 201.1 L
cp
S
GR
GS
[0.75 0 0 0.75 105 171] CT
/Times 24 F
GS
[1 0 0 1 0 0] CT
0 8.5 moveto 
1 -1 scale
(LDGP) t 
GR
GR
GS
[0.75 0 0 0.75 0 0] CT
0 0 1 RC
1 LJ
2 LW
N
107 228 M
137 228 L
S
GR
GS
[0.75 0 0 0.75 0 0] CT
1 GC
N
118.057 227.5 M
124.722 223.652 L
124.722 231.348 L
cp
f
GR
GS
[0.75 0 0 0.75 0 0] CT
0 0 1 RC
10.0 ML
2 LW
N
118.057 227.5 M
124.722 223.652 L
124.722 231.348 L
cp
S
GR
GS
[0.75 0 0 0.75 105 193.125] CT
/Times 24 F
GS
[1 0 0 1 0 0] CT
0 8.5 moveto 
1 -1 scale
(DCP) t 
GR
GR
GS
[0.75 0 0 0.75 0 0] CT
1 0 1 RC
1 LJ
2 LW
N
107 257.5 M
137 257.5 L
S
GR
GS
[0.75 0 0 0.75 0 0] CT
1 0 1 RC
1 LJ
2 LW
N
119 257.5 M
126 257.5 L
S
GR
GS
[0.75 0 0 0.75 0 0] CT
1 0 1 RC
1 LJ
2 LW
N
122.5 261 M
122.5 254 L
S
GR
GS
[0.75 0 0 0.75 105 215.25] CT
/Times 24 F
GS
[1 0 0 1 0 0] CT
0 8.5 moveto 
1 -1 scale
(LGHP) t 
GR
GR
GS
[0.75 0 0 0.75 0 0] CT
1 0 0 RC
1 LJ
2 LW
N
107 287 M
137 287 L
S
GR
GS
[0.75 0 0 0.75 0 0] CT
1 GC
N
119.9 290.1 M
119.9 284.9 L
125.1 284.9 L
125.1 290.1 L
cp
f
GR
GS
[0.75 0 0 0.75 0 0] CT
1 0 0 RC
10.0 ML
2 LW
N
119.9 290.1 M
119.9 284.9 L
125.1 284.9 L
125.1 290.1 L
cp
S
GR
GS
[0.75 0 0 0.75 105 237.375] CT
/Times 24 F
GS
[1 0 0 1 0 0] CT
0 8.5 moveto 
1 -1 scale
(LDRP) t 
GR
GR
GS
[0.75 0 0 0.75 0 0] CT
1 LJ
2 LW
N
107 316.5 M
137 316.5 L
S
GR
GS
[0.75 0 0 0.75 0 0] CT
1 GC
N
125.833 316.5 M
124.857 314.143 L
122.5 313.167 L
120.143 314.143 L
119.167 316.5 L
120.143 318.857 L
122.5 319.833 L
124.857 318.857 L
125.833 316.5 L
cp
f
GR
GS
[0.75 0 0 0.75 0 0] CT
1 LJ
2 LW
N
125.833 316.5 M
125.197 314.541 L
123.53 313.33 L
121.47 313.33 L
119.803 314.541 L
119.167 316.5 L
119.803 318.459 L
121.47 319.67 L
123.53 319.67 L
125.197 318.459 L
cp
S
GR
GS
[0.75 0 0 0.75 0 0] CT
0.149 GC
10.0 ML
0.667 LW
N
103 333 M
103 64 L
209 64 L
209 333 L
cp
S
GR
%%Trailer
%%Pages: 1
%%EOF
