%!PS-Adobe-3.0 EPSF-3.0
%%Creator: (MATLAB, The Mathworks, Inc. Version 9.0.0.341360 \(R2016a\). Operating System: Linux)
%%Title: (/home/shivram/main/Work/1. Research/1. Ongoing/5. LDRP Face/2. Exp/1. Results/AT&T/ATT-ARP.eps)
%%CreationDate: 2017-08-16T15:47:57
%%Pages: (atend)
%%BoundingBox: 0 0 573 384
%%LanguageLevel: 3
%%EndComments
%%BeginProlog
%%BeginResource: procset (Apache XML Graphics Std ProcSet) 1.2 0
%%Version: 1.2 0
%%Copyright: (Copyright 2001-2003,2010 The Apache Software Foundation. License terms: http://www.apache.org/licenses/LICENSE-2.0)
/bd{bind def}bind def
/ld{load def}bd
/GR/grestore ld
/M/moveto ld
/LJ/setlinejoin ld
/C/curveto ld
/f/fill ld
/LW/setlinewidth ld
/GC/setgray ld
/t/show ld
/N/newpath ld
/CT/concat ld
/cp/closepath ld
/S/stroke ld
/L/lineto ld
/CC/setcmykcolor ld
/A/ashow ld
/GS/gsave ld
/RC/setrgbcolor ld
/RM/rmoveto ld
/ML/setmiterlimit ld
/re {4 2 roll M
1 index 0 rlineto
0 exch rlineto
neg 0 rlineto
cp } bd
/_ctm matrix def
/_tm matrix def
/BT { _ctm currentmatrix pop matrix _tm copy pop 0 0 moveto } bd
/ET { _ctm setmatrix } bd
/iTm { _ctm setmatrix _tm concat } bd
/Tm { _tm astore pop iTm 0 0 moveto } bd
/ux 0.0 def
/uy 0.0 def
/F {
  /Tp exch def
  /Tf exch def
  Tf findfont Tp scalefont setfont
  /cf Tf def  /cs Tp def
} bd
/ULS {currentpoint /uy exch def /ux exch def} bd
/ULE {
  /Tcx currentpoint pop def
  gsave
  newpath
  cf findfont cs scalefont dup
  /FontMatrix get 0 get /Ts exch def /FontInfo get dup
  /UnderlinePosition get Ts mul /To exch def
  /UnderlineThickness get Ts mul /Tt exch def
  ux uy To add moveto  Tcx uy To add lineto
  Tt setlinewidth stroke
  grestore
} bd
/OLE {
  /Tcx currentpoint pop def
  gsave
  newpath
  cf findfont cs scalefont dup
  /FontMatrix get 0 get /Ts exch def /FontInfo get dup
  /UnderlinePosition get Ts mul /To exch def
  /UnderlineThickness get Ts mul /Tt exch def
  ux uy To add cs add moveto Tcx uy To add cs add lineto
  Tt setlinewidth stroke
  grestore
} bd
/SOE {
  /Tcx currentpoint pop def
  gsave
  newpath
  cf findfont cs scalefont dup
  /FontMatrix get 0 get /Ts exch def /FontInfo get dup
  /UnderlinePosition get Ts mul /To exch def
  /UnderlineThickness get Ts mul /Tt exch def
  ux uy To add cs 10 mul 26 idiv add moveto Tcx uy To add cs 10 mul 26 idiv add lineto
  Tt setlinewidth stroke
  grestore
} bd
/QT {
/Y22 exch store
/X22 exch store
/Y21 exch store
/X21 exch store
currentpoint
/Y21 load 2 mul add 3 div exch
/X21 load 2 mul add 3 div exch
/X21 load 2 mul /X22 load add 3 div
/Y21 load 2 mul /Y22 load add 3 div
/X22 load /Y22 load curveto
} bd
/SSPD {
dup length /d exch dict def
{
/v exch def
/k exch def
currentpagedevice k known {
/cpdv currentpagedevice k get def
v cpdv ne {
/upd false def
/nullv v type /nulltype eq def
/nullcpdv cpdv type /nulltype eq def
nullv nullcpdv or
{
/upd true def
} {
/sametype v type cpdv type eq def
sametype {
v type /arraytype eq {
/vlen v length def
/cpdvlen cpdv length def
vlen cpdvlen eq {
0 1 vlen 1 sub {
/i exch def
/obj v i get def
/cpdobj cpdv i get def
obj cpdobj ne {
/upd true def
exit
} if
} for
} {
/upd true def
} ifelse
} {
v type /dicttype eq {
v {
/dv exch def
/dk exch def
/cpddv cpdv dk get def
dv cpddv ne {
/upd true def
exit
} if
} forall
} {
/upd true def
} ifelse
} ifelse
} if
} ifelse
upd true eq {
d k v put
} if
} if
} if
} forall
d length 0 gt {
d setpagedevice
} if
} bd
%%EndResource
%%BeginResource: procset (Apache XML Graphics EPS ProcSet) 1.0 0
%%Version: 1.0 0
%%Copyright: (Copyright 2002-2003 The Apache Software Foundation. License terms: http://www.apache.org/licenses/LICENSE-2.0)
/BeginEPSF { %def
/b4_Inc_state save def         % Save state for cleanup
/dict_count countdictstack def % Count objects on dict stack
/op_count count 1 sub def      % Count objects on operand stack
userdict begin                 % Push userdict on dict stack
/showpage { } def              % Redefine showpage, { } = null proc
0 setgray 0 setlinecap         % Prepare graphics state
1 setlinewidth 0 setlinejoin
10 setmiterlimit [ ] 0 setdash newpath
/languagelevel where           % If level not equal to 1 then
{pop languagelevel             % set strokeadjust and
1 ne                           % overprint to their defaults.
{false setstrokeadjust false setoverprint
} if
} if
} bd
/EndEPSF { %def
count op_count sub {pop} repeat            % Clean up stacks
countdictstack dict_count sub {end} repeat
b4_Inc_state restore
} bd
%%EndResource
%FOPBeginFontDict
%%IncludeResource: font Courier-Bold
%%IncludeResource: font Helvetica
%%IncludeResource: font Courier-BoldOblique
%%IncludeResource: font Courier-Oblique
%%IncludeResource: font Times-Roman
%%IncludeResource: font Helvetica-BoldOblique
%%IncludeResource: font Helvetica-Bold
%%IncludeResource: font Helvetica-Oblique
%%IncludeResource: font Times-BoldItalic
%%IncludeResource: font Courier
%%IncludeResource: font Times-Italic
%%IncludeResource: font Times-Bold
%%IncludeResource: font Symbol
%%IncludeResource: font ZapfDingbats
%FOPEndFontDict
%%BeginResource: encoding WinAnsiEncoding
/WinAnsiEncoding [
/.notdef /.notdef /.notdef /.notdef /.notdef
/.notdef /.notdef /.notdef /.notdef /.notdef
/.notdef /.notdef /.notdef /.notdef /.notdef
/.notdef /.notdef /.notdef /.notdef /.notdef
/.notdef /.notdef /.notdef /.notdef /.notdef
/.notdef /.notdef /.notdef /.notdef /.notdef
/.notdef /.notdef /space /exclam /quotedbl
/numbersign /dollar /percent /ampersand /quotesingle
/parenleft /parenright /asterisk /plus /comma
/hyphen /period /slash /zero /one
/two /three /four /five /six
/seven /eight /nine /colon /semicolon
/less /equal /greater /question /at
/A /B /C /D /E
/F /G /H /I /J
/K /L /M /N /O
/P /Q /R /S /T
/U /V /W /X /Y
/Z /bracketleft /backslash /bracketright /asciicircum
/underscore /quoteleft /a /b /c
/d /e /f /g /h
/i /j /k /l /m
/n /o /p /q /r
/s /t /u /v /w
/x /y /z /braceleft /bar
/braceright /asciitilde /bullet /Euro /bullet
/quotesinglbase /florin /quotedblbase /ellipsis /dagger
/daggerdbl /circumflex /perthousand /Scaron /guilsinglleft
/OE /bullet /Zcaron /bullet /bullet
/quoteleft /quoteright /quotedblleft /quotedblright /bullet
/endash /emdash /asciitilde /trademark /scaron
/guilsinglright /oe /bullet /zcaron /Ydieresis
/space /exclamdown /cent /sterling /currency
/yen /brokenbar /section /dieresis /copyright
/ordfeminine /guillemotleft /logicalnot /sfthyphen /registered
/macron /degree /plusminus /twosuperior /threesuperior
/acute /mu /paragraph /middot /cedilla
/onesuperior /ordmasculine /guillemotright /onequarter /onehalf
/threequarters /questiondown /Agrave /Aacute /Acircumflex
/Atilde /Adieresis /Aring /AE /Ccedilla
/Egrave /Eacute /Ecircumflex /Edieresis /Igrave
/Iacute /Icircumflex /Idieresis /Eth /Ntilde
/Ograve /Oacute /Ocircumflex /Otilde /Odieresis
/multiply /Oslash /Ugrave /Uacute /Ucircumflex
/Udieresis /Yacute /Thorn /germandbls /agrave
/aacute /acircumflex /atilde /adieresis /aring
/ae /ccedilla /egrave /eacute /ecircumflex
/edieresis /igrave /iacute /icircumflex /idieresis
/eth /ntilde /ograve /oacute /ocircumflex
/otilde /odieresis /divide /oslash /ugrave
/uacute /ucircumflex /udieresis /yacute /thorn
/ydieresis
] def
%%EndResource
%FOPBeginFontReencode
/Courier-Bold findfont
dup length dict begin
  {1 index /FID ne {def} {pop pop} ifelse} forall
  /Encoding WinAnsiEncoding def
  currentdict
end
/Courier-Bold exch definefont pop
/Helvetica findfont
dup length dict begin
  {1 index /FID ne {def} {pop pop} ifelse} forall
  /Encoding WinAnsiEncoding def
  currentdict
end
/Helvetica exch definefont pop
/Courier-BoldOblique findfont
dup length dict begin
  {1 index /FID ne {def} {pop pop} ifelse} forall
  /Encoding WinAnsiEncoding def
  currentdict
end
/Courier-BoldOblique exch definefont pop
/Courier-Oblique findfont
dup length dict begin
  {1 index /FID ne {def} {pop pop} ifelse} forall
  /Encoding WinAnsiEncoding def
  currentdict
end
/Courier-Oblique exch definefont pop
/Times-Roman findfont
dup length dict begin
  {1 index /FID ne {def} {pop pop} ifelse} forall
  /Encoding WinAnsiEncoding def
  currentdict
end
/Times-Roman exch definefont pop
/Helvetica-BoldOblique findfont
dup length dict begin
  {1 index /FID ne {def} {pop pop} ifelse} forall
  /Encoding WinAnsiEncoding def
  currentdict
end
/Helvetica-BoldOblique exch definefont pop
/Helvetica-Bold findfont
dup length dict begin
  {1 index /FID ne {def} {pop pop} ifelse} forall
  /Encoding WinAnsiEncoding def
  currentdict
end
/Helvetica-Bold exch definefont pop
/Helvetica-Oblique findfont
dup length dict begin
  {1 index /FID ne {def} {pop pop} ifelse} forall
  /Encoding WinAnsiEncoding def
  currentdict
end
/Helvetica-Oblique exch definefont pop
/Times-BoldItalic findfont
dup length dict begin
  {1 index /FID ne {def} {pop pop} ifelse} forall
  /Encoding WinAnsiEncoding def
  currentdict
end
/Times-BoldItalic exch definefont pop
/Courier findfont
dup length dict begin
  {1 index /FID ne {def} {pop pop} ifelse} forall
  /Encoding WinAnsiEncoding def
  currentdict
end
/Courier exch definefont pop
/Times-Italic findfont
dup length dict begin
  {1 index /FID ne {def} {pop pop} ifelse} forall
  /Encoding WinAnsiEncoding def
  currentdict
end
/Times-Italic exch definefont pop
/Times-Bold findfont
dup length dict begin
  {1 index /FID ne {def} {pop pop} ifelse} forall
  /Encoding WinAnsiEncoding def
  currentdict
end
/Times-Bold exch definefont pop
%FOPEndFontReencode
%%EndProlog
%%Page: 1 1
%%PageBoundingBox: 0 0 573 384
%%BeginPageSetup
[1 0 0 -1 0 384] CT
%%EndPageSetup
GS
[0.75 0 0 0.75 0 0] CT
1 GC
N
0 0 764 512 re
f
GR
GS
[0.75 0 0 0.75 0 0] CT
1 GC
N
0 0 764 512 re
f
GR
GS
[0.75 0 0 0.75 0 0] CT
1 GC
N
111 421 M
745 421 L
745 51 L
111 51 L
cp
f
GR
GS
[0.75 0 0 0.75 0 0] CT
0.149 GC
2 setlinecap
1 LJ
0.667 LW
N
111 421 M
745 421 L
S
GR
GS
[0.75 0 0 0.75 0 0] CT
0.149 GC
2 setlinecap
1 LJ
0.667 LW
N
111 51 M
745 51 L
S
GR
GS
[0.75 0 0 0.75 0 0] CT
0.149 GC
2 setlinecap
1 LJ
0.667 LW
N
111 421 M
111 414.66 L
S
GR
GS
[0.75 0 0 0.75 0 0] CT
0.149 GC
2 setlinecap
1 LJ
0.667 LW
N
181.444 421 M
181.444 414.66 L
S
GR
GS
[0.75 0 0 0.75 0 0] CT
0.149 GC
2 setlinecap
1 LJ
0.667 LW
N
251.889 421 M
251.889 414.66 L
S
GR
GS
[0.75 0 0 0.75 0 0] CT
0.149 GC
2 setlinecap
1 LJ
0.667 LW
N
322.333 421 M
322.333 414.66 L
S
GR
GS
[0.75 0 0 0.75 0 0] CT
0.149 GC
2 setlinecap
1 LJ
0.667 LW
N
392.778 421 M
392.778 414.66 L
S
GR
GS
[0.75 0 0 0.75 0 0] CT
0.149 GC
2 setlinecap
1 LJ
0.667 LW
N
463.222 421 M
463.222 414.66 L
S
GR
GS
[0.75 0 0 0.75 0 0] CT
0.149 GC
2 setlinecap
1 LJ
0.667 LW
N
533.667 421 M
533.667 414.66 L
S
GR
GS
[0.75 0 0 0.75 0 0] CT
0.149 GC
2 setlinecap
1 LJ
0.667 LW
N
604.111 421 M
604.111 414.66 L
S
GR
GS
[0.75 0 0 0.75 0 0] CT
0.149 GC
2 setlinecap
1 LJ
0.667 LW
N
674.556 421 M
674.556 414.66 L
S
GR
GS
[0.75 0 0 0.75 0 0] CT
0.149 GC
2 setlinecap
1 LJ
0.667 LW
N
745 421 M
745 414.66 L
S
GR
GS
[0.75 0 0 0.75 0 0] CT
0.149 GC
2 setlinecap
1 LJ
0.667 LW
N
111 51 M
111 57.34 L
S
GR
GS
[0.75 0 0 0.75 0 0] CT
0.149 GC
2 setlinecap
1 LJ
0.667 LW
N
181.444 51 M
181.444 57.34 L
S
GR
GS
[0.75 0 0 0.75 0 0] CT
0.149 GC
2 setlinecap
1 LJ
0.667 LW
N
251.889 51 M
251.889 57.34 L
S
GR
GS
[0.75 0 0 0.75 0 0] CT
0.149 GC
2 setlinecap
1 LJ
0.667 LW
N
322.333 51 M
322.333 57.34 L
S
GR
GS
[0.75 0 0 0.75 0 0] CT
0.149 GC
2 setlinecap
1 LJ
0.667 LW
N
392.778 51 M
392.778 57.34 L
S
GR
GS
[0.75 0 0 0.75 0 0] CT
0.149 GC
2 setlinecap
1 LJ
0.667 LW
N
463.222 51 M
463.222 57.34 L
S
GR
GS
[0.75 0 0 0.75 0 0] CT
0.149 GC
2 setlinecap
1 LJ
0.667 LW
N
533.667 51 M
533.667 57.34 L
S
GR
GS
[0.75 0 0 0.75 0 0] CT
0.149 GC
2 setlinecap
1 LJ
0.667 LW
N
604.111 51 M
604.111 57.34 L
S
GR
GS
[0.75 0 0 0.75 0 0] CT
0.149 GC
2 setlinecap
1 LJ
0.667 LW
N
674.556 51 M
674.556 57.34 L
S
GR
GS
[0.75 0 0 0.75 0 0] CT
0.149 GC
2 setlinecap
1 LJ
0.667 LW
N
745 51 M
745 57.34 L
S
GR
GS
[0.75 0 0 0.75 83.25 322.54999] CT
0.149 GC
/Times 32 F
GS
[1 0 0 1 0 0] CT
-10.5 30 moveto 
1 -1 scale
(1) t 
GR
GR
GS
[0.75 0 0 0.75 136.08333 322.54999] CT
0.149 GC
/Times 32 F
GS
[1 0 0 1 0 0] CT
-10.5 30 moveto 
1 -1 scale
(2) t 
GR
GR
GS
[0.75 0 0 0.75 188.91666 322.54999] CT
0.149 GC
/Times 32 F
GS
[1 0 0 1 0 0] CT
-10.5 30 moveto 
1 -1 scale
(3) t 
GR
GR
GS
[0.75 0 0 0.75 241.75001 322.54999] CT
0.149 GC
/Times 32 F
GS
[1 0 0 1 0 0] CT
-10.5 30 moveto 
1 -1 scale
(4) t 
GR
GR
GS
[0.75 0 0 0.75 294.58333 322.54999] CT
0.149 GC
/Times 32 F
GS
[1 0 0 1 0 0] CT
-10.5 30 moveto 
1 -1 scale
(5) t 
GR
GR
GS
[0.75 0 0 0.75 347.41667 322.54999] CT
0.149 GC
/Times 32 F
GS
[1 0 0 1 0 0] CT
-10.5 30 moveto 
1 -1 scale
(6) t 
GR
GR
GS
[0.75 0 0 0.75 400.25002 322.54999] CT
0.149 GC
/Times 32 F
GS
[1 0 0 1 0 0] CT
-10.5 30 moveto 
1 -1 scale
(7) t 
GR
GR
GS
[0.75 0 0 0.75 453.08331 322.54999] CT
0.149 GC
/Times 32 F
GS
[1 0 0 1 0 0] CT
-10.5 30 moveto 
1 -1 scale
(8) t 
GR
GR
GS
[0.75 0 0 0.75 505.91666 322.54999] CT
0.149 GC
/Times 32 F
GS
[1 0 0 1 0 0] CT
-10.5 30 moveto 
1 -1 scale
(9) t 
GR
GR
GS
[0.75 0 0 0.75 558.75 322.54999] CT
0.149 GC
/Times 32 F
GS
[1 0 0 1 0 0] CT
-20.5 30 moveto 
1 -1 scale
(10) t 
GR
GR
GS
[0.75 0 0 0.75 321.00023 352.05] CT
0.149 GC
/Times 35.2 F
GS
[1 0 0 1 0 0] CT
-210 33 moveto 
1 -1 scale
(Number of Top Matches) t 
GR
GR
GS
[0.75 0 0 0.75 0 0] CT
0.149 GC
2 setlinecap
1 LJ
0.667 LW
N
111 421 M
111 51 L
S
GR
GS
[0.75 0 0 0.75 0 0] CT
0.149 GC
2 setlinecap
1 LJ
0.667 LW
N
745 421 M
745 51 L
S
GR
GS
[0.75 0 0 0.75 0 0] CT
0.149 GC
2 setlinecap
1 LJ
0.667 LW
N
111 421 M
117.34 421 L
S
GR
GS
[0.75 0 0 0.75 0 0] CT
0.149 GC
2 setlinecap
1 LJ
0.667 LW
N
111 347 M
117.34 347 L
S
GR
GS
[0.75 0 0 0.75 0 0] CT
0.149 GC
2 setlinecap
1 LJ
0.667 LW
N
111 273 M
117.34 273 L
S
GR
GS
[0.75 0 0 0.75 0 0] CT
0.149 GC
2 setlinecap
1 LJ
0.667 LW
N
111 199 M
117.34 199 L
S
GR
GS
[0.75 0 0 0.75 0 0] CT
0.149 GC
2 setlinecap
1 LJ
0.667 LW
N
111 125 M
117.34 125 L
S
GR
GS
[0.75 0 0 0.75 0 0] CT
0.149 GC
2 setlinecap
1 LJ
0.667 LW
N
111 51 M
117.34 51 L
S
GR
GS
[0.75 0 0 0.75 0 0] CT
0.149 GC
2 setlinecap
1 LJ
0.667 LW
N
745 421 M
738.66 421 L
S
GR
GS
[0.75 0 0 0.75 0 0] CT
0.149 GC
2 setlinecap
1 LJ
0.667 LW
N
745 347 M
738.66 347 L
S
GR
GS
[0.75 0 0 0.75 0 0] CT
0.149 GC
2 setlinecap
1 LJ
0.667 LW
N
745 273 M
738.66 273 L
S
GR
GS
[0.75 0 0 0.75 0 0] CT
0.149 GC
2 setlinecap
1 LJ
0.667 LW
N
745 199 M
738.66 199 L
S
GR
GS
[0.75 0 0 0.75 0 0] CT
0.149 GC
2 setlinecap
1 LJ
0.667 LW
N
745 125 M
738.66 125 L
S
GR
GS
[0.75 0 0 0.75 0 0] CT
0.149 GC
2 setlinecap
1 LJ
0.667 LW
N
745 51 M
738.66 51 L
S
GR
GS
[0.75 0 0 0.75 76.45 315.75] CT
0.149 GC
/Times 32 F
GS
[1 0 0 1 0 0] CT
-41 11 moveto 
1 -1 scale
(50) t 
GR
GR
GS
[0.75 0 0 0.75 76.45 260.25] CT
0.149 GC
/Times 32 F
GS
[1 0 0 1 0 0] CT
-41 11 moveto 
1 -1 scale
(60) t 
GR
GR
GS
[0.75 0 0 0.75 76.45 204.75] CT
0.149 GC
/Times 32 F
GS
[1 0 0 1 0 0] CT
-41 11 moveto 
1 -1 scale
(70) t 
GR
GR
GS
[0.75 0 0 0.75 76.45 149.25] CT
0.149 GC
/Times 32 F
GS
[1 0 0 1 0 0] CT
-41 11 moveto 
1 -1 scale
(80) t 
GR
GR
GS
[0.75 0 0 0.75 76.45 93.75] CT
0.149 GC
/Times 32 F
GS
[1 0 0 1 0 0] CT
-41 11 moveto 
1 -1 scale
(90) t 
GR
GR
GS
[0.75 0 0 0.75 76.45 38.25] CT
0.149 GC
/Times 32 F
GS
[1 0 0 1 0 0] CT
-62 11 moveto 
1 -1 scale
(100) t 
GR
GR
GS
[0 -0.75 0.75 0 26.95 176.99987] CT
0.149 GC
/Times 35.2 F
GS
[1 0 0 1 0 0] CT
-71 -9 moveto 
1 -1 scale
(ARP \(%\)) t 
GR
GR
GS
[0.75 0 0 0.75 321.0003 33.3] CT
/Times 35.2 F
GS
[1 0 0 1 0 0] CT
-136.5 -9 moveto 
1 -1 scale
(AT&T Database) t 
GR
GR
GS
[0.75 0 0 0.75 0 0] CT
1 0.6 0.784 RC
1 LJ
2 LW
N
111 51 M
181.444 69.5 L
251.889 107.733 L
322.333 144.425 L
392.778 184.2 L
463.222 226.442 L
533.667 266.393 L
604.111 298.9 L
674.556 328.089 L
745 357.36 L
S
GR
GS
[0.75 0 0 0.75 0 0] CT
1 GC
N
109.278 46.652 M
115.943 50.5 L
109.278 54.348 L
cp
f
GR
GS
[0.75 0 0 0.75 0 0] CT
1 0.6 0.784 RC
10.0 ML
2 LW
N
109.278 46.652 M
115.943 50.5 L
109.278 54.348 L
cp
S
GR
GS
[0.75 0 0 0.75 0 0] CT
1 GC
N
179.278 65.652 M
185.943 69.5 L
179.278 73.348 L
cp
f
GR
GS
[0.75 0 0 0.75 0 0] CT
1 0.6 0.784 RC
10.0 ML
2 LW
N
179.278 65.652 M
185.943 69.5 L
179.278 73.348 L
cp
S
GR
GS
[0.75 0 0 0.75 0 0] CT
1 GC
N
249.278 103.652 M
255.943 107.5 L
249.278 111.348 L
cp
f
GR
GS
[0.75 0 0 0.75 0 0] CT
1 0.6 0.784 RC
10.0 ML
2 LW
N
249.278 103.652 M
255.943 107.5 L
249.278 111.348 L
cp
S
GR
GS
[0.75 0 0 0.75 0 0] CT
1 GC
N
320.278 140.652 M
326.943 144.5 L
320.278 148.348 L
cp
f
GR
GS
[0.75 0 0 0.75 0 0] CT
1 0.6 0.784 RC
10.0 ML
2 LW
N
320.278 140.652 M
326.943 144.5 L
320.278 148.348 L
cp
S
GR
GS
[0.75 0 0 0.75 0 0] CT
1 GC
N
390.278 180.652 M
396.943 184.5 L
390.278 188.348 L
cp
f
GR
GS
[0.75 0 0 0.75 0 0] CT
1 0.6 0.784 RC
10.0 ML
2 LW
N
390.278 180.652 M
396.943 184.5 L
390.278 188.348 L
cp
S
GR
GS
[0.75 0 0 0.75 0 0] CT
1 GC
N
461.278 222.652 M
467.943 226.5 L
461.278 230.348 L
cp
f
GR
GS
[0.75 0 0 0.75 0 0] CT
1 0.6 0.784 RC
10.0 ML
2 LW
N
461.278 222.652 M
467.943 226.5 L
461.278 230.348 L
cp
S
GR
GS
[0.75 0 0 0.75 0 0] CT
1 GC
N
531.278 262.652 M
537.943 266.5 L
531.278 270.348 L
cp
f
GR
GS
[0.75 0 0 0.75 0 0] CT
1 0.6 0.784 RC
10.0 ML
2 LW
N
531.278 262.652 M
537.943 266.5 L
531.278 270.348 L
cp
S
GR
GS
[0.75 0 0 0.75 0 0] CT
1 GC
N
602.278 294.652 M
608.943 298.5 L
602.278 302.348 L
cp
f
GR
GS
[0.75 0 0 0.75 0 0] CT
1 0.6 0.784 RC
10.0 ML
2 LW
N
602.278 294.652 M
608.943 298.5 L
602.278 302.348 L
cp
S
GR
GS
[0.75 0 0 0.75 0 0] CT
1 GC
N
672.278 324.652 M
678.943 328.5 L
672.278 332.348 L
cp
f
GR
GS
[0.75 0 0 0.75 0 0] CT
1 0.6 0.784 RC
10.0 ML
2 LW
N
672.278 324.652 M
678.943 328.5 L
672.278 332.348 L
cp
S
GR
GS
[0.75 0 0 0.75 0 0] CT
1 GC
N
743.278 353.652 M
749.943 357.5 L
743.278 361.348 L
cp
f
GR
GS
[0.75 0 0 0.75 0 0] CT
1 0.6 0.784 RC
10.0 ML
2 LW
N
743.278 353.652 M
749.943 357.5 L
743.278 361.348 L
cp
S
GR
GS
[0.75 0 0 0.75 0 0] CT
0.6 0.2 0 RC
1 LJ
2 LW
N
111 51 M
181.444 74.125 L
251.889 109.583 L
322.333 149.05 L
392.778 184.94 L
463.222 229.833 L
533.667 267.979 L
604.111 304.681 L
674.556 335.489 L
745 364.02 L
S
GR
GS
[0.75 0 0 0.75 0 0] CT
1 GC
N
107.057 50.5 M
113.722 46.652 L
113.722 54.348 L
cp
f
GR
GS
[0.75 0 0 0.75 0 0] CT
0.6 0.2 0 RC
10.0 ML
2 LW
N
107.057 50.5 M
113.722 46.652 L
113.722 54.348 L
cp
S
GR
GS
[0.75 0 0 0.75 0 0] CT
1 GC
N
177.057 74.5 M
183.722 70.652 L
183.722 78.348 L
cp
f
GR
GS
[0.75 0 0 0.75 0 0] CT
0.6 0.2 0 RC
10.0 ML
2 LW
N
177.057 74.5 M
183.722 70.652 L
183.722 78.348 L
cp
S
GR
GS
[0.75 0 0 0.75 0 0] CT
1 GC
N
247.057 109.5 M
253.722 105.652 L
253.722 113.348 L
cp
f
GR
GS
[0.75 0 0 0.75 0 0] CT
0.6 0.2 0 RC
10.0 ML
2 LW
N
247.057 109.5 M
253.722 105.652 L
253.722 113.348 L
cp
S
GR
GS
[0.75 0 0 0.75 0 0] CT
1 GC
N
318.057 149.5 M
324.722 145.652 L
324.722 153.348 L
cp
f
GR
GS
[0.75 0 0 0.75 0 0] CT
0.6 0.2 0 RC
10.0 ML
2 LW
N
318.057 149.5 M
324.722 145.652 L
324.722 153.348 L
cp
S
GR
GS
[0.75 0 0 0.75 0 0] CT
1 GC
N
388.057 184.5 M
394.722 180.652 L
394.722 188.348 L
cp
f
GR
GS
[0.75 0 0 0.75 0 0] CT
0.6 0.2 0 RC
10.0 ML
2 LW
N
388.057 184.5 M
394.722 180.652 L
394.722 188.348 L
cp
S
GR
GS
[0.75 0 0 0.75 0 0] CT
1 GC
N
459.057 229.5 M
465.722 225.652 L
465.722 233.348 L
cp
f
GR
GS
[0.75 0 0 0.75 0 0] CT
0.6 0.2 0 RC
10.0 ML
2 LW
N
459.057 229.5 M
465.722 225.652 L
465.722 233.348 L
cp
S
GR
GS
[0.75 0 0 0.75 0 0] CT
1 GC
N
529.057 267.5 M
535.722 263.652 L
535.722 271.348 L
cp
f
GR
GS
[0.75 0 0 0.75 0 0] CT
0.6 0.2 0 RC
10.0 ML
2 LW
N
529.057 267.5 M
535.722 263.652 L
535.722 271.348 L
cp
S
GR
GS
[0.75 0 0 0.75 0 0] CT
1 GC
N
600.057 304.5 M
606.722 300.652 L
606.722 308.348 L
cp
f
GR
GS
[0.75 0 0 0.75 0 0] CT
0.6 0.2 0 RC
10.0 ML
2 LW
N
600.057 304.5 M
606.722 300.652 L
606.722 308.348 L
cp
S
GR
GS
[0.75 0 0 0.75 0 0] CT
1 GC
N
670.057 335.5 M
676.722 331.652 L
676.722 339.348 L
cp
f
GR
GS
[0.75 0 0 0.75 0 0] CT
0.6 0.2 0 RC
10.0 ML
2 LW
N
670.057 335.5 M
676.722 331.652 L
676.722 339.348 L
cp
S
GR
GS
[0.75 0 0 0.75 0 0] CT
1 GC
N
741.057 364.5 M
747.722 360.652 L
747.722 368.348 L
cp
f
GR
GS
[0.75 0 0 0.75 0 0] CT
0.6 0.2 0 RC
10.0 ML
2 LW
N
741.057 364.5 M
747.722 360.652 L
747.722 368.348 L
cp
S
GR
GS
[0.75 0 0 0.75 0 0] CT
0.929 0.694 0.125 RC
1 LJ
2 LW
N
111 51 M
181.444 99.1 L
251.889 157.067 L
322.333 195.762 L
392.778 234.89 L
463.222 274.85 L
533.667 312.379 L
604.111 343.994 L
674.556 371.461 L
745 398.06 L
S
GR
GS
[0.75 0 0 0.75 0 0] CT
1 GC
N
108.33 49.47 M
110.716 49.47 L
111.5 47.167 L
112.284 49.47 L
114.67 49.47 L
112.768 50.912 L
113.459 53.197 L
111.5 51.833 L
109.541 53.197 L
110.232 50.912 L
108.33 49.47 L
cp
f
GR
GS
[0.75 0 0 0.75 0 0] CT
0.929 0.694 0.125 RC
10.0 ML
2 LW
N
108.33 49.47 M
110.716 49.47 L
111.5 47.167 L
112.284 49.47 L
114.67 49.47 L
112.768 50.912 L
113.459 53.197 L
111.5 51.833 L
109.541 53.197 L
110.232 50.912 L
cp
S
GR
GS
[0.75 0 0 0.75 0 0] CT
1 GC
N
178.33 98.47 M
180.716 98.47 L
181.5 96.167 L
182.284 98.47 L
184.67 98.47 L
182.768 99.912 L
183.459 102.197 L
181.5 100.833 L
179.541 102.197 L
180.232 99.912 L
178.33 98.47 L
cp
f
GR
GS
[0.75 0 0 0.75 0 0] CT
0.929 0.694 0.125 RC
10.0 ML
2 LW
N
178.33 98.47 M
180.716 98.47 L
181.5 96.167 L
182.284 98.47 L
184.67 98.47 L
182.768 99.912 L
183.459 102.197 L
181.5 100.833 L
179.541 102.197 L
180.232 99.912 L
cp
S
GR
GS
[0.75 0 0 0.75 0 0] CT
1 GC
N
248.33 156.47 M
250.716 156.47 L
251.5 154.167 L
252.284 156.47 L
254.67 156.47 L
252.768 157.912 L
253.459 160.197 L
251.5 158.833 L
249.541 160.197 L
250.232 157.912 L
248.33 156.47 L
cp
f
GR
GS
[0.75 0 0 0.75 0 0] CT
0.929 0.694 0.125 RC
10.0 ML
2 LW
N
248.33 156.47 M
250.716 156.47 L
251.5 154.167 L
252.284 156.47 L
254.67 156.47 L
252.768 157.912 L
253.459 160.197 L
251.5 158.833 L
249.541 160.197 L
250.232 157.912 L
cp
S
GR
GS
[0.75 0 0 0.75 0 0] CT
1 GC
N
319.33 194.47 M
321.716 194.47 L
322.5 192.167 L
323.284 194.47 L
325.67 194.47 L
323.768 195.912 L
324.459 198.197 L
322.5 196.833 L
320.541 198.197 L
321.232 195.912 L
319.33 194.47 L
cp
f
GR
GS
[0.75 0 0 0.75 0 0] CT
0.929 0.694 0.125 RC
10.0 ML
2 LW
N
319.33 194.47 M
321.716 194.47 L
322.5 192.167 L
323.284 194.47 L
325.67 194.47 L
323.768 195.912 L
324.459 198.197 L
322.5 196.833 L
320.541 198.197 L
321.232 195.912 L
cp
S
GR
GS
[0.75 0 0 0.75 0 0] CT
1 GC
N
389.33 233.47 M
391.716 233.47 L
392.5 231.167 L
393.284 233.47 L
395.67 233.47 L
393.768 234.912 L
394.459 237.197 L
392.5 235.833 L
390.541 237.197 L
391.232 234.912 L
389.33 233.47 L
cp
f
GR
GS
[0.75 0 0 0.75 0 0] CT
0.929 0.694 0.125 RC
10.0 ML
2 LW
N
389.33 233.47 M
391.716 233.47 L
392.5 231.167 L
393.284 233.47 L
395.67 233.47 L
393.768 234.912 L
394.459 237.197 L
392.5 235.833 L
390.541 237.197 L
391.232 234.912 L
cp
S
GR
GS
[0.75 0 0 0.75 0 0] CT
1 GC
N
460.33 273.47 M
462.716 273.47 L
463.5 271.167 L
464.284 273.47 L
466.67 273.47 L
464.768 274.912 L
465.459 277.197 L
463.5 275.833 L
461.541 277.197 L
462.232 274.912 L
460.33 273.47 L
cp
f
GR
GS
[0.75 0 0 0.75 0 0] CT
0.929 0.694 0.125 RC
10.0 ML
2 LW
N
460.33 273.47 M
462.716 273.47 L
463.5 271.167 L
464.284 273.47 L
466.67 273.47 L
464.768 274.912 L
465.459 277.197 L
463.5 275.833 L
461.541 277.197 L
462.232 274.912 L
cp
S
GR
GS
[0.75 0 0 0.75 0 0] CT
1 GC
N
530.33 311.47 M
532.716 311.47 L
533.5 309.167 L
534.284 311.47 L
536.67 311.47 L
534.768 312.912 L
535.459 315.197 L
533.5 313.833 L
531.541 315.197 L
532.232 312.912 L
530.33 311.47 L
cp
f
GR
GS
[0.75 0 0 0.75 0 0] CT
0.929 0.694 0.125 RC
10.0 ML
2 LW
N
530.33 311.47 M
532.716 311.47 L
533.5 309.167 L
534.284 311.47 L
536.67 311.47 L
534.768 312.912 L
535.459 315.197 L
533.5 313.833 L
531.541 315.197 L
532.232 312.912 L
cp
S
GR
GS
[0.75 0 0 0.75 0 0] CT
1 GC
N
601.33 342.47 M
603.716 342.47 L
604.5 340.167 L
605.284 342.47 L
607.67 342.47 L
605.768 343.912 L
606.459 346.197 L
604.5 344.833 L
602.541 346.197 L
603.232 343.912 L
601.33 342.47 L
cp
f
GR
GS
[0.75 0 0 0.75 0 0] CT
0.929 0.694 0.125 RC
10.0 ML
2 LW
N
601.33 342.47 M
603.716 342.47 L
604.5 340.167 L
605.284 342.47 L
607.67 342.47 L
605.768 343.912 L
606.459 346.197 L
604.5 344.833 L
602.541 346.197 L
603.232 343.912 L
cp
S
GR
GS
[0.75 0 0 0.75 0 0] CT
1 GC
N
671.33 370.47 M
673.716 370.47 L
674.5 368.167 L
675.284 370.47 L
677.67 370.47 L
675.768 371.912 L
676.459 374.197 L
674.5 372.833 L
672.541 374.197 L
673.232 371.912 L
671.33 370.47 L
cp
f
GR
GS
[0.75 0 0 0.75 0 0] CT
0.929 0.694 0.125 RC
10.0 ML
2 LW
N
671.33 370.47 M
673.716 370.47 L
674.5 368.167 L
675.284 370.47 L
677.67 370.47 L
675.768 371.912 L
676.459 374.197 L
674.5 372.833 L
672.541 374.197 L
673.232 371.912 L
cp
S
GR
GS
[0.75 0 0 0.75 0 0] CT
1 GC
N
742.33 397.47 M
744.716 397.47 L
745.5 395.167 L
746.284 397.47 L
748.67 397.47 L
746.768 398.912 L
747.459 401.197 L
745.5 399.833 L
743.541 401.197 L
744.232 398.912 L
742.33 397.47 L
cp
f
GR
GS
[0.75 0 0 0.75 0 0] CT
0.929 0.694 0.125 RC
10.0 ML
2 LW
N
742.33 397.47 M
744.716 397.47 L
745.5 395.167 L
746.284 397.47 L
748.67 397.47 L
746.768 398.912 L
747.459 401.197 L
745.5 399.833 L
743.541 401.197 L
744.232 398.912 L
cp
S
GR
GS
[0.75 0 0 0.75 0 0] CT
0 1 1 RC
1 LJ
2 LW
N
111 51 M
181.444 71.35 L
251.889 100.95 L
322.333 137.025 L
392.778 174.21 L
463.222 218.733 L
533.667 258.2 L
604.111 293.581 L
674.556 325.828 L
745 351.44 L
S
GR
GS
[0.75 0 0 0.75 0 0] CT
1 GC
N
111.5 54.943 M
114.833 50.5 L
111.5 46.057 L
108.167 50.5 L
cp
f
GR
GS
[0.75 0 0 0.75 0 0] CT
0 1 1 RC
10.0 ML
2 LW
N
111.5 54.943 M
114.833 50.5 L
111.5 46.057 L
108.167 50.5 L
cp
S
GR
GS
[0.75 0 0 0.75 0 0] CT
1 GC
N
181.5 75.943 M
184.833 71.5 L
181.5 67.057 L
178.167 71.5 L
cp
f
GR
GS
[0.75 0 0 0.75 0 0] CT
0 1 1 RC
10.0 ML
2 LW
N
181.5 75.943 M
184.833 71.5 L
181.5 67.057 L
178.167 71.5 L
cp
S
GR
GS
[0.75 0 0 0.75 0 0] CT
1 GC
N
251.5 104.943 M
254.833 100.5 L
251.5 96.057 L
248.167 100.5 L
cp
f
GR
GS
[0.75 0 0 0.75 0 0] CT
0 1 1 RC
10.0 ML
2 LW
N
251.5 104.943 M
254.833 100.5 L
251.5 96.057 L
248.167 100.5 L
cp
S
GR
GS
[0.75 0 0 0.75 0 0] CT
1 GC
N
322.5 141.943 M
325.833 137.5 L
322.5 133.057 L
319.167 137.5 L
cp
f
GR
GS
[0.75 0 0 0.75 0 0] CT
0 1 1 RC
10.0 ML
2 LW
N
322.5 141.943 M
325.833 137.5 L
322.5 133.057 L
319.167 137.5 L
cp
S
GR
GS
[0.75 0 0 0.75 0 0] CT
1 GC
N
392.5 178.943 M
395.833 174.5 L
392.5 170.057 L
389.167 174.5 L
cp
f
GR
GS
[0.75 0 0 0.75 0 0] CT
0 1 1 RC
10.0 ML
2 LW
N
392.5 178.943 M
395.833 174.5 L
392.5 170.057 L
389.167 174.5 L
cp
S
GR
GS
[0.75 0 0 0.75 0 0] CT
1 GC
N
463.5 222.943 M
466.833 218.5 L
463.5 214.057 L
460.167 218.5 L
cp
f
GR
GS
[0.75 0 0 0.75 0 0] CT
0 1 1 RC
10.0 ML
2 LW
N
463.5 222.943 M
466.833 218.5 L
463.5 214.057 L
460.167 218.5 L
cp
S
GR
GS
[0.75 0 0 0.75 0 0] CT
1 GC
N
533.5 262.943 M
536.833 258.5 L
533.5 254.057 L
530.167 258.5 L
cp
f
GR
GS
[0.75 0 0 0.75 0 0] CT
0 1 1 RC
10.0 ML
2 LW
N
533.5 262.943 M
536.833 258.5 L
533.5 254.057 L
530.167 258.5 L
cp
S
GR
GS
[0.75 0 0 0.75 0 0] CT
1 GC
N
604.5 297.943 M
607.833 293.5 L
604.5 289.057 L
601.167 293.5 L
cp
f
GR
GS
[0.75 0 0 0.75 0 0] CT
0 1 1 RC
10.0 ML
2 LW
N
604.5 297.943 M
607.833 293.5 L
604.5 289.057 L
601.167 293.5 L
cp
S
GR
GS
[0.75 0 0 0.75 0 0] CT
1 GC
N
674.5 329.943 M
677.833 325.5 L
674.5 321.057 L
671.167 325.5 L
cp
f
GR
GS
[0.75 0 0 0.75 0 0] CT
0 1 1 RC
10.0 ML
2 LW
N
674.5 329.943 M
677.833 325.5 L
674.5 321.057 L
671.167 325.5 L
cp
S
GR
GS
[0.75 0 0 0.75 0 0] CT
1 GC
N
745.5 355.943 M
748.833 351.5 L
745.5 347.057 L
742.167 351.5 L
cp
f
GR
GS
[0.75 0 0 0.75 0 0] CT
0 1 1 RC
10.0 ML
2 LW
N
745.5 355.943 M
748.833 351.5 L
745.5 347.057 L
742.167 351.5 L
cp
S
GR
GS
[0.75 0 0 0.75 0 0] CT
0 1 0 RC
1 LJ
2 LW
N
111 51 M
181.444 58.4 L
251.889 82.45 L
322.333 113.438 L
392.778 143.13 L
463.222 181.733 L
533.667 221.2 L
604.111 256.35 L
674.556 288.417 L
745 318.695 L
S
GR
GS
[0.75 0 0 0.75 0 0] CT
1 GC
N
108.9 53.1 M
108.9 47.9 L
114.1 47.9 L
114.1 53.1 L
cp
f
GR
GS
[0.75 0 0 0.75 0 0] CT
0 1 0 RC
10.0 ML
2 LW
N
108.9 53.1 M
108.9 47.9 L
114.1 47.9 L
114.1 53.1 L
cp
S
GR
GS
[0.75 0 0 0.75 0 0] CT
1 GC
N
178.9 61.1 M
178.9 55.9 L
184.1 55.9 L
184.1 61.1 L
cp
f
GR
GS
[0.75 0 0 0.75 0 0] CT
0 1 0 RC
10.0 ML
2 LW
N
178.9 61.1 M
178.9 55.9 L
184.1 55.9 L
184.1 61.1 L
cp
S
GR
GS
[0.75 0 0 0.75 0 0] CT
1 GC
N
248.9 85.1 M
248.9 79.9 L
254.1 79.9 L
254.1 85.1 L
cp
f
GR
GS
[0.75 0 0 0.75 0 0] CT
0 1 0 RC
10.0 ML
2 LW
N
248.9 85.1 M
248.9 79.9 L
254.1 79.9 L
254.1 85.1 L
cp
S
GR
GS
[0.75 0 0 0.75 0 0] CT
1 GC
N
319.9 116.1 M
319.9 110.9 L
325.1 110.9 L
325.1 116.1 L
cp
f
GR
GS
[0.75 0 0 0.75 0 0] CT
0 1 0 RC
10.0 ML
2 LW
N
319.9 116.1 M
319.9 110.9 L
325.1 110.9 L
325.1 116.1 L
cp
S
GR
GS
[0.75 0 0 0.75 0 0] CT
1 GC
N
389.9 146.1 M
389.9 140.9 L
395.1 140.9 L
395.1 146.1 L
cp
f
GR
GS
[0.75 0 0 0.75 0 0] CT
0 1 0 RC
10.0 ML
2 LW
N
389.9 146.1 M
389.9 140.9 L
395.1 140.9 L
395.1 146.1 L
cp
S
GR
GS
[0.75 0 0 0.75 0 0] CT
1 GC
N
460.9 184.1 M
460.9 178.9 L
466.1 178.9 L
466.1 184.1 L
cp
f
GR
GS
[0.75 0 0 0.75 0 0] CT
0 1 0 RC
10.0 ML
2 LW
N
460.9 184.1 M
460.9 178.9 L
466.1 178.9 L
466.1 184.1 L
cp
S
GR
GS
[0.75 0 0 0.75 0 0] CT
1 GC
N
530.9 224.1 M
530.9 218.9 L
536.1 218.9 L
536.1 224.1 L
cp
f
GR
GS
[0.75 0 0 0.75 0 0] CT
0 1 0 RC
10.0 ML
2 LW
N
530.9 224.1 M
530.9 218.9 L
536.1 218.9 L
536.1 224.1 L
cp
S
GR
GS
[0.75 0 0 0.75 0 0] CT
1 GC
N
601.9 259.1 M
601.9 253.9 L
607.1 253.9 L
607.1 259.1 L
cp
f
GR
GS
[0.75 0 0 0.75 0 0] CT
0 1 0 RC
10.0 ML
2 LW
N
601.9 259.1 M
601.9 253.9 L
607.1 253.9 L
607.1 259.1 L
cp
S
GR
GS
[0.75 0 0 0.75 0 0] CT
1 GC
N
671.9 291.1 M
671.9 285.9 L
677.1 285.9 L
677.1 291.1 L
cp
f
GR
GS
[0.75 0 0 0.75 0 0] CT
0 1 0 RC
10.0 ML
2 LW
N
671.9 291.1 M
671.9 285.9 L
677.1 285.9 L
677.1 291.1 L
cp
S
GR
GS
[0.75 0 0 0.75 0 0] CT
1 GC
N
742.9 321.1 M
742.9 315.9 L
748.1 315.9 L
748.1 321.1 L
cp
f
GR
GS
[0.75 0 0 0.75 0 0] CT
0 1 0 RC
10.0 ML
2 LW
N
742.9 321.1 M
742.9 315.9 L
748.1 315.9 L
748.1 321.1 L
cp
S
GR
GS
[0.75 0 0 0.75 0 0] CT
0 0 1 RC
1 LJ
2 LW
N
111 51 M
181.444 126.85 L
251.889 179.267 L
322.333 221.663 L
392.778 260.05 L
463.222 299.208 L
533.667 335.371 L
604.111 365.038 L
674.556 391.4 L
745 414.525 L
S
GR
GS
[0.75 0 0 0.75 0 0] CT
1 GC
N
107.057 50.5 M
113.722 46.652 L
113.722 54.348 L
cp
f
GR
GS
[0.75 0 0 0.75 0 0] CT
0 0 1 RC
10.0 ML
2 LW
N
107.057 50.5 M
113.722 46.652 L
113.722 54.348 L
cp
S
GR
GS
[0.75 0 0 0.75 0 0] CT
1 GC
N
177.057 126.5 M
183.722 122.652 L
183.722 130.348 L
cp
f
GR
GS
[0.75 0 0 0.75 0 0] CT
0 0 1 RC
10.0 ML
2 LW
N
177.057 126.5 M
183.722 122.652 L
183.722 130.348 L
cp
S
GR
GS
[0.75 0 0 0.75 0 0] CT
1 GC
N
247.057 179.5 M
253.722 175.652 L
253.722 183.348 L
cp
f
GR
GS
[0.75 0 0 0.75 0 0] CT
0 0 1 RC
10.0 ML
2 LW
N
247.057 179.5 M
253.722 175.652 L
253.722 183.348 L
cp
S
GR
GS
[0.75 0 0 0.75 0 0] CT
1 GC
N
318.057 221.5 M
324.722 217.652 L
324.722 225.348 L
cp
f
GR
GS
[0.75 0 0 0.75 0 0] CT
0 0 1 RC
10.0 ML
2 LW
N
318.057 221.5 M
324.722 217.652 L
324.722 225.348 L
cp
S
GR
GS
[0.75 0 0 0.75 0 0] CT
1 GC
N
388.057 260.5 M
394.722 256.652 L
394.722 264.348 L
cp
f
GR
GS
[0.75 0 0 0.75 0 0] CT
0 0 1 RC
10.0 ML
2 LW
N
388.057 260.5 M
394.722 256.652 L
394.722 264.348 L
cp
S
GR
GS
[0.75 0 0 0.75 0 0] CT
1 GC
N
459.057 299.5 M
465.722 295.652 L
465.722 303.348 L
cp
f
GR
GS
[0.75 0 0 0.75 0 0] CT
0 0 1 RC
10.0 ML
2 LW
N
459.057 299.5 M
465.722 295.652 L
465.722 303.348 L
cp
S
GR
GS
[0.75 0 0 0.75 0 0] CT
1 GC
N
529.057 335.5 M
535.722 331.652 L
535.722 339.348 L
cp
f
GR
GS
[0.75 0 0 0.75 0 0] CT
0 0 1 RC
10.0 ML
2 LW
N
529.057 335.5 M
535.722 331.652 L
535.722 339.348 L
cp
S
GR
GS
[0.75 0 0 0.75 0 0] CT
1 GC
N
600.057 365.5 M
606.722 361.652 L
606.722 369.348 L
cp
f
GR
GS
[0.75 0 0 0.75 0 0] CT
0 0 1 RC
10.0 ML
2 LW
N
600.057 365.5 M
606.722 361.652 L
606.722 369.348 L
cp
S
GR
GS
[0.75 0 0 0.75 0 0] CT
1 GC
N
670.057 391.5 M
676.722 387.652 L
676.722 395.348 L
cp
f
GR
GS
[0.75 0 0 0.75 0 0] CT
0 0 1 RC
10.0 ML
2 LW
N
670.057 391.5 M
676.722 387.652 L
676.722 395.348 L
cp
S
GR
GS
[0.75 0 0 0.75 0 0] CT
1 GC
N
741.057 414.5 M
747.722 410.652 L
747.722 418.348 L
cp
f
GR
GS
[0.75 0 0 0.75 0 0] CT
0 0 1 RC
10.0 ML
2 LW
N
741.057 414.5 M
747.722 410.652 L
747.722 418.348 L
cp
S
GR
GS
[0.75 0 0 0.75 0 0] CT
1 0 1 RC
1 LJ
2 LW
N
111 51 M
181.444 54.7 L
251.889 66.417 L
322.333 85.225 L
392.778 104.65 L
463.222 144.117 L
533.667 178.386 L
604.111 211.719 L
674.556 243.606 L
745 272.815 L
S
GR
GS
[0.75 0 0 0.75 0 0] CT
1 0 1 RC
1 LJ
2 LW
N
108 50.5 M
115 50.5 L
S
GR
GS
[0.75 0 0 0.75 0 0] CT
1 0 1 RC
1 LJ
2 LW
N
111.5 54 M
111.5 47 L
S
GR
GS
[0.75 0 0 0.75 0 0] CT
1 0 1 RC
1 LJ
2 LW
N
178 54.5 M
185 54.5 L
S
GR
GS
[0.75 0 0 0.75 0 0] CT
1 0 1 RC
1 LJ
2 LW
N
181.5 58 M
181.5 51 L
S
GR
GS
[0.75 0 0 0.75 0 0] CT
1 0 1 RC
1 LJ
2 LW
N
248 66.5 M
255 66.5 L
S
GR
GS
[0.75 0 0 0.75 0 0] CT
1 0 1 RC
1 LJ
2 LW
N
251.5 70 M
251.5 63 L
S
GR
GS
[0.75 0 0 0.75 0 0] CT
1 0 1 RC
1 LJ
2 LW
N
319 85.5 M
326 85.5 L
S
GR
GS
[0.75 0 0 0.75 0 0] CT
1 0 1 RC
1 LJ
2 LW
N
322.5 89 M
322.5 82 L
S
GR
GS
[0.75 0 0 0.75 0 0] CT
1 0 1 RC
1 LJ
2 LW
N
389 104.5 M
396 104.5 L
S
GR
GS
[0.75 0 0 0.75 0 0] CT
1 0 1 RC
1 LJ
2 LW
N
392.5 108 M
392.5 101 L
S
GR
GS
[0.75 0 0 0.75 0 0] CT
1 0 1 RC
1 LJ
2 LW
N
460 144.5 M
467 144.5 L
S
GR
GS
[0.75 0 0 0.75 0 0] CT
1 0 1 RC
1 LJ
2 LW
N
463.5 148 M
463.5 141 L
S
GR
GS
[0.75 0 0 0.75 0 0] CT
1 0 1 RC
1 LJ
2 LW
N
530 178.5 M
537 178.5 L
S
GR
GS
[0.75 0 0 0.75 0 0] CT
1 0 1 RC
1 LJ
2 LW
N
533.5 182 M
533.5 175 L
S
GR
GS
[0.75 0 0 0.75 0 0] CT
1 0 1 RC
1 LJ
2 LW
N
601 211.5 M
608 211.5 L
S
GR
GS
[0.75 0 0 0.75 0 0] CT
1 0 1 RC
1 LJ
2 LW
N
604.5 215 M
604.5 208 L
S
GR
GS
[0.75 0 0 0.75 0 0] CT
1 0 1 RC
1 LJ
2 LW
N
671 243.5 M
678 243.5 L
S
GR
GS
[0.75 0 0 0.75 0 0] CT
1 0 1 RC
1 LJ
2 LW
N
674.5 247 M
674.5 240 L
S
GR
GS
[0.75 0 0 0.75 0 0] CT
1 0 1 RC
1 LJ
2 LW
N
742 272.5 M
749 272.5 L
S
GR
GS
[0.75 0 0 0.75 0 0] CT
1 0 1 RC
1 LJ
2 LW
N
745.5 276 M
745.5 269 L
S
GR
GS
[0.75 0 0 0.75 0 0] CT
1 0 0 RC
1 LJ
2 LW
N
111 51 M
181.444 53.775 L
251.889 63.95 L
322.333 77.825 L
392.778 95.4 L
463.222 133.942 L
533.667 168.607 L
604.111 200.619 L
674.556 230.244 L
745 262.085 L
S
GR
GS
[0.75 0 0 0.75 0 0] CT
1 GC
N
107.652 52.722 M
115.348 52.722 L
111.5 46.057 L
cp
f
GR
GS
[0.75 0 0 0.75 0 0] CT
1 0 0 RC
10.0 ML
2 LW
N
107.652 52.722 M
115.348 52.722 L
111.5 46.057 L
cp
S
GR
GS
[0.75 0 0 0.75 0 0] CT
1 GC
N
177.652 55.722 M
185.348 55.722 L
181.5 49.057 L
cp
f
GR
GS
[0.75 0 0 0.75 0 0] CT
1 0 0 RC
10.0 ML
2 LW
N
177.652 55.722 M
185.348 55.722 L
181.5 49.057 L
cp
S
GR
GS
[0.75 0 0 0.75 0 0] CT
1 GC
N
247.652 65.722 M
255.348 65.722 L
251.5 59.057 L
cp
f
GR
GS
[0.75 0 0 0.75 0 0] CT
1 0 0 RC
10.0 ML
2 LW
N
247.652 65.722 M
255.348 65.722 L
251.5 59.057 L
cp
S
GR
GS
[0.75 0 0 0.75 0 0] CT
1 GC
N
318.652 79.722 M
326.348 79.722 L
322.5 73.057 L
cp
f
GR
GS
[0.75 0 0 0.75 0 0] CT
1 0 0 RC
10.0 ML
2 LW
N
318.652 79.722 M
326.348 79.722 L
322.5 73.057 L
cp
S
GR
GS
[0.75 0 0 0.75 0 0] CT
1 GC
N
388.652 97.722 M
396.348 97.722 L
392.5 91.057 L
cp
f
GR
GS
[0.75 0 0 0.75 0 0] CT
1 0 0 RC
10.0 ML
2 LW
N
388.652 97.722 M
396.348 97.722 L
392.5 91.057 L
cp
S
GR
GS
[0.75 0 0 0.75 0 0] CT
1 GC
N
459.652 135.722 M
467.348 135.722 L
463.5 129.057 L
cp
f
GR
GS
[0.75 0 0 0.75 0 0] CT
1 0 0 RC
10.0 ML
2 LW
N
459.652 135.722 M
467.348 135.722 L
463.5 129.057 L
cp
S
GR
GS
[0.75 0 0 0.75 0 0] CT
1 GC
N
529.652 170.722 M
537.348 170.722 L
533.5 164.057 L
cp
f
GR
GS
[0.75 0 0 0.75 0 0] CT
1 0 0 RC
10.0 ML
2 LW
N
529.652 170.722 M
537.348 170.722 L
533.5 164.057 L
cp
S
GR
GS
[0.75 0 0 0.75 0 0] CT
1 GC
N
600.652 202.722 M
608.348 202.722 L
604.5 196.057 L
cp
f
GR
GS
[0.75 0 0 0.75 0 0] CT
1 0 0 RC
10.0 ML
2 LW
N
600.652 202.722 M
608.348 202.722 L
604.5 196.057 L
cp
S
GR
GS
[0.75 0 0 0.75 0 0] CT
1 GC
N
670.652 232.722 M
678.348 232.722 L
674.5 226.057 L
cp
f
GR
GS
[0.75 0 0 0.75 0 0] CT
1 0 0 RC
10.0 ML
2 LW
N
670.652 232.722 M
678.348 232.722 L
674.5 226.057 L
cp
S
GR
GS
[0.75 0 0 0.75 0 0] CT
1 GC
N
741.652 264.722 M
749.348 264.722 L
745.5 258.057 L
cp
f
GR
GS
[0.75 0 0 0.75 0 0] CT
1 0 0 RC
10.0 ML
2 LW
N
741.652 264.722 M
749.348 264.722 L
745.5 258.057 L
cp
S
GR
GS
[0.75 0 0 0.75 0 0] CT
1 LJ
2 LW
N
111 51 M
181.444 51.925 L
251.889 58.4 L
322.333 66.262 L
392.778 79.86 L
463.222 111.125 L
533.667 140.857 L
604.111 168.706 L
674.556 198.589 L
745 230.08 L
S
GR
GS
[0.75 0 0 0.75 0 0] CT
1 GC
N
114.833 50.5 M
113.857 48.143 L
111.5 47.167 L
109.143 48.143 L
108.167 50.5 L
109.143 52.857 L
111.5 53.833 L
113.857 52.857 L
114.833 50.5 L
cp
f
GR
GS
[0.75 0 0 0.75 0 0] CT
1 LJ
2 LW
N
114.833 50.5 M
114.197 48.541 L
112.53 47.33 L
110.47 47.33 L
108.803 48.541 L
108.167 50.5 L
108.803 52.459 L
110.47 53.67 L
112.53 53.67 L
114.197 52.459 L
cp
S
GR
GS
[0.75 0 0 0.75 0 0] CT
1 GC
N
184.833 51.5 M
183.857 49.143 L
181.5 48.167 L
179.143 49.143 L
178.167 51.5 L
179.143 53.857 L
181.5 54.833 L
183.857 53.857 L
184.833 51.5 L
cp
f
GR
GS
[0.75 0 0 0.75 0 0] CT
1 LJ
2 LW
N
184.833 51.5 M
184.197 49.541 L
182.53 48.33 L
180.47 48.33 L
178.803 49.541 L
178.167 51.5 L
178.803 53.459 L
180.47 54.67 L
182.53 54.67 L
184.197 53.459 L
cp
S
GR
GS
[0.75 0 0 0.75 0 0] CT
1 GC
N
254.833 58.5 M
253.857 56.143 L
251.5 55.167 L
249.143 56.143 L
248.167 58.5 L
249.143 60.857 L
251.5 61.833 L
253.857 60.857 L
254.833 58.5 L
cp
f
GR
GS
[0.75 0 0 0.75 0 0] CT
1 LJ
2 LW
N
254.833 58.5 M
254.197 56.541 L
252.53 55.33 L
250.47 55.33 L
248.803 56.541 L
248.167 58.5 L
248.803 60.459 L
250.47 61.67 L
252.53 61.67 L
254.197 60.459 L
cp
S
GR
GS
[0.75 0 0 0.75 0 0] CT
1 GC
N
325.833 66.5 M
324.857 64.143 L
322.5 63.167 L
320.143 64.143 L
319.167 66.5 L
320.143 68.857 L
322.5 69.833 L
324.857 68.857 L
325.833 66.5 L
cp
f
GR
GS
[0.75 0 0 0.75 0 0] CT
1 LJ
2 LW
N
325.833 66.5 M
325.197 64.541 L
323.53 63.33 L
321.47 63.33 L
319.803 64.541 L
319.167 66.5 L
319.803 68.459 L
321.47 69.67 L
323.53 69.67 L
325.197 68.459 L
cp
S
GR
GS
[0.75 0 0 0.75 0 0] CT
1 GC
N
395.833 79.5 M
394.857 77.143 L
392.5 76.167 L
390.143 77.143 L
389.167 79.5 L
390.143 81.857 L
392.5 82.833 L
394.857 81.857 L
395.833 79.5 L
cp
f
GR
GS
[0.75 0 0 0.75 0 0] CT
1 LJ
2 LW
N
395.833 79.5 M
395.197 77.541 L
393.53 76.33 L
391.47 76.33 L
389.803 77.541 L
389.167 79.5 L
389.803 81.459 L
391.47 82.67 L
393.53 82.67 L
395.197 81.459 L
cp
S
GR
GS
[0.75 0 0 0.75 0 0] CT
1 GC
N
466.833 111.5 M
465.857 109.143 L
463.5 108.167 L
461.143 109.143 L
460.167 111.5 L
461.143 113.857 L
463.5 114.833 L
465.857 113.857 L
466.833 111.5 L
cp
f
GR
GS
[0.75 0 0 0.75 0 0] CT
1 LJ
2 LW
N
466.833 111.5 M
466.197 109.541 L
464.53 108.33 L
462.47 108.33 L
460.803 109.541 L
460.167 111.5 L
460.803 113.459 L
462.47 114.67 L
464.53 114.67 L
466.197 113.459 L
cp
S
GR
GS
[0.75 0 0 0.75 0 0] CT
1 GC
N
536.833 140.5 M
535.857 138.143 L
533.5 137.167 L
531.143 138.143 L
530.167 140.5 L
531.143 142.857 L
533.5 143.833 L
535.857 142.857 L
536.833 140.5 L
cp
f
GR
GS
[0.75 0 0 0.75 0 0] CT
1 LJ
2 LW
N
536.833 140.5 M
536.197 138.541 L
534.53 137.33 L
532.47 137.33 L
530.803 138.541 L
530.167 140.5 L
530.803 142.459 L
532.47 143.67 L
534.53 143.67 L
536.197 142.459 L
cp
S
GR
GS
[0.75 0 0 0.75 0 0] CT
1 GC
N
607.833 168.5 M
606.857 166.143 L
604.5 165.167 L
602.143 166.143 L
601.167 168.5 L
602.143 170.857 L
604.5 171.833 L
606.857 170.857 L
607.833 168.5 L
cp
f
GR
GS
[0.75 0 0 0.75 0 0] CT
1 LJ
2 LW
N
607.833 168.5 M
607.197 166.541 L
605.53 165.33 L
603.47 165.33 L
601.803 166.541 L
601.167 168.5 L
601.803 170.459 L
603.47 171.67 L
605.53 171.67 L
607.197 170.459 L
cp
S
GR
GS
[0.75 0 0 0.75 0 0] CT
1 GC
N
677.833 198.5 M
676.857 196.143 L
674.5 195.167 L
672.143 196.143 L
671.167 198.5 L
672.143 200.857 L
674.5 201.833 L
676.857 200.857 L
677.833 198.5 L
cp
f
GR
GS
[0.75 0 0 0.75 0 0] CT
1 LJ
2 LW
N
677.833 198.5 M
677.197 196.541 L
675.53 195.33 L
673.47 195.33 L
671.803 196.541 L
671.167 198.5 L
671.803 200.459 L
673.47 201.67 L
675.53 201.67 L
677.197 200.459 L
cp
S
GR
GS
[0.75 0 0 0.75 0 0] CT
1 GC
N
748.833 230.5 M
747.857 228.143 L
745.5 227.167 L
743.143 228.143 L
742.167 230.5 L
743.143 232.857 L
745.5 233.833 L
747.857 232.857 L
748.833 230.5 L
cp
f
GR
GS
[0.75 0 0 0.75 0 0] CT
1 LJ
2 LW
N
748.833 230.5 M
748.197 228.541 L
746.53 227.33 L
744.47 227.33 L
742.803 228.541 L
742.167 230.5 L
742.803 232.459 L
744.47 233.67 L
746.53 233.67 L
748.197 232.459 L
cp
S
GR
GS
[0.75 0 0 0.75 0 0] CT
1 GC
N
124 408 M
124 139 L
230 139 L
230 408 L
cp
f
GR
GS
[0.75 0 0 0.75 120.75 116.625] CT
/Times 24 F
GS
[1 0 0 1 0 0] CT
0 8.5 moveto 
1 -1 scale
(LBP) t 
GR
GR
GS
[0.75 0 0 0.75 0 0] CT
1 0.6 0.784 RC
1 LJ
2 LW
N
128 155.5 M
158 155.5 L
S
GR
GS
[0.75 0 0 0.75 0 0] CT
1 GC
N
141.278 151.652 M
147.943 155.5 L
141.278 159.348 L
cp
f
GR
GS
[0.75 0 0 0.75 0 0] CT
1 0.6 0.784 RC
10.0 ML
2 LW
N
141.278 151.652 M
147.943 155.5 L
141.278 159.348 L
cp
S
GR
GS
[0.75 0 0 0.75 120.75 138.75] CT
/Times 24 F
GS
[1 0 0 1 0 0] CT
0 8.5 moveto 
1 -1 scale
(LTP) t 
GR
GR
GS
[0.75 0 0 0.75 0 0] CT
0.6 0.2 0 RC
1 LJ
2 LW
N
128 185 M
158 185 L
S
GR
GS
[0.75 0 0 0.75 0 0] CT
1 GC
N
139.057 184.5 M
145.722 180.652 L
145.722 188.348 L
cp
f
GR
GS
[0.75 0 0 0.75 0 0] CT
0.6 0.2 0 RC
10.0 ML
2 LW
N
139.057 184.5 M
145.722 180.652 L
145.722 188.348 L
cp
S
GR
GS
[0.75 0 0 0.75 120.75 160.875] CT
/Times 24 F
GS
[1 0 0 1 0 0] CT
0 8.5 moveto 
1 -1 scale
(LDP) t 
GR
GR
GS
[0.75 0 0 0.75 0 0] CT
0.929 0.694 0.125 RC
1 LJ
2 LW
N
128 214.5 M
158 214.5 L
S
GR
GS
[0.75 0 0 0.75 0 0] CT
1 GC
N
140.33 213.47 M
142.716 213.47 L
143.5 211.167 L
144.284 213.47 L
146.67 213.47 L
144.768 214.912 L
145.459 217.197 L
143.5 215.833 L
141.541 217.197 L
142.232 214.912 L
140.33 213.47 L
cp
f
GR
GS
[0.75 0 0 0.75 0 0] CT
0.929 0.694 0.125 RC
10.0 ML
2 LW
N
140.33 213.47 M
142.716 213.47 L
143.5 211.167 L
144.284 213.47 L
146.67 213.47 L
144.768 214.912 L
145.459 217.197 L
143.5 215.833 L
141.541 217.197 L
142.232 214.912 L
cp
S
GR
GS
[0.75 0 0 0.75 120.75 183] CT
/Times 24 F
GS
[1 0 0 1 0 0] CT
0 8.5 moveto 
1 -1 scale
(SLBP) t 
GR
GR
GS
[0.75 0 0 0.75 0 0] CT
0 1 1 RC
1 LJ
2 LW
N
128 244 M
158 244 L
S
GR
GS
[0.75 0 0 0.75 0 0] CT
1 GC
N
143.5 247.943 M
146.833 243.5 L
143.5 239.057 L
140.167 243.5 L
cp
f
GR
GS
[0.75 0 0 0.75 0 0] CT
0 1 1 RC
10.0 ML
2 LW
N
143.5 247.943 M
146.833 243.5 L
143.5 239.057 L
140.167 243.5 L
cp
S
GR
GS
[0.75 0 0 0.75 120.75 205.125] CT
/Times 24 F
GS
[1 0 0 1 0 0] CT
0 8.5 moveto 
1 -1 scale
(LVP) t 
GR
GR
GS
[0.75 0 0 0.75 0 0] CT
0 1 0 RC
1 LJ
2 LW
N
128 273.5 M
158 273.5 L
S
GR
GS
[0.75 0 0 0.75 0 0] CT
1 GC
N
140.9 276.1 M
140.9 270.9 L
146.1 270.9 L
146.1 276.1 L
cp
f
GR
GS
[0.75 0 0 0.75 0 0] CT
0 1 0 RC
10.0 ML
2 LW
N
140.9 276.1 M
140.9 270.9 L
146.1 270.9 L
146.1 276.1 L
cp
S
GR
GS
[0.75 0 0 0.75 120.75 227.25] CT
/Times 24 F
GS
[1 0 0 1 0 0] CT
0 8.5 moveto 
1 -1 scale
(LDGP) t 
GR
GR
GS
[0.75 0 0 0.75 0 0] CT
0 0 1 RC
1 LJ
2 LW
N
128 303 M
158 303 L
S
GR
GS
[0.75 0 0 0.75 0 0] CT
1 GC
N
139.057 302.5 M
145.722 298.652 L
145.722 306.348 L
cp
f
GR
GS
[0.75 0 0 0.75 0 0] CT
0 0 1 RC
10.0 ML
2 LW
N
139.057 302.5 M
145.722 298.652 L
145.722 306.348 L
cp
S
GR
GS
[0.75 0 0 0.75 120.75 249.375] CT
/Times 24 F
GS
[1 0 0 1 0 0] CT
0 8.5 moveto 
1 -1 scale
(DCP) t 
GR
GR
GS
[0.75 0 0 0.75 0 0] CT
1 0 1 RC
1 LJ
2 LW
N
128 332.5 M
158 332.5 L
S
GR
GS
[0.75 0 0 0.75 0 0] CT
1 0 1 RC
1 LJ
2 LW
N
140 332.5 M
147 332.5 L
S
GR
GS
[0.75 0 0 0.75 0 0] CT
1 0 1 RC
1 LJ
2 LW
N
143.5 336 M
143.5 329 L
S
GR
GS
[0.75 0 0 0.75 120.75 271.5] CT
/Times 24 F
GS
[1 0 0 1 0 0] CT
0 8.5 moveto 
1 -1 scale
(LGHP) t 
GR
GR
GS
[0.75 0 0 0.75 0 0] CT
1 0 0 RC
1 LJ
2 LW
N
128 362 M
158 362 L
S
GR
GS
[0.75 0 0 0.75 0 0] CT
1 GC
N
139.652 364.722 M
147.348 364.722 L
143.5 358.057 L
cp
f
GR
GS
[0.75 0 0 0.75 0 0] CT
1 0 0 RC
10.0 ML
2 LW
N
139.652 364.722 M
147.348 364.722 L
143.5 358.057 L
cp
S
GR
GS
[0.75 0 0 0.75 120.75 293.625] CT
/Times 24 F
GS
[1 0 0 1 0 0] CT
0 8.5 moveto 
1 -1 scale
(LDRP) t 
GR
GR
GS
[0.75 0 0 0.75 0 0] CT
1 LJ
2 LW
N
128 391.5 M
158 391.5 L
S
GR
GS
[0.75 0 0 0.75 0 0] CT
1 GC
N
146.833 391.5 M
145.857 389.143 L
143.5 388.167 L
141.143 389.143 L
140.167 391.5 L
141.143 393.857 L
143.5 394.833 L
145.857 393.857 L
146.833 391.5 L
cp
f
GR
GS
[0.75 0 0 0.75 0 0] CT
1 LJ
2 LW
N
146.833 391.5 M
146.197 389.541 L
144.53 388.33 L
142.47 388.33 L
140.803 389.541 L
140.167 391.5 L
140.803 393.459 L
142.47 394.67 L
144.53 394.67 L
146.197 393.459 L
cp
S
GR
GS
[0.75 0 0 0.75 0 0] CT
0.149 GC
10.0 ML
0.667 LW
N
124 408 M
124 139 L
230 139 L
230 408 L
cp
S
GR
%%Trailer
%%Pages: 1
%%EOF
