%!PS-Adobe-3.0 EPSF-3.0
%%Creator: (MATLAB, The Mathworks, Inc. Version 9.0.0.341360 \(R2016a\). Operating System: Linux)
%%Title: (/home/shivram/main/Work/1. Research/1. Ongoing/5. LDRP Face/2. Exp/1. Results/AT&T/ATT-F.eps)
%%CreationDate: 2017-08-16T15:48:23
%%Pages: (atend)
%%BoundingBox: 0 0 573 384
%%LanguageLevel: 3
%%EndComments
%%BeginProlog
%%BeginResource: procset (Apache XML Graphics Std ProcSet) 1.2 0
%%Version: 1.2 0
%%Copyright: (Copyright 2001-2003,2010 The Apache Software Foundation. License terms: http://www.apache.org/licenses/LICENSE-2.0)
/bd{bind def}bind def
/ld{load def}bd
/GR/grestore ld
/M/moveto ld
/LJ/setlinejoin ld
/C/curveto ld
/f/fill ld
/LW/setlinewidth ld
/GC/setgray ld
/t/show ld
/N/newpath ld
/CT/concat ld
/cp/closepath ld
/S/stroke ld
/L/lineto ld
/CC/setcmykcolor ld
/A/ashow ld
/GS/gsave ld
/RC/setrgbcolor ld
/RM/rmoveto ld
/ML/setmiterlimit ld
/re {4 2 roll M
1 index 0 rlineto
0 exch rlineto
neg 0 rlineto
cp } bd
/_ctm matrix def
/_tm matrix def
/BT { _ctm currentmatrix pop matrix _tm copy pop 0 0 moveto } bd
/ET { _ctm setmatrix } bd
/iTm { _ctm setmatrix _tm concat } bd
/Tm { _tm astore pop iTm 0 0 moveto } bd
/ux 0.0 def
/uy 0.0 def
/F {
  /Tp exch def
  /Tf exch def
  Tf findfont Tp scalefont setfont
  /cf Tf def  /cs Tp def
} bd
/ULS {currentpoint /uy exch def /ux exch def} bd
/ULE {
  /Tcx currentpoint pop def
  gsave
  newpath
  cf findfont cs scalefont dup
  /FontMatrix get 0 get /Ts exch def /FontInfo get dup
  /UnderlinePosition get Ts mul /To exch def
  /UnderlineThickness get Ts mul /Tt exch def
  ux uy To add moveto  Tcx uy To add lineto
  Tt setlinewidth stroke
  grestore
} bd
/OLE {
  /Tcx currentpoint pop def
  gsave
  newpath
  cf findfont cs scalefont dup
  /FontMatrix get 0 get /Ts exch def /FontInfo get dup
  /UnderlinePosition get Ts mul /To exch def
  /UnderlineThickness get Ts mul /Tt exch def
  ux uy To add cs add moveto Tcx uy To add cs add lineto
  Tt setlinewidth stroke
  grestore
} bd
/SOE {
  /Tcx currentpoint pop def
  gsave
  newpath
  cf findfont cs scalefont dup
  /FontMatrix get 0 get /Ts exch def /FontInfo get dup
  /UnderlinePosition get Ts mul /To exch def
  /UnderlineThickness get Ts mul /Tt exch def
  ux uy To add cs 10 mul 26 idiv add moveto Tcx uy To add cs 10 mul 26 idiv add lineto
  Tt setlinewidth stroke
  grestore
} bd
/QT {
/Y22 exch store
/X22 exch store
/Y21 exch store
/X21 exch store
currentpoint
/Y21 load 2 mul add 3 div exch
/X21 load 2 mul add 3 div exch
/X21 load 2 mul /X22 load add 3 div
/Y21 load 2 mul /Y22 load add 3 div
/X22 load /Y22 load curveto
} bd
/SSPD {
dup length /d exch dict def
{
/v exch def
/k exch def
currentpagedevice k known {
/cpdv currentpagedevice k get def
v cpdv ne {
/upd false def
/nullv v type /nulltype eq def
/nullcpdv cpdv type /nulltype eq def
nullv nullcpdv or
{
/upd true def
} {
/sametype v type cpdv type eq def
sametype {
v type /arraytype eq {
/vlen v length def
/cpdvlen cpdv length def
vlen cpdvlen eq {
0 1 vlen 1 sub {
/i exch def
/obj v i get def
/cpdobj cpdv i get def
obj cpdobj ne {
/upd true def
exit
} if
} for
} {
/upd true def
} ifelse
} {
v type /dicttype eq {
v {
/dv exch def
/dk exch def
/cpddv cpdv dk get def
dv cpddv ne {
/upd true def
exit
} if
} forall
} {
/upd true def
} ifelse
} ifelse
} if
} ifelse
upd true eq {
d k v put
} if
} if
} if
} forall
d length 0 gt {
d setpagedevice
} if
} bd
%%EndResource
%%BeginResource: procset (Apache XML Graphics EPS ProcSet) 1.0 0
%%Version: 1.0 0
%%Copyright: (Copyright 2002-2003 The Apache Software Foundation. License terms: http://www.apache.org/licenses/LICENSE-2.0)
/BeginEPSF { %def
/b4_Inc_state save def         % Save state for cleanup
/dict_count countdictstack def % Count objects on dict stack
/op_count count 1 sub def      % Count objects on operand stack
userdict begin                 % Push userdict on dict stack
/showpage { } def              % Redefine showpage, { } = null proc
0 setgray 0 setlinecap         % Prepare graphics state
1 setlinewidth 0 setlinejoin
10 setmiterlimit [ ] 0 setdash newpath
/languagelevel where           % If level not equal to 1 then
{pop languagelevel             % set strokeadjust and
1 ne                           % overprint to their defaults.
{false setstrokeadjust false setoverprint
} if
} if
} bd
/EndEPSF { %def
count op_count sub {pop} repeat            % Clean up stacks
countdictstack dict_count sub {end} repeat
b4_Inc_state restore
} bd
%%EndResource
%FOPBeginFontDict
%%IncludeResource: font Courier-Bold
%%IncludeResource: font Helvetica
%%IncludeResource: font Courier-BoldOblique
%%IncludeResource: font Courier-Oblique
%%IncludeResource: font Times-Roman
%%IncludeResource: font Helvetica-BoldOblique
%%IncludeResource: font Helvetica-Bold
%%IncludeResource: font Helvetica-Oblique
%%IncludeResource: font Times-BoldItalic
%%IncludeResource: font Courier
%%IncludeResource: font Times-Italic
%%IncludeResource: font Times-Bold
%%IncludeResource: font Symbol
%%IncludeResource: font ZapfDingbats
%FOPEndFontDict
%%BeginResource: encoding WinAnsiEncoding
/WinAnsiEncoding [
/.notdef /.notdef /.notdef /.notdef /.notdef
/.notdef /.notdef /.notdef /.notdef /.notdef
/.notdef /.notdef /.notdef /.notdef /.notdef
/.notdef /.notdef /.notdef /.notdef /.notdef
/.notdef /.notdef /.notdef /.notdef /.notdef
/.notdef /.notdef /.notdef /.notdef /.notdef
/.notdef /.notdef /space /exclam /quotedbl
/numbersign /dollar /percent /ampersand /quotesingle
/parenleft /parenright /asterisk /plus /comma
/hyphen /period /slash /zero /one
/two /three /four /five /six
/seven /eight /nine /colon /semicolon
/less /equal /greater /question /at
/A /B /C /D /E
/F /G /H /I /J
/K /L /M /N /O
/P /Q /R /S /T
/U /V /W /X /Y
/Z /bracketleft /backslash /bracketright /asciicircum
/underscore /quoteleft /a /b /c
/d /e /f /g /h
/i /j /k /l /m
/n /o /p /q /r
/s /t /u /v /w
/x /y /z /braceleft /bar
/braceright /asciitilde /bullet /Euro /bullet
/quotesinglbase /florin /quotedblbase /ellipsis /dagger
/daggerdbl /circumflex /perthousand /Scaron /guilsinglleft
/OE /bullet /Zcaron /bullet /bullet
/quoteleft /quoteright /quotedblleft /quotedblright /bullet
/endash /emdash /asciitilde /trademark /scaron
/guilsinglright /oe /bullet /zcaron /Ydieresis
/space /exclamdown /cent /sterling /currency
/yen /brokenbar /section /dieresis /copyright
/ordfeminine /guillemotleft /logicalnot /sfthyphen /registered
/macron /degree /plusminus /twosuperior /threesuperior
/acute /mu /paragraph /middot /cedilla
/onesuperior /ordmasculine /guillemotright /onequarter /onehalf
/threequarters /questiondown /Agrave /Aacute /Acircumflex
/Atilde /Adieresis /Aring /AE /Ccedilla
/Egrave /Eacute /Ecircumflex /Edieresis /Igrave
/Iacute /Icircumflex /Idieresis /Eth /Ntilde
/Ograve /Oacute /Ocircumflex /Otilde /Odieresis
/multiply /Oslash /Ugrave /Uacute /Ucircumflex
/Udieresis /Yacute /Thorn /germandbls /agrave
/aacute /acircumflex /atilde /adieresis /aring
/ae /ccedilla /egrave /eacute /ecircumflex
/edieresis /igrave /iacute /icircumflex /idieresis
/eth /ntilde /ograve /oacute /ocircumflex
/otilde /odieresis /divide /oslash /ugrave
/uacute /ucircumflex /udieresis /yacute /thorn
/ydieresis
] def
%%EndResource
%FOPBeginFontReencode
/Courier-Bold findfont
dup length dict begin
  {1 index /FID ne {def} {pop pop} ifelse} forall
  /Encoding WinAnsiEncoding def
  currentdict
end
/Courier-Bold exch definefont pop
/Helvetica findfont
dup length dict begin
  {1 index /FID ne {def} {pop pop} ifelse} forall
  /Encoding WinAnsiEncoding def
  currentdict
end
/Helvetica exch definefont pop
/Courier-BoldOblique findfont
dup length dict begin
  {1 index /FID ne {def} {pop pop} ifelse} forall
  /Encoding WinAnsiEncoding def
  currentdict
end
/Courier-BoldOblique exch definefont pop
/Courier-Oblique findfont
dup length dict begin
  {1 index /FID ne {def} {pop pop} ifelse} forall
  /Encoding WinAnsiEncoding def
  currentdict
end
/Courier-Oblique exch definefont pop
/Times-Roman findfont
dup length dict begin
  {1 index /FID ne {def} {pop pop} ifelse} forall
  /Encoding WinAnsiEncoding def
  currentdict
end
/Times-Roman exch definefont pop
/Helvetica-BoldOblique findfont
dup length dict begin
  {1 index /FID ne {def} {pop pop} ifelse} forall
  /Encoding WinAnsiEncoding def
  currentdict
end
/Helvetica-BoldOblique exch definefont pop
/Helvetica-Bold findfont
dup length dict begin
  {1 index /FID ne {def} {pop pop} ifelse} forall
  /Encoding WinAnsiEncoding def
  currentdict
end
/Helvetica-Bold exch definefont pop
/Helvetica-Oblique findfont
dup length dict begin
  {1 index /FID ne {def} {pop pop} ifelse} forall
  /Encoding WinAnsiEncoding def
  currentdict
end
/Helvetica-Oblique exch definefont pop
/Times-BoldItalic findfont
dup length dict begin
  {1 index /FID ne {def} {pop pop} ifelse} forall
  /Encoding WinAnsiEncoding def
  currentdict
end
/Times-BoldItalic exch definefont pop
/Courier findfont
dup length dict begin
  {1 index /FID ne {def} {pop pop} ifelse} forall
  /Encoding WinAnsiEncoding def
  currentdict
end
/Courier exch definefont pop
/Times-Italic findfont
dup length dict begin
  {1 index /FID ne {def} {pop pop} ifelse} forall
  /Encoding WinAnsiEncoding def
  currentdict
end
/Times-Italic exch definefont pop
/Times-Bold findfont
dup length dict begin
  {1 index /FID ne {def} {pop pop} ifelse} forall
  /Encoding WinAnsiEncoding def
  currentdict
end
/Times-Bold exch definefont pop
%FOPEndFontReencode
%%EndProlog
%%Page: 1 1
%%PageBoundingBox: 0 0 573 384
%%BeginPageSetup
[1 0 0 -1 0 384] CT
%%EndPageSetup
GS
[0.75 0 0 0.75 0 0] CT
1 GC
N
0 0 764 512 re
f
GR
GS
[0.75 0 0 0.75 0 0] CT
1 GC
N
0 0 764 512 re
f
GR
GS
[0.75 0 0 0.75 0 0] CT
1 GC
N
90 421 M
744 421 L
744 51 L
90 51 L
cp
f
GR
GS
[0.75 0 0 0.75 0 0] CT
0.149 GC
2 setlinecap
1 LJ
0.667 LW
N
90 421 M
744 421 L
S
GR
GS
[0.75 0 0 0.75 0 0] CT
0.149 GC
2 setlinecap
1 LJ
0.667 LW
N
90 51 M
744 51 L
S
GR
GS
[0.75 0 0 0.75 0 0] CT
0.149 GC
2 setlinecap
1 LJ
0.667 LW
N
90 421 M
90 414.46 L
S
GR
GS
[0.75 0 0 0.75 0 0] CT
0.149 GC
2 setlinecap
1 LJ
0.667 LW
N
162.667 421 M
162.667 414.46 L
S
GR
GS
[0.75 0 0 0.75 0 0] CT
0.149 GC
2 setlinecap
1 LJ
0.667 LW
N
235.333 421 M
235.333 414.46 L
S
GR
GS
[0.75 0 0 0.75 0 0] CT
0.149 GC
2 setlinecap
1 LJ
0.667 LW
N
308 421 M
308 414.46 L
S
GR
GS
[0.75 0 0 0.75 0 0] CT
0.149 GC
2 setlinecap
1 LJ
0.667 LW
N
380.667 421 M
380.667 414.46 L
S
GR
GS
[0.75 0 0 0.75 0 0] CT
0.149 GC
2 setlinecap
1 LJ
0.667 LW
N
453.333 421 M
453.333 414.46 L
S
GR
GS
[0.75 0 0 0.75 0 0] CT
0.149 GC
2 setlinecap
1 LJ
0.667 LW
N
526 421 M
526 414.46 L
S
GR
GS
[0.75 0 0 0.75 0 0] CT
0.149 GC
2 setlinecap
1 LJ
0.667 LW
N
598.667 421 M
598.667 414.46 L
S
GR
GS
[0.75 0 0 0.75 0 0] CT
0.149 GC
2 setlinecap
1 LJ
0.667 LW
N
671.333 421 M
671.333 414.46 L
S
GR
GS
[0.75 0 0 0.75 0 0] CT
0.149 GC
2 setlinecap
1 LJ
0.667 LW
N
744 421 M
744 414.46 L
S
GR
GS
[0.75 0 0 0.75 0 0] CT
0.149 GC
2 setlinecap
1 LJ
0.667 LW
N
90 51 M
90 57.54 L
S
GR
GS
[0.75 0 0 0.75 0 0] CT
0.149 GC
2 setlinecap
1 LJ
0.667 LW
N
162.667 51 M
162.667 57.54 L
S
GR
GS
[0.75 0 0 0.75 0 0] CT
0.149 GC
2 setlinecap
1 LJ
0.667 LW
N
235.333 51 M
235.333 57.54 L
S
GR
GS
[0.75 0 0 0.75 0 0] CT
0.149 GC
2 setlinecap
1 LJ
0.667 LW
N
308 51 M
308 57.54 L
S
GR
GS
[0.75 0 0 0.75 0 0] CT
0.149 GC
2 setlinecap
1 LJ
0.667 LW
N
380.667 51 M
380.667 57.54 L
S
GR
GS
[0.75 0 0 0.75 0 0] CT
0.149 GC
2 setlinecap
1 LJ
0.667 LW
N
453.333 51 M
453.333 57.54 L
S
GR
GS
[0.75 0 0 0.75 0 0] CT
0.149 GC
2 setlinecap
1 LJ
0.667 LW
N
526 51 M
526 57.54 L
S
GR
GS
[0.75 0 0 0.75 0 0] CT
0.149 GC
2 setlinecap
1 LJ
0.667 LW
N
598.667 51 M
598.667 57.54 L
S
GR
GS
[0.75 0 0 0.75 0 0] CT
0.149 GC
2 setlinecap
1 LJ
0.667 LW
N
671.333 51 M
671.333 57.54 L
S
GR
GS
[0.75 0 0 0.75 0 0] CT
0.149 GC
2 setlinecap
1 LJ
0.667 LW
N
744 51 M
744 57.54 L
S
GR
GS
[0.75 0 0 0.75 67.5 322.55001] CT
0.149 GC
/Times 32 F
GS
[1 0 0 1 0 0] CT
-10.5 30 moveto 
1 -1 scale
(1) t 
GR
GR
GS
[0.75 0 0 0.75 122 322.55001] CT
0.149 GC
/Times 32 F
GS
[1 0 0 1 0 0] CT
-10.5 30 moveto 
1 -1 scale
(2) t 
GR
GR
GS
[0.75 0 0 0.75 176.5 322.55001] CT
0.149 GC
/Times 32 F
GS
[1 0 0 1 0 0] CT
-10.5 30 moveto 
1 -1 scale
(3) t 
GR
GR
GS
[0.75 0 0 0.75 231 322.55001] CT
0.149 GC
/Times 32 F
GS
[1 0 0 1 0 0] CT
-10.5 30 moveto 
1 -1 scale
(4) t 
GR
GR
GS
[0.75 0 0 0.75 285.49999 322.55001] CT
0.149 GC
/Times 32 F
GS
[1 0 0 1 0 0] CT
-10.5 30 moveto 
1 -1 scale
(5) t 
GR
GR
GS
[0.75 0 0 0.75 340.00001 322.55001] CT
0.149 GC
/Times 32 F
GS
[1 0 0 1 0 0] CT
-10.5 30 moveto 
1 -1 scale
(6) t 
GR
GR
GS
[0.75 0 0 0.75 394.5 322.55001] CT
0.149 GC
/Times 32 F
GS
[1 0 0 1 0 0] CT
-10.5 30 moveto 
1 -1 scale
(7) t 
GR
GR
GS
[0.75 0 0 0.75 449.00002 322.55001] CT
0.149 GC
/Times 32 F
GS
[1 0 0 1 0 0] CT
-10.5 30 moveto 
1 -1 scale
(8) t 
GR
GR
GS
[0.75 0 0 0.75 503.49998 322.55001] CT
0.149 GC
/Times 32 F
GS
[1 0 0 1 0 0] CT
-10.5 30 moveto 
1 -1 scale
(9) t 
GR
GR
GS
[0.75 0 0 0.75 558 322.55001] CT
0.149 GC
/Times 32 F
GS
[1 0 0 1 0 0] CT
-20.5 30 moveto 
1 -1 scale
(10) t 
GR
GR
GS
[0.75 0 0 0.75 312.75023 352.05] CT
0.149 GC
/Times 35.2 F
GS
[1 0 0 1 0 0] CT
-210 33 moveto 
1 -1 scale
(Number of Top Matches) t 
GR
GR
GS
[0.75 0 0 0.75 0 0] CT
0.149 GC
2 setlinecap
1 LJ
0.667 LW
N
90 421 M
90 51 L
S
GR
GS
[0.75 0 0 0.75 0 0] CT
0.149 GC
2 setlinecap
1 LJ
0.667 LW
N
744 421 M
744 51 L
S
GR
GS
[0.75 0 0 0.75 0 0] CT
0.149 GC
2 setlinecap
1 LJ
0.667 LW
N
90 408.458 M
96.54 408.458 L
S
GR
GS
[0.75 0 0 0.75 0 0] CT
0.149 GC
2 setlinecap
1 LJ
0.667 LW
N
90 345.746 M
96.54 345.746 L
S
GR
GS
[0.75 0 0 0.75 0 0] CT
0.149 GC
2 setlinecap
1 LJ
0.667 LW
N
90 283.034 M
96.54 283.034 L
S
GR
GS
[0.75 0 0 0.75 0 0] CT
0.149 GC
2 setlinecap
1 LJ
0.667 LW
N
90 220.322 M
96.54 220.322 L
S
GR
GS
[0.75 0 0 0.75 0 0] CT
0.149 GC
2 setlinecap
1 LJ
0.667 LW
N
90 157.61 M
96.54 157.61 L
S
GR
GS
[0.75 0 0 0.75 0 0] CT
0.149 GC
2 setlinecap
1 LJ
0.667 LW
N
90 94.898 M
96.54 94.898 L
S
GR
GS
[0.75 0 0 0.75 0 0] CT
0.149 GC
2 setlinecap
1 LJ
0.667 LW
N
90 51 M
96.54 51 L
S
GR
GS
[0.75 0 0 0.75 0 0] CT
0.149 GC
2 setlinecap
1 LJ
0.667 LW
N
744 408.458 M
737.46 408.458 L
S
GR
GS
[0.75 0 0 0.75 0 0] CT
0.149 GC
2 setlinecap
1 LJ
0.667 LW
N
744 345.746 M
737.46 345.746 L
S
GR
GS
[0.75 0 0 0.75 0 0] CT
0.149 GC
2 setlinecap
1 LJ
0.667 LW
N
744 283.034 M
737.46 283.034 L
S
GR
GS
[0.75 0 0 0.75 0 0] CT
0.149 GC
2 setlinecap
1 LJ
0.667 LW
N
744 220.322 M
737.46 220.322 L
S
GR
GS
[0.75 0 0 0.75 0 0] CT
0.149 GC
2 setlinecap
1 LJ
0.667 LW
N
744 157.61 M
737.46 157.61 L
S
GR
GS
[0.75 0 0 0.75 0 0] CT
0.149 GC
2 setlinecap
1 LJ
0.667 LW
N
744 94.898 M
737.46 94.898 L
S
GR
GS
[0.75 0 0 0.75 0 0] CT
0.149 GC
2 setlinecap
1 LJ
0.667 LW
N
744 51 M
737.46 51 L
S
GR
GS
[0.75 0 0 0.75 60.7 306.34323] CT
0.149 GC
/Times 32 F
GS
[1 0 0 1 0 0] CT
-41 11 moveto 
1 -1 scale
(20) t 
GR
GR
GS
[0.75 0 0 0.75 60.7 259.30932] CT
0.149 GC
/Times 32 F
GS
[1 0 0 1 0 0] CT
-41 11 moveto 
1 -1 scale
(30) t 
GR
GR
GS
[0.75 0 0 0.75 60.7 212.27543] CT
0.149 GC
/Times 32 F
GS
[1 0 0 1 0 0] CT
-41 11 moveto 
1 -1 scale
(40) t 
GR
GR
GS
[0.75 0 0 0.75 60.7 165.24153] CT
0.149 GC
/Times 32 F
GS
[1 0 0 1 0 0] CT
-41 11 moveto 
1 -1 scale
(50) t 
GR
GR
GS
[0.75 0 0 0.75 60.7 118.20763] CT
0.149 GC
/Times 32 F
GS
[1 0 0 1 0 0] CT
-41 11 moveto 
1 -1 scale
(60) t 
GR
GR
GS
[0.75 0 0 0.75 60.7 71.17373] CT
0.149 GC
/Times 32 F
GS
[1 0 0 1 0 0] CT
-41 11 moveto 
1 -1 scale
(70) t 
GR
GR
GS
[0.75 0 0 0.75 60.7 38.25] CT
0.149 GC
/Times 32 F
GS
[1 0 0 1 0 0] CT
-41 11 moveto 
1 -1 scale
(77) t 
GR
GR
GS
[0 -0.75 0.75 0 26.95 176.99987] CT
0.149 GC
/Times 35.2 F
GS
[1 0 0 1 0 0] CT
-102 -9 moveto 
1 -1 scale
(F-Score \(%\)) t 
GR
GR
GS
[0.75 0 0 0.75 312.75032 33.30002] CT
/Times 35.2 F
GS
[1 0 0 1 0 0] CT
-136.5 -9 moveto 
1 -1 scale
(AT&T Database) t 
GR
GR
GS
[0.75 0 0 0.75 0 0] CT
1 0.6 0.784 RC
1 LJ
2 LW
N
90 419.86 M
162.667 330.068 L
235.333 266.632 L
308 220.77 L
380.667 191.056 L
453.333 175.052 L
526 167.755 L
598.667 163.185 L
671.333 162.231 L
744 166.39 L
S
GR
GS
[0.75 0 0 0.75 0 0] CT
1 GC
N
88.278 415.652 M
94.943 419.5 L
88.278 423.348 L
cp
f
GR
GS
[0.75 0 0 0.75 0 0] CT
1 0.6 0.784 RC
10.0 ML
2 LW
N
88.278 415.652 M
94.943 419.5 L
88.278 423.348 L
cp
S
GR
GS
[0.75 0 0 0.75 0 0] CT
1 GC
N
160.278 326.652 M
166.943 330.5 L
160.278 334.348 L
cp
f
GR
GS
[0.75 0 0 0.75 0 0] CT
1 0.6 0.784 RC
10.0 ML
2 LW
N
160.278 326.652 M
166.943 330.5 L
160.278 334.348 L
cp
S
GR
GS
[0.75 0 0 0.75 0 0] CT
1 GC
N
233.278 262.652 M
239.943 266.5 L
233.278 270.348 L
cp
f
GR
GS
[0.75 0 0 0.75 0 0] CT
1 0.6 0.784 RC
10.0 ML
2 LW
N
233.278 262.652 M
239.943 266.5 L
233.278 270.348 L
cp
S
GR
GS
[0.75 0 0 0.75 0 0] CT
1 GC
N
305.278 216.652 M
311.943 220.5 L
305.278 224.348 L
cp
f
GR
GS
[0.75 0 0 0.75 0 0] CT
1 0.6 0.784 RC
10.0 ML
2 LW
N
305.278 216.652 M
311.943 220.5 L
305.278 224.348 L
cp
S
GR
GS
[0.75 0 0 0.75 0 0] CT
1 GC
N
378.278 187.652 M
384.943 191.5 L
378.278 195.348 L
cp
f
GR
GS
[0.75 0 0 0.75 0 0] CT
1 0.6 0.784 RC
10.0 ML
2 LW
N
378.278 187.652 M
384.943 191.5 L
378.278 195.348 L
cp
S
GR
GS
[0.75 0 0 0.75 0 0] CT
1 GC
N
451.278 171.652 M
457.943 175.5 L
451.278 179.348 L
cp
f
GR
GS
[0.75 0 0 0.75 0 0] CT
1 0.6 0.784 RC
10.0 ML
2 LW
N
451.278 171.652 M
457.943 175.5 L
451.278 179.348 L
cp
S
GR
GS
[0.75 0 0 0.75 0 0] CT
1 GC
N
524.278 163.652 M
530.943 167.5 L
524.278 171.348 L
cp
f
GR
GS
[0.75 0 0 0.75 0 0] CT
1 0.6 0.784 RC
10.0 ML
2 LW
N
524.278 163.652 M
530.943 167.5 L
524.278 171.348 L
cp
S
GR
GS
[0.75 0 0 0.75 0 0] CT
1 GC
N
596.278 159.652 M
602.943 163.5 L
596.278 167.348 L
cp
f
GR
GS
[0.75 0 0 0.75 0 0] CT
1 0.6 0.784 RC
10.0 ML
2 LW
N
596.278 159.652 M
602.943 163.5 L
596.278 167.348 L
cp
S
GR
GS
[0.75 0 0 0.75 0 0] CT
1 GC
N
669.278 158.652 M
675.943 162.5 L
669.278 166.348 L
cp
f
GR
GS
[0.75 0 0 0.75 0 0] CT
1 0.6 0.784 RC
10.0 ML
2 LW
N
669.278 158.652 M
675.943 162.5 L
669.278 166.348 L
cp
S
GR
GS
[0.75 0 0 0.75 0 0] CT
1 GC
N
742.278 162.652 M
748.943 166.5 L
742.278 170.348 L
cp
f
GR
GS
[0.75 0 0 0.75 0 0] CT
1 0.6 0.784 RC
10.0 ML
2 LW
N
742.278 162.652 M
748.943 166.5 L
742.278 170.348 L
cp
S
GR
GS
[0.75 0 0 0.75 0 0] CT
0.6 0.2 0 RC
1 LJ
2 LW
N
90 419.86 M
162.667 331.374 L
235.333 267.356 L
308 223.01 L
380.667 191.475 L
453.333 177.208 L
526 168.861 L
598.667 167.54 L
671.333 168.172 L
744 172.034 L
S
GR
GS
[0.75 0 0 0.75 0 0] CT
1 GC
N
86.057 419.5 M
92.722 415.652 L
92.722 423.348 L
cp
f
GR
GS
[0.75 0 0 0.75 0 0] CT
0.6 0.2 0 RC
10.0 ML
2 LW
N
86.057 419.5 M
92.722 415.652 L
92.722 423.348 L
cp
S
GR
GS
[0.75 0 0 0.75 0 0] CT
1 GC
N
158.057 331.5 M
164.722 327.652 L
164.722 335.348 L
cp
f
GR
GS
[0.75 0 0 0.75 0 0] CT
0.6 0.2 0 RC
10.0 ML
2 LW
N
158.057 331.5 M
164.722 327.652 L
164.722 335.348 L
cp
S
GR
GS
[0.75 0 0 0.75 0 0] CT
1 GC
N
231.057 267.5 M
237.722 263.652 L
237.722 271.348 L
cp
f
GR
GS
[0.75 0 0 0.75 0 0] CT
0.6 0.2 0 RC
10.0 ML
2 LW
N
231.057 267.5 M
237.722 263.652 L
237.722 271.348 L
cp
S
GR
GS
[0.75 0 0 0.75 0 0] CT
1 GC
N
303.057 223.5 M
309.722 219.652 L
309.722 227.348 L
cp
f
GR
GS
[0.75 0 0 0.75 0 0] CT
0.6 0.2 0 RC
10.0 ML
2 LW
N
303.057 223.5 M
309.722 219.652 L
309.722 227.348 L
cp
S
GR
GS
[0.75 0 0 0.75 0 0] CT
1 GC
N
376.057 191.5 M
382.722 187.652 L
382.722 195.348 L
cp
f
GR
GS
[0.75 0 0 0.75 0 0] CT
0.6 0.2 0 RC
10.0 ML
2 LW
N
376.057 191.5 M
382.722 187.652 L
382.722 195.348 L
cp
S
GR
GS
[0.75 0 0 0.75 0 0] CT
1 GC
N
449.057 177.5 M
455.722 173.652 L
455.722 181.348 L
cp
f
GR
GS
[0.75 0 0 0.75 0 0] CT
0.6 0.2 0 RC
10.0 ML
2 LW
N
449.057 177.5 M
455.722 173.652 L
455.722 181.348 L
cp
S
GR
GS
[0.75 0 0 0.75 0 0] CT
1 GC
N
522.057 168.5 M
528.722 164.652 L
528.722 172.348 L
cp
f
GR
GS
[0.75 0 0 0.75 0 0] CT
0.6 0.2 0 RC
10.0 ML
2 LW
N
522.057 168.5 M
528.722 164.652 L
528.722 172.348 L
cp
S
GR
GS
[0.75 0 0 0.75 0 0] CT
1 GC
N
594.057 167.5 M
600.722 163.652 L
600.722 171.348 L
cp
f
GR
GS
[0.75 0 0 0.75 0 0] CT
0.6 0.2 0 RC
10.0 ML
2 LW
N
594.057 167.5 M
600.722 163.652 L
600.722 171.348 L
cp
S
GR
GS
[0.75 0 0 0.75 0 0] CT
1 GC
N
667.057 168.5 M
673.722 164.652 L
673.722 172.348 L
cp
f
GR
GS
[0.75 0 0 0.75 0 0] CT
0.6 0.2 0 RC
10.0 ML
2 LW
N
667.057 168.5 M
673.722 164.652 L
673.722 172.348 L
cp
S
GR
GS
[0.75 0 0 0.75 0 0] CT
1 GC
N
740.057 172.5 M
746.722 168.652 L
746.722 176.348 L
cp
f
GR
GS
[0.75 0 0 0.75 0 0] CT
0.6 0.2 0 RC
10.0 ML
2 LW
N
740.057 172.5 M
746.722 168.652 L
746.722 176.348 L
cp
S
GR
GS
[0.75 0 0 0.75 0 0] CT
0.929 0.694 0.125 RC
1 LJ
2 LW
N
90 419.86 M
162.667 338.429 L
235.333 285.928 L
308 245.631 L
380.667 219.695 L
453.333 205.82 L
526 199.848 L
598.667 197.153 L
671.333 197.053 L
744 200.881 L
S
GR
GS
[0.75 0 0 0.75 0 0] CT
1 GC
N
87.33 418.47 M
89.716 418.47 L
90.5 416.167 L
91.284 418.47 L
93.67 418.47 L
91.768 419.912 L
92.459 422.197 L
90.5 420.833 L
88.541 422.197 L
89.232 419.912 L
87.33 418.47 L
cp
f
GR
GS
[0.75 0 0 0.75 0 0] CT
0.929 0.694 0.125 RC
10.0 ML
2 LW
N
87.33 418.47 M
89.716 418.47 L
90.5 416.167 L
91.284 418.47 L
93.67 418.47 L
91.768 419.912 L
92.459 422.197 L
90.5 420.833 L
88.541 422.197 L
89.232 419.912 L
cp
S
GR
GS
[0.75 0 0 0.75 0 0] CT
1 GC
N
159.33 337.47 M
161.716 337.47 L
162.5 335.167 L
163.284 337.47 L
165.67 337.47 L
163.768 338.912 L
164.459 341.197 L
162.5 339.833 L
160.541 341.197 L
161.232 338.912 L
159.33 337.47 L
cp
f
GR
GS
[0.75 0 0 0.75 0 0] CT
0.929 0.694 0.125 RC
10.0 ML
2 LW
N
159.33 337.47 M
161.716 337.47 L
162.5 335.167 L
163.284 337.47 L
165.67 337.47 L
163.768 338.912 L
164.459 341.197 L
162.5 339.833 L
160.541 341.197 L
161.232 338.912 L
cp
S
GR
GS
[0.75 0 0 0.75 0 0] CT
1 GC
N
232.33 284.47 M
234.716 284.47 L
235.5 282.167 L
236.284 284.47 L
238.67 284.47 L
236.768 285.912 L
237.459 288.197 L
235.5 286.833 L
233.541 288.197 L
234.232 285.912 L
232.33 284.47 L
cp
f
GR
GS
[0.75 0 0 0.75 0 0] CT
0.929 0.694 0.125 RC
10.0 ML
2 LW
N
232.33 284.47 M
234.716 284.47 L
235.5 282.167 L
236.284 284.47 L
238.67 284.47 L
236.768 285.912 L
237.459 288.197 L
235.5 286.833 L
233.541 288.197 L
234.232 285.912 L
cp
S
GR
GS
[0.75 0 0 0.75 0 0] CT
1 GC
N
304.33 244.47 M
306.716 244.47 L
307.5 242.167 L
308.284 244.47 L
310.67 244.47 L
308.768 245.912 L
309.459 248.197 L
307.5 246.833 L
305.541 248.197 L
306.232 245.912 L
304.33 244.47 L
cp
f
GR
GS
[0.75 0 0 0.75 0 0] CT
0.929 0.694 0.125 RC
10.0 ML
2 LW
N
304.33 244.47 M
306.716 244.47 L
307.5 242.167 L
308.284 244.47 L
310.67 244.47 L
308.768 245.912 L
309.459 248.197 L
307.5 246.833 L
305.541 248.197 L
306.232 245.912 L
cp
S
GR
GS
[0.75 0 0 0.75 0 0] CT
1 GC
N
377.33 218.47 M
379.716 218.47 L
380.5 216.167 L
381.284 218.47 L
383.67 218.47 L
381.768 219.912 L
382.459 222.197 L
380.5 220.833 L
378.541 222.197 L
379.232 219.912 L
377.33 218.47 L
cp
f
GR
GS
[0.75 0 0 0.75 0 0] CT
0.929 0.694 0.125 RC
10.0 ML
2 LW
N
377.33 218.47 M
379.716 218.47 L
380.5 216.167 L
381.284 218.47 L
383.67 218.47 L
381.768 219.912 L
382.459 222.197 L
380.5 220.833 L
378.541 222.197 L
379.232 219.912 L
cp
S
GR
GS
[0.75 0 0 0.75 0 0] CT
1 GC
N
450.33 204.47 M
452.716 204.47 L
453.5 202.167 L
454.284 204.47 L
456.67 204.47 L
454.768 205.912 L
455.459 208.197 L
453.5 206.833 L
451.541 208.197 L
452.232 205.912 L
450.33 204.47 L
cp
f
GR
GS
[0.75 0 0 0.75 0 0] CT
0.929 0.694 0.125 RC
10.0 ML
2 LW
N
450.33 204.47 M
452.716 204.47 L
453.5 202.167 L
454.284 204.47 L
456.67 204.47 L
454.768 205.912 L
455.459 208.197 L
453.5 206.833 L
451.541 208.197 L
452.232 205.912 L
cp
S
GR
GS
[0.75 0 0 0.75 0 0] CT
1 GC
N
523.33 198.47 M
525.716 198.47 L
526.5 196.167 L
527.284 198.47 L
529.67 198.47 L
527.768 199.912 L
528.459 202.197 L
526.5 200.833 L
524.541 202.197 L
525.232 199.912 L
523.33 198.47 L
cp
f
GR
GS
[0.75 0 0 0.75 0 0] CT
0.929 0.694 0.125 RC
10.0 ML
2 LW
N
523.33 198.47 M
525.716 198.47 L
526.5 196.167 L
527.284 198.47 L
529.67 198.47 L
527.768 199.912 L
528.459 202.197 L
526.5 200.833 L
524.541 202.197 L
525.232 199.912 L
cp
S
GR
GS
[0.75 0 0 0.75 0 0] CT
1 GC
N
595.33 196.47 M
597.716 196.47 L
598.5 194.167 L
599.284 196.47 L
601.67 196.47 L
599.768 197.912 L
600.459 200.197 L
598.5 198.833 L
596.541 200.197 L
597.232 197.912 L
595.33 196.47 L
cp
f
GR
GS
[0.75 0 0 0.75 0 0] CT
0.929 0.694 0.125 RC
10.0 ML
2 LW
N
595.33 196.47 M
597.716 196.47 L
598.5 194.167 L
599.284 196.47 L
601.67 196.47 L
599.768 197.912 L
600.459 200.197 L
598.5 198.833 L
596.541 200.197 L
597.232 197.912 L
cp
S
GR
GS
[0.75 0 0 0.75 0 0] CT
1 GC
N
668.33 196.47 M
670.716 196.47 L
671.5 194.167 L
672.284 196.47 L
674.67 196.47 L
672.768 197.912 L
673.459 200.197 L
671.5 198.833 L
669.541 200.197 L
670.232 197.912 L
668.33 196.47 L
cp
f
GR
GS
[0.75 0 0 0.75 0 0] CT
0.929 0.694 0.125 RC
10.0 ML
2 LW
N
668.33 196.47 M
670.716 196.47 L
671.5 194.167 L
672.284 196.47 L
674.67 196.47 L
672.768 197.912 L
673.459 200.197 L
671.5 198.833 L
669.541 200.197 L
670.232 197.912 L
cp
S
GR
GS
[0.75 0 0 0.75 0 0] CT
1 GC
N
741.33 199.47 M
743.716 199.47 L
744.5 197.167 L
745.284 199.47 L
747.67 199.47 L
745.768 200.912 L
746.459 203.197 L
744.5 201.833 L
742.541 203.197 L
743.232 200.912 L
741.33 199.47 L
cp
f
GR
GS
[0.75 0 0 0.75 0 0] CT
0.929 0.694 0.125 RC
10.0 ML
2 LW
N
741.33 199.47 M
743.716 199.47 L
744.5 197.167 L
745.284 199.47 L
747.67 199.47 L
745.768 200.912 L
746.459 203.197 L
744.5 201.833 L
742.541 203.197 L
743.232 200.912 L
cp
S
GR
GS
[0.75 0 0 0.75 0 0] CT
0 1 1 RC
1 LJ
2 LW
N
90 419.86 M
162.667 332.942 L
235.333 270.733 L
308 226.369 L
380.667 200.672 L
453.333 188.77 L
526 181.219 L
598.667 179.734 L
671.333 181.045 L
744 185.36 L
S
GR
GS
[0.75 0 0 0.75 0 0] CT
1 GC
N
90.5 423.943 M
93.833 419.5 L
90.5 415.057 L
87.167 419.5 L
cp
f
GR
GS
[0.75 0 0 0.75 0 0] CT
0 1 1 RC
10.0 ML
2 LW
N
90.5 423.943 M
93.833 419.5 L
90.5 415.057 L
87.167 419.5 L
cp
S
GR
GS
[0.75 0 0 0.75 0 0] CT
1 GC
N
162.5 336.943 M
165.833 332.5 L
162.5 328.057 L
159.167 332.5 L
cp
f
GR
GS
[0.75 0 0 0.75 0 0] CT
0 1 1 RC
10.0 ML
2 LW
N
162.5 336.943 M
165.833 332.5 L
162.5 328.057 L
159.167 332.5 L
cp
S
GR
GS
[0.75 0 0 0.75 0 0] CT
1 GC
N
235.5 274.943 M
238.833 270.5 L
235.5 266.057 L
232.167 270.5 L
cp
f
GR
GS
[0.75 0 0 0.75 0 0] CT
0 1 1 RC
10.0 ML
2 LW
N
235.5 274.943 M
238.833 270.5 L
235.5 266.057 L
232.167 270.5 L
cp
S
GR
GS
[0.75 0 0 0.75 0 0] CT
1 GC
N
307.5 230.943 M
310.833 226.5 L
307.5 222.057 L
304.167 226.5 L
cp
f
GR
GS
[0.75 0 0 0.75 0 0] CT
0 1 1 RC
10.0 ML
2 LW
N
307.5 230.943 M
310.833 226.5 L
307.5 222.057 L
304.167 226.5 L
cp
S
GR
GS
[0.75 0 0 0.75 0 0] CT
1 GC
N
380.5 204.943 M
383.833 200.5 L
380.5 196.057 L
377.167 200.5 L
cp
f
GR
GS
[0.75 0 0 0.75 0 0] CT
0 1 1 RC
10.0 ML
2 LW
N
380.5 204.943 M
383.833 200.5 L
380.5 196.057 L
377.167 200.5 L
cp
S
GR
GS
[0.75 0 0 0.75 0 0] CT
1 GC
N
453.5 192.943 M
456.833 188.5 L
453.5 184.057 L
450.167 188.5 L
cp
f
GR
GS
[0.75 0 0 0.75 0 0] CT
0 1 1 RC
10.0 ML
2 LW
N
453.5 192.943 M
456.833 188.5 L
453.5 184.057 L
450.167 188.5 L
cp
S
GR
GS
[0.75 0 0 0.75 0 0] CT
1 GC
N
526.5 185.943 M
529.833 181.5 L
526.5 177.057 L
523.167 181.5 L
cp
f
GR
GS
[0.75 0 0 0.75 0 0] CT
0 1 1 RC
10.0 ML
2 LW
N
526.5 185.943 M
529.833 181.5 L
526.5 177.057 L
523.167 181.5 L
cp
S
GR
GS
[0.75 0 0 0.75 0 0] CT
1 GC
N
598.5 183.943 M
601.833 179.5 L
598.5 175.057 L
595.167 179.5 L
cp
f
GR
GS
[0.75 0 0 0.75 0 0] CT
0 1 1 RC
10.0 ML
2 LW
N
598.5 183.943 M
601.833 179.5 L
598.5 175.057 L
595.167 179.5 L
cp
S
GR
GS
[0.75 0 0 0.75 0 0] CT
1 GC
N
671.5 185.943 M
674.833 181.5 L
671.5 177.057 L
668.167 181.5 L
cp
f
GR
GS
[0.75 0 0 0.75 0 0] CT
0 1 1 RC
10.0 ML
2 LW
N
671.5 185.943 M
674.833 181.5 L
671.5 177.057 L
668.167 181.5 L
cp
S
GR
GS
[0.75 0 0 0.75 0 0] CT
1 GC
N
744.5 189.943 M
747.833 185.5 L
744.5 181.057 L
741.167 185.5 L
cp
f
GR
GS
[0.75 0 0 0.75 0 0] CT
0 1 1 RC
10.0 ML
2 LW
N
744.5 189.943 M
747.833 185.5 L
744.5 181.057 L
741.167 185.5 L
cp
S
GR
GS
[0.75 0 0 0.75 0 0] CT
0 1 0 RC
1 LJ
2 LW
N
90 419.86 M
162.667 326.932 L
235.333 256.743 L
308 205.764 L
380.667 167.853 L
453.333 146.636 L
526 136.214 L
598.667 131.132 L
671.333 130.38 L
744 133.623 L
S
GR
GS
[0.75 0 0 0.75 0 0] CT
1 GC
N
87.9 422.1 M
87.9 416.9 L
93.1 416.9 L
93.1 422.1 L
cp
f
GR
GS
[0.75 0 0 0.75 0 0] CT
0 1 0 RC
10.0 ML
2 LW
N
87.9 422.1 M
87.9 416.9 L
93.1 416.9 L
93.1 422.1 L
cp
S
GR
GS
[0.75 0 0 0.75 0 0] CT
1 GC
N
159.9 329.1 M
159.9 323.9 L
165.1 323.9 L
165.1 329.1 L
cp
f
GR
GS
[0.75 0 0 0.75 0 0] CT
0 1 0 RC
10.0 ML
2 LW
N
159.9 329.1 M
159.9 323.9 L
165.1 323.9 L
165.1 329.1 L
cp
S
GR
GS
[0.75 0 0 0.75 0 0] CT
1 GC
N
232.9 259.1 M
232.9 253.9 L
238.1 253.9 L
238.1 259.1 L
cp
f
GR
GS
[0.75 0 0 0.75 0 0] CT
0 1 0 RC
10.0 ML
2 LW
N
232.9 259.1 M
232.9 253.9 L
238.1 253.9 L
238.1 259.1 L
cp
S
GR
GS
[0.75 0 0 0.75 0 0] CT
1 GC
N
304.9 208.1 M
304.9 202.9 L
310.1 202.9 L
310.1 208.1 L
cp
f
GR
GS
[0.75 0 0 0.75 0 0] CT
0 1 0 RC
10.0 ML
2 LW
N
304.9 208.1 M
304.9 202.9 L
310.1 202.9 L
310.1 208.1 L
cp
S
GR
GS
[0.75 0 0 0.75 0 0] CT
1 GC
N
377.9 170.1 M
377.9 164.9 L
383.1 164.9 L
383.1 170.1 L
cp
f
GR
GS
[0.75 0 0 0.75 0 0] CT
0 1 0 RC
10.0 ML
2 LW
N
377.9 170.1 M
377.9 164.9 L
383.1 164.9 L
383.1 170.1 L
cp
S
GR
GS
[0.75 0 0 0.75 0 0] CT
1 GC
N
450.9 149.1 M
450.9 143.9 L
456.1 143.9 L
456.1 149.1 L
cp
f
GR
GS
[0.75 0 0 0.75 0 0] CT
0 1 0 RC
10.0 ML
2 LW
N
450.9 149.1 M
450.9 143.9 L
456.1 143.9 L
456.1 149.1 L
cp
S
GR
GS
[0.75 0 0 0.75 0 0] CT
1 GC
N
523.9 139.1 M
523.9 133.9 L
529.1 133.9 L
529.1 139.1 L
cp
f
GR
GS
[0.75 0 0 0.75 0 0] CT
0 1 0 RC
10.0 ML
2 LW
N
523.9 139.1 M
523.9 133.9 L
529.1 133.9 L
529.1 139.1 L
cp
S
GR
GS
[0.75 0 0 0.75 0 0] CT
1 GC
N
595.9 134.1 M
595.9 128.9 L
601.1 128.9 L
601.1 134.1 L
cp
f
GR
GS
[0.75 0 0 0.75 0 0] CT
0 1 0 RC
10.0 ML
2 LW
N
595.9 134.1 M
595.9 128.9 L
601.1 128.9 L
601.1 134.1 L
cp
S
GR
GS
[0.75 0 0 0.75 0 0] CT
1 GC
N
668.9 133.1 M
668.9 127.9 L
674.1 127.9 L
674.1 133.1 L
cp
f
GR
GS
[0.75 0 0 0.75 0 0] CT
0 1 0 RC
10.0 ML
2 LW
N
668.9 133.1 M
668.9 127.9 L
674.1 127.9 L
674.1 133.1 L
cp
S
GR
GS
[0.75 0 0 0.75 0 0] CT
1 GC
N
741.9 136.1 M
741.9 130.9 L
747.1 130.9 L
747.1 136.1 L
cp
f
GR
GS
[0.75 0 0 0.75 0 0] CT
0 1 0 RC
10.0 ML
2 LW
N
741.9 136.1 M
741.9 130.9 L
747.1 130.9 L
747.1 136.1 L
cp
S
GR
GS
[0.75 0 0 0.75 0 0] CT
0 0 1 RC
1 LJ
2 LW
N
90 419.86 M
162.667 346.268 L
235.333 294.611 L
308 258.173 L
380.667 233.91 L
453.333 221.302 L
526 215.895 L
598.667 213.006 L
671.333 213.061 L
744 214.835 L
S
GR
GS
[0.75 0 0 0.75 0 0] CT
1 GC
N
86.057 419.5 M
92.722 415.652 L
92.722 423.348 L
cp
f
GR
GS
[0.75 0 0 0.75 0 0] CT
0 0 1 RC
10.0 ML
2 LW
N
86.057 419.5 M
92.722 415.652 L
92.722 423.348 L
cp
S
GR
GS
[0.75 0 0 0.75 0 0] CT
1 GC
N
158.057 346.5 M
164.722 342.652 L
164.722 350.348 L
cp
f
GR
GS
[0.75 0 0 0.75 0 0] CT
0 0 1 RC
10.0 ML
2 LW
N
158.057 346.5 M
164.722 342.652 L
164.722 350.348 L
cp
S
GR
GS
[0.75 0 0 0.75 0 0] CT
1 GC
N
231.057 294.5 M
237.722 290.652 L
237.722 298.348 L
cp
f
GR
GS
[0.75 0 0 0.75 0 0] CT
0 0 1 RC
10.0 ML
2 LW
N
231.057 294.5 M
237.722 290.652 L
237.722 298.348 L
cp
S
GR
GS
[0.75 0 0 0.75 0 0] CT
1 GC
N
303.057 258.5 M
309.722 254.652 L
309.722 262.348 L
cp
f
GR
GS
[0.75 0 0 0.75 0 0] CT
0 0 1 RC
10.0 ML
2 LW
N
303.057 258.5 M
309.722 254.652 L
309.722 262.348 L
cp
S
GR
GS
[0.75 0 0 0.75 0 0] CT
1 GC
N
376.057 233.5 M
382.722 229.652 L
382.722 237.348 L
cp
f
GR
GS
[0.75 0 0 0.75 0 0] CT
0 0 1 RC
10.0 ML
2 LW
N
376.057 233.5 M
382.722 229.652 L
382.722 237.348 L
cp
S
GR
GS
[0.75 0 0 0.75 0 0] CT
1 GC
N
449.057 221.5 M
455.722 217.652 L
455.722 225.348 L
cp
f
GR
GS
[0.75 0 0 0.75 0 0] CT
0 0 1 RC
10.0 ML
2 LW
N
449.057 221.5 M
455.722 217.652 L
455.722 225.348 L
cp
S
GR
GS
[0.75 0 0 0.75 0 0] CT
1 GC
N
522.057 215.5 M
528.722 211.652 L
528.722 219.348 L
cp
f
GR
GS
[0.75 0 0 0.75 0 0] CT
0 0 1 RC
10.0 ML
2 LW
N
522.057 215.5 M
528.722 211.652 L
528.722 219.348 L
cp
S
GR
GS
[0.75 0 0 0.75 0 0] CT
1 GC
N
594.057 213.5 M
600.722 209.652 L
600.722 217.348 L
cp
f
GR
GS
[0.75 0 0 0.75 0 0] CT
0 0 1 RC
10.0 ML
2 LW
N
594.057 213.5 M
600.722 209.652 L
600.722 217.348 L
cp
S
GR
GS
[0.75 0 0 0.75 0 0] CT
1 GC
N
667.057 213.5 M
673.722 209.652 L
673.722 217.348 L
cp
f
GR
GS
[0.75 0 0 0.75 0 0] CT
0 0 1 RC
10.0 ML
2 LW
N
667.057 213.5 M
673.722 209.652 L
673.722 217.348 L
cp
S
GR
GS
[0.75 0 0 0.75 0 0] CT
1 GC
N
740.057 214.5 M
746.722 210.652 L
746.722 218.348 L
cp
f
GR
GS
[0.75 0 0 0.75 0 0] CT
0 0 1 RC
10.0 ML
2 LW
N
740.057 214.5 M
746.722 210.652 L
746.722 218.348 L
cp
S
GR
GS
[0.75 0 0 0.75 0 0] CT
1 0 1 RC
1 LJ
2 LW
N
90 419.86 M
162.667 325.887 L
235.333 250.472 L
308 192.102 L
380.667 146.113 L
453.333 122.727 L
526 106.334 L
598.667 97.511 L
671.333 94.403 L
744 94.742 L
S
GR
GS
[0.75 0 0 0.75 0 0] CT
1 0 1 RC
1 LJ
2 LW
N
87 419.5 M
94 419.5 L
S
GR
GS
[0.75 0 0 0.75 0 0] CT
1 0 1 RC
1 LJ
2 LW
N
90.5 423 M
90.5 416 L
S
GR
GS
[0.75 0 0 0.75 0 0] CT
1 0 1 RC
1 LJ
2 LW
N
159 325.5 M
166 325.5 L
S
GR
GS
[0.75 0 0 0.75 0 0] CT
1 0 1 RC
1 LJ
2 LW
N
162.5 329 M
162.5 322 L
S
GR
GS
[0.75 0 0 0.75 0 0] CT
1 0 1 RC
1 LJ
2 LW
N
232 250.5 M
239 250.5 L
S
GR
GS
[0.75 0 0 0.75 0 0] CT
1 0 1 RC
1 LJ
2 LW
N
235.5 254 M
235.5 247 L
S
GR
GS
[0.75 0 0 0.75 0 0] CT
1 0 1 RC
1 LJ
2 LW
N
304 192.5 M
311 192.5 L
S
GR
GS
[0.75 0 0 0.75 0 0] CT
1 0 1 RC
1 LJ
2 LW
N
307.5 196 M
307.5 189 L
S
GR
GS
[0.75 0 0 0.75 0 0] CT
1 0 1 RC
1 LJ
2 LW
N
377 146.5 M
384 146.5 L
S
GR
GS
[0.75 0 0 0.75 0 0] CT
1 0 1 RC
1 LJ
2 LW
N
380.5 150 M
380.5 143 L
S
GR
GS
[0.75 0 0 0.75 0 0] CT
1 0 1 RC
1 LJ
2 LW
N
450 122.5 M
457 122.5 L
S
GR
GS
[0.75 0 0 0.75 0 0] CT
1 0 1 RC
1 LJ
2 LW
N
453.5 126 M
453.5 119 L
S
GR
GS
[0.75 0 0 0.75 0 0] CT
1 0 1 RC
1 LJ
2 LW
N
523 106.5 M
530 106.5 L
S
GR
GS
[0.75 0 0 0.75 0 0] CT
1 0 1 RC
1 LJ
2 LW
N
526.5 110 M
526.5 103 L
S
GR
GS
[0.75 0 0 0.75 0 0] CT
1 0 1 RC
1 LJ
2 LW
N
595 97.5 M
602 97.5 L
S
GR
GS
[0.75 0 0 0.75 0 0] CT
1 0 1 RC
1 LJ
2 LW
N
598.5 101 M
598.5 94 L
S
GR
GS
[0.75 0 0 0.75 0 0] CT
1 0 1 RC
1 LJ
2 LW
N
668 94.5 M
675 94.5 L
S
GR
GS
[0.75 0 0 0.75 0 0] CT
1 0 1 RC
1 LJ
2 LW
N
671.5 98 M
671.5 91 L
S
GR
GS
[0.75 0 0 0.75 0 0] CT
1 0 1 RC
1 LJ
2 LW
N
741 94.5 M
748 94.5 L
S
GR
GS
[0.75 0 0 0.75 0 0] CT
1 0 1 RC
1 LJ
2 LW
N
744.5 98 M
744.5 91 L
S
GR
GS
[0.75 0 0 0.75 0 0] CT
1 0 0 RC
1 LJ
2 LW
N
90 419.86 M
162.667 325.626 L
235.333 249.507 L
308 188.518 L
380.667 140.887 L
453.333 116.26 L
526 99.509 L
598.667 89.15 L
671.333 83.676 L
744 85.648 L
S
GR
GS
[0.75 0 0 0.75 0 0] CT
1 GC
N
87.9 422.1 M
87.9 416.9 L
93.1 416.9 L
93.1 422.1 L
cp
f
GR
GS
[0.75 0 0 0.75 0 0] CT
1 0 0 RC
10.0 ML
2 LW
N
87.9 422.1 M
87.9 416.9 L
93.1 416.9 L
93.1 422.1 L
cp
S
GR
GS
[0.75 0 0 0.75 0 0] CT
1 GC
N
159.9 328.1 M
159.9 322.9 L
165.1 322.9 L
165.1 328.1 L
cp
f
GR
GS
[0.75 0 0 0.75 0 0] CT
1 0 0 RC
10.0 ML
2 LW
N
159.9 328.1 M
159.9 322.9 L
165.1 322.9 L
165.1 328.1 L
cp
S
GR
GS
[0.75 0 0 0.75 0 0] CT
1 GC
N
232.9 252.1 M
232.9 246.9 L
238.1 246.9 L
238.1 252.1 L
cp
f
GR
GS
[0.75 0 0 0.75 0 0] CT
1 0 0 RC
10.0 ML
2 LW
N
232.9 252.1 M
232.9 246.9 L
238.1 246.9 L
238.1 252.1 L
cp
S
GR
GS
[0.75 0 0 0.75 0 0] CT
1 GC
N
304.9 191.1 M
304.9 185.9 L
310.1 185.9 L
310.1 191.1 L
cp
f
GR
GS
[0.75 0 0 0.75 0 0] CT
1 0 0 RC
10.0 ML
2 LW
N
304.9 191.1 M
304.9 185.9 L
310.1 185.9 L
310.1 191.1 L
cp
S
GR
GS
[0.75 0 0 0.75 0 0] CT
1 GC
N
377.9 143.1 M
377.9 137.9 L
383.1 137.9 L
383.1 143.1 L
cp
f
GR
GS
[0.75 0 0 0.75 0 0] CT
1 0 0 RC
10.0 ML
2 LW
N
377.9 143.1 M
377.9 137.9 L
383.1 137.9 L
383.1 143.1 L
cp
S
GR
GS
[0.75 0 0 0.75 0 0] CT
1 GC
N
450.9 119.1 M
450.9 113.9 L
456.1 113.9 L
456.1 119.1 L
cp
f
GR
GS
[0.75 0 0 0.75 0 0] CT
1 0 0 RC
10.0 ML
2 LW
N
450.9 119.1 M
450.9 113.9 L
456.1 113.9 L
456.1 119.1 L
cp
S
GR
GS
[0.75 0 0 0.75 0 0] CT
1 GC
N
523.9 102.1 M
523.9 96.9 L
529.1 96.9 L
529.1 102.1 L
cp
f
GR
GS
[0.75 0 0 0.75 0 0] CT
1 0 0 RC
10.0 ML
2 LW
N
523.9 102.1 M
523.9 96.9 L
529.1 96.9 L
529.1 102.1 L
cp
S
GR
GS
[0.75 0 0 0.75 0 0] CT
1 GC
N
595.9 92.1 M
595.9 86.9 L
601.1 86.9 L
601.1 92.1 L
cp
f
GR
GS
[0.75 0 0 0.75 0 0] CT
1 0 0 RC
10.0 ML
2 LW
N
595.9 92.1 M
595.9 86.9 L
601.1 86.9 L
601.1 92.1 L
cp
S
GR
GS
[0.75 0 0 0.75 0 0] CT
1 GC
N
668.9 86.1 M
668.9 80.9 L
674.1 80.9 L
674.1 86.1 L
cp
f
GR
GS
[0.75 0 0 0.75 0 0] CT
1 0 0 RC
10.0 ML
2 LW
N
668.9 86.1 M
668.9 80.9 L
674.1 80.9 L
674.1 86.1 L
cp
S
GR
GS
[0.75 0 0 0.75 0 0] CT
1 GC
N
741.9 88.1 M
741.9 82.9 L
747.1 82.9 L
747.1 88.1 L
cp
f
GR
GS
[0.75 0 0 0.75 0 0] CT
1 0 0 RC
10.0 ML
2 LW
N
741.9 88.1 M
741.9 82.9 L
747.1 82.9 L
747.1 88.1 L
cp
S
GR
GS
[0.75 0 0 0.75 0 0] CT
1 LJ
2 LW
N
90 419.86 M
162.667 325.103 L
235.333 247.336 L
308 182.919 L
380.667 132.107 L
453.333 101.757 L
526 80.143 L
598.667 65.11 L
671.333 58.261 L
744 58.525 L
S
GR
GS
[0.75 0 0 0.75 0 0] CT
1 GC
N
93.833 419.5 M
92.857 417.143 L
90.5 416.167 L
88.143 417.143 L
87.167 419.5 L
88.143 421.857 L
90.5 422.833 L
92.857 421.857 L
93.833 419.5 L
cp
f
GR
GS
[0.75 0 0 0.75 0 0] CT
1 LJ
2 LW
N
93.833 419.5 M
93.197 417.541 L
91.53 416.33 L
89.47 416.33 L
87.803 417.541 L
87.167 419.5 L
87.803 421.459 L
89.47 422.67 L
91.53 422.67 L
93.197 421.459 L
cp
S
GR
GS
[0.75 0 0 0.75 0 0] CT
1 GC
N
165.833 325.5 M
164.857 323.143 L
162.5 322.167 L
160.143 323.143 L
159.167 325.5 L
160.143 327.857 L
162.5 328.833 L
164.857 327.857 L
165.833 325.5 L
cp
f
GR
GS
[0.75 0 0 0.75 0 0] CT
1 LJ
2 LW
N
165.833 325.5 M
165.197 323.541 L
163.53 322.33 L
161.47 322.33 L
159.803 323.541 L
159.167 325.5 L
159.803 327.459 L
161.47 328.67 L
163.53 328.67 L
165.197 327.459 L
cp
S
GR
GS
[0.75 0 0 0.75 0 0] CT
1 GC
N
238.833 247.5 M
237.857 245.143 L
235.5 244.167 L
233.143 245.143 L
232.167 247.5 L
233.143 249.857 L
235.5 250.833 L
237.857 249.857 L
238.833 247.5 L
cp
f
GR
GS
[0.75 0 0 0.75 0 0] CT
1 LJ
2 LW
N
238.833 247.5 M
238.197 245.541 L
236.53 244.33 L
234.47 244.33 L
232.803 245.541 L
232.167 247.5 L
232.803 249.459 L
234.47 250.67 L
236.53 250.67 L
238.197 249.459 L
cp
S
GR
GS
[0.75 0 0 0.75 0 0] CT
1 GC
N
310.833 182.5 M
309.857 180.143 L
307.5 179.167 L
305.143 180.143 L
304.167 182.5 L
305.143 184.857 L
307.5 185.833 L
309.857 184.857 L
310.833 182.5 L
cp
f
GR
GS
[0.75 0 0 0.75 0 0] CT
1 LJ
2 LW
N
310.833 182.5 M
310.197 180.541 L
308.53 179.33 L
306.47 179.33 L
304.803 180.541 L
304.167 182.5 L
304.803 184.459 L
306.47 185.67 L
308.53 185.67 L
310.197 184.459 L
cp
S
GR
GS
[0.75 0 0 0.75 0 0] CT
1 GC
N
383.833 132.5 M
382.857 130.143 L
380.5 129.167 L
378.143 130.143 L
377.167 132.5 L
378.143 134.857 L
380.5 135.833 L
382.857 134.857 L
383.833 132.5 L
cp
f
GR
GS
[0.75 0 0 0.75 0 0] CT
1 LJ
2 LW
N
383.833 132.5 M
383.197 130.541 L
381.53 129.33 L
379.47 129.33 L
377.803 130.541 L
377.167 132.5 L
377.803 134.459 L
379.47 135.67 L
381.53 135.67 L
383.197 134.459 L
cp
S
GR
GS
[0.75 0 0 0.75 0 0] CT
1 GC
N
456.833 101.5 M
455.857 99.143 L
453.5 98.167 L
451.143 99.143 L
450.167 101.5 L
451.143 103.857 L
453.5 104.833 L
455.857 103.857 L
456.833 101.5 L
cp
f
GR
GS
[0.75 0 0 0.75 0 0] CT
1 LJ
2 LW
N
456.833 101.5 M
456.197 99.541 L
454.53 98.33 L
452.47 98.33 L
450.803 99.541 L
450.167 101.5 L
450.803 103.459 L
452.47 104.67 L
454.53 104.67 L
456.197 103.459 L
cp
S
GR
GS
[0.75 0 0 0.75 0 0] CT
1 GC
N
529.833 80.5 M
528.857 78.143 L
526.5 77.167 L
524.143 78.143 L
523.167 80.5 L
524.143 82.857 L
526.5 83.833 L
528.857 82.857 L
529.833 80.5 L
cp
f
GR
GS
[0.75 0 0 0.75 0 0] CT
1 LJ
2 LW
N
529.833 80.5 M
529.197 78.541 L
527.53 77.33 L
525.47 77.33 L
523.803 78.541 L
523.167 80.5 L
523.803 82.459 L
525.47 83.67 L
527.53 83.67 L
529.197 82.459 L
cp
S
GR
GS
[0.75 0 0 0.75 0 0] CT
1 GC
N
601.833 65.5 M
600.857 63.143 L
598.5 62.167 L
596.143 63.143 L
595.167 65.5 L
596.143 67.857 L
598.5 68.833 L
600.857 67.857 L
601.833 65.5 L
cp
f
GR
GS
[0.75 0 0 0.75 0 0] CT
1 LJ
2 LW
N
601.833 65.5 M
601.197 63.541 L
599.53 62.33 L
597.47 62.33 L
595.803 63.541 L
595.167 65.5 L
595.803 67.459 L
597.47 68.67 L
599.53 68.67 L
601.197 67.459 L
cp
S
GR
GS
[0.75 0 0 0.75 0 0] CT
1 GC
N
674.833 58.5 M
673.857 56.143 L
671.5 55.167 L
669.143 56.143 L
668.167 58.5 L
669.143 60.857 L
671.5 61.833 L
673.857 60.857 L
674.833 58.5 L
cp
f
GR
GS
[0.75 0 0 0.75 0 0] CT
1 LJ
2 LW
N
674.833 58.5 M
674.197 56.541 L
672.53 55.33 L
670.47 55.33 L
668.803 56.541 L
668.167 58.5 L
668.803 60.459 L
670.47 61.67 L
672.53 61.67 L
674.197 60.459 L
cp
S
GR
GS
[0.75 0 0 0.75 0 0] CT
1 GC
N
747.833 58.5 M
746.857 56.143 L
744.5 55.167 L
742.143 56.143 L
741.167 58.5 L
742.143 60.857 L
744.5 61.833 L
746.857 60.857 L
747.833 58.5 L
cp
f
GR
GS
[0.75 0 0 0.75 0 0] CT
1 LJ
2 LW
N
747.833 58.5 M
747.197 56.541 L
745.53 55.33 L
743.47 55.33 L
741.803 56.541 L
741.167 58.5 L
741.803 60.459 L
743.47 61.67 L
745.53 61.67 L
747.197 60.459 L
cp
S
GR
GS
[0.75 0 0 0.75 0 0] CT
1 GC
N
625 408 M
625 139 L
731 139 L
731 408 L
cp
f
GR
GS
[0.75 0 0 0.75 496.5 116.625] CT
/Times 24 F
GS
[1 0 0 1 0 0] CT
0 8.5 moveto 
1 -1 scale
(LBP) t 
GR
GR
GS
[0.75 0 0 0.75 0 0] CT
1 0.6 0.784 RC
1 LJ
2 LW
N
629 155.5 M
659 155.5 L
S
GR
GS
[0.75 0 0 0.75 0 0] CT
1 GC
N
642.278 151.652 M
648.943 155.5 L
642.278 159.348 L
cp
f
GR
GS
[0.75 0 0 0.75 0 0] CT
1 0.6 0.784 RC
10.0 ML
2 LW
N
642.278 151.652 M
648.943 155.5 L
642.278 159.348 L
cp
S
GR
GS
[0.75 0 0 0.75 496.5 138.75] CT
/Times 24 F
GS
[1 0 0 1 0 0] CT
0 8.5 moveto 
1 -1 scale
(LTP) t 
GR
GR
GS
[0.75 0 0 0.75 0 0] CT
0.6 0.2 0 RC
1 LJ
2 LW
N
629 185 M
659 185 L
S
GR
GS
[0.75 0 0 0.75 0 0] CT
1 GC
N
640.057 184.5 M
646.722 180.652 L
646.722 188.348 L
cp
f
GR
GS
[0.75 0 0 0.75 0 0] CT
0.6 0.2 0 RC
10.0 ML
2 LW
N
640.057 184.5 M
646.722 180.652 L
646.722 188.348 L
cp
S
GR
GS
[0.75 0 0 0.75 496.5 160.875] CT
/Times 24 F
GS
[1 0 0 1 0 0] CT
0 8.5 moveto 
1 -1 scale
(LDP) t 
GR
GR
GS
[0.75 0 0 0.75 0 0] CT
0.929 0.694 0.125 RC
1 LJ
2 LW
N
629 214.5 M
659 214.5 L
S
GR
GS
[0.75 0 0 0.75 0 0] CT
1 GC
N
641.33 213.47 M
643.716 213.47 L
644.5 211.167 L
645.284 213.47 L
647.67 213.47 L
645.768 214.912 L
646.459 217.197 L
644.5 215.833 L
642.541 217.197 L
643.232 214.912 L
641.33 213.47 L
cp
f
GR
GS
[0.75 0 0 0.75 0 0] CT
0.929 0.694 0.125 RC
10.0 ML
2 LW
N
641.33 213.47 M
643.716 213.47 L
644.5 211.167 L
645.284 213.47 L
647.67 213.47 L
645.768 214.912 L
646.459 217.197 L
644.5 215.833 L
642.541 217.197 L
643.232 214.912 L
cp
S
GR
GS
[0.75 0 0 0.75 496.5 183] CT
/Times 24 F
GS
[1 0 0 1 0 0] CT
0 8.5 moveto 
1 -1 scale
(LDN) t 
GR
GR
GS
[0.75 0 0 0.75 0 0] CT
0 1 1 RC
1 LJ
2 LW
N
629 244 M
659 244 L
S
GR
GS
[0.75 0 0 0.75 0 0] CT
1 GC
N
644.5 247.943 M
647.833 243.5 L
644.5 239.057 L
641.167 243.5 L
cp
f
GR
GS
[0.75 0 0 0.75 0 0] CT
0 1 1 RC
10.0 ML
2 LW
N
644.5 247.943 M
647.833 243.5 L
644.5 239.057 L
641.167 243.5 L
cp
S
GR
GS
[0.75 0 0 0.75 496.5 205.125] CT
/Times 24 F
GS
[1 0 0 1 0 0] CT
0 8.5 moveto 
1 -1 scale
(LVP) t 
GR
GR
GS
[0.75 0 0 0.75 0 0] CT
0 1 0 RC
1 LJ
2 LW
N
629 273.5 M
659 273.5 L
S
GR
GS
[0.75 0 0 0.75 0 0] CT
1 GC
N
641.9 276.1 M
641.9 270.9 L
647.1 270.9 L
647.1 276.1 L
cp
f
GR
GS
[0.75 0 0 0.75 0 0] CT
0 1 0 RC
10.0 ML
2 LW
N
641.9 276.1 M
641.9 270.9 L
647.1 270.9 L
647.1 276.1 L
cp
S
GR
GS
[0.75 0 0 0.75 496.5 227.25] CT
/Times 24 F
GS
[1 0 0 1 0 0] CT
0 8.5 moveto 
1 -1 scale
(LDGP) t 
GR
GR
GS
[0.75 0 0 0.75 0 0] CT
0 0 1 RC
1 LJ
2 LW
N
629 303 M
659 303 L
S
GR
GS
[0.75 0 0 0.75 0 0] CT
1 GC
N
640.057 302.5 M
646.722 298.652 L
646.722 306.348 L
cp
f
GR
GS
[0.75 0 0 0.75 0 0] CT
0 0 1 RC
10.0 ML
2 LW
N
640.057 302.5 M
646.722 298.652 L
646.722 306.348 L
cp
S
GR
GS
[0.75 0 0 0.75 496.5 249.375] CT
/Times 24 F
GS
[1 0 0 1 0 0] CT
0 8.5 moveto 
1 -1 scale
(DCP) t 
GR
GR
GS
[0.75 0 0 0.75 0 0] CT
1 0 1 RC
1 LJ
2 LW
N
629 332.5 M
659 332.5 L
S
GR
GS
[0.75 0 0 0.75 0 0] CT
1 0 1 RC
1 LJ
2 LW
N
641 332.5 M
648 332.5 L
S
GR
GS
[0.75 0 0 0.75 0 0] CT
1 0 1 RC
1 LJ
2 LW
N
644.5 336 M
644.5 329 L
S
GR
GS
[0.75 0 0 0.75 496.5 271.5] CT
/Times 24 F
GS
[1 0 0 1 0 0] CT
0 8.5 moveto 
1 -1 scale
(LGHP) t 
GR
GR
GS
[0.75 0 0 0.75 0 0] CT
1 0 0 RC
1 LJ
2 LW
N
629 362 M
659 362 L
S
GR
GS
[0.75 0 0 0.75 0 0] CT
1 GC
N
641.9 365.1 M
641.9 359.9 L
647.1 359.9 L
647.1 365.1 L
cp
f
GR
GS
[0.75 0 0 0.75 0 0] CT
1 0 0 RC
10.0 ML
2 LW
N
641.9 365.1 M
641.9 359.9 L
647.1 359.9 L
647.1 365.1 L
cp
S
GR
GS
[0.75 0 0 0.75 496.5 293.625] CT
/Times 24 F
GS
[1 0 0 1 0 0] CT
0 8.5 moveto 
1 -1 scale
(LDRP) t 
GR
GR
GS
[0.75 0 0 0.75 0 0] CT
1 LJ
2 LW
N
629 391.5 M
659 391.5 L
S
GR
GS
[0.75 0 0 0.75 0 0] CT
1 GC
N
647.833 391.5 M
646.857 389.143 L
644.5 388.167 L
642.143 389.143 L
641.167 391.5 L
642.143 393.857 L
644.5 394.833 L
646.857 393.857 L
647.833 391.5 L
cp
f
GR
GS
[0.75 0 0 0.75 0 0] CT
1 LJ
2 LW
N
647.833 391.5 M
647.197 389.541 L
645.53 388.33 L
643.47 388.33 L
641.803 389.541 L
641.167 391.5 L
641.803 393.459 L
643.47 394.67 L
645.53 394.67 L
647.197 393.459 L
cp
S
GR
GS
[0.75 0 0 0.75 0 0] CT
0.149 GC
10.0 ML
0.667 LW
N
625 408 M
625 139 L
731 139 L
731 408 L
cp
S
GR
%%Trailer
%%Pages: 1
%%EOF
