%!PS-Adobe-3.0 EPSF-3.0
%%Creator: (MATLAB, The Mathworks, Inc. Version 9.0.0.341360 \(R2016a\). Operating System: Linux)
%%Title: (/home/shivram/main/Work/1. Research/1. Ongoing/5. LDRP Face/2. Exp/1. Results/ESSEXCropped/essex-arp.eps)
%%CreationDate: 2017-08-17T17:17:21
%%Pages: (atend)
%%BoundingBox: 0 0 573 384
%%LanguageLevel: 3
%%EndComments
%%BeginProlog
%%BeginResource: procset (Apache XML Graphics Std ProcSet) 1.2 0
%%Version: 1.2 0
%%Copyright: (Copyright 2001-2003,2010 The Apache Software Foundation. License terms: http://www.apache.org/licenses/LICENSE-2.0)
/bd{bind def}bind def
/ld{load def}bd
/GR/grestore ld
/M/moveto ld
/LJ/setlinejoin ld
/C/curveto ld
/f/fill ld
/LW/setlinewidth ld
/GC/setgray ld
/t/show ld
/N/newpath ld
/CT/concat ld
/cp/closepath ld
/S/stroke ld
/L/lineto ld
/CC/setcmykcolor ld
/A/ashow ld
/GS/gsave ld
/RC/setrgbcolor ld
/RM/rmoveto ld
/ML/setmiterlimit ld
/re {4 2 roll M
1 index 0 rlineto
0 exch rlineto
neg 0 rlineto
cp } bd
/_ctm matrix def
/_tm matrix def
/BT { _ctm currentmatrix pop matrix _tm copy pop 0 0 moveto } bd
/ET { _ctm setmatrix } bd
/iTm { _ctm setmatrix _tm concat } bd
/Tm { _tm astore pop iTm 0 0 moveto } bd
/ux 0.0 def
/uy 0.0 def
/F {
  /Tp exch def
  /Tf exch def
  Tf findfont Tp scalefont setfont
  /cf Tf def  /cs Tp def
} bd
/ULS {currentpoint /uy exch def /ux exch def} bd
/ULE {
  /Tcx currentpoint pop def
  gsave
  newpath
  cf findfont cs scalefont dup
  /FontMatrix get 0 get /Ts exch def /FontInfo get dup
  /UnderlinePosition get Ts mul /To exch def
  /UnderlineThickness get Ts mul /Tt exch def
  ux uy To add moveto  Tcx uy To add lineto
  Tt setlinewidth stroke
  grestore
} bd
/OLE {
  /Tcx currentpoint pop def
  gsave
  newpath
  cf findfont cs scalefont dup
  /FontMatrix get 0 get /Ts exch def /FontInfo get dup
  /UnderlinePosition get Ts mul /To exch def
  /UnderlineThickness get Ts mul /Tt exch def
  ux uy To add cs add moveto Tcx uy To add cs add lineto
  Tt setlinewidth stroke
  grestore
} bd
/SOE {
  /Tcx currentpoint pop def
  gsave
  newpath
  cf findfont cs scalefont dup
  /FontMatrix get 0 get /Ts exch def /FontInfo get dup
  /UnderlinePosition get Ts mul /To exch def
  /UnderlineThickness get Ts mul /Tt exch def
  ux uy To add cs 10 mul 26 idiv add moveto Tcx uy To add cs 10 mul 26 idiv add lineto
  Tt setlinewidth stroke
  grestore
} bd
/QT {
/Y22 exch store
/X22 exch store
/Y21 exch store
/X21 exch store
currentpoint
/Y21 load 2 mul add 3 div exch
/X21 load 2 mul add 3 div exch
/X21 load 2 mul /X22 load add 3 div
/Y21 load 2 mul /Y22 load add 3 div
/X22 load /Y22 load curveto
} bd
/SSPD {
dup length /d exch dict def
{
/v exch def
/k exch def
currentpagedevice k known {
/cpdv currentpagedevice k get def
v cpdv ne {
/upd false def
/nullv v type /nulltype eq def
/nullcpdv cpdv type /nulltype eq def
nullv nullcpdv or
{
/upd true def
} {
/sametype v type cpdv type eq def
sametype {
v type /arraytype eq {
/vlen v length def
/cpdvlen cpdv length def
vlen cpdvlen eq {
0 1 vlen 1 sub {
/i exch def
/obj v i get def
/cpdobj cpdv i get def
obj cpdobj ne {
/upd true def
exit
} if
} for
} {
/upd true def
} ifelse
} {
v type /dicttype eq {
v {
/dv exch def
/dk exch def
/cpddv cpdv dk get def
dv cpddv ne {
/upd true def
exit
} if
} forall
} {
/upd true def
} ifelse
} ifelse
} if
} ifelse
upd true eq {
d k v put
} if
} if
} if
} forall
d length 0 gt {
d setpagedevice
} if
} bd
%%EndResource
%%BeginResource: procset (Apache XML Graphics EPS ProcSet) 1.0 0
%%Version: 1.0 0
%%Copyright: (Copyright 2002-2003 The Apache Software Foundation. License terms: http://www.apache.org/licenses/LICENSE-2.0)
/BeginEPSF { %def
/b4_Inc_state save def         % Save state for cleanup
/dict_count countdictstack def % Count objects on dict stack
/op_count count 1 sub def      % Count objects on operand stack
userdict begin                 % Push userdict on dict stack
/showpage { } def              % Redefine showpage, { } = null proc
0 setgray 0 setlinecap         % Prepare graphics state
1 setlinewidth 0 setlinejoin
10 setmiterlimit [ ] 0 setdash newpath
/languagelevel where           % If level not equal to 1 then
{pop languagelevel             % set strokeadjust and
1 ne                           % overprint to their defaults.
{false setstrokeadjust false setoverprint
} if
} if
} bd
/EndEPSF { %def
count op_count sub {pop} repeat            % Clean up stacks
countdictstack dict_count sub {end} repeat
b4_Inc_state restore
} bd
%%EndResource
%FOPBeginFontDict
%%IncludeResource: font Courier-Bold
%%IncludeResource: font Helvetica
%%IncludeResource: font Courier-BoldOblique
%%IncludeResource: font Courier-Oblique
%%IncludeResource: font Times-Roman
%%IncludeResource: font Helvetica-BoldOblique
%%IncludeResource: font Helvetica-Bold
%%IncludeResource: font Helvetica-Oblique
%%IncludeResource: font Times-BoldItalic
%%IncludeResource: font Courier
%%IncludeResource: font Times-Italic
%%IncludeResource: font Times-Bold
%%IncludeResource: font Symbol
%%IncludeResource: font ZapfDingbats
%FOPEndFontDict
%%BeginResource: encoding WinAnsiEncoding
/WinAnsiEncoding [
/.notdef /.notdef /.notdef /.notdef /.notdef
/.notdef /.notdef /.notdef /.notdef /.notdef
/.notdef /.notdef /.notdef /.notdef /.notdef
/.notdef /.notdef /.notdef /.notdef /.notdef
/.notdef /.notdef /.notdef /.notdef /.notdef
/.notdef /.notdef /.notdef /.notdef /.notdef
/.notdef /.notdef /space /exclam /quotedbl
/numbersign /dollar /percent /ampersand /quotesingle
/parenleft /parenright /asterisk /plus /comma
/hyphen /period /slash /zero /one
/two /three /four /five /six
/seven /eight /nine /colon /semicolon
/less /equal /greater /question /at
/A /B /C /D /E
/F /G /H /I /J
/K /L /M /N /O
/P /Q /R /S /T
/U /V /W /X /Y
/Z /bracketleft /backslash /bracketright /asciicircum
/underscore /quoteleft /a /b /c
/d /e /f /g /h
/i /j /k /l /m
/n /o /p /q /r
/s /t /u /v /w
/x /y /z /braceleft /bar
/braceright /asciitilde /bullet /Euro /bullet
/quotesinglbase /florin /quotedblbase /ellipsis /dagger
/daggerdbl /circumflex /perthousand /Scaron /guilsinglleft
/OE /bullet /Zcaron /bullet /bullet
/quoteleft /quoteright /quotedblleft /quotedblright /bullet
/endash /emdash /asciitilde /trademark /scaron
/guilsinglright /oe /bullet /zcaron /Ydieresis
/space /exclamdown /cent /sterling /currency
/yen /brokenbar /section /dieresis /copyright
/ordfeminine /guillemotleft /logicalnot /sfthyphen /registered
/macron /degree /plusminus /twosuperior /threesuperior
/acute /mu /paragraph /middot /cedilla
/onesuperior /ordmasculine /guillemotright /onequarter /onehalf
/threequarters /questiondown /Agrave /Aacute /Acircumflex
/Atilde /Adieresis /Aring /AE /Ccedilla
/Egrave /Eacute /Ecircumflex /Edieresis /Igrave
/Iacute /Icircumflex /Idieresis /Eth /Ntilde
/Ograve /Oacute /Ocircumflex /Otilde /Odieresis
/multiply /Oslash /Ugrave /Uacute /Ucircumflex
/Udieresis /Yacute /Thorn /germandbls /agrave
/aacute /acircumflex /atilde /adieresis /aring
/ae /ccedilla /egrave /eacute /ecircumflex
/edieresis /igrave /iacute /icircumflex /idieresis
/eth /ntilde /ograve /oacute /ocircumflex
/otilde /odieresis /divide /oslash /ugrave
/uacute /ucircumflex /udieresis /yacute /thorn
/ydieresis
] def
%%EndResource
%FOPBeginFontReencode
/Courier-Bold findfont
dup length dict begin
  {1 index /FID ne {def} {pop pop} ifelse} forall
  /Encoding WinAnsiEncoding def
  currentdict
end
/Courier-Bold exch definefont pop
/Helvetica findfont
dup length dict begin
  {1 index /FID ne {def} {pop pop} ifelse} forall
  /Encoding WinAnsiEncoding def
  currentdict
end
/Helvetica exch definefont pop
/Courier-BoldOblique findfont
dup length dict begin
  {1 index /FID ne {def} {pop pop} ifelse} forall
  /Encoding WinAnsiEncoding def
  currentdict
end
/Courier-BoldOblique exch definefont pop
/Courier-Oblique findfont
dup length dict begin
  {1 index /FID ne {def} {pop pop} ifelse} forall
  /Encoding WinAnsiEncoding def
  currentdict
end
/Courier-Oblique exch definefont pop
/Times-Roman findfont
dup length dict begin
  {1 index /FID ne {def} {pop pop} ifelse} forall
  /Encoding WinAnsiEncoding def
  currentdict
end
/Times-Roman exch definefont pop
/Helvetica-BoldOblique findfont
dup length dict begin
  {1 index /FID ne {def} {pop pop} ifelse} forall
  /Encoding WinAnsiEncoding def
  currentdict
end
/Helvetica-BoldOblique exch definefont pop
/Helvetica-Bold findfont
dup length dict begin
  {1 index /FID ne {def} {pop pop} ifelse} forall
  /Encoding WinAnsiEncoding def
  currentdict
end
/Helvetica-Bold exch definefont pop
/Helvetica-Oblique findfont
dup length dict begin
  {1 index /FID ne {def} {pop pop} ifelse} forall
  /Encoding WinAnsiEncoding def
  currentdict
end
/Helvetica-Oblique exch definefont pop
/Times-BoldItalic findfont
dup length dict begin
  {1 index /FID ne {def} {pop pop} ifelse} forall
  /Encoding WinAnsiEncoding def
  currentdict
end
/Times-BoldItalic exch definefont pop
/Courier findfont
dup length dict begin
  {1 index /FID ne {def} {pop pop} ifelse} forall
  /Encoding WinAnsiEncoding def
  currentdict
end
/Courier exch definefont pop
/Times-Italic findfont
dup length dict begin
  {1 index /FID ne {def} {pop pop} ifelse} forall
  /Encoding WinAnsiEncoding def
  currentdict
end
/Times-Italic exch definefont pop
/Times-Bold findfont
dup length dict begin
  {1 index /FID ne {def} {pop pop} ifelse} forall
  /Encoding WinAnsiEncoding def
  currentdict
end
/Times-Bold exch definefont pop
%FOPEndFontReencode
%%EndProlog
%%Page: 1 1
%%PageBoundingBox: 0 0 573 384
%%BeginPageSetup
[1 0 0 -1 0 384] CT
%%EndPageSetup
GS
[0.75 0 0 0.75 0 0] CT
1 GC
N
0 0 764 512 re
f
GR
GS
[0.75 0 0 0.75 0 0] CT
1 GC
N
0 0 764 512 re
f
GR
GS
[0.75 0 0 0.75 0 0] CT
1 GC
N
112 421 M
746 421 L
746 51 L
112 51 L
cp
f
GR
GS
[0.75 0 0 0.75 0 0] CT
0.149 GC
2 setlinecap
1 LJ
0.667 LW
N
112 421 M
746 421 L
S
GR
GS
[0.75 0 0 0.75 0 0] CT
0.149 GC
2 setlinecap
1 LJ
0.667 LW
N
112 51 M
746 51 L
S
GR
GS
[0.75 0 0 0.75 0 0] CT
0.149 GC
2 setlinecap
1 LJ
0.667 LW
N
112 421 M
112 414.66 L
S
GR
GS
[0.75 0 0 0.75 0 0] CT
0.149 GC
2 setlinecap
1 LJ
0.667 LW
N
182.444 421 M
182.444 414.66 L
S
GR
GS
[0.75 0 0 0.75 0 0] CT
0.149 GC
2 setlinecap
1 LJ
0.667 LW
N
252.889 421 M
252.889 414.66 L
S
GR
GS
[0.75 0 0 0.75 0 0] CT
0.149 GC
2 setlinecap
1 LJ
0.667 LW
N
323.333 421 M
323.333 414.66 L
S
GR
GS
[0.75 0 0 0.75 0 0] CT
0.149 GC
2 setlinecap
1 LJ
0.667 LW
N
393.778 421 M
393.778 414.66 L
S
GR
GS
[0.75 0 0 0.75 0 0] CT
0.149 GC
2 setlinecap
1 LJ
0.667 LW
N
464.222 421 M
464.222 414.66 L
S
GR
GS
[0.75 0 0 0.75 0 0] CT
0.149 GC
2 setlinecap
1 LJ
0.667 LW
N
534.667 421 M
534.667 414.66 L
S
GR
GS
[0.75 0 0 0.75 0 0] CT
0.149 GC
2 setlinecap
1 LJ
0.667 LW
N
605.111 421 M
605.111 414.66 L
S
GR
GS
[0.75 0 0 0.75 0 0] CT
0.149 GC
2 setlinecap
1 LJ
0.667 LW
N
675.556 421 M
675.556 414.66 L
S
GR
GS
[0.75 0 0 0.75 0 0] CT
0.149 GC
2 setlinecap
1 LJ
0.667 LW
N
746 421 M
746 414.66 L
S
GR
GS
[0.75 0 0 0.75 0 0] CT
0.149 GC
2 setlinecap
1 LJ
0.667 LW
N
112 51 M
112 57.34 L
S
GR
GS
[0.75 0 0 0.75 0 0] CT
0.149 GC
2 setlinecap
1 LJ
0.667 LW
N
182.444 51 M
182.444 57.34 L
S
GR
GS
[0.75 0 0 0.75 0 0] CT
0.149 GC
2 setlinecap
1 LJ
0.667 LW
N
252.889 51 M
252.889 57.34 L
S
GR
GS
[0.75 0 0 0.75 0 0] CT
0.149 GC
2 setlinecap
1 LJ
0.667 LW
N
323.333 51 M
323.333 57.34 L
S
GR
GS
[0.75 0 0 0.75 0 0] CT
0.149 GC
2 setlinecap
1 LJ
0.667 LW
N
393.778 51 M
393.778 57.34 L
S
GR
GS
[0.75 0 0 0.75 0 0] CT
0.149 GC
2 setlinecap
1 LJ
0.667 LW
N
464.222 51 M
464.222 57.34 L
S
GR
GS
[0.75 0 0 0.75 0 0] CT
0.149 GC
2 setlinecap
1 LJ
0.667 LW
N
534.667 51 M
534.667 57.34 L
S
GR
GS
[0.75 0 0 0.75 0 0] CT
0.149 GC
2 setlinecap
1 LJ
0.667 LW
N
605.111 51 M
605.111 57.34 L
S
GR
GS
[0.75 0 0 0.75 0 0] CT
0.149 GC
2 setlinecap
1 LJ
0.667 LW
N
675.556 51 M
675.556 57.34 L
S
GR
GS
[0.75 0 0 0.75 0 0] CT
0.149 GC
2 setlinecap
1 LJ
0.667 LW
N
746 51 M
746 57.34 L
S
GR
GS
[0.75 0 0 0.75 84 322.54999] CT
0.149 GC
/Times 32 F
GS
[1 0 0 1 0 0] CT
-10.5 30 moveto 
1 -1 scale
(1) t 
GR
GR
GS
[0.75 0 0 0.75 136.83333 322.54999] CT
0.149 GC
/Times 32 F
GS
[1 0 0 1 0 0] CT
-10.5 30 moveto 
1 -1 scale
(2) t 
GR
GR
GS
[0.75 0 0 0.75 189.66666 322.54999] CT
0.149 GC
/Times 32 F
GS
[1 0 0 1 0 0] CT
-10.5 30 moveto 
1 -1 scale
(3) t 
GR
GR
GS
[0.75 0 0 0.75 242.50001 322.54999] CT
0.149 GC
/Times 32 F
GS
[1 0 0 1 0 0] CT
-10.5 30 moveto 
1 -1 scale
(4) t 
GR
GR
GS
[0.75 0 0 0.75 295.33333 322.54999] CT
0.149 GC
/Times 32 F
GS
[1 0 0 1 0 0] CT
-10.5 30 moveto 
1 -1 scale
(5) t 
GR
GR
GS
[0.75 0 0 0.75 348.16667 322.54999] CT
0.149 GC
/Times 32 F
GS
[1 0 0 1 0 0] CT
-10.5 30 moveto 
1 -1 scale
(6) t 
GR
GR
GS
[0.75 0 0 0.75 401.00002 322.54999] CT
0.149 GC
/Times 32 F
GS
[1 0 0 1 0 0] CT
-10.5 30 moveto 
1 -1 scale
(7) t 
GR
GR
GS
[0.75 0 0 0.75 453.83331 322.54999] CT
0.149 GC
/Times 32 F
GS
[1 0 0 1 0 0] CT
-10.5 30 moveto 
1 -1 scale
(8) t 
GR
GR
GS
[0.75 0 0 0.75 506.66666 322.54999] CT
0.149 GC
/Times 32 F
GS
[1 0 0 1 0 0] CT
-10.5 30 moveto 
1 -1 scale
(9) t 
GR
GR
GS
[0.75 0 0 0.75 559.5 322.54999] CT
0.149 GC
/Times 32 F
GS
[1 0 0 1 0 0] CT
-20.5 30 moveto 
1 -1 scale
(10) t 
GR
GR
GS
[0.75 0 0 0.75 321.75023 352.05] CT
0.149 GC
/Times 35.2 F
GS
[1 0 0 1 0 0] CT
-210 33 moveto 
1 -1 scale
(Number of Top Matches) t 
GR
GR
GS
[0.75 0 0 0.75 0 0] CT
0.149 GC
2 setlinecap
1 LJ
0.667 LW
N
112 421 M
112 51 L
S
GR
GS
[0.75 0 0 0.75 0 0] CT
0.149 GC
2 setlinecap
1 LJ
0.667 LW
N
746 421 M
746 51 L
S
GR
GS
[0.75 0 0 0.75 0 0] CT
0.149 GC
2 setlinecap
1 LJ
0.667 LW
N
112 411.976 M
118.34 411.976 L
S
GR
GS
[0.75 0 0 0.75 0 0] CT
0.149 GC
2 setlinecap
1 LJ
0.667 LW
N
112 366.854 M
118.34 366.854 L
S
GR
GS
[0.75 0 0 0.75 0 0] CT
0.149 GC
2 setlinecap
1 LJ
0.667 LW
N
112 321.732 M
118.34 321.732 L
S
GR
GS
[0.75 0 0 0.75 0 0] CT
0.149 GC
2 setlinecap
1 LJ
0.667 LW
N
112 276.61 M
118.34 276.61 L
S
GR
GS
[0.75 0 0 0.75 0 0] CT
0.149 GC
2 setlinecap
1 LJ
0.667 LW
N
112 231.488 M
118.34 231.488 L
S
GR
GS
[0.75 0 0 0.75 0 0] CT
0.149 GC
2 setlinecap
1 LJ
0.667 LW
N
112 186.366 M
118.34 186.366 L
S
GR
GS
[0.75 0 0 0.75 0 0] CT
0.149 GC
2 setlinecap
1 LJ
0.667 LW
N
112 141.244 M
118.34 141.244 L
S
GR
GS
[0.75 0 0 0.75 0 0] CT
0.149 GC
2 setlinecap
1 LJ
0.667 LW
N
112 96.122 M
118.34 96.122 L
S
GR
GS
[0.75 0 0 0.75 0 0] CT
0.149 GC
2 setlinecap
1 LJ
0.667 LW
N
112 51 M
118.34 51 L
S
GR
GS
[0.75 0 0 0.75 0 0] CT
0.149 GC
2 setlinecap
1 LJ
0.667 LW
N
746 411.976 M
739.66 411.976 L
S
GR
GS
[0.75 0 0 0.75 0 0] CT
0.149 GC
2 setlinecap
1 LJ
0.667 LW
N
746 366.854 M
739.66 366.854 L
S
GR
GS
[0.75 0 0 0.75 0 0] CT
0.149 GC
2 setlinecap
1 LJ
0.667 LW
N
746 321.732 M
739.66 321.732 L
S
GR
GS
[0.75 0 0 0.75 0 0] CT
0.149 GC
2 setlinecap
1 LJ
0.667 LW
N
746 276.61 M
739.66 276.61 L
S
GR
GS
[0.75 0 0 0.75 0 0] CT
0.149 GC
2 setlinecap
1 LJ
0.667 LW
N
746 231.488 M
739.66 231.488 L
S
GR
GS
[0.75 0 0 0.75 0 0] CT
0.149 GC
2 setlinecap
1 LJ
0.667 LW
N
746 186.366 M
739.66 186.366 L
S
GR
GS
[0.75 0 0 0.75 0 0] CT
0.149 GC
2 setlinecap
1 LJ
0.667 LW
N
746 141.244 M
739.66 141.244 L
S
GR
GS
[0.75 0 0 0.75 0 0] CT
0.149 GC
2 setlinecap
1 LJ
0.667 LW
N
746 96.122 M
739.66 96.122 L
S
GR
GS
[0.75 0 0 0.75 0 0] CT
0.149 GC
2 setlinecap
1 LJ
0.667 LW
N
746 51 M
739.66 51 L
S
GR
GS
[0.75 0 0 0.75 77.2 308.98171] CT
0.149 GC
/Times 32 F
GS
[1 0 0 1 0 0] CT
-41 11 moveto 
1 -1 scale
(60) t 
GR
GR
GS
[0.75 0 0 0.75 77.2 275.14025] CT
0.149 GC
/Times 32 F
GS
[1 0 0 1 0 0] CT
-41 11 moveto 
1 -1 scale
(65) t 
GR
GR
GS
[0.75 0 0 0.75 77.2 241.29879] CT
0.149 GC
/Times 32 F
GS
[1 0 0 1 0 0] CT
-41 11 moveto 
1 -1 scale
(70) t 
GR
GR
GS
[0.75 0 0 0.75 77.2 207.45731] CT
0.149 GC
/Times 32 F
GS
[1 0 0 1 0 0] CT
-41 11 moveto 
1 -1 scale
(75) t 
GR
GR
GS
[0.75 0 0 0.75 77.2 173.61586] CT
0.149 GC
/Times 32 F
GS
[1 0 0 1 0 0] CT
-41 11 moveto 
1 -1 scale
(80) t 
GR
GR
GS
[0.75 0 0 0.75 77.2 139.77439] CT
0.149 GC
/Times 32 F
GS
[1 0 0 1 0 0] CT
-41 11 moveto 
1 -1 scale
(85) t 
GR
GR
GS
[0.75 0 0 0.75 77.2 105.93292] CT
0.149 GC
/Times 32 F
GS
[1 0 0 1 0 0] CT
-41 11 moveto 
1 -1 scale
(90) t 
GR
GR
GS
[0.75 0 0 0.75 77.2 72.09146] CT
0.149 GC
/Times 32 F
GS
[1 0 0 1 0 0] CT
-41 11 moveto 
1 -1 scale
(95) t 
GR
GR
GS
[0.75 0 0 0.75 77.2 38.25] CT
0.149 GC
/Times 32 F
GS
[1 0 0 1 0 0] CT
-62 11 moveto 
1 -1 scale
(100) t 
GR
GR
GS
[0 -0.75 0.75 0 27.7 176.99984] CT
0.149 GC
/Times 35.2 F
GS
[1 0 0 1 0 0] CT
-71 -9 moveto 
1 -1 scale
(ARP \(%\)) t 
GR
GR
GS
[0.75 0 0 0.75 321.7503 33.29998] CT
/Times 35.2 F
GS
[1 0 0 1 0 0] CT
-145.5 -9 moveto 
1 -1 scale
(ESSEX Database) t 
GR
GR
GS
[0.75 0 0 0.75 0 0] CT
1 0.6 0.784 RC
1 LJ
2 LW
N
112 53.242 M
182.444 111.484 L
252.889 143.189 L
323.333 168.509 L
393.778 189.962 L
464.222 209.706 L
534.667 228.13 L
605.111 244.291 L
675.556 260.945 L
746 276.382 L
S
GR
GS
[0.75 0 0 0.75 0 0] CT
1 GC
N
110.278 49.652 M
116.943 53.5 L
110.278 57.348 L
cp
f
GR
GS
[0.75 0 0 0.75 0 0] CT
1 0.6 0.784 RC
10.0 ML
2 LW
N
110.278 49.652 M
116.943 53.5 L
110.278 57.348 L
cp
S
GR
GS
[0.75 0 0 0.75 0 0] CT
1 GC
N
180.278 107.652 M
186.943 111.5 L
180.278 115.348 L
cp
f
GR
GS
[0.75 0 0 0.75 0 0] CT
1 0.6 0.784 RC
10.0 ML
2 LW
N
180.278 107.652 M
186.943 111.5 L
180.278 115.348 L
cp
S
GR
GS
[0.75 0 0 0.75 0 0] CT
1 GC
N
250.278 139.652 M
256.943 143.5 L
250.278 147.348 L
cp
f
GR
GS
[0.75 0 0 0.75 0 0] CT
1 0.6 0.784 RC
10.0 ML
2 LW
N
250.278 139.652 M
256.943 143.5 L
250.278 147.348 L
cp
S
GR
GS
[0.75 0 0 0.75 0 0] CT
1 GC
N
321.278 164.652 M
327.943 168.5 L
321.278 172.348 L
cp
f
GR
GS
[0.75 0 0 0.75 0 0] CT
1 0.6 0.784 RC
10.0 ML
2 LW
N
321.278 164.652 M
327.943 168.5 L
321.278 172.348 L
cp
S
GR
GS
[0.75 0 0 0.75 0 0] CT
1 GC
N
391.278 185.652 M
397.943 189.5 L
391.278 193.348 L
cp
f
GR
GS
[0.75 0 0 0.75 0 0] CT
1 0.6 0.784 RC
10.0 ML
2 LW
N
391.278 185.652 M
397.943 189.5 L
391.278 193.348 L
cp
S
GR
GS
[0.75 0 0 0.75 0 0] CT
1 GC
N
462.278 205.652 M
468.943 209.5 L
462.278 213.348 L
cp
f
GR
GS
[0.75 0 0 0.75 0 0] CT
1 0.6 0.784 RC
10.0 ML
2 LW
N
462.278 205.652 M
468.943 209.5 L
462.278 213.348 L
cp
S
GR
GS
[0.75 0 0 0.75 0 0] CT
1 GC
N
532.278 224.652 M
538.943 228.5 L
532.278 232.348 L
cp
f
GR
GS
[0.75 0 0 0.75 0 0] CT
1 0.6 0.784 RC
10.0 ML
2 LW
N
532.278 224.652 M
538.943 228.5 L
532.278 232.348 L
cp
S
GR
GS
[0.75 0 0 0.75 0 0] CT
1 GC
N
603.278 240.652 M
609.943 244.5 L
603.278 248.348 L
cp
f
GR
GS
[0.75 0 0 0.75 0 0] CT
1 0.6 0.784 RC
10.0 ML
2 LW
N
603.278 240.652 M
609.943 244.5 L
603.278 248.348 L
cp
S
GR
GS
[0.75 0 0 0.75 0 0] CT
1 GC
N
673.278 256.652 M
679.943 260.5 L
673.278 264.348 L
cp
f
GR
GS
[0.75 0 0 0.75 0 0] CT
1 0.6 0.784 RC
10.0 ML
2 LW
N
673.278 256.652 M
679.943 260.5 L
673.278 264.348 L
cp
S
GR
GS
[0.75 0 0 0.75 0 0] CT
1 GC
N
744.278 272.652 M
750.943 276.5 L
744.278 280.348 L
cp
f
GR
GS
[0.75 0 0 0.75 0 0] CT
1 0.6 0.784 RC
10.0 ML
2 LW
N
744.278 272.652 M
750.943 276.5 L
744.278 280.348 L
cp
S
GR
GS
[0.75 0 0 0.75 0 0] CT
0.6 0.2 0 RC
1 LJ
2 LW
N
112 53.242 M
182.444 112.709 L
252.889 145.7 L
323.333 172.15 L
393.778 193.349 L
464.222 213.152 L
534.667 230.727 L
605.111 246.168 L
675.556 262.334 L
746 278.498 L
S
GR
GS
[0.75 0 0 0.75 0 0] CT
1 GC
N
108.057 53.5 M
114.722 49.652 L
114.722 57.348 L
cp
f
GR
GS
[0.75 0 0 0.75 0 0] CT
0.6 0.2 0 RC
10.0 ML
2 LW
N
108.057 53.5 M
114.722 49.652 L
114.722 57.348 L
cp
S
GR
GS
[0.75 0 0 0.75 0 0] CT
1 GC
N
178.057 112.5 M
184.722 108.652 L
184.722 116.348 L
cp
f
GR
GS
[0.75 0 0 0.75 0 0] CT
0.6 0.2 0 RC
10.0 ML
2 LW
N
178.057 112.5 M
184.722 108.652 L
184.722 116.348 L
cp
S
GR
GS
[0.75 0 0 0.75 0 0] CT
1 GC
N
248.057 145.5 M
254.722 141.652 L
254.722 149.348 L
cp
f
GR
GS
[0.75 0 0 0.75 0 0] CT
0.6 0.2 0 RC
10.0 ML
2 LW
N
248.057 145.5 M
254.722 141.652 L
254.722 149.348 L
cp
S
GR
GS
[0.75 0 0 0.75 0 0] CT
1 GC
N
319.057 172.5 M
325.722 168.652 L
325.722 176.348 L
cp
f
GR
GS
[0.75 0 0 0.75 0 0] CT
0.6 0.2 0 RC
10.0 ML
2 LW
N
319.057 172.5 M
325.722 168.652 L
325.722 176.348 L
cp
S
GR
GS
[0.75 0 0 0.75 0 0] CT
1 GC
N
389.057 193.5 M
395.722 189.652 L
395.722 197.348 L
cp
f
GR
GS
[0.75 0 0 0.75 0 0] CT
0.6 0.2 0 RC
10.0 ML
2 LW
N
389.057 193.5 M
395.722 189.652 L
395.722 197.348 L
cp
S
GR
GS
[0.75 0 0 0.75 0 0] CT
1 GC
N
460.057 213.5 M
466.722 209.652 L
466.722 217.348 L
cp
f
GR
GS
[0.75 0 0 0.75 0 0] CT
0.6 0.2 0 RC
10.0 ML
2 LW
N
460.057 213.5 M
466.722 209.652 L
466.722 217.348 L
cp
S
GR
GS
[0.75 0 0 0.75 0 0] CT
1 GC
N
530.057 230.5 M
536.722 226.652 L
536.722 234.348 L
cp
f
GR
GS
[0.75 0 0 0.75 0 0] CT
0.6 0.2 0 RC
10.0 ML
2 LW
N
530.057 230.5 M
536.722 226.652 L
536.722 234.348 L
cp
S
GR
GS
[0.75 0 0 0.75 0 0] CT
1 GC
N
601.057 246.5 M
607.722 242.652 L
607.722 250.348 L
cp
f
GR
GS
[0.75 0 0 0.75 0 0] CT
0.6 0.2 0 RC
10.0 ML
2 LW
N
601.057 246.5 M
607.722 242.652 L
607.722 250.348 L
cp
S
GR
GS
[0.75 0 0 0.75 0 0] CT
1 GC
N
671.057 262.5 M
677.722 258.652 L
677.722 266.348 L
cp
f
GR
GS
[0.75 0 0 0.75 0 0] CT
0.6 0.2 0 RC
10.0 ML
2 LW
N
671.057 262.5 M
677.722 258.652 L
677.722 266.348 L
cp
S
GR
GS
[0.75 0 0 0.75 0 0] CT
1 GC
N
742.057 278.5 M
748.722 274.652 L
748.722 282.348 L
cp
f
GR
GS
[0.75 0 0 0.75 0 0] CT
0.6 0.2 0 RC
10.0 ML
2 LW
N
742.057 278.5 M
748.722 274.652 L
748.722 282.348 L
cp
S
GR
GS
[0.75 0 0 0.75 0 0] CT
0.929 0.694 0.125 RC
1 LJ
2 LW
N
112 53.242 M
182.444 181.644 L
252.889 241.314 L
323.333 283.049 L
393.778 314.165 L
464.222 339.849 L
534.667 361.604 L
605.111 380.182 L
675.556 398.273 L
746 414.184 L
S
GR
GS
[0.75 0 0 0.75 0 0] CT
1 GC
N
109.33 52.47 M
111.716 52.47 L
112.5 50.167 L
113.284 52.47 L
115.67 52.47 L
113.768 53.912 L
114.459 56.197 L
112.5 54.833 L
110.541 56.197 L
111.232 53.912 L
109.33 52.47 L
cp
f
GR
GS
[0.75 0 0 0.75 0 0] CT
0.929 0.694 0.125 RC
10.0 ML
2 LW
N
109.33 52.47 M
111.716 52.47 L
112.5 50.167 L
113.284 52.47 L
115.67 52.47 L
113.768 53.912 L
114.459 56.197 L
112.5 54.833 L
110.541 56.197 L
111.232 53.912 L
cp
S
GR
GS
[0.75 0 0 0.75 0 0] CT
1 GC
N
179.33 180.47 M
181.716 180.47 L
182.5 178.167 L
183.284 180.47 L
185.67 180.47 L
183.768 181.912 L
184.459 184.197 L
182.5 182.833 L
180.541 184.197 L
181.232 181.912 L
179.33 180.47 L
cp
f
GR
GS
[0.75 0 0 0.75 0 0] CT
0.929 0.694 0.125 RC
10.0 ML
2 LW
N
179.33 180.47 M
181.716 180.47 L
182.5 178.167 L
183.284 180.47 L
185.67 180.47 L
183.768 181.912 L
184.459 184.197 L
182.5 182.833 L
180.541 184.197 L
181.232 181.912 L
cp
S
GR
GS
[0.75 0 0 0.75 0 0] CT
1 GC
N
249.33 240.47 M
251.716 240.47 L
252.5 238.167 L
253.284 240.47 L
255.67 240.47 L
253.768 241.912 L
254.459 244.197 L
252.5 242.833 L
250.541 244.197 L
251.232 241.912 L
249.33 240.47 L
cp
f
GR
GS
[0.75 0 0 0.75 0 0] CT
0.929 0.694 0.125 RC
10.0 ML
2 LW
N
249.33 240.47 M
251.716 240.47 L
252.5 238.167 L
253.284 240.47 L
255.67 240.47 L
253.768 241.912 L
254.459 244.197 L
252.5 242.833 L
250.541 244.197 L
251.232 241.912 L
cp
S
GR
GS
[0.75 0 0 0.75 0 0] CT
1 GC
N
320.33 282.47 M
322.716 282.47 L
323.5 280.167 L
324.284 282.47 L
326.67 282.47 L
324.768 283.912 L
325.459 286.197 L
323.5 284.833 L
321.541 286.197 L
322.232 283.912 L
320.33 282.47 L
cp
f
GR
GS
[0.75 0 0 0.75 0 0] CT
0.929 0.694 0.125 RC
10.0 ML
2 LW
N
320.33 282.47 M
322.716 282.47 L
323.5 280.167 L
324.284 282.47 L
326.67 282.47 L
324.768 283.912 L
325.459 286.197 L
323.5 284.833 L
321.541 286.197 L
322.232 283.912 L
cp
S
GR
GS
[0.75 0 0 0.75 0 0] CT
1 GC
N
390.33 313.47 M
392.716 313.47 L
393.5 311.167 L
394.284 313.47 L
396.67 313.47 L
394.768 314.912 L
395.459 317.197 L
393.5 315.833 L
391.541 317.197 L
392.232 314.912 L
390.33 313.47 L
cp
f
GR
GS
[0.75 0 0 0.75 0 0] CT
0.929 0.694 0.125 RC
10.0 ML
2 LW
N
390.33 313.47 M
392.716 313.47 L
393.5 311.167 L
394.284 313.47 L
396.67 313.47 L
394.768 314.912 L
395.459 317.197 L
393.5 315.833 L
391.541 317.197 L
392.232 314.912 L
cp
S
GR
GS
[0.75 0 0 0.75 0 0] CT
1 GC
N
461.33 338.47 M
463.716 338.47 L
464.5 336.167 L
465.284 338.47 L
467.67 338.47 L
465.768 339.912 L
466.459 342.197 L
464.5 340.833 L
462.541 342.197 L
463.232 339.912 L
461.33 338.47 L
cp
f
GR
GS
[0.75 0 0 0.75 0 0] CT
0.929 0.694 0.125 RC
10.0 ML
2 LW
N
461.33 338.47 M
463.716 338.47 L
464.5 336.167 L
465.284 338.47 L
467.67 338.47 L
465.768 339.912 L
466.459 342.197 L
464.5 340.833 L
462.541 342.197 L
463.232 339.912 L
cp
S
GR
GS
[0.75 0 0 0.75 0 0] CT
1 GC
N
531.33 360.47 M
533.716 360.47 L
534.5 358.167 L
535.284 360.47 L
537.67 360.47 L
535.768 361.912 L
536.459 364.197 L
534.5 362.833 L
532.541 364.197 L
533.232 361.912 L
531.33 360.47 L
cp
f
GR
GS
[0.75 0 0 0.75 0 0] CT
0.929 0.694 0.125 RC
10.0 ML
2 LW
N
531.33 360.47 M
533.716 360.47 L
534.5 358.167 L
535.284 360.47 L
537.67 360.47 L
535.768 361.912 L
536.459 364.197 L
534.5 362.833 L
532.541 364.197 L
533.232 361.912 L
cp
S
GR
GS
[0.75 0 0 0.75 0 0] CT
1 GC
N
602.33 379.47 M
604.716 379.47 L
605.5 377.167 L
606.284 379.47 L
608.67 379.47 L
606.768 380.912 L
607.459 383.197 L
605.5 381.833 L
603.541 383.197 L
604.232 380.912 L
602.33 379.47 L
cp
f
GR
GS
[0.75 0 0 0.75 0 0] CT
0.929 0.694 0.125 RC
10.0 ML
2 LW
N
602.33 379.47 M
604.716 379.47 L
605.5 377.167 L
606.284 379.47 L
608.67 379.47 L
606.768 380.912 L
607.459 383.197 L
605.5 381.833 L
603.541 383.197 L
604.232 380.912 L
cp
S
GR
GS
[0.75 0 0 0.75 0 0] CT
1 GC
N
672.33 397.47 M
674.716 397.47 L
675.5 395.167 L
676.284 397.47 L
678.67 397.47 L
676.768 398.912 L
677.459 401.197 L
675.5 399.833 L
673.541 401.197 L
674.232 398.912 L
672.33 397.47 L
cp
f
GR
GS
[0.75 0 0 0.75 0 0] CT
0.929 0.694 0.125 RC
10.0 ML
2 LW
N
672.33 397.47 M
674.716 397.47 L
675.5 395.167 L
676.284 397.47 L
678.67 397.47 L
676.768 398.912 L
677.459 401.197 L
675.5 399.833 L
673.541 401.197 L
674.232 398.912 L
cp
S
GR
GS
[0.75 0 0 0.75 0 0] CT
1 GC
N
743.33 413.47 M
745.716 413.47 L
746.5 411.167 L
747.284 413.47 L
749.67 413.47 L
747.768 414.912 L
748.459 417.197 L
746.5 415.833 L
744.541 417.197 L
745.232 414.912 L
743.33 413.47 L
cp
f
GR
GS
[0.75 0 0 0.75 0 0] CT
0.929 0.694 0.125 RC
10.0 ML
2 LW
N
743.33 413.47 M
745.716 413.47 L
746.5 411.167 L
747.284 413.47 L
749.67 413.47 L
747.768 414.912 L
748.459 417.197 L
746.5 415.833 L
744.541 417.197 L
745.232 414.912 L
cp
S
GR
GS
[0.75 0 0 0.75 0 0] CT
0 1 1 RC
1 LJ
2 LW
N
112 53.242 M
182.444 121.009 L
252.889 159.517 L
323.333 187.334 L
393.778 208.901 L
464.222 228 L
534.667 246.751 L
605.111 262.681 L
675.556 277.874 L
746 293.12 L
S
GR
GS
[0.75 0 0 0.75 0 0] CT
1 GC
N
112.5 57.943 M
115.833 53.5 L
112.5 49.057 L
109.167 53.5 L
cp
f
GR
GS
[0.75 0 0 0.75 0 0] CT
0 1 1 RC
10.0 ML
2 LW
N
112.5 57.943 M
115.833 53.5 L
112.5 49.057 L
109.167 53.5 L
cp
S
GR
GS
[0.75 0 0 0.75 0 0] CT
1 GC
N
182.5 125.943 M
185.833 121.5 L
182.5 117.057 L
179.167 121.5 L
cp
f
GR
GS
[0.75 0 0 0.75 0 0] CT
0 1 1 RC
10.0 ML
2 LW
N
182.5 125.943 M
185.833 121.5 L
182.5 117.057 L
179.167 121.5 L
cp
S
GR
GS
[0.75 0 0 0.75 0 0] CT
1 GC
N
252.5 163.943 M
255.833 159.5 L
252.5 155.057 L
249.167 159.5 L
cp
f
GR
GS
[0.75 0 0 0.75 0 0] CT
0 1 1 RC
10.0 ML
2 LW
N
252.5 163.943 M
255.833 159.5 L
252.5 155.057 L
249.167 159.5 L
cp
S
GR
GS
[0.75 0 0 0.75 0 0] CT
1 GC
N
323.5 191.943 M
326.833 187.5 L
323.5 183.057 L
320.167 187.5 L
cp
f
GR
GS
[0.75 0 0 0.75 0 0] CT
0 1 1 RC
10.0 ML
2 LW
N
323.5 191.943 M
326.833 187.5 L
323.5 183.057 L
320.167 187.5 L
cp
S
GR
GS
[0.75 0 0 0.75 0 0] CT
1 GC
N
393.5 212.943 M
396.833 208.5 L
393.5 204.057 L
390.167 208.5 L
cp
f
GR
GS
[0.75 0 0 0.75 0 0] CT
0 1 1 RC
10.0 ML
2 LW
N
393.5 212.943 M
396.833 208.5 L
393.5 204.057 L
390.167 208.5 L
cp
S
GR
GS
[0.75 0 0 0.75 0 0] CT
1 GC
N
464.5 231.943 M
467.833 227.5 L
464.5 223.057 L
461.167 227.5 L
cp
f
GR
GS
[0.75 0 0 0.75 0 0] CT
0 1 1 RC
10.0 ML
2 LW
N
464.5 231.943 M
467.833 227.5 L
464.5 223.057 L
461.167 227.5 L
cp
S
GR
GS
[0.75 0 0 0.75 0 0] CT
1 GC
N
534.5 250.943 M
537.833 246.5 L
534.5 242.057 L
531.167 246.5 L
cp
f
GR
GS
[0.75 0 0 0.75 0 0] CT
0 1 1 RC
10.0 ML
2 LW
N
534.5 250.943 M
537.833 246.5 L
534.5 242.057 L
531.167 246.5 L
cp
S
GR
GS
[0.75 0 0 0.75 0 0] CT
1 GC
N
605.5 266.943 M
608.833 262.5 L
605.5 258.057 L
602.167 262.5 L
cp
f
GR
GS
[0.75 0 0 0.75 0 0] CT
0 1 1 RC
10.0 ML
2 LW
N
605.5 266.943 M
608.833 262.5 L
605.5 258.057 L
602.167 262.5 L
cp
S
GR
GS
[0.75 0 0 0.75 0 0] CT
1 GC
N
675.5 281.943 M
678.833 277.5 L
675.5 273.057 L
672.167 277.5 L
cp
f
GR
GS
[0.75 0 0 0.75 0 0] CT
0 1 1 RC
10.0 ML
2 LW
N
675.5 281.943 M
678.833 277.5 L
675.5 273.057 L
672.167 277.5 L
cp
S
GR
GS
[0.75 0 0 0.75 0 0] CT
1 GC
N
746.5 297.943 M
749.833 293.5 L
746.5 289.057 L
743.167 293.5 L
cp
f
GR
GS
[0.75 0 0 0.75 0 0] CT
0 1 1 RC
10.0 ML
2 LW
N
746.5 297.943 M
749.833 293.5 L
746.5 289.057 L
743.167 293.5 L
cp
S
GR
GS
[0.75 0 0 0.75 0 0] CT
0 1 0 RC
1 LJ
2 LW
N
112 53.242 M
182.444 91.128 L
252.889 113.777 L
323.333 131.364 L
393.778 147.401 L
464.222 162.493 L
534.667 177.071 L
605.111 191.344 L
675.556 205.674 L
746 219.256 L
S
GR
GS
[0.75 0 0 0.75 0 0] CT
1 GC
N
109.9 56.1 M
109.9 50.9 L
115.1 50.9 L
115.1 56.1 L
cp
f
GR
GS
[0.75 0 0 0.75 0 0] CT
0 1 0 RC
10.0 ML
2 LW
N
109.9 56.1 M
109.9 50.9 L
115.1 50.9 L
115.1 56.1 L
cp
S
GR
GS
[0.75 0 0 0.75 0 0] CT
1 GC
N
179.9 94.1 M
179.9 88.9 L
185.1 88.9 L
185.1 94.1 L
cp
f
GR
GS
[0.75 0 0 0.75 0 0] CT
0 1 0 RC
10.0 ML
2 LW
N
179.9 94.1 M
179.9 88.9 L
185.1 88.9 L
185.1 94.1 L
cp
S
GR
GS
[0.75 0 0 0.75 0 0] CT
1 GC
N
249.9 116.1 M
249.9 110.9 L
255.1 110.9 L
255.1 116.1 L
cp
f
GR
GS
[0.75 0 0 0.75 0 0] CT
0 1 0 RC
10.0 ML
2 LW
N
249.9 116.1 M
249.9 110.9 L
255.1 110.9 L
255.1 116.1 L
cp
S
GR
GS
[0.75 0 0 0.75 0 0] CT
1 GC
N
320.9 134.1 M
320.9 128.9 L
326.1 128.9 L
326.1 134.1 L
cp
f
GR
GS
[0.75 0 0 0.75 0 0] CT
0 1 0 RC
10.0 ML
2 LW
N
320.9 134.1 M
320.9 128.9 L
326.1 128.9 L
326.1 134.1 L
cp
S
GR
GS
[0.75 0 0 0.75 0 0] CT
1 GC
N
390.9 150.1 M
390.9 144.9 L
396.1 144.9 L
396.1 150.1 L
cp
f
GR
GS
[0.75 0 0 0.75 0 0] CT
0 1 0 RC
10.0 ML
2 LW
N
390.9 150.1 M
390.9 144.9 L
396.1 144.9 L
396.1 150.1 L
cp
S
GR
GS
[0.75 0 0 0.75 0 0] CT
1 GC
N
461.9 165.1 M
461.9 159.9 L
467.1 159.9 L
467.1 165.1 L
cp
f
GR
GS
[0.75 0 0 0.75 0 0] CT
0 1 0 RC
10.0 ML
2 LW
N
461.9 165.1 M
461.9 159.9 L
467.1 159.9 L
467.1 165.1 L
cp
S
GR
GS
[0.75 0 0 0.75 0 0] CT
1 GC
N
531.9 180.1 M
531.9 174.9 L
537.1 174.9 L
537.1 180.1 L
cp
f
GR
GS
[0.75 0 0 0.75 0 0] CT
0 1 0 RC
10.0 ML
2 LW
N
531.9 180.1 M
531.9 174.9 L
537.1 174.9 L
537.1 180.1 L
cp
S
GR
GS
[0.75 0 0 0.75 0 0] CT
1 GC
N
602.9 194.1 M
602.9 188.9 L
608.1 188.9 L
608.1 194.1 L
cp
f
GR
GS
[0.75 0 0 0.75 0 0] CT
0 1 0 RC
10.0 ML
2 LW
N
602.9 194.1 M
602.9 188.9 L
608.1 188.9 L
608.1 194.1 L
cp
S
GR
GS
[0.75 0 0 0.75 0 0] CT
1 GC
N
672.9 208.1 M
672.9 202.9 L
678.1 202.9 L
678.1 208.1 L
cp
f
GR
GS
[0.75 0 0 0.75 0 0] CT
0 1 0 RC
10.0 ML
2 LW
N
672.9 208.1 M
672.9 202.9 L
678.1 202.9 L
678.1 208.1 L
cp
S
GR
GS
[0.75 0 0 0.75 0 0] CT
1 GC
N
743.9 222.1 M
743.9 216.9 L
749.1 216.9 L
749.1 222.1 L
cp
f
GR
GS
[0.75 0 0 0.75 0 0] CT
0 1 0 RC
10.0 ML
2 LW
N
743.9 222.1 M
743.9 216.9 L
749.1 216.9 L
749.1 222.1 L
cp
S
GR
GS
[0.75 0 0 0.75 0 0] CT
0 0 1 RC
1 LJ
2 LW
N
112 53.242 M
182.444 173.831 L
252.889 234.332 L
323.333 273.131 L
393.778 301.849 L
464.222 326.872 L
534.667 348.031 L
605.111 367.231 L
675.556 384.916 L
746 401.406 L
S
GR
GS
[0.75 0 0 0.75 0 0] CT
1 GC
N
108.057 53.5 M
114.722 49.652 L
114.722 57.348 L
cp
f
GR
GS
[0.75 0 0 0.75 0 0] CT
0 0 1 RC
10.0 ML
2 LW
N
108.057 53.5 M
114.722 49.652 L
114.722 57.348 L
cp
S
GR
GS
[0.75 0 0 0.75 0 0] CT
1 GC
N
178.057 173.5 M
184.722 169.652 L
184.722 177.348 L
cp
f
GR
GS
[0.75 0 0 0.75 0 0] CT
0 0 1 RC
10.0 ML
2 LW
N
178.057 173.5 M
184.722 169.652 L
184.722 177.348 L
cp
S
GR
GS
[0.75 0 0 0.75 0 0] CT
1 GC
N
248.057 234.5 M
254.722 230.652 L
254.722 238.348 L
cp
f
GR
GS
[0.75 0 0 0.75 0 0] CT
0 0 1 RC
10.0 ML
2 LW
N
248.057 234.5 M
254.722 230.652 L
254.722 238.348 L
cp
S
GR
GS
[0.75 0 0 0.75 0 0] CT
1 GC
N
319.057 273.5 M
325.722 269.652 L
325.722 277.348 L
cp
f
GR
GS
[0.75 0 0 0.75 0 0] CT
0 0 1 RC
10.0 ML
2 LW
N
319.057 273.5 M
325.722 269.652 L
325.722 277.348 L
cp
S
GR
GS
[0.75 0 0 0.75 0 0] CT
1 GC
N
389.057 301.5 M
395.722 297.652 L
395.722 305.348 L
cp
f
GR
GS
[0.75 0 0 0.75 0 0] CT
0 0 1 RC
10.0 ML
2 LW
N
389.057 301.5 M
395.722 297.652 L
395.722 305.348 L
cp
S
GR
GS
[0.75 0 0 0.75 0 0] CT
1 GC
N
460.057 326.5 M
466.722 322.652 L
466.722 330.348 L
cp
f
GR
GS
[0.75 0 0 0.75 0 0] CT
0 0 1 RC
10.0 ML
2 LW
N
460.057 326.5 M
466.722 322.652 L
466.722 330.348 L
cp
S
GR
GS
[0.75 0 0 0.75 0 0] CT
1 GC
N
530.057 348.5 M
536.722 344.652 L
536.722 352.348 L
cp
f
GR
GS
[0.75 0 0 0.75 0 0] CT
0 0 1 RC
10.0 ML
2 LW
N
530.057 348.5 M
536.722 344.652 L
536.722 352.348 L
cp
S
GR
GS
[0.75 0 0 0.75 0 0] CT
1 GC
N
601.057 367.5 M
607.722 363.652 L
607.722 371.348 L
cp
f
GR
GS
[0.75 0 0 0.75 0 0] CT
0 0 1 RC
10.0 ML
2 LW
N
601.057 367.5 M
607.722 363.652 L
607.722 371.348 L
cp
S
GR
GS
[0.75 0 0 0.75 0 0] CT
1 GC
N
671.057 384.5 M
677.722 380.652 L
677.722 388.348 L
cp
f
GR
GS
[0.75 0 0 0.75 0 0] CT
0 0 1 RC
10.0 ML
2 LW
N
671.057 384.5 M
677.722 380.652 L
677.722 388.348 L
cp
S
GR
GS
[0.75 0 0 0.75 0 0] CT
1 GC
N
742.057 401.5 M
748.722 397.652 L
748.722 405.348 L
cp
f
GR
GS
[0.75 0 0 0.75 0 0] CT
0 0 1 RC
10.0 ML
2 LW
N
742.057 401.5 M
748.722 397.652 L
748.722 405.348 L
cp
S
GR
GS
[0.75 0 0 0.75 0 0] CT
1 0 1 RC
1 LJ
2 LW
N
112 53.242 M
182.444 80.835 L
252.889 98.673 L
323.333 113.946 L
393.778 128.438 L
464.222 142.042 L
534.667 155.285 L
605.111 168.179 L
675.556 180.628 L
746 193.74 L
S
GR
GS
[0.75 0 0 0.75 0 0] CT
1 0 1 RC
1 LJ
2 LW
N
109 53.5 M
116 53.5 L
S
GR
GS
[0.75 0 0 0.75 0 0] CT
1 0 1 RC
1 LJ
2 LW
N
112.5 57 M
112.5 50 L
S
GR
GS
[0.75 0 0 0.75 0 0] CT
1 0 1 RC
1 LJ
2 LW
N
179 80.5 M
186 80.5 L
S
GR
GS
[0.75 0 0 0.75 0 0] CT
1 0 1 RC
1 LJ
2 LW
N
182.5 84 M
182.5 77 L
S
GR
GS
[0.75 0 0 0.75 0 0] CT
1 0 1 RC
1 LJ
2 LW
N
249 98.5 M
256 98.5 L
S
GR
GS
[0.75 0 0 0.75 0 0] CT
1 0 1 RC
1 LJ
2 LW
N
252.5 102 M
252.5 95 L
S
GR
GS
[0.75 0 0 0.75 0 0] CT
1 0 1 RC
1 LJ
2 LW
N
320 113.5 M
327 113.5 L
S
GR
GS
[0.75 0 0 0.75 0 0] CT
1 0 1 RC
1 LJ
2 LW
N
323.5 117 M
323.5 110 L
S
GR
GS
[0.75 0 0 0.75 0 0] CT
1 0 1 RC
1 LJ
2 LW
N
390 128.5 M
397 128.5 L
S
GR
GS
[0.75 0 0 0.75 0 0] CT
1 0 1 RC
1 LJ
2 LW
N
393.5 132 M
393.5 125 L
S
GR
GS
[0.75 0 0 0.75 0 0] CT
1 0 1 RC
1 LJ
2 LW
N
461 142.5 M
468 142.5 L
S
GR
GS
[0.75 0 0 0.75 0 0] CT
1 0 1 RC
1 LJ
2 LW
N
464.5 146 M
464.5 139 L
S
GR
GS
[0.75 0 0 0.75 0 0] CT
1 0 1 RC
1 LJ
2 LW
N
531 155.5 M
538 155.5 L
S
GR
GS
[0.75 0 0 0.75 0 0] CT
1 0 1 RC
1 LJ
2 LW
N
534.5 159 M
534.5 152 L
S
GR
GS
[0.75 0 0 0.75 0 0] CT
1 0 1 RC
1 LJ
2 LW
N
602 168.5 M
609 168.5 L
S
GR
GS
[0.75 0 0 0.75 0 0] CT
1 0 1 RC
1 LJ
2 LW
N
605.5 172 M
605.5 165 L
S
GR
GS
[0.75 0 0 0.75 0 0] CT
1 0 1 RC
1 LJ
2 LW
N
672 180.5 M
679 180.5 L
S
GR
GS
[0.75 0 0 0.75 0 0] CT
1 0 1 RC
1 LJ
2 LW
N
675.5 184 M
675.5 177 L
S
GR
GS
[0.75 0 0 0.75 0 0] CT
1 0 1 RC
1 LJ
2 LW
N
743 193.5 M
750 193.5 L
S
GR
GS
[0.75 0 0 0.75 0 0] CT
1 0 1 RC
1 LJ
2 LW
N
746.5 197 M
746.5 190 L
S
GR
GS
[0.75 0 0 0.75 0 0] CT
1 0 0 RC
1 LJ
2 LW
N
112 53.242 M
182.444 65.195 L
252.889 74.107 L
323.333 82.013 L
393.778 89.572 L
464.222 96.288 L
534.667 104.084 L
605.111 111.873 L
675.556 119.274 L
746 127.36 L
S
GR
GS
[0.75 0 0 0.75 0 0] CT
1 GC
N
109.9 56.1 M
109.9 50.9 L
115.1 50.9 L
115.1 56.1 L
cp
f
GR
GS
[0.75 0 0 0.75 0 0] CT
1 0 0 RC
10.0 ML
2 LW
N
109.9 56.1 M
109.9 50.9 L
115.1 50.9 L
115.1 56.1 L
cp
S
GR
GS
[0.75 0 0 0.75 0 0] CT
1 GC
N
179.9 68.1 M
179.9 62.9 L
185.1 62.9 L
185.1 68.1 L
cp
f
GR
GS
[0.75 0 0 0.75 0 0] CT
1 0 0 RC
10.0 ML
2 LW
N
179.9 68.1 M
179.9 62.9 L
185.1 62.9 L
185.1 68.1 L
cp
S
GR
GS
[0.75 0 0 0.75 0 0] CT
1 GC
N
249.9 77.1 M
249.9 71.9 L
255.1 71.9 L
255.1 77.1 L
cp
f
GR
GS
[0.75 0 0 0.75 0 0] CT
1 0 0 RC
10.0 ML
2 LW
N
249.9 77.1 M
249.9 71.9 L
255.1 71.9 L
255.1 77.1 L
cp
S
GR
GS
[0.75 0 0 0.75 0 0] CT
1 GC
N
320.9 85.1 M
320.9 79.9 L
326.1 79.9 L
326.1 85.1 L
cp
f
GR
GS
[0.75 0 0 0.75 0 0] CT
1 0 0 RC
10.0 ML
2 LW
N
320.9 85.1 M
320.9 79.9 L
326.1 79.9 L
326.1 85.1 L
cp
S
GR
GS
[0.75 0 0 0.75 0 0] CT
1 GC
N
390.9 92.1 M
390.9 86.9 L
396.1 86.9 L
396.1 92.1 L
cp
f
GR
GS
[0.75 0 0 0.75 0 0] CT
1 0 0 RC
10.0 ML
2 LW
N
390.9 92.1 M
390.9 86.9 L
396.1 86.9 L
396.1 92.1 L
cp
S
GR
GS
[0.75 0 0 0.75 0 0] CT
1 GC
N
461.9 99.1 M
461.9 93.9 L
467.1 93.9 L
467.1 99.1 L
cp
f
GR
GS
[0.75 0 0 0.75 0 0] CT
1 0 0 RC
10.0 ML
2 LW
N
461.9 99.1 M
461.9 93.9 L
467.1 93.9 L
467.1 99.1 L
cp
S
GR
GS
[0.75 0 0 0.75 0 0] CT
1 GC
N
531.9 107.1 M
531.9 101.9 L
537.1 101.9 L
537.1 107.1 L
cp
f
GR
GS
[0.75 0 0 0.75 0 0] CT
1 0 0 RC
10.0 ML
2 LW
N
531.9 107.1 M
531.9 101.9 L
537.1 101.9 L
537.1 107.1 L
cp
S
GR
GS
[0.75 0 0 0.75 0 0] CT
1 GC
N
602.9 114.1 M
602.9 108.9 L
608.1 108.9 L
608.1 114.1 L
cp
f
GR
GS
[0.75 0 0 0.75 0 0] CT
1 0 0 RC
10.0 ML
2 LW
N
602.9 114.1 M
602.9 108.9 L
608.1 108.9 L
608.1 114.1 L
cp
S
GR
GS
[0.75 0 0 0.75 0 0] CT
1 GC
N
672.9 122.1 M
672.9 116.9 L
678.1 116.9 L
678.1 122.1 L
cp
f
GR
GS
[0.75 0 0 0.75 0 0] CT
1 0 0 RC
10.0 ML
2 LW
N
672.9 122.1 M
672.9 116.9 L
678.1 116.9 L
678.1 122.1 L
cp
S
GR
GS
[0.75 0 0 0.75 0 0] CT
1 GC
N
743.9 130.1 M
743.9 124.9 L
749.1 124.9 L
749.1 130.1 L
cp
f
GR
GS
[0.75 0 0 0.75 0 0] CT
1 0 0 RC
10.0 ML
2 LW
N
743.9 130.1 M
743.9 124.9 L
749.1 124.9 L
749.1 130.1 L
cp
S
GR
GS
[0.75 0 0 0.75 0 0] CT
1 LJ
2 LW
N
112 53.242 M
182.444 54.073 L
252.889 55.409 L
323.333 57.583 L
393.778 59.606 L
464.222 61.743 L
534.667 64.54 L
605.111 67.694 L
675.556 71.025 L
746 74.518 L
S
GR
GS
[0.75 0 0 0.75 0 0] CT
1 GC
N
115.833 53.5 M
114.857 51.143 L
112.5 50.167 L
110.143 51.143 L
109.167 53.5 L
110.143 55.857 L
112.5 56.833 L
114.857 55.857 L
115.833 53.5 L
cp
f
GR
GS
[0.75 0 0 0.75 0 0] CT
1 LJ
2 LW
N
115.833 53.5 M
115.197 51.541 L
113.53 50.33 L
111.47 50.33 L
109.803 51.541 L
109.167 53.5 L
109.803 55.459 L
111.47 56.67 L
113.53 56.67 L
115.197 55.459 L
cp
S
GR
GS
[0.75 0 0 0.75 0 0] CT
1 GC
N
185.833 54.5 M
184.857 52.143 L
182.5 51.167 L
180.143 52.143 L
179.167 54.5 L
180.143 56.857 L
182.5 57.833 L
184.857 56.857 L
185.833 54.5 L
cp
f
GR
GS
[0.75 0 0 0.75 0 0] CT
1 LJ
2 LW
N
185.833 54.5 M
185.197 52.541 L
183.53 51.33 L
181.47 51.33 L
179.803 52.541 L
179.167 54.5 L
179.803 56.459 L
181.47 57.67 L
183.53 57.67 L
185.197 56.459 L
cp
S
GR
GS
[0.75 0 0 0.75 0 0] CT
1 GC
N
255.833 55.5 M
254.857 53.143 L
252.5 52.167 L
250.143 53.143 L
249.167 55.5 L
250.143 57.857 L
252.5 58.833 L
254.857 57.857 L
255.833 55.5 L
cp
f
GR
GS
[0.75 0 0 0.75 0 0] CT
1 LJ
2 LW
N
255.833 55.5 M
255.197 53.541 L
253.53 52.33 L
251.47 52.33 L
249.803 53.541 L
249.167 55.5 L
249.803 57.459 L
251.47 58.67 L
253.53 58.67 L
255.197 57.459 L
cp
S
GR
GS
[0.75 0 0 0.75 0 0] CT
1 GC
N
326.833 57.5 M
325.857 55.143 L
323.5 54.167 L
321.143 55.143 L
320.167 57.5 L
321.143 59.857 L
323.5 60.833 L
325.857 59.857 L
326.833 57.5 L
cp
f
GR
GS
[0.75 0 0 0.75 0 0] CT
1 LJ
2 LW
N
326.833 57.5 M
326.197 55.541 L
324.53 54.33 L
322.47 54.33 L
320.803 55.541 L
320.167 57.5 L
320.803 59.459 L
322.47 60.67 L
324.53 60.67 L
326.197 59.459 L
cp
S
GR
GS
[0.75 0 0 0.75 0 0] CT
1 GC
N
396.833 59.5 M
395.857 57.143 L
393.5 56.167 L
391.143 57.143 L
390.167 59.5 L
391.143 61.857 L
393.5 62.833 L
395.857 61.857 L
396.833 59.5 L
cp
f
GR
GS
[0.75 0 0 0.75 0 0] CT
1 LJ
2 LW
N
396.833 59.5 M
396.197 57.541 L
394.53 56.33 L
392.47 56.33 L
390.803 57.541 L
390.167 59.5 L
390.803 61.459 L
392.47 62.67 L
394.53 62.67 L
396.197 61.459 L
cp
S
GR
GS
[0.75 0 0 0.75 0 0] CT
1 GC
N
467.833 61.5 M
466.857 59.143 L
464.5 58.167 L
462.143 59.143 L
461.167 61.5 L
462.143 63.857 L
464.5 64.833 L
466.857 63.857 L
467.833 61.5 L
cp
f
GR
GS
[0.75 0 0 0.75 0 0] CT
1 LJ
2 LW
N
467.833 61.5 M
467.197 59.541 L
465.53 58.33 L
463.47 58.33 L
461.803 59.541 L
461.167 61.5 L
461.803 63.459 L
463.47 64.67 L
465.53 64.67 L
467.197 63.459 L
cp
S
GR
GS
[0.75 0 0 0.75 0 0] CT
1 GC
N
537.833 64.5 M
536.857 62.143 L
534.5 61.167 L
532.143 62.143 L
531.167 64.5 L
532.143 66.857 L
534.5 67.833 L
536.857 66.857 L
537.833 64.5 L
cp
f
GR
GS
[0.75 0 0 0.75 0 0] CT
1 LJ
2 LW
N
537.833 64.5 M
537.197 62.541 L
535.53 61.33 L
533.47 61.33 L
531.803 62.541 L
531.167 64.5 L
531.803 66.459 L
533.47 67.67 L
535.53 67.67 L
537.197 66.459 L
cp
S
GR
GS
[0.75 0 0 0.75 0 0] CT
1 GC
N
608.833 67.5 M
607.857 65.143 L
605.5 64.167 L
603.143 65.143 L
602.167 67.5 L
603.143 69.857 L
605.5 70.833 L
607.857 69.857 L
608.833 67.5 L
cp
f
GR
GS
[0.75 0 0 0.75 0 0] CT
1 LJ
2 LW
N
608.833 67.5 M
608.197 65.541 L
606.53 64.33 L
604.47 64.33 L
602.803 65.541 L
602.167 67.5 L
602.803 69.459 L
604.47 70.67 L
606.53 70.67 L
608.197 69.459 L
cp
S
GR
GS
[0.75 0 0 0.75 0 0] CT
1 GC
N
678.833 71.5 M
677.857 69.143 L
675.5 68.167 L
673.143 69.143 L
672.167 71.5 L
673.143 73.857 L
675.5 74.833 L
677.857 73.857 L
678.833 71.5 L
cp
f
GR
GS
[0.75 0 0 0.75 0 0] CT
1 LJ
2 LW
N
678.833 71.5 M
678.197 69.541 L
676.53 68.33 L
674.47 68.33 L
672.803 69.541 L
672.167 71.5 L
672.803 73.459 L
674.47 74.67 L
676.53 74.67 L
678.197 73.459 L
cp
S
GR
GS
[0.75 0 0 0.75 0 0] CT
1 GC
N
749.833 74.5 M
748.857 72.143 L
746.5 71.167 L
744.143 72.143 L
743.167 74.5 L
744.143 76.857 L
746.5 77.833 L
748.857 76.857 L
749.833 74.5 L
cp
f
GR
GS
[0.75 0 0 0.75 0 0] CT
1 LJ
2 LW
N
749.833 74.5 M
749.197 72.541 L
747.53 71.33 L
745.47 71.33 L
743.803 72.541 L
743.167 74.5 L
743.803 76.459 L
745.47 77.67 L
747.53 77.67 L
749.197 76.459 L
cp
S
GR
GS
[0.75 0 0 0.75 0 0] CT
1 GC
N
125 408 M
125 139 L
231 139 L
231 408 L
cp
f
GR
GS
[0.75 0 0 0.75 121.5 116.625] CT
/Times 24 F
GS
[1 0 0 1 0 0] CT
0 8.5 moveto 
1 -1 scale
(LBP) t 
GR
GR
GS
[0.75 0 0 0.75 0 0] CT
1 0.6 0.784 RC
1 LJ
2 LW
N
129 155.5 M
159 155.5 L
S
GR
GS
[0.75 0 0 0.75 0 0] CT
1 GC
N
142.278 151.652 M
148.943 155.5 L
142.278 159.348 L
cp
f
GR
GS
[0.75 0 0 0.75 0 0] CT
1 0.6 0.784 RC
10.0 ML
2 LW
N
142.278 151.652 M
148.943 155.5 L
142.278 159.348 L
cp
S
GR
GS
[0.75 0 0 0.75 121.5 138.75] CT
/Times 24 F
GS
[1 0 0 1 0 0] CT
0 8.5 moveto 
1 -1 scale
(LTP) t 
GR
GR
GS
[0.75 0 0 0.75 0 0] CT
0.6 0.2 0 RC
1 LJ
2 LW
N
129 185 M
159 185 L
S
GR
GS
[0.75 0 0 0.75 0 0] CT
1 GC
N
140.057 184.5 M
146.722 180.652 L
146.722 188.348 L
cp
f
GR
GS
[0.75 0 0 0.75 0 0] CT
0.6 0.2 0 RC
10.0 ML
2 LW
N
140.057 184.5 M
146.722 180.652 L
146.722 188.348 L
cp
S
GR
GS
[0.75 0 0 0.75 121.5 160.875] CT
/Times 24 F
GS
[1 0 0 1 0 0] CT
0 8.5 moveto 
1 -1 scale
(LDP) t 
GR
GR
GS
[0.75 0 0 0.75 0 0] CT
0.929 0.694 0.125 RC
1 LJ
2 LW
N
129 214.5 M
159 214.5 L
S
GR
GS
[0.75 0 0 0.75 0 0] CT
1 GC
N
141.33 213.47 M
143.716 213.47 L
144.5 211.167 L
145.284 213.47 L
147.67 213.47 L
145.768 214.912 L
146.459 217.197 L
144.5 215.833 L
142.541 217.197 L
143.232 214.912 L
141.33 213.47 L
cp
f
GR
GS
[0.75 0 0 0.75 0 0] CT
0.929 0.694 0.125 RC
10.0 ML
2 LW
N
141.33 213.47 M
143.716 213.47 L
144.5 211.167 L
145.284 213.47 L
147.67 213.47 L
145.768 214.912 L
146.459 217.197 L
144.5 215.833 L
142.541 217.197 L
143.232 214.912 L
cp
S
GR
GS
[0.75 0 0 0.75 121.5 183] CT
/Times 24 F
GS
[1 0 0 1 0 0] CT
0 8.5 moveto 
1 -1 scale
(LDN) t 
GR
GR
GS
[0.75 0 0 0.75 0 0] CT
0 1 1 RC
1 LJ
2 LW
N
129 244 M
159 244 L
S
GR
GS
[0.75 0 0 0.75 0 0] CT
1 GC
N
144.5 247.943 M
147.833 243.5 L
144.5 239.057 L
141.167 243.5 L
cp
f
GR
GS
[0.75 0 0 0.75 0 0] CT
0 1 1 RC
10.0 ML
2 LW
N
144.5 247.943 M
147.833 243.5 L
144.5 239.057 L
141.167 243.5 L
cp
S
GR
GS
[0.75 0 0 0.75 121.5 205.125] CT
/Times 24 F
GS
[1 0 0 1 0 0] CT
0 8.5 moveto 
1 -1 scale
(LVP) t 
GR
GR
GS
[0.75 0 0 0.75 0 0] CT
0 1 0 RC
1 LJ
2 LW
N
129 273.5 M
159 273.5 L
S
GR
GS
[0.75 0 0 0.75 0 0] CT
1 GC
N
141.9 276.1 M
141.9 270.9 L
147.1 270.9 L
147.1 276.1 L
cp
f
GR
GS
[0.75 0 0 0.75 0 0] CT
0 1 0 RC
10.0 ML
2 LW
N
141.9 276.1 M
141.9 270.9 L
147.1 270.9 L
147.1 276.1 L
cp
S
GR
GS
[0.75 0 0 0.75 121.5 227.25] CT
/Times 24 F
GS
[1 0 0 1 0 0] CT
0 8.5 moveto 
1 -1 scale
(LDGP) t 
GR
GR
GS
[0.75 0 0 0.75 0 0] CT
0 0 1 RC
1 LJ
2 LW
N
129 303 M
159 303 L
S
GR
GS
[0.75 0 0 0.75 0 0] CT
1 GC
N
140.057 302.5 M
146.722 298.652 L
146.722 306.348 L
cp
f
GR
GS
[0.75 0 0 0.75 0 0] CT
0 0 1 RC
10.0 ML
2 LW
N
140.057 302.5 M
146.722 298.652 L
146.722 306.348 L
cp
S
GR
GS
[0.75 0 0 0.75 121.5 249.375] CT
/Times 24 F
GS
[1 0 0 1 0 0] CT
0 8.5 moveto 
1 -1 scale
(DCP) t 
GR
GR
GS
[0.75 0 0 0.75 0 0] CT
1 0 1 RC
1 LJ
2 LW
N
129 332.5 M
159 332.5 L
S
GR
GS
[0.75 0 0 0.75 0 0] CT
1 0 1 RC
1 LJ
2 LW
N
141 332.5 M
148 332.5 L
S
GR
GS
[0.75 0 0 0.75 0 0] CT
1 0 1 RC
1 LJ
2 LW
N
144.5 336 M
144.5 329 L
S
GR
GS
[0.75 0 0 0.75 121.5 271.5] CT
/Times 24 F
GS
[1 0 0 1 0 0] CT
0 8.5 moveto 
1 -1 scale
(LGHP) t 
GR
GR
GS
[0.75 0 0 0.75 0 0] CT
1 0 0 RC
1 LJ
2 LW
N
129 362 M
159 362 L
S
GR
GS
[0.75 0 0 0.75 0 0] CT
1 GC
N
141.9 365.1 M
141.9 359.9 L
147.1 359.9 L
147.1 365.1 L
cp
f
GR
GS
[0.75 0 0 0.75 0 0] CT
1 0 0 RC
10.0 ML
2 LW
N
141.9 365.1 M
141.9 359.9 L
147.1 359.9 L
147.1 365.1 L
cp
S
GR
GS
[0.75 0 0 0.75 121.5 293.625] CT
/Times 24 F
GS
[1 0 0 1 0 0] CT
0 8.5 moveto 
1 -1 scale
(LDRP) t 
GR
GR
GS
[0.75 0 0 0.75 0 0] CT
1 LJ
2 LW
N
129 391.5 M
159 391.5 L
S
GR
GS
[0.75 0 0 0.75 0 0] CT
1 GC
N
147.833 391.5 M
146.857 389.143 L
144.5 388.167 L
142.143 389.143 L
141.167 391.5 L
142.143 393.857 L
144.5 394.833 L
146.857 393.857 L
147.833 391.5 L
cp
f
GR
GS
[0.75 0 0 0.75 0 0] CT
1 LJ
2 LW
N
147.833 391.5 M
147.197 389.541 L
145.53 388.33 L
143.47 388.33 L
141.803 389.541 L
141.167 391.5 L
141.803 393.459 L
143.47 394.67 L
145.53 394.67 L
147.197 393.459 L
cp
S
GR
GS
[0.75 0 0 0.75 0 0] CT
0.149 GC
10.0 ML
0.667 LW
N
125 408 M
125 139 L
231 139 L
231 408 L
cp
S
GR
%%Trailer
%%Pages: 1
%%EOF
