%!PS-Adobe-3.0 EPSF-3.0
%%Creator: (MATLAB, The Mathworks, Inc. Version 9.0.0.341360 \(R2016a\). Operating System: Linux)
%%Title: (/home/shivram/main/Work/1. Research/1. Ongoing/5. LDRP Face/2. Exp/1. Results/ESSEXCropped/essex-f.eps)
%%CreationDate: 2017-08-17T17:17:39
%%Pages: (atend)
%%BoundingBox: 0 0 573 384
%%LanguageLevel: 3
%%EndComments
%%BeginProlog
%%BeginResource: procset (Apache XML Graphics Std ProcSet) 1.2 0
%%Version: 1.2 0
%%Copyright: (Copyright 2001-2003,2010 The Apache Software Foundation. License terms: http://www.apache.org/licenses/LICENSE-2.0)
/bd{bind def}bind def
/ld{load def}bd
/GR/grestore ld
/M/moveto ld
/LJ/setlinejoin ld
/C/curveto ld
/f/fill ld
/LW/setlinewidth ld
/GC/setgray ld
/t/show ld
/N/newpath ld
/CT/concat ld
/cp/closepath ld
/S/stroke ld
/L/lineto ld
/CC/setcmykcolor ld
/A/ashow ld
/GS/gsave ld
/RC/setrgbcolor ld
/RM/rmoveto ld
/ML/setmiterlimit ld
/re {4 2 roll M
1 index 0 rlineto
0 exch rlineto
neg 0 rlineto
cp } bd
/_ctm matrix def
/_tm matrix def
/BT { _ctm currentmatrix pop matrix _tm copy pop 0 0 moveto } bd
/ET { _ctm setmatrix } bd
/iTm { _ctm setmatrix _tm concat } bd
/Tm { _tm astore pop iTm 0 0 moveto } bd
/ux 0.0 def
/uy 0.0 def
/F {
  /Tp exch def
  /Tf exch def
  Tf findfont Tp scalefont setfont
  /cf Tf def  /cs Tp def
} bd
/ULS {currentpoint /uy exch def /ux exch def} bd
/ULE {
  /Tcx currentpoint pop def
  gsave
  newpath
  cf findfont cs scalefont dup
  /FontMatrix get 0 get /Ts exch def /FontInfo get dup
  /UnderlinePosition get Ts mul /To exch def
  /UnderlineThickness get Ts mul /Tt exch def
  ux uy To add moveto  Tcx uy To add lineto
  Tt setlinewidth stroke
  grestore
} bd
/OLE {
  /Tcx currentpoint pop def
  gsave
  newpath
  cf findfont cs scalefont dup
  /FontMatrix get 0 get /Ts exch def /FontInfo get dup
  /UnderlinePosition get Ts mul /To exch def
  /UnderlineThickness get Ts mul /Tt exch def
  ux uy To add cs add moveto Tcx uy To add cs add lineto
  Tt setlinewidth stroke
  grestore
} bd
/SOE {
  /Tcx currentpoint pop def
  gsave
  newpath
  cf findfont cs scalefont dup
  /FontMatrix get 0 get /Ts exch def /FontInfo get dup
  /UnderlinePosition get Ts mul /To exch def
  /UnderlineThickness get Ts mul /Tt exch def
  ux uy To add cs 10 mul 26 idiv add moveto Tcx uy To add cs 10 mul 26 idiv add lineto
  Tt setlinewidth stroke
  grestore
} bd
/QT {
/Y22 exch store
/X22 exch store
/Y21 exch store
/X21 exch store
currentpoint
/Y21 load 2 mul add 3 div exch
/X21 load 2 mul add 3 div exch
/X21 load 2 mul /X22 load add 3 div
/Y21 load 2 mul /Y22 load add 3 div
/X22 load /Y22 load curveto
} bd
/SSPD {
dup length /d exch dict def
{
/v exch def
/k exch def
currentpagedevice k known {
/cpdv currentpagedevice k get def
v cpdv ne {
/upd false def
/nullv v type /nulltype eq def
/nullcpdv cpdv type /nulltype eq def
nullv nullcpdv or
{
/upd true def
} {
/sametype v type cpdv type eq def
sametype {
v type /arraytype eq {
/vlen v length def
/cpdvlen cpdv length def
vlen cpdvlen eq {
0 1 vlen 1 sub {
/i exch def
/obj v i get def
/cpdobj cpdv i get def
obj cpdobj ne {
/upd true def
exit
} if
} for
} {
/upd true def
} ifelse
} {
v type /dicttype eq {
v {
/dv exch def
/dk exch def
/cpddv cpdv dk get def
dv cpddv ne {
/upd true def
exit
} if
} forall
} {
/upd true def
} ifelse
} ifelse
} if
} ifelse
upd true eq {
d k v put
} if
} if
} if
} forall
d length 0 gt {
d setpagedevice
} if
} bd
%%EndResource
%%BeginResource: procset (Apache XML Graphics EPS ProcSet) 1.0 0
%%Version: 1.0 0
%%Copyright: (Copyright 2002-2003 The Apache Software Foundation. License terms: http://www.apache.org/licenses/LICENSE-2.0)
/BeginEPSF { %def
/b4_Inc_state save def         % Save state for cleanup
/dict_count countdictstack def % Count objects on dict stack
/op_count count 1 sub def      % Count objects on operand stack
userdict begin                 % Push userdict on dict stack
/showpage { } def              % Redefine showpage, { } = null proc
0 setgray 0 setlinecap         % Prepare graphics state
1 setlinewidth 0 setlinejoin
10 setmiterlimit [ ] 0 setdash newpath
/languagelevel where           % If level not equal to 1 then
{pop languagelevel             % set strokeadjust and
1 ne                           % overprint to their defaults.
{false setstrokeadjust false setoverprint
} if
} if
} bd
/EndEPSF { %def
count op_count sub {pop} repeat            % Clean up stacks
countdictstack dict_count sub {end} repeat
b4_Inc_state restore
} bd
%%EndResource
%FOPBeginFontDict
%%IncludeResource: font Courier-Bold
%%IncludeResource: font Helvetica
%%IncludeResource: font Courier-BoldOblique
%%IncludeResource: font Courier-Oblique
%%IncludeResource: font Times-Roman
%%IncludeResource: font Helvetica-BoldOblique
%%IncludeResource: font Helvetica-Bold
%%IncludeResource: font Helvetica-Oblique
%%IncludeResource: font Times-BoldItalic
%%IncludeResource: font Courier
%%IncludeResource: font Times-Italic
%%IncludeResource: font Times-Bold
%%IncludeResource: font Symbol
%%IncludeResource: font ZapfDingbats
%FOPEndFontDict
%%BeginResource: encoding WinAnsiEncoding
/WinAnsiEncoding [
/.notdef /.notdef /.notdef /.notdef /.notdef
/.notdef /.notdef /.notdef /.notdef /.notdef
/.notdef /.notdef /.notdef /.notdef /.notdef
/.notdef /.notdef /.notdef /.notdef /.notdef
/.notdef /.notdef /.notdef /.notdef /.notdef
/.notdef /.notdef /.notdef /.notdef /.notdef
/.notdef /.notdef /space /exclam /quotedbl
/numbersign /dollar /percent /ampersand /quotesingle
/parenleft /parenright /asterisk /plus /comma
/hyphen /period /slash /zero /one
/two /three /four /five /six
/seven /eight /nine /colon /semicolon
/less /equal /greater /question /at
/A /B /C /D /E
/F /G /H /I /J
/K /L /M /N /O
/P /Q /R /S /T
/U /V /W /X /Y
/Z /bracketleft /backslash /bracketright /asciicircum
/underscore /quoteleft /a /b /c
/d /e /f /g /h
/i /j /k /l /m
/n /o /p /q /r
/s /t /u /v /w
/x /y /z /braceleft /bar
/braceright /asciitilde /bullet /Euro /bullet
/quotesinglbase /florin /quotedblbase /ellipsis /dagger
/daggerdbl /circumflex /perthousand /Scaron /guilsinglleft
/OE /bullet /Zcaron /bullet /bullet
/quoteleft /quoteright /quotedblleft /quotedblright /bullet
/endash /emdash /asciitilde /trademark /scaron
/guilsinglright /oe /bullet /zcaron /Ydieresis
/space /exclamdown /cent /sterling /currency
/yen /brokenbar /section /dieresis /copyright
/ordfeminine /guillemotleft /logicalnot /sfthyphen /registered
/macron /degree /plusminus /twosuperior /threesuperior
/acute /mu /paragraph /middot /cedilla
/onesuperior /ordmasculine /guillemotright /onequarter /onehalf
/threequarters /questiondown /Agrave /Aacute /Acircumflex
/Atilde /Adieresis /Aring /AE /Ccedilla
/Egrave /Eacute /Ecircumflex /Edieresis /Igrave
/Iacute /Icircumflex /Idieresis /Eth /Ntilde
/Ograve /Oacute /Ocircumflex /Otilde /Odieresis
/multiply /Oslash /Ugrave /Uacute /Ucircumflex
/Udieresis /Yacute /Thorn /germandbls /agrave
/aacute /acircumflex /atilde /adieresis /aring
/ae /ccedilla /egrave /eacute /ecircumflex
/edieresis /igrave /iacute /icircumflex /idieresis
/eth /ntilde /ograve /oacute /ocircumflex
/otilde /odieresis /divide /oslash /ugrave
/uacute /ucircumflex /udieresis /yacute /thorn
/ydieresis
] def
%%EndResource
%FOPBeginFontReencode
/Courier-Bold findfont
dup length dict begin
  {1 index /FID ne {def} {pop pop} ifelse} forall
  /Encoding WinAnsiEncoding def
  currentdict
end
/Courier-Bold exch definefont pop
/Helvetica findfont
dup length dict begin
  {1 index /FID ne {def} {pop pop} ifelse} forall
  /Encoding WinAnsiEncoding def
  currentdict
end
/Helvetica exch definefont pop
/Courier-BoldOblique findfont
dup length dict begin
  {1 index /FID ne {def} {pop pop} ifelse} forall
  /Encoding WinAnsiEncoding def
  currentdict
end
/Courier-BoldOblique exch definefont pop
/Courier-Oblique findfont
dup length dict begin
  {1 index /FID ne {def} {pop pop} ifelse} forall
  /Encoding WinAnsiEncoding def
  currentdict
end
/Courier-Oblique exch definefont pop
/Times-Roman findfont
dup length dict begin
  {1 index /FID ne {def} {pop pop} ifelse} forall
  /Encoding WinAnsiEncoding def
  currentdict
end
/Times-Roman exch definefont pop
/Helvetica-BoldOblique findfont
dup length dict begin
  {1 index /FID ne {def} {pop pop} ifelse} forall
  /Encoding WinAnsiEncoding def
  currentdict
end
/Helvetica-BoldOblique exch definefont pop
/Helvetica-Bold findfont
dup length dict begin
  {1 index /FID ne {def} {pop pop} ifelse} forall
  /Encoding WinAnsiEncoding def
  currentdict
end
/Helvetica-Bold exch definefont pop
/Helvetica-Oblique findfont
dup length dict begin
  {1 index /FID ne {def} {pop pop} ifelse} forall
  /Encoding WinAnsiEncoding def
  currentdict
end
/Helvetica-Oblique exch definefont pop
/Times-BoldItalic findfont
dup length dict begin
  {1 index /FID ne {def} {pop pop} ifelse} forall
  /Encoding WinAnsiEncoding def
  currentdict
end
/Times-BoldItalic exch definefont pop
/Courier findfont
dup length dict begin
  {1 index /FID ne {def} {pop pop} ifelse} forall
  /Encoding WinAnsiEncoding def
  currentdict
end
/Courier exch definefont pop
/Times-Italic findfont
dup length dict begin
  {1 index /FID ne {def} {pop pop} ifelse} forall
  /Encoding WinAnsiEncoding def
  currentdict
end
/Times-Italic exch definefont pop
/Times-Bold findfont
dup length dict begin
  {1 index /FID ne {def} {pop pop} ifelse} forall
  /Encoding WinAnsiEncoding def
  currentdict
end
/Times-Bold exch definefont pop
%FOPEndFontReencode
%%EndProlog
%%Page: 1 1
%%PageBoundingBox: 0 0 573 384
%%BeginPageSetup
[1 0 0 -1 0 384] CT
%%EndPageSetup
GS
[0.75 0 0 0.75 0 0] CT
1 GC
N
0 0 764 512 re
f
GR
GS
[0.75 0 0 0.75 0 0] CT
1 GC
N
0 0 764 512 re
f
GR
GS
[0.75 0 0 0.75 0 0] CT
1 GC
N
91 421 M
743 421 L
743 51 L
91 51 L
cp
f
GR
GS
[0.75 0 0 0.75 0 0] CT
0.149 GC
2 setlinecap
1 LJ
0.667 LW
N
91 421 M
743 421 L
S
GR
GS
[0.75 0 0 0.75 0 0] CT
0.149 GC
2 setlinecap
1 LJ
0.667 LW
N
91 51 M
743 51 L
S
GR
GS
[0.75 0 0 0.75 0 0] CT
0.149 GC
2 setlinecap
1 LJ
0.667 LW
N
91 421 M
91 414.48 L
S
GR
GS
[0.75 0 0 0.75 0 0] CT
0.149 GC
2 setlinecap
1 LJ
0.667 LW
N
163.444 421 M
163.444 414.48 L
S
GR
GS
[0.75 0 0 0.75 0 0] CT
0.149 GC
2 setlinecap
1 LJ
0.667 LW
N
235.889 421 M
235.889 414.48 L
S
GR
GS
[0.75 0 0 0.75 0 0] CT
0.149 GC
2 setlinecap
1 LJ
0.667 LW
N
308.333 421 M
308.333 414.48 L
S
GR
GS
[0.75 0 0 0.75 0 0] CT
0.149 GC
2 setlinecap
1 LJ
0.667 LW
N
380.778 421 M
380.778 414.48 L
S
GR
GS
[0.75 0 0 0.75 0 0] CT
0.149 GC
2 setlinecap
1 LJ
0.667 LW
N
453.222 421 M
453.222 414.48 L
S
GR
GS
[0.75 0 0 0.75 0 0] CT
0.149 GC
2 setlinecap
1 LJ
0.667 LW
N
525.667 421 M
525.667 414.48 L
S
GR
GS
[0.75 0 0 0.75 0 0] CT
0.149 GC
2 setlinecap
1 LJ
0.667 LW
N
598.111 421 M
598.111 414.48 L
S
GR
GS
[0.75 0 0 0.75 0 0] CT
0.149 GC
2 setlinecap
1 LJ
0.667 LW
N
670.556 421 M
670.556 414.48 L
S
GR
GS
[0.75 0 0 0.75 0 0] CT
0.149 GC
2 setlinecap
1 LJ
0.667 LW
N
743 421 M
743 414.48 L
S
GR
GS
[0.75 0 0 0.75 0 0] CT
0.149 GC
2 setlinecap
1 LJ
0.667 LW
N
91 51 M
91 57.52 L
S
GR
GS
[0.75 0 0 0.75 0 0] CT
0.149 GC
2 setlinecap
1 LJ
0.667 LW
N
163.444 51 M
163.444 57.52 L
S
GR
GS
[0.75 0 0 0.75 0 0] CT
0.149 GC
2 setlinecap
1 LJ
0.667 LW
N
235.889 51 M
235.889 57.52 L
S
GR
GS
[0.75 0 0 0.75 0 0] CT
0.149 GC
2 setlinecap
1 LJ
0.667 LW
N
308.333 51 M
308.333 57.52 L
S
GR
GS
[0.75 0 0 0.75 0 0] CT
0.149 GC
2 setlinecap
1 LJ
0.667 LW
N
380.778 51 M
380.778 57.52 L
S
GR
GS
[0.75 0 0 0.75 0 0] CT
0.149 GC
2 setlinecap
1 LJ
0.667 LW
N
453.222 51 M
453.222 57.52 L
S
GR
GS
[0.75 0 0 0.75 0 0] CT
0.149 GC
2 setlinecap
1 LJ
0.667 LW
N
525.667 51 M
525.667 57.52 L
S
GR
GS
[0.75 0 0 0.75 0 0] CT
0.149 GC
2 setlinecap
1 LJ
0.667 LW
N
598.111 51 M
598.111 57.52 L
S
GR
GS
[0.75 0 0 0.75 0 0] CT
0.149 GC
2 setlinecap
1 LJ
0.667 LW
N
670.556 51 M
670.556 57.52 L
S
GR
GS
[0.75 0 0 0.75 0 0] CT
0.149 GC
2 setlinecap
1 LJ
0.667 LW
N
743 51 M
743 57.52 L
S
GR
GS
[0.75 0 0 0.75 68.25 322.54999] CT
0.149 GC
/Times 32 F
GS
[1 0 0 1 0 0] CT
-10.5 30 moveto 
1 -1 scale
(1) t 
GR
GR
GS
[0.75 0 0 0.75 122.58333 322.54999] CT
0.149 GC
/Times 32 F
GS
[1 0 0 1 0 0] CT
-10.5 30 moveto 
1 -1 scale
(2) t 
GR
GR
GS
[0.75 0 0 0.75 176.91666 322.54999] CT
0.149 GC
/Times 32 F
GS
[1 0 0 1 0 0] CT
-10.5 30 moveto 
1 -1 scale
(3) t 
GR
GR
GS
[0.75 0 0 0.75 231.25001 322.54999] CT
0.149 GC
/Times 32 F
GS
[1 0 0 1 0 0] CT
-10.5 30 moveto 
1 -1 scale
(4) t 
GR
GR
GS
[0.75 0 0 0.75 285.58333 322.54999] CT
0.149 GC
/Times 32 F
GS
[1 0 0 1 0 0] CT
-10.5 30 moveto 
1 -1 scale
(5) t 
GR
GR
GS
[0.75 0 0 0.75 339.91667 322.54999] CT
0.149 GC
/Times 32 F
GS
[1 0 0 1 0 0] CT
-10.5 30 moveto 
1 -1 scale
(6) t 
GR
GR
GS
[0.75 0 0 0.75 394.25002 322.54999] CT
0.149 GC
/Times 32 F
GS
[1 0 0 1 0 0] CT
-10.5 30 moveto 
1 -1 scale
(7) t 
GR
GR
GS
[0.75 0 0 0.75 448.58331 322.54999] CT
0.149 GC
/Times 32 F
GS
[1 0 0 1 0 0] CT
-10.5 30 moveto 
1 -1 scale
(8) t 
GR
GR
GS
[0.75 0 0 0.75 502.91666 322.54999] CT
0.149 GC
/Times 32 F
GS
[1 0 0 1 0 0] CT
-10.5 30 moveto 
1 -1 scale
(9) t 
GR
GR
GS
[0.75 0 0 0.75 557.25 322.54999] CT
0.149 GC
/Times 32 F
GS
[1 0 0 1 0 0] CT
-20.5 30 moveto 
1 -1 scale
(10) t 
GR
GR
GS
[0.75 0 0 0.75 312.75023 352.05] CT
0.149 GC
/Times 35.2 F
GS
[1 0 0 1 0 0] CT
-210 33 moveto 
1 -1 scale
(Number of Top Matches) t 
GR
GR
GS
[0.75 0 0 0.75 0 0] CT
0.149 GC
2 setlinecap
1 LJ
0.667 LW
N
91 421 M
91 51 L
S
GR
GS
[0.75 0 0 0.75 0 0] CT
0.149 GC
2 setlinecap
1 LJ
0.667 LW
N
743 421 M
743 51 L
S
GR
GS
[0.75 0 0 0.75 0 0] CT
0.149 GC
2 setlinecap
1 LJ
0.667 LW
N
91 417.726 M
97.52 417.726 L
S
GR
GS
[0.75 0 0 0.75 0 0] CT
0.149 GC
2 setlinecap
1 LJ
0.667 LW
N
91 352.239 M
97.52 352.239 L
S
GR
GS
[0.75 0 0 0.75 0 0] CT
0.149 GC
2 setlinecap
1 LJ
0.667 LW
N
91 286.752 M
97.52 286.752 L
S
GR
GS
[0.75 0 0 0.75 0 0] CT
0.149 GC
2 setlinecap
1 LJ
0.667 LW
N
91 221.265 M
97.52 221.265 L
S
GR
GS
[0.75 0 0 0.75 0 0] CT
0.149 GC
2 setlinecap
1 LJ
0.667 LW
N
91 155.779 M
97.52 155.779 L
S
GR
GS
[0.75 0 0 0.75 0 0] CT
0.149 GC
2 setlinecap
1 LJ
0.667 LW
N
91 90.292 M
97.52 90.292 L
S
GR
GS
[0.75 0 0 0.75 0 0] CT
0.149 GC
2 setlinecap
1 LJ
0.667 LW
N
743 417.726 M
736.48 417.726 L
S
GR
GS
[0.75 0 0 0.75 0 0] CT
0.149 GC
2 setlinecap
1 LJ
0.667 LW
N
743 352.239 M
736.48 352.239 L
S
GR
GS
[0.75 0 0 0.75 0 0] CT
0.149 GC
2 setlinecap
1 LJ
0.667 LW
N
743 286.752 M
736.48 286.752 L
S
GR
GS
[0.75 0 0 0.75 0 0] CT
0.149 GC
2 setlinecap
1 LJ
0.667 LW
N
743 221.265 M
736.48 221.265 L
S
GR
GS
[0.75 0 0 0.75 0 0] CT
0.149 GC
2 setlinecap
1 LJ
0.667 LW
N
743 155.779 M
736.48 155.779 L
S
GR
GS
[0.75 0 0 0.75 0 0] CT
0.149 GC
2 setlinecap
1 LJ
0.667 LW
N
743 90.292 M
736.48 90.292 L
S
GR
GS
[0.75 0 0 0.75 61.45 313.29426] CT
0.149 GC
/Times 32 F
GS
[1 0 0 1 0 0] CT
-41 11 moveto 
1 -1 scale
(10) t 
GR
GR
GS
[0.75 0 0 0.75 61.45 264.17921] CT
0.149 GC
/Times 32 F
GS
[1 0 0 1 0 0] CT
-41 11 moveto 
1 -1 scale
(20) t 
GR
GR
GS
[0.75 0 0 0.75 61.45 215.06415] CT
0.149 GC
/Times 32 F
GS
[1 0 0 1 0 0] CT
-41 11 moveto 
1 -1 scale
(30) t 
GR
GR
GS
[0.75 0 0 0.75 61.45 165.94912] CT
0.149 GC
/Times 32 F
GS
[1 0 0 1 0 0] CT
-41 11 moveto 
1 -1 scale
(40) t 
GR
GR
GS
[0.75 0 0 0.75 61.45 116.83407] CT
0.149 GC
/Times 32 F
GS
[1 0 0 1 0 0] CT
-41 11 moveto 
1 -1 scale
(50) t 
GR
GR
GS
[0.75 0 0 0.75 61.45 67.71903] CT
0.149 GC
/Times 32 F
GS
[1 0 0 1 0 0] CT
-41 11 moveto 
1 -1 scale
(60) t 
GR
GR
GS
[0 -0.75 0.75 0 27.7 176.99987] CT
0.149 GC
/Times 35.2 F
GS
[1 0 0 1 0 0] CT
-102 -9 moveto 
1 -1 scale
(F-Score \(%\)) t 
GR
GR
GS
[0.75 0 0 0.75 312.75032 33.30001] CT
/Times 35.2 F
GS
[1 0 0 1 0 0] CT
-145.5 -9 moveto 
1 -1 scale
(ESSEX Database) t 
GR
GR
GS
[0.75 0 0 0.75 0 0] CT
1 0.6 0.784 RC
1 LJ
2 LW
N
91 419.06 M
163.444 369.956 L
235.889 327.237 L
308.333 290.604 L
380.778 258.947 L
453.222 231.556 L
525.667 207.825 L
598.111 186.703 L
670.556 168.948 L
743 153.394 L
S
GR
GS
[0.75 0 0 0.75 0 0] CT
1 GC
N
89.278 415.652 M
95.943 419.5 L
89.278 423.348 L
cp
f
GR
GS
[0.75 0 0 0.75 0 0] CT
1 0.6 0.784 RC
10.0 ML
2 LW
N
89.278 415.652 M
95.943 419.5 L
89.278 423.348 L
cp
S
GR
GS
[0.75 0 0 0.75 0 0] CT
1 GC
N
161.278 365.652 M
167.943 369.5 L
161.278 373.348 L
cp
f
GR
GS
[0.75 0 0 0.75 0 0] CT
1 0.6 0.784 RC
10.0 ML
2 LW
N
161.278 365.652 M
167.943 369.5 L
161.278 373.348 L
cp
S
GR
GS
[0.75 0 0 0.75 0 0] CT
1 GC
N
233.278 323.652 M
239.943 327.5 L
233.278 331.348 L
cp
f
GR
GS
[0.75 0 0 0.75 0 0] CT
1 0.6 0.784 RC
10.0 ML
2 LW
N
233.278 323.652 M
239.943 327.5 L
233.278 331.348 L
cp
S
GR
GS
[0.75 0 0 0.75 0 0] CT
1 GC
N
306.278 286.652 M
312.943 290.5 L
306.278 294.348 L
cp
f
GR
GS
[0.75 0 0 0.75 0 0] CT
1 0.6 0.784 RC
10.0 ML
2 LW
N
306.278 286.652 M
312.943 290.5 L
306.278 294.348 L
cp
S
GR
GS
[0.75 0 0 0.75 0 0] CT
1 GC
N
378.278 254.652 M
384.943 258.5 L
378.278 262.348 L
cp
f
GR
GS
[0.75 0 0 0.75 0 0] CT
1 0.6 0.784 RC
10.0 ML
2 LW
N
378.278 254.652 M
384.943 258.5 L
378.278 262.348 L
cp
S
GR
GS
[0.75 0 0 0.75 0 0] CT
1 GC
N
451.278 227.652 M
457.943 231.5 L
451.278 235.348 L
cp
f
GR
GS
[0.75 0 0 0.75 0 0] CT
1 0.6 0.784 RC
10.0 ML
2 LW
N
451.278 227.652 M
457.943 231.5 L
451.278 235.348 L
cp
S
GR
GS
[0.75 0 0 0.75 0 0] CT
1 GC
N
523.278 203.652 M
529.943 207.5 L
523.278 211.348 L
cp
f
GR
GS
[0.75 0 0 0.75 0 0] CT
1 0.6 0.784 RC
10.0 ML
2 LW
N
523.278 203.652 M
529.943 207.5 L
523.278 211.348 L
cp
S
GR
GS
[0.75 0 0 0.75 0 0] CT
1 GC
N
596.278 182.652 M
602.943 186.5 L
596.278 190.348 L
cp
f
GR
GS
[0.75 0 0 0.75 0 0] CT
1 0.6 0.784 RC
10.0 ML
2 LW
N
596.278 182.652 M
602.943 186.5 L
596.278 190.348 L
cp
S
GR
GS
[0.75 0 0 0.75 0 0] CT
1 GC
N
668.278 164.652 M
674.943 168.5 L
668.278 172.348 L
cp
f
GR
GS
[0.75 0 0 0.75 0 0] CT
1 0.6 0.784 RC
10.0 ML
2 LW
N
668.278 164.652 M
674.943 168.5 L
668.278 172.348 L
cp
S
GR
GS
[0.75 0 0 0.75 0 0] CT
1 GC
N
741.278 149.652 M
747.943 153.5 L
741.278 157.348 L
cp
f
GR
GS
[0.75 0 0 0.75 0 0] CT
1 0.6 0.784 RC
10.0 ML
2 LW
N
741.278 149.652 M
747.943 153.5 L
741.278 157.348 L
cp
S
GR
GS
[0.75 0 0 0.75 0 0] CT
0.6 0.2 0 RC
1 LJ
2 LW
N
91 419.06 M
163.444 369.786 L
235.889 327.591 L
308.333 291.619 L
380.778 259.957 L
453.222 232.665 L
525.667 208.769 L
598.111 187.5 L
670.556 169.576 L
743 154.422 L
S
GR
GS
[0.75 0 0 0.75 0 0] CT
1 GC
N
87.057 419.5 M
93.722 415.652 L
93.722 423.348 L
cp
f
GR
GS
[0.75 0 0 0.75 0 0] CT
0.6 0.2 0 RC
10.0 ML
2 LW
N
87.057 419.5 M
93.722 415.652 L
93.722 423.348 L
cp
S
GR
GS
[0.75 0 0 0.75 0 0] CT
1 GC
N
159.057 369.5 M
165.722 365.652 L
165.722 373.348 L
cp
f
GR
GS
[0.75 0 0 0.75 0 0] CT
0.6 0.2 0 RC
10.0 ML
2 LW
N
159.057 369.5 M
165.722 365.652 L
165.722 373.348 L
cp
S
GR
GS
[0.75 0 0 0.75 0 0] CT
1 GC
N
231.057 327.5 M
237.722 323.652 L
237.722 331.348 L
cp
f
GR
GS
[0.75 0 0 0.75 0 0] CT
0.6 0.2 0 RC
10.0 ML
2 LW
N
231.057 327.5 M
237.722 323.652 L
237.722 331.348 L
cp
S
GR
GS
[0.75 0 0 0.75 0 0] CT
1 GC
N
304.057 291.5 M
310.722 287.652 L
310.722 295.348 L
cp
f
GR
GS
[0.75 0 0 0.75 0 0] CT
0.6 0.2 0 RC
10.0 ML
2 LW
N
304.057 291.5 M
310.722 287.652 L
310.722 295.348 L
cp
S
GR
GS
[0.75 0 0 0.75 0 0] CT
1 GC
N
376.057 259.5 M
382.722 255.652 L
382.722 263.348 L
cp
f
GR
GS
[0.75 0 0 0.75 0 0] CT
0.6 0.2 0 RC
10.0 ML
2 LW
N
376.057 259.5 M
382.722 255.652 L
382.722 263.348 L
cp
S
GR
GS
[0.75 0 0 0.75 0 0] CT
1 GC
N
449.057 232.5 M
455.722 228.652 L
455.722 236.348 L
cp
f
GR
GS
[0.75 0 0 0.75 0 0] CT
0.6 0.2 0 RC
10.0 ML
2 LW
N
449.057 232.5 M
455.722 228.652 L
455.722 236.348 L
cp
S
GR
GS
[0.75 0 0 0.75 0 0] CT
1 GC
N
521.057 208.5 M
527.722 204.652 L
527.722 212.348 L
cp
f
GR
GS
[0.75 0 0 0.75 0 0] CT
0.6 0.2 0 RC
10.0 ML
2 LW
N
521.057 208.5 M
527.722 204.652 L
527.722 212.348 L
cp
S
GR
GS
[0.75 0 0 0.75 0 0] CT
1 GC
N
594.057 187.5 M
600.722 183.652 L
600.722 191.348 L
cp
f
GR
GS
[0.75 0 0 0.75 0 0] CT
0.6 0.2 0 RC
10.0 ML
2 LW
N
594.057 187.5 M
600.722 183.652 L
600.722 191.348 L
cp
S
GR
GS
[0.75 0 0 0.75 0 0] CT
1 GC
N
666.057 169.5 M
672.722 165.652 L
672.722 173.348 L
cp
f
GR
GS
[0.75 0 0 0.75 0 0] CT
0.6 0.2 0 RC
10.0 ML
2 LW
N
666.057 169.5 M
672.722 165.652 L
672.722 173.348 L
cp
S
GR
GS
[0.75 0 0 0.75 0 0] CT
1 GC
N
739.057 154.5 M
745.722 150.652 L
745.722 158.348 L
cp
f
GR
GS
[0.75 0 0 0.75 0 0] CT
0.6 0.2 0 RC
10.0 ML
2 LW
N
739.057 154.5 M
745.722 150.652 L
745.722 158.348 L
cp
S
GR
GS
[0.75 0 0 0.75 0 0] CT
0.929 0.694 0.125 RC
1 LJ
2 LW
N
91 419.06 M
163.444 379.376 L
235.889 346.348 L
308.333 319.1 L
380.778 295.781 L
453.222 275.915 L
525.667 258.716 L
598.111 243.7 L
670.556 231.424 L
743 220.622 L
S
GR
GS
[0.75 0 0 0.75 0 0] CT
1 GC
N
88.33 418.47 M
90.716 418.47 L
91.5 416.167 L
92.284 418.47 L
94.67 418.47 L
92.768 419.912 L
93.459 422.197 L
91.5 420.833 L
89.541 422.197 L
90.232 419.912 L
88.33 418.47 L
cp
f
GR
GS
[0.75 0 0 0.75 0 0] CT
0.929 0.694 0.125 RC
10.0 ML
2 LW
N
88.33 418.47 M
90.716 418.47 L
91.5 416.167 L
92.284 418.47 L
94.67 418.47 L
92.768 419.912 L
93.459 422.197 L
91.5 420.833 L
89.541 422.197 L
90.232 419.912 L
cp
S
GR
GS
[0.75 0 0 0.75 0 0] CT
1 GC
N
160.33 378.47 M
162.716 378.47 L
163.5 376.167 L
164.284 378.47 L
166.67 378.47 L
164.768 379.912 L
165.459 382.197 L
163.5 380.833 L
161.541 382.197 L
162.232 379.912 L
160.33 378.47 L
cp
f
GR
GS
[0.75 0 0 0.75 0 0] CT
0.929 0.694 0.125 RC
10.0 ML
2 LW
N
160.33 378.47 M
162.716 378.47 L
163.5 376.167 L
164.284 378.47 L
166.67 378.47 L
164.768 379.912 L
165.459 382.197 L
163.5 380.833 L
161.541 382.197 L
162.232 379.912 L
cp
S
GR
GS
[0.75 0 0 0.75 0 0] CT
1 GC
N
232.33 345.47 M
234.716 345.47 L
235.5 343.167 L
236.284 345.47 L
238.67 345.47 L
236.768 346.912 L
237.459 349.197 L
235.5 347.833 L
233.541 349.197 L
234.232 346.912 L
232.33 345.47 L
cp
f
GR
GS
[0.75 0 0 0.75 0 0] CT
0.929 0.694 0.125 RC
10.0 ML
2 LW
N
232.33 345.47 M
234.716 345.47 L
235.5 343.167 L
236.284 345.47 L
238.67 345.47 L
236.768 346.912 L
237.459 349.197 L
235.5 347.833 L
233.541 349.197 L
234.232 346.912 L
cp
S
GR
GS
[0.75 0 0 0.75 0 0] CT
1 GC
N
305.33 318.47 M
307.716 318.47 L
308.5 316.167 L
309.284 318.47 L
311.67 318.47 L
309.768 319.912 L
310.459 322.197 L
308.5 320.833 L
306.541 322.197 L
307.232 319.912 L
305.33 318.47 L
cp
f
GR
GS
[0.75 0 0 0.75 0 0] CT
0.929 0.694 0.125 RC
10.0 ML
2 LW
N
305.33 318.47 M
307.716 318.47 L
308.5 316.167 L
309.284 318.47 L
311.67 318.47 L
309.768 319.912 L
310.459 322.197 L
308.5 320.833 L
306.541 322.197 L
307.232 319.912 L
cp
S
GR
GS
[0.75 0 0 0.75 0 0] CT
1 GC
N
377.33 294.47 M
379.716 294.47 L
380.5 292.167 L
381.284 294.47 L
383.67 294.47 L
381.768 295.912 L
382.459 298.197 L
380.5 296.833 L
378.541 298.197 L
379.232 295.912 L
377.33 294.47 L
cp
f
GR
GS
[0.75 0 0 0.75 0 0] CT
0.929 0.694 0.125 RC
10.0 ML
2 LW
N
377.33 294.47 M
379.716 294.47 L
380.5 292.167 L
381.284 294.47 L
383.67 294.47 L
381.768 295.912 L
382.459 298.197 L
380.5 296.833 L
378.541 298.197 L
379.232 295.912 L
cp
S
GR
GS
[0.75 0 0 0.75 0 0] CT
1 GC
N
450.33 274.47 M
452.716 274.47 L
453.5 272.167 L
454.284 274.47 L
456.67 274.47 L
454.768 275.912 L
455.459 278.197 L
453.5 276.833 L
451.541 278.197 L
452.232 275.912 L
450.33 274.47 L
cp
f
GR
GS
[0.75 0 0 0.75 0 0] CT
0.929 0.694 0.125 RC
10.0 ML
2 LW
N
450.33 274.47 M
452.716 274.47 L
453.5 272.167 L
454.284 274.47 L
456.67 274.47 L
454.768 275.912 L
455.459 278.197 L
453.5 276.833 L
451.541 278.197 L
452.232 275.912 L
cp
S
GR
GS
[0.75 0 0 0.75 0 0] CT
1 GC
N
522.33 257.47 M
524.716 257.47 L
525.5 255.167 L
526.284 257.47 L
528.67 257.47 L
526.768 258.912 L
527.459 261.197 L
525.5 259.833 L
523.541 261.197 L
524.232 258.912 L
522.33 257.47 L
cp
f
GR
GS
[0.75 0 0 0.75 0 0] CT
0.929 0.694 0.125 RC
10.0 ML
2 LW
N
522.33 257.47 M
524.716 257.47 L
525.5 255.167 L
526.284 257.47 L
528.67 257.47 L
526.768 258.912 L
527.459 261.197 L
525.5 259.833 L
523.541 261.197 L
524.232 258.912 L
cp
S
GR
GS
[0.75 0 0 0.75 0 0] CT
1 GC
N
595.33 242.47 M
597.716 242.47 L
598.5 240.167 L
599.284 242.47 L
601.67 242.47 L
599.768 243.912 L
600.459 246.197 L
598.5 244.833 L
596.541 246.197 L
597.232 243.912 L
595.33 242.47 L
cp
f
GR
GS
[0.75 0 0 0.75 0 0] CT
0.929 0.694 0.125 RC
10.0 ML
2 LW
N
595.33 242.47 M
597.716 242.47 L
598.5 240.167 L
599.284 242.47 L
601.67 242.47 L
599.768 243.912 L
600.459 246.197 L
598.5 244.833 L
596.541 246.197 L
597.232 243.912 L
cp
S
GR
GS
[0.75 0 0 0.75 0 0] CT
1 GC
N
667.33 230.47 M
669.716 230.47 L
670.5 228.167 L
671.284 230.47 L
673.67 230.47 L
671.768 231.912 L
672.459 234.197 L
670.5 232.833 L
668.541 234.197 L
669.232 231.912 L
667.33 230.47 L
cp
f
GR
GS
[0.75 0 0 0.75 0 0] CT
0.929 0.694 0.125 RC
10.0 ML
2 LW
N
667.33 230.47 M
669.716 230.47 L
670.5 228.167 L
671.284 230.47 L
673.67 230.47 L
671.768 231.912 L
672.459 234.197 L
670.5 232.833 L
668.541 234.197 L
669.232 231.912 L
cp
S
GR
GS
[0.75 0 0 0.75 0 0] CT
1 GC
N
740.33 219.47 M
742.716 219.47 L
743.5 217.167 L
744.284 219.47 L
746.67 219.47 L
744.768 220.912 L
745.459 223.197 L
743.5 221.833 L
741.541 223.197 L
742.232 220.912 L
740.33 219.47 L
cp
f
GR
GS
[0.75 0 0 0.75 0 0] CT
0.929 0.694 0.125 RC
10.0 ML
2 LW
N
740.33 219.47 M
742.716 219.47 L
743.5 217.167 L
744.284 219.47 L
746.67 219.47 L
744.768 220.912 L
745.459 223.197 L
743.5 221.833 L
741.541 223.197 L
742.232 220.912 L
cp
S
GR
GS
[0.75 0 0 0.75 0 0] CT
0 1 1 RC
1 LJ
2 LW
N
91 419.06 M
163.444 370.734 L
235.889 330.137 L
308.333 295.257 L
380.778 264.563 L
453.222 237.729 L
525.667 214.893 L
598.111 194.392 L
670.556 176.636 L
743 161.568 L
S
GR
GS
[0.75 0 0 0.75 0 0] CT
1 GC
N
91.5 423.943 M
94.833 419.5 L
91.5 415.057 L
88.167 419.5 L
cp
f
GR
GS
[0.75 0 0 0.75 0 0] CT
0 1 1 RC
10.0 ML
2 LW
N
91.5 423.943 M
94.833 419.5 L
91.5 415.057 L
88.167 419.5 L
cp
S
GR
GS
[0.75 0 0 0.75 0 0] CT
1 GC
N
163.5 374.943 M
166.833 370.5 L
163.5 366.057 L
160.167 370.5 L
cp
f
GR
GS
[0.75 0 0 0.75 0 0] CT
0 1 1 RC
10.0 ML
2 LW
N
163.5 374.943 M
166.833 370.5 L
163.5 366.057 L
160.167 370.5 L
cp
S
GR
GS
[0.75 0 0 0.75 0 0] CT
1 GC
N
235.5 334.943 M
238.833 330.5 L
235.5 326.057 L
232.167 330.5 L
cp
f
GR
GS
[0.75 0 0 0.75 0 0] CT
0 1 1 RC
10.0 ML
2 LW
N
235.5 334.943 M
238.833 330.5 L
235.5 326.057 L
232.167 330.5 L
cp
S
GR
GS
[0.75 0 0 0.75 0 0] CT
1 GC
N
308.5 299.943 M
311.833 295.5 L
308.5 291.057 L
305.167 295.5 L
cp
f
GR
GS
[0.75 0 0 0.75 0 0] CT
0 1 1 RC
10.0 ML
2 LW
N
308.5 299.943 M
311.833 295.5 L
308.5 291.057 L
305.167 295.5 L
cp
S
GR
GS
[0.75 0 0 0.75 0 0] CT
1 GC
N
380.5 268.943 M
383.833 264.5 L
380.5 260.057 L
377.167 264.5 L
cp
f
GR
GS
[0.75 0 0 0.75 0 0] CT
0 1 1 RC
10.0 ML
2 LW
N
380.5 268.943 M
383.833 264.5 L
380.5 260.057 L
377.167 264.5 L
cp
S
GR
GS
[0.75 0 0 0.75 0 0] CT
1 GC
N
453.5 241.943 M
456.833 237.5 L
453.5 233.057 L
450.167 237.5 L
cp
f
GR
GS
[0.75 0 0 0.75 0 0] CT
0 1 1 RC
10.0 ML
2 LW
N
453.5 241.943 M
456.833 237.5 L
453.5 233.057 L
450.167 237.5 L
cp
S
GR
GS
[0.75 0 0 0.75 0 0] CT
1 GC
N
525.5 218.943 M
528.833 214.5 L
525.5 210.057 L
522.167 214.5 L
cp
f
GR
GS
[0.75 0 0 0.75 0 0] CT
0 1 1 RC
10.0 ML
2 LW
N
525.5 218.943 M
528.833 214.5 L
525.5 210.057 L
522.167 214.5 L
cp
S
GR
GS
[0.75 0 0 0.75 0 0] CT
1 GC
N
598.5 198.943 M
601.833 194.5 L
598.5 190.057 L
595.167 194.5 L
cp
f
GR
GS
[0.75 0 0 0.75 0 0] CT
0 1 1 RC
10.0 ML
2 LW
N
598.5 198.943 M
601.833 194.5 L
598.5 190.057 L
595.167 194.5 L
cp
S
GR
GS
[0.75 0 0 0.75 0 0] CT
1 GC
N
670.5 180.943 M
673.833 176.5 L
670.5 172.057 L
667.167 176.5 L
cp
f
GR
GS
[0.75 0 0 0.75 0 0] CT
0 1 1 RC
10.0 ML
2 LW
N
670.5 180.943 M
673.833 176.5 L
670.5 172.057 L
667.167 176.5 L
cp
S
GR
GS
[0.75 0 0 0.75 0 0] CT
1 GC
N
743.5 165.943 M
746.833 161.5 L
743.5 157.057 L
740.167 161.5 L
cp
f
GR
GS
[0.75 0 0 0.75 0 0] CT
0 1 1 RC
10.0 ML
2 LW
N
743.5 165.943 M
746.833 161.5 L
743.5 157.057 L
740.167 161.5 L
cp
S
GR
GS
[0.75 0 0 0.75 0 0] CT
0 1 0 RC
1 LJ
2 LW
N
91 419.06 M
163.444 366.743 L
235.889 321.475 L
308.333 281.513 L
380.778 246.267 L
453.222 215.421 L
525.667 188.297 L
598.111 164.499 L
670.556 143.811 L
743 125.524 L
S
GR
GS
[0.75 0 0 0.75 0 0] CT
1 GC
N
88.9 422.1 M
88.9 416.9 L
94.1 416.9 L
94.1 422.1 L
cp
f
GR
GS
[0.75 0 0 0.75 0 0] CT
0 1 0 RC
10.0 ML
2 LW
N
88.9 422.1 M
88.9 416.9 L
94.1 416.9 L
94.1 422.1 L
cp
S
GR
GS
[0.75 0 0 0.75 0 0] CT
1 GC
N
160.9 369.1 M
160.9 363.9 L
166.1 363.9 L
166.1 369.1 L
cp
f
GR
GS
[0.75 0 0 0.75 0 0] CT
0 1 0 RC
10.0 ML
2 LW
N
160.9 369.1 M
160.9 363.9 L
166.1 363.9 L
166.1 369.1 L
cp
S
GR
GS
[0.75 0 0 0.75 0 0] CT
1 GC
N
232.9 324.1 M
232.9 318.9 L
238.1 318.9 L
238.1 324.1 L
cp
f
GR
GS
[0.75 0 0 0.75 0 0] CT
0 1 0 RC
10.0 ML
2 LW
N
232.9 324.1 M
232.9 318.9 L
238.1 318.9 L
238.1 324.1 L
cp
S
GR
GS
[0.75 0 0 0.75 0 0] CT
1 GC
N
305.9 284.1 M
305.9 278.9 L
311.1 278.9 L
311.1 284.1 L
cp
f
GR
GS
[0.75 0 0 0.75 0 0] CT
0 1 0 RC
10.0 ML
2 LW
N
305.9 284.1 M
305.9 278.9 L
311.1 278.9 L
311.1 284.1 L
cp
S
GR
GS
[0.75 0 0 0.75 0 0] CT
1 GC
N
377.9 249.1 M
377.9 243.9 L
383.1 243.9 L
383.1 249.1 L
cp
f
GR
GS
[0.75 0 0 0.75 0 0] CT
0 1 0 RC
10.0 ML
2 LW
N
377.9 249.1 M
377.9 243.9 L
383.1 243.9 L
383.1 249.1 L
cp
S
GR
GS
[0.75 0 0 0.75 0 0] CT
1 GC
N
450.9 218.1 M
450.9 212.9 L
456.1 212.9 L
456.1 218.1 L
cp
f
GR
GS
[0.75 0 0 0.75 0 0] CT
0 1 0 RC
10.0 ML
2 LW
N
450.9 218.1 M
450.9 212.9 L
456.1 212.9 L
456.1 218.1 L
cp
S
GR
GS
[0.75 0 0 0.75 0 0] CT
1 GC
N
522.9 191.1 M
522.9 185.9 L
528.1 185.9 L
528.1 191.1 L
cp
f
GR
GS
[0.75 0 0 0.75 0 0] CT
0 1 0 RC
10.0 ML
2 LW
N
522.9 191.1 M
522.9 185.9 L
528.1 185.9 L
528.1 191.1 L
cp
S
GR
GS
[0.75 0 0 0.75 0 0] CT
1 GC
N
595.9 167.1 M
595.9 161.9 L
601.1 161.9 L
601.1 167.1 L
cp
f
GR
GS
[0.75 0 0 0.75 0 0] CT
0 1 0 RC
10.0 ML
2 LW
N
595.9 167.1 M
595.9 161.9 L
601.1 161.9 L
601.1 167.1 L
cp
S
GR
GS
[0.75 0 0 0.75 0 0] CT
1 GC
N
667.9 146.1 M
667.9 140.9 L
673.1 140.9 L
673.1 146.1 L
cp
f
GR
GS
[0.75 0 0 0.75 0 0] CT
0 1 0 RC
10.0 ML
2 LW
N
667.9 146.1 M
667.9 140.9 L
673.1 140.9 L
673.1 146.1 L
cp
S
GR
GS
[0.75 0 0 0.75 0 0] CT
1 GC
N
740.9 128.1 M
740.9 122.9 L
746.1 122.9 L
746.1 128.1 L
cp
f
GR
GS
[0.75 0 0 0.75 0 0] CT
0 1 0 RC
10.0 ML
2 LW
N
740.9 128.1 M
740.9 122.9 L
746.1 122.9 L
746.1 128.1 L
cp
S
GR
GS
[0.75 0 0 0.75 0 0] CT
0 0 1 RC
1 LJ
2 LW
N
91 419.06 M
163.444 377.809 L
235.889 344.6 L
308.333 316.342 L
380.778 291.886 L
453.222 271.285 L
525.667 253.433 L
598.111 238.246 L
670.556 225.339 L
743 214.433 L
S
GR
GS
[0.75 0 0 0.75 0 0] CT
1 GC
N
87.057 419.5 M
93.722 415.652 L
93.722 423.348 L
cp
f
GR
GS
[0.75 0 0 0.75 0 0] CT
0 0 1 RC
10.0 ML
2 LW
N
87.057 419.5 M
93.722 415.652 L
93.722 423.348 L
cp
S
GR
GS
[0.75 0 0 0.75 0 0] CT
1 GC
N
159.057 377.5 M
165.722 373.652 L
165.722 381.348 L
cp
f
GR
GS
[0.75 0 0 0.75 0 0] CT
0 0 1 RC
10.0 ML
2 LW
N
159.057 377.5 M
165.722 373.652 L
165.722 381.348 L
cp
S
GR
GS
[0.75 0 0 0.75 0 0] CT
1 GC
N
231.057 344.5 M
237.722 340.652 L
237.722 348.348 L
cp
f
GR
GS
[0.75 0 0 0.75 0 0] CT
0 0 1 RC
10.0 ML
2 LW
N
231.057 344.5 M
237.722 340.652 L
237.722 348.348 L
cp
S
GR
GS
[0.75 0 0 0.75 0 0] CT
1 GC
N
304.057 316.5 M
310.722 312.652 L
310.722 320.348 L
cp
f
GR
GS
[0.75 0 0 0.75 0 0] CT
0 0 1 RC
10.0 ML
2 LW
N
304.057 316.5 M
310.722 312.652 L
310.722 320.348 L
cp
S
GR
GS
[0.75 0 0 0.75 0 0] CT
1 GC
N
376.057 291.5 M
382.722 287.652 L
382.722 295.348 L
cp
f
GR
GS
[0.75 0 0 0.75 0 0] CT
0 0 1 RC
10.0 ML
2 LW
N
376.057 291.5 M
382.722 287.652 L
382.722 295.348 L
cp
S
GR
GS
[0.75 0 0 0.75 0 0] CT
1 GC
N
449.057 271.5 M
455.722 267.652 L
455.722 275.348 L
cp
f
GR
GS
[0.75 0 0 0.75 0 0] CT
0 0 1 RC
10.0 ML
2 LW
N
449.057 271.5 M
455.722 267.652 L
455.722 275.348 L
cp
S
GR
GS
[0.75 0 0 0.75 0 0] CT
1 GC
N
521.057 253.5 M
527.722 249.652 L
527.722 257.348 L
cp
f
GR
GS
[0.75 0 0 0.75 0 0] CT
0 0 1 RC
10.0 ML
2 LW
N
521.057 253.5 M
527.722 249.652 L
527.722 257.348 L
cp
S
GR
GS
[0.75 0 0 0.75 0 0] CT
1 GC
N
594.057 238.5 M
600.722 234.652 L
600.722 242.348 L
cp
f
GR
GS
[0.75 0 0 0.75 0 0] CT
0 0 1 RC
10.0 ML
2 LW
N
594.057 238.5 M
600.722 234.652 L
600.722 242.348 L
cp
S
GR
GS
[0.75 0 0 0.75 0 0] CT
1 GC
N
666.057 225.5 M
672.722 221.652 L
672.722 229.348 L
cp
f
GR
GS
[0.75 0 0 0.75 0 0] CT
0 0 1 RC
10.0 ML
2 LW
N
666.057 225.5 M
672.722 221.652 L
672.722 229.348 L
cp
S
GR
GS
[0.75 0 0 0.75 0 0] CT
1 GC
N
739.057 214.5 M
745.722 210.652 L
745.722 218.348 L
cp
f
GR
GS
[0.75 0 0 0.75 0 0] CT
0 0 1 RC
10.0 ML
2 LW
N
739.057 214.5 M
745.722 210.652 L
745.722 218.348 L
cp
S
GR
GS
[0.75 0 0 0.75 0 0] CT
1 0 1 RC
1 LJ
2 LW
N
91 419.06 M
163.444 365.197 L
235.889 318.314 L
308.333 277.032 L
380.778 240.705 L
453.222 208.493 L
525.667 179.994 L
598.111 154.768 L
670.556 132.39 L
743 113.031 L
S
GR
GS
[0.75 0 0 0.75 0 0] CT
1 0 1 RC
1 LJ
2 LW
N
88 419.5 M
95 419.5 L
S
GR
GS
[0.75 0 0 0.75 0 0] CT
1 0 1 RC
1 LJ
2 LW
N
91.5 423 M
91.5 416 L
S
GR
GS
[0.75 0 0 0.75 0 0] CT
1 0 1 RC
1 LJ
2 LW
N
160 365.5 M
167 365.5 L
S
GR
GS
[0.75 0 0 0.75 0 0] CT
1 0 1 RC
1 LJ
2 LW
N
163.5 369 M
163.5 362 L
S
GR
GS
[0.75 0 0 0.75 0 0] CT
1 0 1 RC
1 LJ
2 LW
N
232 318.5 M
239 318.5 L
S
GR
GS
[0.75 0 0 0.75 0 0] CT
1 0 1 RC
1 LJ
2 LW
N
235.5 322 M
235.5 315 L
S
GR
GS
[0.75 0 0 0.75 0 0] CT
1 0 1 RC
1 LJ
2 LW
N
305 277.5 M
312 277.5 L
S
GR
GS
[0.75 0 0 0.75 0 0] CT
1 0 1 RC
1 LJ
2 LW
N
308.5 281 M
308.5 274 L
S
GR
GS
[0.75 0 0 0.75 0 0] CT
1 0 1 RC
1 LJ
2 LW
N
377 240.5 M
384 240.5 L
S
GR
GS
[0.75 0 0 0.75 0 0] CT
1 0 1 RC
1 LJ
2 LW
N
380.5 244 M
380.5 237 L
S
GR
GS
[0.75 0 0 0.75 0 0] CT
1 0 1 RC
1 LJ
2 LW
N
450 208.5 M
457 208.5 L
S
GR
GS
[0.75 0 0 0.75 0 0] CT
1 0 1 RC
1 LJ
2 LW
N
453.5 212 M
453.5 205 L
S
GR
GS
[0.75 0 0 0.75 0 0] CT
1 0 1 RC
1 LJ
2 LW
N
522 179.5 M
529 179.5 L
S
GR
GS
[0.75 0 0 0.75 0 0] CT
1 0 1 RC
1 LJ
2 LW
N
525.5 183 M
525.5 176 L
S
GR
GS
[0.75 0 0 0.75 0 0] CT
1 0 1 RC
1 LJ
2 LW
N
595 154.5 M
602 154.5 L
S
GR
GS
[0.75 0 0 0.75 0 0] CT
1 0 1 RC
1 LJ
2 LW
N
598.5 158 M
598.5 151 L
S
GR
GS
[0.75 0 0 0.75 0 0] CT
1 0 1 RC
1 LJ
2 LW
N
667 132.5 M
674 132.5 L
S
GR
GS
[0.75 0 0 0.75 0 0] CT
1 0 1 RC
1 LJ
2 LW
N
670.5 136 M
670.5 129 L
S
GR
GS
[0.75 0 0 0.75 0 0] CT
1 0 1 RC
1 LJ
2 LW
N
740 113.5 M
747 113.5 L
S
GR
GS
[0.75 0 0 0.75 0 0] CT
1 0 1 RC
1 LJ
2 LW
N
743.5 117 M
743.5 110 L
S
GR
GS
[0.75 0 0 0.75 0 0] CT
1 0 0 RC
1 LJ
2 LW
N
91 419.06 M
163.444 363.091 L
235.889 313.467 L
308.333 269.228 L
380.778 229.311 L
453.222 193.015 L
525.667 160.546 L
598.111 131.212 L
670.556 104.512 L
743 80.675 L
S
GR
GS
[0.75 0 0 0.75 0 0] CT
1 GC
N
88.9 422.1 M
88.9 416.9 L
94.1 416.9 L
94.1 422.1 L
cp
f
GR
GS
[0.75 0 0 0.75 0 0] CT
1 0 0 RC
10.0 ML
2 LW
N
88.9 422.1 M
88.9 416.9 L
94.1 416.9 L
94.1 422.1 L
cp
S
GR
GS
[0.75 0 0 0.75 0 0] CT
1 GC
N
160.9 366.1 M
160.9 360.9 L
166.1 360.9 L
166.1 366.1 L
cp
f
GR
GS
[0.75 0 0 0.75 0 0] CT
1 0 0 RC
10.0 ML
2 LW
N
160.9 366.1 M
160.9 360.9 L
166.1 360.9 L
166.1 366.1 L
cp
S
GR
GS
[0.75 0 0 0.75 0 0] CT
1 GC
N
232.9 316.1 M
232.9 310.9 L
238.1 310.9 L
238.1 316.1 L
cp
f
GR
GS
[0.75 0 0 0.75 0 0] CT
1 0 0 RC
10.0 ML
2 LW
N
232.9 316.1 M
232.9 310.9 L
238.1 310.9 L
238.1 316.1 L
cp
S
GR
GS
[0.75 0 0 0.75 0 0] CT
1 GC
N
305.9 272.1 M
305.9 266.9 L
311.1 266.9 L
311.1 272.1 L
cp
f
GR
GS
[0.75 0 0 0.75 0 0] CT
1 0 0 RC
10.0 ML
2 LW
N
305.9 272.1 M
305.9 266.9 L
311.1 266.9 L
311.1 272.1 L
cp
S
GR
GS
[0.75 0 0 0.75 0 0] CT
1 GC
N
377.9 232.1 M
377.9 226.9 L
383.1 226.9 L
383.1 232.1 L
cp
f
GR
GS
[0.75 0 0 0.75 0 0] CT
1 0 0 RC
10.0 ML
2 LW
N
377.9 232.1 M
377.9 226.9 L
383.1 226.9 L
383.1 232.1 L
cp
S
GR
GS
[0.75 0 0 0.75 0 0] CT
1 GC
N
450.9 196.1 M
450.9 190.9 L
456.1 190.9 L
456.1 196.1 L
cp
f
GR
GS
[0.75 0 0 0.75 0 0] CT
1 0 0 RC
10.0 ML
2 LW
N
450.9 196.1 M
450.9 190.9 L
456.1 190.9 L
456.1 196.1 L
cp
S
GR
GS
[0.75 0 0 0.75 0 0] CT
1 GC
N
522.9 163.1 M
522.9 157.9 L
528.1 157.9 L
528.1 163.1 L
cp
f
GR
GS
[0.75 0 0 0.75 0 0] CT
1 0 0 RC
10.0 ML
2 LW
N
522.9 163.1 M
522.9 157.9 L
528.1 157.9 L
528.1 163.1 L
cp
S
GR
GS
[0.75 0 0 0.75 0 0] CT
1 GC
N
595.9 134.1 M
595.9 128.9 L
601.1 128.9 L
601.1 134.1 L
cp
f
GR
GS
[0.75 0 0 0.75 0 0] CT
1 0 0 RC
10.0 ML
2 LW
N
595.9 134.1 M
595.9 128.9 L
601.1 128.9 L
601.1 134.1 L
cp
S
GR
GS
[0.75 0 0 0.75 0 0] CT
1 GC
N
667.9 107.1 M
667.9 101.9 L
673.1 101.9 L
673.1 107.1 L
cp
f
GR
GS
[0.75 0 0 0.75 0 0] CT
1 0 0 RC
10.0 ML
2 LW
N
667.9 107.1 M
667.9 101.9 L
673.1 101.9 L
673.1 107.1 L
cp
S
GR
GS
[0.75 0 0 0.75 0 0] CT
1 GC
N
740.9 83.1 M
740.9 77.9 L
746.1 77.9 L
746.1 83.1 L
cp
f
GR
GS
[0.75 0 0 0.75 0 0] CT
1 0 0 RC
10.0 ML
2 LW
N
740.9 83.1 M
740.9 77.9 L
746.1 77.9 L
746.1 83.1 L
cp
S
GR
GS
[0.75 0 0 0.75 0 0] CT
1 LJ
2 LW
N
91 419.06 M
163.444 361.429 L
235.889 309.319 L
308.333 262.767 L
380.778 220.1 L
453.222 180.954 L
525.667 145.178 L
598.111 112.401 L
670.556 82.284 L
743 54.574 L
S
GR
GS
[0.75 0 0 0.75 0 0] CT
1 GC
N
94.833 419.5 M
93.857 417.143 L
91.5 416.167 L
89.143 417.143 L
88.167 419.5 L
89.143 421.857 L
91.5 422.833 L
93.857 421.857 L
94.833 419.5 L
cp
f
GR
GS
[0.75 0 0 0.75 0 0] CT
1 LJ
2 LW
N
94.833 419.5 M
94.197 417.541 L
92.53 416.33 L
90.47 416.33 L
88.803 417.541 L
88.167 419.5 L
88.803 421.459 L
90.47 422.67 L
92.53 422.67 L
94.197 421.459 L
cp
S
GR
GS
[0.75 0 0 0.75 0 0] CT
1 GC
N
166.833 361.5 M
165.857 359.143 L
163.5 358.167 L
161.143 359.143 L
160.167 361.5 L
161.143 363.857 L
163.5 364.833 L
165.857 363.857 L
166.833 361.5 L
cp
f
GR
GS
[0.75 0 0 0.75 0 0] CT
1 LJ
2 LW
N
166.833 361.5 M
166.197 359.541 L
164.53 358.33 L
162.47 358.33 L
160.803 359.541 L
160.167 361.5 L
160.803 363.459 L
162.47 364.67 L
164.53 364.67 L
166.197 363.459 L
cp
S
GR
GS
[0.75 0 0 0.75 0 0] CT
1 GC
N
238.833 309.5 M
237.857 307.143 L
235.5 306.167 L
233.143 307.143 L
232.167 309.5 L
233.143 311.857 L
235.5 312.833 L
237.857 311.857 L
238.833 309.5 L
cp
f
GR
GS
[0.75 0 0 0.75 0 0] CT
1 LJ
2 LW
N
238.833 309.5 M
238.197 307.541 L
236.53 306.33 L
234.47 306.33 L
232.803 307.541 L
232.167 309.5 L
232.803 311.459 L
234.47 312.67 L
236.53 312.67 L
238.197 311.459 L
cp
S
GR
GS
[0.75 0 0 0.75 0 0] CT
1 GC
N
311.833 262.5 M
310.857 260.143 L
308.5 259.167 L
306.143 260.143 L
305.167 262.5 L
306.143 264.857 L
308.5 265.833 L
310.857 264.857 L
311.833 262.5 L
cp
f
GR
GS
[0.75 0 0 0.75 0 0] CT
1 LJ
2 LW
N
311.833 262.5 M
311.197 260.541 L
309.53 259.33 L
307.47 259.33 L
305.803 260.541 L
305.167 262.5 L
305.803 264.459 L
307.47 265.67 L
309.53 265.67 L
311.197 264.459 L
cp
S
GR
GS
[0.75 0 0 0.75 0 0] CT
1 GC
N
383.833 220.5 M
382.857 218.143 L
380.5 217.167 L
378.143 218.143 L
377.167 220.5 L
378.143 222.857 L
380.5 223.833 L
382.857 222.857 L
383.833 220.5 L
cp
f
GR
GS
[0.75 0 0 0.75 0 0] CT
1 LJ
2 LW
N
383.833 220.5 M
383.197 218.541 L
381.53 217.33 L
379.47 217.33 L
377.803 218.541 L
377.167 220.5 L
377.803 222.459 L
379.47 223.67 L
381.53 223.67 L
383.197 222.459 L
cp
S
GR
GS
[0.75 0 0 0.75 0 0] CT
1 GC
N
456.833 180.5 M
455.857 178.143 L
453.5 177.167 L
451.143 178.143 L
450.167 180.5 L
451.143 182.857 L
453.5 183.833 L
455.857 182.857 L
456.833 180.5 L
cp
f
GR
GS
[0.75 0 0 0.75 0 0] CT
1 LJ
2 LW
N
456.833 180.5 M
456.197 178.541 L
454.53 177.33 L
452.47 177.33 L
450.803 178.541 L
450.167 180.5 L
450.803 182.459 L
452.47 183.67 L
454.53 183.67 L
456.197 182.459 L
cp
S
GR
GS
[0.75 0 0 0.75 0 0] CT
1 GC
N
528.833 145.5 M
527.857 143.143 L
525.5 142.167 L
523.143 143.143 L
522.167 145.5 L
523.143 147.857 L
525.5 148.833 L
527.857 147.857 L
528.833 145.5 L
cp
f
GR
GS
[0.75 0 0 0.75 0 0] CT
1 LJ
2 LW
N
528.833 145.5 M
528.197 143.541 L
526.53 142.33 L
524.47 142.33 L
522.803 143.541 L
522.167 145.5 L
522.803 147.459 L
524.47 148.67 L
526.53 148.67 L
528.197 147.459 L
cp
S
GR
GS
[0.75 0 0 0.75 0 0] CT
1 GC
N
601.833 112.5 M
600.857 110.143 L
598.5 109.167 L
596.143 110.143 L
595.167 112.5 L
596.143 114.857 L
598.5 115.833 L
600.857 114.857 L
601.833 112.5 L
cp
f
GR
GS
[0.75 0 0 0.75 0 0] CT
1 LJ
2 LW
N
601.833 112.5 M
601.197 110.541 L
599.53 109.33 L
597.47 109.33 L
595.803 110.541 L
595.167 112.5 L
595.803 114.459 L
597.47 115.67 L
599.53 115.67 L
601.197 114.459 L
cp
S
GR
GS
[0.75 0 0 0.75 0 0] CT
1 GC
N
673.833 82.5 M
672.857 80.143 L
670.5 79.167 L
668.143 80.143 L
667.167 82.5 L
668.143 84.857 L
670.5 85.833 L
672.857 84.857 L
673.833 82.5 L
cp
f
GR
GS
[0.75 0 0 0.75 0 0] CT
1 LJ
2 LW
N
673.833 82.5 M
673.197 80.541 L
671.53 79.33 L
669.47 79.33 L
667.803 80.541 L
667.167 82.5 L
667.803 84.459 L
669.47 85.67 L
671.53 85.67 L
673.197 84.459 L
cp
S
GR
GS
[0.75 0 0 0.75 0 0] CT
1 GC
N
746.833 54.5 M
745.857 52.143 L
743.5 51.167 L
741.143 52.143 L
740.167 54.5 L
741.143 56.857 L
743.5 57.833 L
745.857 56.857 L
746.833 54.5 L
cp
f
GR
GS
[0.75 0 0 0.75 0 0] CT
1 LJ
2 LW
N
746.833 54.5 M
746.197 52.541 L
744.53 51.33 L
742.47 51.33 L
740.803 52.541 L
740.167 54.5 L
740.803 56.459 L
742.47 57.67 L
744.53 57.67 L
746.197 56.459 L
cp
S
GR
GS
[0.75 0 0 0.75 0 0] CT
1 GC
N
104 333 M
104 64 L
210 64 L
210 333 L
cp
f
GR
GS
[0.75 0 0 0.75 105.75 60.37501] CT
/Times 24 F
GS
[1 0 0 1 0 0] CT
0 8.5 moveto 
1 -1 scale
(LBP) t 
GR
GR
GS
[0.75 0 0 0.75 0 0] CT
1 0.6 0.784 RC
1 LJ
2 LW
N
108 80.5 M
138 80.5 L
S
GR
GS
[0.75 0 0 0.75 0 0] CT
1 GC
N
121.278 76.652 M
127.943 80.5 L
121.278 84.348 L
cp
f
GR
GS
[0.75 0 0 0.75 0 0] CT
1 0.6 0.784 RC
10.0 ML
2 LW
N
121.278 76.652 M
127.943 80.5 L
121.278 84.348 L
cp
S
GR
GS
[0.75 0 0 0.75 105.75 82.49999] CT
/Times 24 F
GS
[1 0 0 1 0 0] CT
0 8.5 moveto 
1 -1 scale
(LTP) t 
GR
GR
GS
[0.75 0 0 0.75 0 0] CT
0.6 0.2 0 RC
1 LJ
2 LW
N
108 110 M
138 110 L
S
GR
GS
[0.75 0 0 0.75 0 0] CT
1 GC
N
119.057 109.5 M
125.722 105.652 L
125.722 113.348 L
cp
f
GR
GS
[0.75 0 0 0.75 0 0] CT
0.6 0.2 0 RC
10.0 ML
2 LW
N
119.057 109.5 M
125.722 105.652 L
125.722 113.348 L
cp
S
GR
GS
[0.75 0 0 0.75 105.75 104.625] CT
/Times 24 F
GS
[1 0 0 1 0 0] CT
0 8.5 moveto 
1 -1 scale
(LDP) t 
GR
GR
GS
[0.75 0 0 0.75 0 0] CT
0.929 0.694 0.125 RC
1 LJ
2 LW
N
108 139.5 M
138 139.5 L
S
GR
GS
[0.75 0 0 0.75 0 0] CT
1 GC
N
120.33 138.47 M
122.716 138.47 L
123.5 136.167 L
124.284 138.47 L
126.67 138.47 L
124.768 139.912 L
125.459 142.197 L
123.5 140.833 L
121.541 142.197 L
122.232 139.912 L
120.33 138.47 L
cp
f
GR
GS
[0.75 0 0 0.75 0 0] CT
0.929 0.694 0.125 RC
10.0 ML
2 LW
N
120.33 138.47 M
122.716 138.47 L
123.5 136.167 L
124.284 138.47 L
126.67 138.47 L
124.768 139.912 L
125.459 142.197 L
123.5 140.833 L
121.541 142.197 L
122.232 139.912 L
cp
S
GR
GS
[0.75 0 0 0.75 105.75 126.75] CT
/Times 24 F
GS
[1 0 0 1 0 0] CT
0 8.5 moveto 
1 -1 scale
(LDN) t 
GR
GR
GS
[0.75 0 0 0.75 0 0] CT
0 1 1 RC
1 LJ
2 LW
N
108 169 M
138 169 L
S
GR
GS
[0.75 0 0 0.75 0 0] CT
1 GC
N
123.5 172.943 M
126.833 168.5 L
123.5 164.057 L
120.167 168.5 L
cp
f
GR
GS
[0.75 0 0 0.75 0 0] CT
0 1 1 RC
10.0 ML
2 LW
N
123.5 172.943 M
126.833 168.5 L
123.5 164.057 L
120.167 168.5 L
cp
S
GR
GS
[0.75 0 0 0.75 105.75 148.875] CT
/Times 24 F
GS
[1 0 0 1 0 0] CT
0 8.5 moveto 
1 -1 scale
(LVP) t 
GR
GR
GS
[0.75 0 0 0.75 0 0] CT
0 1 0 RC
1 LJ
2 LW
N
108 198.5 M
138 198.5 L
S
GR
GS
[0.75 0 0 0.75 0 0] CT
1 GC
N
120.9 201.1 M
120.9 195.9 L
126.1 195.9 L
126.1 201.1 L
cp
f
GR
GS
[0.75 0 0 0.75 0 0] CT
0 1 0 RC
10.0 ML
2 LW
N
120.9 201.1 M
120.9 195.9 L
126.1 195.9 L
126.1 201.1 L
cp
S
GR
GS
[0.75 0 0 0.75 105.75 171] CT
/Times 24 F
GS
[1 0 0 1 0 0] CT
0 8.5 moveto 
1 -1 scale
(LDGP) t 
GR
GR
GS
[0.75 0 0 0.75 0 0] CT
0 0 1 RC
1 LJ
2 LW
N
108 228 M
138 228 L
S
GR
GS
[0.75 0 0 0.75 0 0] CT
1 GC
N
119.057 227.5 M
125.722 223.652 L
125.722 231.348 L
cp
f
GR
GS
[0.75 0 0 0.75 0 0] CT
0 0 1 RC
10.0 ML
2 LW
N
119.057 227.5 M
125.722 223.652 L
125.722 231.348 L
cp
S
GR
GS
[0.75 0 0 0.75 105.75 193.125] CT
/Times 24 F
GS
[1 0 0 1 0 0] CT
0 8.5 moveto 
1 -1 scale
(DCP) t 
GR
GR
GS
[0.75 0 0 0.75 0 0] CT
1 0 1 RC
1 LJ
2 LW
N
108 257.5 M
138 257.5 L
S
GR
GS
[0.75 0 0 0.75 0 0] CT
1 0 1 RC
1 LJ
2 LW
N
120 257.5 M
127 257.5 L
S
GR
GS
[0.75 0 0 0.75 0 0] CT
1 0 1 RC
1 LJ
2 LW
N
123.5 261 M
123.5 254 L
S
GR
GS
[0.75 0 0 0.75 105.75 215.25] CT
/Times 24 F
GS
[1 0 0 1 0 0] CT
0 8.5 moveto 
1 -1 scale
(LGHP) t 
GR
GR
GS
[0.75 0 0 0.75 0 0] CT
1 0 0 RC
1 LJ
2 LW
N
108 287 M
138 287 L
S
GR
GS
[0.75 0 0 0.75 0 0] CT
1 GC
N
120.9 290.1 M
120.9 284.9 L
126.1 284.9 L
126.1 290.1 L
cp
f
GR
GS
[0.75 0 0 0.75 0 0] CT
1 0 0 RC
10.0 ML
2 LW
N
120.9 290.1 M
120.9 284.9 L
126.1 284.9 L
126.1 290.1 L
cp
S
GR
GS
[0.75 0 0 0.75 105.75 237.375] CT
/Times 24 F
GS
[1 0 0 1 0 0] CT
0 8.5 moveto 
1 -1 scale
(LDRP) t 
GR
GR
GS
[0.75 0 0 0.75 0 0] CT
1 LJ
2 LW
N
108 316.5 M
138 316.5 L
S
GR
GS
[0.75 0 0 0.75 0 0] CT
1 GC
N
126.833 316.5 M
125.857 314.143 L
123.5 313.167 L
121.143 314.143 L
120.167 316.5 L
121.143 318.857 L
123.5 319.833 L
125.857 318.857 L
126.833 316.5 L
cp
f
GR
GS
[0.75 0 0 0.75 0 0] CT
1 LJ
2 LW
N
126.833 316.5 M
126.197 314.541 L
124.53 313.33 L
122.47 313.33 L
120.803 314.541 L
120.167 316.5 L
120.803 318.459 L
122.47 319.67 L
124.53 319.67 L
126.197 318.459 L
cp
S
GR
GS
[0.75 0 0 0.75 0 0] CT
0.149 GC
10.0 ML
0.667 LW
N
104 333 M
104 64 L
210 64 L
210 333 L
cp
S
GR
%%Trailer
%%Pages: 1
%%EOF
