%!PS-Adobe-3.0 EPSF-3.0
%%Creator: (MATLAB, The Mathworks, Inc. Version 9.0.0.341360 \(R2016a\). Operating System: Linux)
%%Title: (/home/shivram/main/Work/1. Research/1. Ongoing/5. LDRP Face/2. Exp/1. Results/ESSEXCropped/essex-arr.eps)
%%CreationDate: 2017-08-17T17:17:30
%%Pages: (atend)
%%BoundingBox: 0 0 573 384
%%LanguageLevel: 3
%%EndComments
%%BeginProlog
%%BeginResource: procset (Apache XML Graphics Std ProcSet) 1.2 0
%%Version: 1.2 0
%%Copyright: (Copyright 2001-2003,2010 The Apache Software Foundation. License terms: http://www.apache.org/licenses/LICENSE-2.0)
/bd{bind def}bind def
/ld{load def}bd
/GR/grestore ld
/M/moveto ld
/LJ/setlinejoin ld
/C/curveto ld
/f/fill ld
/LW/setlinewidth ld
/GC/setgray ld
/t/show ld
/N/newpath ld
/CT/concat ld
/cp/closepath ld
/S/stroke ld
/L/lineto ld
/CC/setcmykcolor ld
/A/ashow ld
/GS/gsave ld
/RC/setrgbcolor ld
/RM/rmoveto ld
/ML/setmiterlimit ld
/re {4 2 roll M
1 index 0 rlineto
0 exch rlineto
neg 0 rlineto
cp } bd
/_ctm matrix def
/_tm matrix def
/BT { _ctm currentmatrix pop matrix _tm copy pop 0 0 moveto } bd
/ET { _ctm setmatrix } bd
/iTm { _ctm setmatrix _tm concat } bd
/Tm { _tm astore pop iTm 0 0 moveto } bd
/ux 0.0 def
/uy 0.0 def
/F {
  /Tp exch def
  /Tf exch def
  Tf findfont Tp scalefont setfont
  /cf Tf def  /cs Tp def
} bd
/ULS {currentpoint /uy exch def /ux exch def} bd
/ULE {
  /Tcx currentpoint pop def
  gsave
  newpath
  cf findfont cs scalefont dup
  /FontMatrix get 0 get /Ts exch def /FontInfo get dup
  /UnderlinePosition get Ts mul /To exch def
  /UnderlineThickness get Ts mul /Tt exch def
  ux uy To add moveto  Tcx uy To add lineto
  Tt setlinewidth stroke
  grestore
} bd
/OLE {
  /Tcx currentpoint pop def
  gsave
  newpath
  cf findfont cs scalefont dup
  /FontMatrix get 0 get /Ts exch def /FontInfo get dup
  /UnderlinePosition get Ts mul /To exch def
  /UnderlineThickness get Ts mul /Tt exch def
  ux uy To add cs add moveto Tcx uy To add cs add lineto
  Tt setlinewidth stroke
  grestore
} bd
/SOE {
  /Tcx currentpoint pop def
  gsave
  newpath
  cf findfont cs scalefont dup
  /FontMatrix get 0 get /Ts exch def /FontInfo get dup
  /UnderlinePosition get Ts mul /To exch def
  /UnderlineThickness get Ts mul /Tt exch def
  ux uy To add cs 10 mul 26 idiv add moveto Tcx uy To add cs 10 mul 26 idiv add lineto
  Tt setlinewidth stroke
  grestore
} bd
/QT {
/Y22 exch store
/X22 exch store
/Y21 exch store
/X21 exch store
currentpoint
/Y21 load 2 mul add 3 div exch
/X21 load 2 mul add 3 div exch
/X21 load 2 mul /X22 load add 3 div
/Y21 load 2 mul /Y22 load add 3 div
/X22 load /Y22 load curveto
} bd
/SSPD {
dup length /d exch dict def
{
/v exch def
/k exch def
currentpagedevice k known {
/cpdv currentpagedevice k get def
v cpdv ne {
/upd false def
/nullv v type /nulltype eq def
/nullcpdv cpdv type /nulltype eq def
nullv nullcpdv or
{
/upd true def
} {
/sametype v type cpdv type eq def
sametype {
v type /arraytype eq {
/vlen v length def
/cpdvlen cpdv length def
vlen cpdvlen eq {
0 1 vlen 1 sub {
/i exch def
/obj v i get def
/cpdobj cpdv i get def
obj cpdobj ne {
/upd true def
exit
} if
} for
} {
/upd true def
} ifelse
} {
v type /dicttype eq {
v {
/dv exch def
/dk exch def
/cpddv cpdv dk get def
dv cpddv ne {
/upd true def
exit
} if
} forall
} {
/upd true def
} ifelse
} ifelse
} if
} ifelse
upd true eq {
d k v put
} if
} if
} if
} forall
d length 0 gt {
d setpagedevice
} if
} bd
%%EndResource
%%BeginResource: procset (Apache XML Graphics EPS ProcSet) 1.0 0
%%Version: 1.0 0
%%Copyright: (Copyright 2002-2003 The Apache Software Foundation. License terms: http://www.apache.org/licenses/LICENSE-2.0)
/BeginEPSF { %def
/b4_Inc_state save def         % Save state for cleanup
/dict_count countdictstack def % Count objects on dict stack
/op_count count 1 sub def      % Count objects on operand stack
userdict begin                 % Push userdict on dict stack
/showpage { } def              % Redefine showpage, { } = null proc
0 setgray 0 setlinecap         % Prepare graphics state
1 setlinewidth 0 setlinejoin
10 setmiterlimit [ ] 0 setdash newpath
/languagelevel where           % If level not equal to 1 then
{pop languagelevel             % set strokeadjust and
1 ne                           % overprint to their defaults.
{false setstrokeadjust false setoverprint
} if
} if
} bd
/EndEPSF { %def
count op_count sub {pop} repeat            % Clean up stacks
countdictstack dict_count sub {end} repeat
b4_Inc_state restore
} bd
%%EndResource
%FOPBeginFontDict
%%IncludeResource: font Courier-Bold
%%IncludeResource: font Helvetica
%%IncludeResource: font Courier-BoldOblique
%%IncludeResource: font Courier-Oblique
%%IncludeResource: font Times-Roman
%%IncludeResource: font Helvetica-BoldOblique
%%IncludeResource: font Helvetica-Bold
%%IncludeResource: font Helvetica-Oblique
%%IncludeResource: font Times-BoldItalic
%%IncludeResource: font Courier
%%IncludeResource: font Times-Italic
%%IncludeResource: font Times-Bold
%%IncludeResource: font Symbol
%%IncludeResource: font ZapfDingbats
%FOPEndFontDict
%%BeginResource: encoding WinAnsiEncoding
/WinAnsiEncoding [
/.notdef /.notdef /.notdef /.notdef /.notdef
/.notdef /.notdef /.notdef /.notdef /.notdef
/.notdef /.notdef /.notdef /.notdef /.notdef
/.notdef /.notdef /.notdef /.notdef /.notdef
/.notdef /.notdef /.notdef /.notdef /.notdef
/.notdef /.notdef /.notdef /.notdef /.notdef
/.notdef /.notdef /space /exclam /quotedbl
/numbersign /dollar /percent /ampersand /quotesingle
/parenleft /parenright /asterisk /plus /comma
/hyphen /period /slash /zero /one
/two /three /four /five /six
/seven /eight /nine /colon /semicolon
/less /equal /greater /question /at
/A /B /C /D /E
/F /G /H /I /J
/K /L /M /N /O
/P /Q /R /S /T
/U /V /W /X /Y
/Z /bracketleft /backslash /bracketright /asciicircum
/underscore /quoteleft /a /b /c
/d /e /f /g /h
/i /j /k /l /m
/n /o /p /q /r
/s /t /u /v /w
/x /y /z /braceleft /bar
/braceright /asciitilde /bullet /Euro /bullet
/quotesinglbase /florin /quotedblbase /ellipsis /dagger
/daggerdbl /circumflex /perthousand /Scaron /guilsinglleft
/OE /bullet /Zcaron /bullet /bullet
/quoteleft /quoteright /quotedblleft /quotedblright /bullet
/endash /emdash /asciitilde /trademark /scaron
/guilsinglright /oe /bullet /zcaron /Ydieresis
/space /exclamdown /cent /sterling /currency
/yen /brokenbar /section /dieresis /copyright
/ordfeminine /guillemotleft /logicalnot /sfthyphen /registered
/macron /degree /plusminus /twosuperior /threesuperior
/acute /mu /paragraph /middot /cedilla
/onesuperior /ordmasculine /guillemotright /onequarter /onehalf
/threequarters /questiondown /Agrave /Aacute /Acircumflex
/Atilde /Adieresis /Aring /AE /Ccedilla
/Egrave /Eacute /Ecircumflex /Edieresis /Igrave
/Iacute /Icircumflex /Idieresis /Eth /Ntilde
/Ograve /Oacute /Ocircumflex /Otilde /Odieresis
/multiply /Oslash /Ugrave /Uacute /Ucircumflex
/Udieresis /Yacute /Thorn /germandbls /agrave
/aacute /acircumflex /atilde /adieresis /aring
/ae /ccedilla /egrave /eacute /ecircumflex
/edieresis /igrave /iacute /icircumflex /idieresis
/eth /ntilde /ograve /oacute /ocircumflex
/otilde /odieresis /divide /oslash /ugrave
/uacute /ucircumflex /udieresis /yacute /thorn
/ydieresis
] def
%%EndResource
%FOPBeginFontReencode
/Courier-Bold findfont
dup length dict begin
  {1 index /FID ne {def} {pop pop} ifelse} forall
  /Encoding WinAnsiEncoding def
  currentdict
end
/Courier-Bold exch definefont pop
/Helvetica findfont
dup length dict begin
  {1 index /FID ne {def} {pop pop} ifelse} forall
  /Encoding WinAnsiEncoding def
  currentdict
end
/Helvetica exch definefont pop
/Courier-BoldOblique findfont
dup length dict begin
  {1 index /FID ne {def} {pop pop} ifelse} forall
  /Encoding WinAnsiEncoding def
  currentdict
end
/Courier-BoldOblique exch definefont pop
/Courier-Oblique findfont
dup length dict begin
  {1 index /FID ne {def} {pop pop} ifelse} forall
  /Encoding WinAnsiEncoding def
  currentdict
end
/Courier-Oblique exch definefont pop
/Times-Roman findfont
dup length dict begin
  {1 index /FID ne {def} {pop pop} ifelse} forall
  /Encoding WinAnsiEncoding def
  currentdict
end
/Times-Roman exch definefont pop
/Helvetica-BoldOblique findfont
dup length dict begin
  {1 index /FID ne {def} {pop pop} ifelse} forall
  /Encoding WinAnsiEncoding def
  currentdict
end
/Helvetica-BoldOblique exch definefont pop
/Helvetica-Bold findfont
dup length dict begin
  {1 index /FID ne {def} {pop pop} ifelse} forall
  /Encoding WinAnsiEncoding def
  currentdict
end
/Helvetica-Bold exch definefont pop
/Helvetica-Oblique findfont
dup length dict begin
  {1 index /FID ne {def} {pop pop} ifelse} forall
  /Encoding WinAnsiEncoding def
  currentdict
end
/Helvetica-Oblique exch definefont pop
/Times-BoldItalic findfont
dup length dict begin
  {1 index /FID ne {def} {pop pop} ifelse} forall
  /Encoding WinAnsiEncoding def
  currentdict
end
/Times-BoldItalic exch definefont pop
/Courier findfont
dup length dict begin
  {1 index /FID ne {def} {pop pop} ifelse} forall
  /Encoding WinAnsiEncoding def
  currentdict
end
/Courier exch definefont pop
/Times-Italic findfont
dup length dict begin
  {1 index /FID ne {def} {pop pop} ifelse} forall
  /Encoding WinAnsiEncoding def
  currentdict
end
/Times-Italic exch definefont pop
/Times-Bold findfont
dup length dict begin
  {1 index /FID ne {def} {pop pop} ifelse} forall
  /Encoding WinAnsiEncoding def
  currentdict
end
/Times-Bold exch definefont pop
%FOPEndFontReencode
%%EndProlog
%%Page: 1 1
%%PageBoundingBox: 0 0 573 384
%%BeginPageSetup
[1 0 0 -1 0 384] CT
%%EndPageSetup
GS
[0.75 0 0 0.75 0 0] CT
1 GC
N
0 0 764 512 re
f
GR
GS
[0.75 0 0 0.75 0 0] CT
1 GC
N
0 0 764 512 re
f
GR
GS
[0.75 0 0 0.75 0 0] CT
1 GC
N
89 421 M
744 421 L
744 51 L
89 51 L
cp
f
GR
GS
[0.75 0 0 0.75 0 0] CT
0.149 GC
2 setlinecap
1 LJ
0.667 LW
N
89 421 M
744 421 L
S
GR
GS
[0.75 0 0 0.75 0 0] CT
0.149 GC
2 setlinecap
1 LJ
0.667 LW
N
89 51 M
744 51 L
S
GR
GS
[0.75 0 0 0.75 0 0] CT
0.149 GC
2 setlinecap
1 LJ
0.667 LW
N
89 421 M
89 414.45 L
S
GR
GS
[0.75 0 0 0.75 0 0] CT
0.149 GC
2 setlinecap
1 LJ
0.667 LW
N
161.778 421 M
161.778 414.45 L
S
GR
GS
[0.75 0 0 0.75 0 0] CT
0.149 GC
2 setlinecap
1 LJ
0.667 LW
N
234.556 421 M
234.556 414.45 L
S
GR
GS
[0.75 0 0 0.75 0 0] CT
0.149 GC
2 setlinecap
1 LJ
0.667 LW
N
307.333 421 M
307.333 414.45 L
S
GR
GS
[0.75 0 0 0.75 0 0] CT
0.149 GC
2 setlinecap
1 LJ
0.667 LW
N
380.111 421 M
380.111 414.45 L
S
GR
GS
[0.75 0 0 0.75 0 0] CT
0.149 GC
2 setlinecap
1 LJ
0.667 LW
N
452.889 421 M
452.889 414.45 L
S
GR
GS
[0.75 0 0 0.75 0 0] CT
0.149 GC
2 setlinecap
1 LJ
0.667 LW
N
525.667 421 M
525.667 414.45 L
S
GR
GS
[0.75 0 0 0.75 0 0] CT
0.149 GC
2 setlinecap
1 LJ
0.667 LW
N
598.444 421 M
598.444 414.45 L
S
GR
GS
[0.75 0 0 0.75 0 0] CT
0.149 GC
2 setlinecap
1 LJ
0.667 LW
N
671.222 421 M
671.222 414.45 L
S
GR
GS
[0.75 0 0 0.75 0 0] CT
0.149 GC
2 setlinecap
1 LJ
0.667 LW
N
744 421 M
744 414.45 L
S
GR
GS
[0.75 0 0 0.75 0 0] CT
0.149 GC
2 setlinecap
1 LJ
0.667 LW
N
89 51 M
89 57.55 L
S
GR
GS
[0.75 0 0 0.75 0 0] CT
0.149 GC
2 setlinecap
1 LJ
0.667 LW
N
161.778 51 M
161.778 57.55 L
S
GR
GS
[0.75 0 0 0.75 0 0] CT
0.149 GC
2 setlinecap
1 LJ
0.667 LW
N
234.556 51 M
234.556 57.55 L
S
GR
GS
[0.75 0 0 0.75 0 0] CT
0.149 GC
2 setlinecap
1 LJ
0.667 LW
N
307.333 51 M
307.333 57.55 L
S
GR
GS
[0.75 0 0 0.75 0 0] CT
0.149 GC
2 setlinecap
1 LJ
0.667 LW
N
380.111 51 M
380.111 57.55 L
S
GR
GS
[0.75 0 0 0.75 0 0] CT
0.149 GC
2 setlinecap
1 LJ
0.667 LW
N
452.889 51 M
452.889 57.55 L
S
GR
GS
[0.75 0 0 0.75 0 0] CT
0.149 GC
2 setlinecap
1 LJ
0.667 LW
N
525.667 51 M
525.667 57.55 L
S
GR
GS
[0.75 0 0 0.75 0 0] CT
0.149 GC
2 setlinecap
1 LJ
0.667 LW
N
598.444 51 M
598.444 57.55 L
S
GR
GS
[0.75 0 0 0.75 0 0] CT
0.149 GC
2 setlinecap
1 LJ
0.667 LW
N
671.222 51 M
671.222 57.55 L
S
GR
GS
[0.75 0 0 0.75 0 0] CT
0.149 GC
2 setlinecap
1 LJ
0.667 LW
N
744 51 M
744 57.55 L
S
GR
GS
[0.75 0 0 0.75 66.75 322.55001] CT
0.149 GC
/Times 32 F
GS
[1 0 0 1 0 0] CT
-10.5 30 moveto 
1 -1 scale
(1) t 
GR
GR
GS
[0.75 0 0 0.75 121.33333 322.55001] CT
0.149 GC
/Times 32 F
GS
[1 0 0 1 0 0] CT
-10.5 30 moveto 
1 -1 scale
(2) t 
GR
GR
GS
[0.75 0 0 0.75 175.91667 322.55001] CT
0.149 GC
/Times 32 F
GS
[1 0 0 1 0 0] CT
-10.5 30 moveto 
1 -1 scale
(3) t 
GR
GR
GS
[0.75 0 0 0.75 230.50001 322.55001] CT
0.149 GC
/Times 32 F
GS
[1 0 0 1 0 0] CT
-10.5 30 moveto 
1 -1 scale
(4) t 
GR
GR
GS
[0.75 0 0 0.75 285.08334 322.55001] CT
0.149 GC
/Times 32 F
GS
[1 0 0 1 0 0] CT
-10.5 30 moveto 
1 -1 scale
(5) t 
GR
GR
GS
[0.75 0 0 0.75 339.66666 322.55001] CT
0.149 GC
/Times 32 F
GS
[1 0 0 1 0 0] CT
-10.5 30 moveto 
1 -1 scale
(6) t 
GR
GR
GS
[0.75 0 0 0.75 394.25002 322.55001] CT
0.149 GC
/Times 32 F
GS
[1 0 0 1 0 0] CT
-10.5 30 moveto 
1 -1 scale
(7) t 
GR
GR
GS
[0.75 0 0 0.75 448.83334 322.55001] CT
0.149 GC
/Times 32 F
GS
[1 0 0 1 0 0] CT
-10.5 30 moveto 
1 -1 scale
(8) t 
GR
GR
GS
[0.75 0 0 0.75 503.41667 322.55001] CT
0.149 GC
/Times 32 F
GS
[1 0 0 1 0 0] CT
-10.5 30 moveto 
1 -1 scale
(9) t 
GR
GR
GS
[0.75 0 0 0.75 558 322.55001] CT
0.149 GC
/Times 32 F
GS
[1 0 0 1 0 0] CT
-20.5 30 moveto 
1 -1 scale
(10) t 
GR
GR
GS
[0.75 0 0 0.75 312.37523 352.05] CT
0.149 GC
/Times 35.2 F
GS
[1 0 0 1 0 0] CT
-210 33 moveto 
1 -1 scale
(Number of Top Matches) t 
GR
GR
GS
[0.75 0 0 0.75 0 0] CT
0.149 GC
2 setlinecap
1 LJ
0.667 LW
N
89 421 M
89 51 L
S
GR
GS
[0.75 0 0 0.75 0 0] CT
0.149 GC
2 setlinecap
1 LJ
0.667 LW
N
744 421 M
744 51 L
S
GR
GS
[0.75 0 0 0.75 0 0] CT
0.149 GC
2 setlinecap
1 LJ
0.667 LW
N
89 421 M
95.55 421 L
S
GR
GS
[0.75 0 0 0.75 0 0] CT
0.149 GC
2 setlinecap
1 LJ
0.667 LW
N
89 379.889 M
95.55 379.889 L
S
GR
GS
[0.75 0 0 0.75 0 0] CT
0.149 GC
2 setlinecap
1 LJ
0.667 LW
N
89 338.778 M
95.55 338.778 L
S
GR
GS
[0.75 0 0 0.75 0 0] CT
0.149 GC
2 setlinecap
1 LJ
0.667 LW
N
89 297.667 M
95.55 297.667 L
S
GR
GS
[0.75 0 0 0.75 0 0] CT
0.149 GC
2 setlinecap
1 LJ
0.667 LW
N
89 256.556 M
95.55 256.556 L
S
GR
GS
[0.75 0 0 0.75 0 0] CT
0.149 GC
2 setlinecap
1 LJ
0.667 LW
N
89 215.444 M
95.55 215.444 L
S
GR
GS
[0.75 0 0 0.75 0 0] CT
0.149 GC
2 setlinecap
1 LJ
0.667 LW
N
89 174.333 M
95.55 174.333 L
S
GR
GS
[0.75 0 0 0.75 0 0] CT
0.149 GC
2 setlinecap
1 LJ
0.667 LW
N
89 133.222 M
95.55 133.222 L
S
GR
GS
[0.75 0 0 0.75 0 0] CT
0.149 GC
2 setlinecap
1 LJ
0.667 LW
N
89 92.111 M
95.55 92.111 L
S
GR
GS
[0.75 0 0 0.75 0 0] CT
0.149 GC
2 setlinecap
1 LJ
0.667 LW
N
89 51 M
95.55 51 L
S
GR
GS
[0.75 0 0 0.75 0 0] CT
0.149 GC
2 setlinecap
1 LJ
0.667 LW
N
744 421 M
737.45 421 L
S
GR
GS
[0.75 0 0 0.75 0 0] CT
0.149 GC
2 setlinecap
1 LJ
0.667 LW
N
744 379.889 M
737.45 379.889 L
S
GR
GS
[0.75 0 0 0.75 0 0] CT
0.149 GC
2 setlinecap
1 LJ
0.667 LW
N
744 338.778 M
737.45 338.778 L
S
GR
GS
[0.75 0 0 0.75 0 0] CT
0.149 GC
2 setlinecap
1 LJ
0.667 LW
N
744 297.667 M
737.45 297.667 L
S
GR
GS
[0.75 0 0 0.75 0 0] CT
0.149 GC
2 setlinecap
1 LJ
0.667 LW
N
744 256.556 M
737.45 256.556 L
S
GR
GS
[0.75 0 0 0.75 0 0] CT
0.149 GC
2 setlinecap
1 LJ
0.667 LW
N
744 215.444 M
737.45 215.444 L
S
GR
GS
[0.75 0 0 0.75 0 0] CT
0.149 GC
2 setlinecap
1 LJ
0.667 LW
N
744 174.333 M
737.45 174.333 L
S
GR
GS
[0.75 0 0 0.75 0 0] CT
0.149 GC
2 setlinecap
1 LJ
0.667 LW
N
744 133.222 M
737.45 133.222 L
S
GR
GS
[0.75 0 0 0.75 0 0] CT
0.149 GC
2 setlinecap
1 LJ
0.667 LW
N
744 92.111 M
737.45 92.111 L
S
GR
GS
[0.75 0 0 0.75 0 0] CT
0.149 GC
2 setlinecap
1 LJ
0.667 LW
N
744 51 M
737.45 51 L
S
GR
GS
[0.75 0 0 0.75 59.95 315.75] CT
0.149 GC
/Times 32 F
GS
[1 0 0 1 0 0] CT
-21 11 moveto 
1 -1 scale
(5) t 
GR
GR
GS
[0.75 0 0 0.75 59.95 284.91666] CT
0.149 GC
/Times 32 F
GS
[1 0 0 1 0 0] CT
-41 11 moveto 
1 -1 scale
(10) t 
GR
GR
GS
[0.75 0 0 0.75 59.95 254.08333] CT
0.149 GC
/Times 32 F
GS
[1 0 0 1 0 0] CT
-41 11 moveto 
1 -1 scale
(15) t 
GR
GR
GS
[0.75 0 0 0.75 59.95 223.24999] CT
0.149 GC
/Times 32 F
GS
[1 0 0 1 0 0] CT
-41 11 moveto 
1 -1 scale
(20) t 
GR
GR
GS
[0.75 0 0 0.75 59.95 192.41666] CT
0.149 GC
/Times 32 F
GS
[1 0 0 1 0 0] CT
-41 11 moveto 
1 -1 scale
(25) t 
GR
GR
GS
[0.75 0 0 0.75 59.95 161.58333] CT
0.149 GC
/Times 32 F
GS
[1 0 0 1 0 0] CT
-41 11 moveto 
1 -1 scale
(30) t 
GR
GR
GS
[0.75 0 0 0.75 59.95 130.75] CT
0.149 GC
/Times 32 F
GS
[1 0 0 1 0 0] CT
-41 11 moveto 
1 -1 scale
(35) t 
GR
GR
GS
[0.75 0 0 0.75 59.95 99.91667] CT
0.149 GC
/Times 32 F
GS
[1 0 0 1 0 0] CT
-41 11 moveto 
1 -1 scale
(40) t 
GR
GR
GS
[0.75 0 0 0.75 59.95 69.08334] CT
0.149 GC
/Times 32 F
GS
[1 0 0 1 0 0] CT
-41 11 moveto 
1 -1 scale
(45) t 
GR
GR
GS
[0.75 0 0 0.75 59.95 38.25] CT
0.149 GC
/Times 32 F
GS
[1 0 0 1 0 0] CT
-41 11 moveto 
1 -1 scale
(50) t 
GR
GR
GS
[0 -0.75 0.75 0 26.2 176.99987] CT
0.149 GC
/Times 35.2 F
GS
[1 0 0 1 0 0] CT
-72.5 -9 moveto 
1 -1 scale
(ARR \(%\)) t 
GR
GR
GS
[0.75 0 0 0.75 312.3753 33.29999] CT
/Times 35.2 F
GS
[1 0 0 1 0 0] CT
-145.5 -9 moveto 
1 -1 scale
(ESSEX Database) t 
GR
GR
GS
[0.75 0 0 0.75 0 0] CT
1 0.6 0.784 RC
1 LJ
2 LW
N
89 419.503 M
161.778 383.266 L
234.556 348.355 L
307.333 315.402 L
380.111 284.281 L
452.889 254.678 L
525.667 226.475 L
598.444 198.944 L
671.222 173.303 L
744 148.625 L
S
GR
GS
[0.75 0 0 0.75 0 0] CT
1 GC
N
87.278 415.652 M
93.943 419.5 L
87.278 423.348 L
cp
f
GR
GS
[0.75 0 0 0.75 0 0] CT
1 0.6 0.784 RC
10.0 ML
2 LW
N
87.278 415.652 M
93.943 419.5 L
87.278 423.348 L
cp
S
GR
GS
[0.75 0 0 0.75 0 0] CT
1 GC
N
159.278 379.652 M
165.943 383.5 L
159.278 387.348 L
cp
f
GR
GS
[0.75 0 0 0.75 0 0] CT
1 0.6 0.784 RC
10.0 ML
2 LW
N
159.278 379.652 M
165.943 383.5 L
159.278 387.348 L
cp
S
GR
GS
[0.75 0 0 0.75 0 0] CT
1 GC
N
232.278 344.652 M
238.943 348.5 L
232.278 352.348 L
cp
f
GR
GS
[0.75 0 0 0.75 0 0] CT
1 0.6 0.784 RC
10.0 ML
2 LW
N
232.278 344.652 M
238.943 348.5 L
232.278 352.348 L
cp
S
GR
GS
[0.75 0 0 0.75 0 0] CT
1 GC
N
305.278 311.652 M
311.943 315.5 L
305.278 319.348 L
cp
f
GR
GS
[0.75 0 0 0.75 0 0] CT
1 0.6 0.784 RC
10.0 ML
2 LW
N
305.278 311.652 M
311.943 315.5 L
305.278 319.348 L
cp
S
GR
GS
[0.75 0 0 0.75 0 0] CT
1 GC
N
378.278 280.652 M
384.943 284.5 L
378.278 288.348 L
cp
f
GR
GS
[0.75 0 0 0.75 0 0] CT
1 0.6 0.784 RC
10.0 ML
2 LW
N
378.278 280.652 M
384.943 284.5 L
378.278 288.348 L
cp
S
GR
GS
[0.75 0 0 0.75 0 0] CT
1 GC
N
450.278 250.652 M
456.943 254.5 L
450.278 258.348 L
cp
f
GR
GS
[0.75 0 0 0.75 0 0] CT
1 0.6 0.784 RC
10.0 ML
2 LW
N
450.278 250.652 M
456.943 254.5 L
450.278 258.348 L
cp
S
GR
GS
[0.75 0 0 0.75 0 0] CT
1 GC
N
523.278 222.652 M
529.943 226.5 L
523.278 230.348 L
cp
f
GR
GS
[0.75 0 0 0.75 0 0] CT
1 0.6 0.784 RC
10.0 ML
2 LW
N
523.278 222.652 M
529.943 226.5 L
523.278 230.348 L
cp
S
GR
GS
[0.75 0 0 0.75 0 0] CT
1 GC
N
596.278 194.652 M
602.943 198.5 L
596.278 202.348 L
cp
f
GR
GS
[0.75 0 0 0.75 0 0] CT
1 0.6 0.784 RC
10.0 ML
2 LW
N
596.278 194.652 M
602.943 198.5 L
596.278 202.348 L
cp
S
GR
GS
[0.75 0 0 0.75 0 0] CT
1 GC
N
669.278 169.652 M
675.943 173.5 L
669.278 177.348 L
cp
f
GR
GS
[0.75 0 0 0.75 0 0] CT
1 0.6 0.784 RC
10.0 ML
2 LW
N
669.278 169.652 M
675.943 173.5 L
669.278 177.348 L
cp
S
GR
GS
[0.75 0 0 0.75 0 0] CT
1 GC
N
742.278 144.652 M
748.943 148.5 L
742.278 152.348 L
cp
f
GR
GS
[0.75 0 0 0.75 0 0] CT
1 0.6 0.784 RC
10.0 ML
2 LW
N
742.278 144.652 M
748.943 148.5 L
742.278 152.348 L
cp
S
GR
GS
[0.75 0 0 0.75 0 0] CT
0.6 0.2 0 RC
1 LJ
2 LW
N
89 419.503 M
161.778 382.991 L
234.556 348.514 L
307.333 316.284 L
380.111 285.08 L
452.889 255.463 L
525.667 227.151 L
598.444 199.654 L
671.222 173.877 L
744 149.596 L
S
GR
GS
[0.75 0 0 0.75 0 0] CT
1 GC
N
85.057 419.5 M
91.722 415.652 L
91.722 423.348 L
cp
f
GR
GS
[0.75 0 0 0.75 0 0] CT
0.6 0.2 0 RC
10.0 ML
2 LW
N
85.057 419.5 M
91.722 415.652 L
91.722 423.348 L
cp
S
GR
GS
[0.75 0 0 0.75 0 0] CT
1 GC
N
157.057 382.5 M
163.722 378.652 L
163.722 386.348 L
cp
f
GR
GS
[0.75 0 0 0.75 0 0] CT
0.6 0.2 0 RC
10.0 ML
2 LW
N
157.057 382.5 M
163.722 378.652 L
163.722 386.348 L
cp
S
GR
GS
[0.75 0 0 0.75 0 0] CT
1 GC
N
230.057 348.5 M
236.722 344.652 L
236.722 352.348 L
cp
f
GR
GS
[0.75 0 0 0.75 0 0] CT
0.6 0.2 0 RC
10.0 ML
2 LW
N
230.057 348.5 M
236.722 344.652 L
236.722 352.348 L
cp
S
GR
GS
[0.75 0 0 0.75 0 0] CT
1 GC
N
303.057 316.5 M
309.722 312.652 L
309.722 320.348 L
cp
f
GR
GS
[0.75 0 0 0.75 0 0] CT
0.6 0.2 0 RC
10.0 ML
2 LW
N
303.057 316.5 M
309.722 312.652 L
309.722 320.348 L
cp
S
GR
GS
[0.75 0 0 0.75 0 0] CT
1 GC
N
376.057 285.5 M
382.722 281.652 L
382.722 289.348 L
cp
f
GR
GS
[0.75 0 0 0.75 0 0] CT
0.6 0.2 0 RC
10.0 ML
2 LW
N
376.057 285.5 M
382.722 281.652 L
382.722 289.348 L
cp
S
GR
GS
[0.75 0 0 0.75 0 0] CT
1 GC
N
448.057 255.5 M
454.722 251.652 L
454.722 259.348 L
cp
f
GR
GS
[0.75 0 0 0.75 0 0] CT
0.6 0.2 0 RC
10.0 ML
2 LW
N
448.057 255.5 M
454.722 251.652 L
454.722 259.348 L
cp
S
GR
GS
[0.75 0 0 0.75 0 0] CT
1 GC
N
521.057 227.5 M
527.722 223.652 L
527.722 231.348 L
cp
f
GR
GS
[0.75 0 0 0.75 0 0] CT
0.6 0.2 0 RC
10.0 ML
2 LW
N
521.057 227.5 M
527.722 223.652 L
527.722 231.348 L
cp
S
GR
GS
[0.75 0 0 0.75 0 0] CT
1 GC
N
594.057 199.5 M
600.722 195.652 L
600.722 203.348 L
cp
f
GR
GS
[0.75 0 0 0.75 0 0] CT
0.6 0.2 0 RC
10.0 ML
2 LW
N
594.057 199.5 M
600.722 195.652 L
600.722 203.348 L
cp
S
GR
GS
[0.75 0 0 0.75 0 0] CT
1 GC
N
667.057 173.5 M
673.722 169.652 L
673.722 177.348 L
cp
f
GR
GS
[0.75 0 0 0.75 0 0] CT
0.6 0.2 0 RC
10.0 ML
2 LW
N
667.057 173.5 M
673.722 169.652 L
673.722 177.348 L
cp
S
GR
GS
[0.75 0 0 0.75 0 0] CT
1 GC
N
740.057 149.5 M
746.722 145.652 L
746.722 153.348 L
cp
f
GR
GS
[0.75 0 0 0.75 0 0] CT
0.6 0.2 0 RC
10.0 ML
2 LW
N
740.057 149.5 M
746.722 145.652 L
746.722 153.348 L
cp
S
GR
GS
[0.75 0 0 0.75 0 0] CT
0.929 0.694 0.125 RC
1 LJ
2 LW
N
89 419.503 M
161.778 389.785 L
234.556 362.387 L
307.333 337.387 L
380.111 313.782 L
452.889 291.547 L
525.667 270.194 L
598.444 249.674 L
671.222 230.854 L
744 212.511 L
S
GR
GS
[0.75 0 0 0.75 0 0] CT
1 GC
N
86.33 418.47 M
88.716 418.47 L
89.5 416.167 L
90.284 418.47 L
92.67 418.47 L
90.768 419.912 L
91.459 422.197 L
89.5 420.833 L
87.541 422.197 L
88.232 419.912 L
86.33 418.47 L
cp
f
GR
GS
[0.75 0 0 0.75 0 0] CT
0.929 0.694 0.125 RC
10.0 ML
2 LW
N
86.33 418.47 M
88.716 418.47 L
89.5 416.167 L
90.284 418.47 L
92.67 418.47 L
90.768 419.912 L
91.459 422.197 L
89.5 420.833 L
87.541 422.197 L
88.232 419.912 L
cp
S
GR
GS
[0.75 0 0 0.75 0 0] CT
1 GC
N
158.33 388.47 M
160.716 388.47 L
161.5 386.167 L
162.284 388.47 L
164.67 388.47 L
162.768 389.912 L
163.459 392.197 L
161.5 390.833 L
159.541 392.197 L
160.232 389.912 L
158.33 388.47 L
cp
f
GR
GS
[0.75 0 0 0.75 0 0] CT
0.929 0.694 0.125 RC
10.0 ML
2 LW
N
158.33 388.47 M
160.716 388.47 L
161.5 386.167 L
162.284 388.47 L
164.67 388.47 L
162.768 389.912 L
163.459 392.197 L
161.5 390.833 L
159.541 392.197 L
160.232 389.912 L
cp
S
GR
GS
[0.75 0 0 0.75 0 0] CT
1 GC
N
231.33 361.47 M
233.716 361.47 L
234.5 359.167 L
235.284 361.47 L
237.67 361.47 L
235.768 362.912 L
236.459 365.197 L
234.5 363.833 L
232.541 365.197 L
233.232 362.912 L
231.33 361.47 L
cp
f
GR
GS
[0.75 0 0 0.75 0 0] CT
0.929 0.694 0.125 RC
10.0 ML
2 LW
N
231.33 361.47 M
233.716 361.47 L
234.5 359.167 L
235.284 361.47 L
237.67 361.47 L
235.768 362.912 L
236.459 365.197 L
234.5 363.833 L
232.541 365.197 L
233.232 362.912 L
cp
S
GR
GS
[0.75 0 0 0.75 0 0] CT
1 GC
N
304.33 336.47 M
306.716 336.47 L
307.5 334.167 L
308.284 336.47 L
310.67 336.47 L
308.768 337.912 L
309.459 340.197 L
307.5 338.833 L
305.541 340.197 L
306.232 337.912 L
304.33 336.47 L
cp
f
GR
GS
[0.75 0 0 0.75 0 0] CT
0.929 0.694 0.125 RC
10.0 ML
2 LW
N
304.33 336.47 M
306.716 336.47 L
307.5 334.167 L
308.284 336.47 L
310.67 336.47 L
308.768 337.912 L
309.459 340.197 L
307.5 338.833 L
305.541 340.197 L
306.232 337.912 L
cp
S
GR
GS
[0.75 0 0 0.75 0 0] CT
1 GC
N
377.33 312.47 M
379.716 312.47 L
380.5 310.167 L
381.284 312.47 L
383.67 312.47 L
381.768 313.912 L
382.459 316.197 L
380.5 314.833 L
378.541 316.197 L
379.232 313.912 L
377.33 312.47 L
cp
f
GR
GS
[0.75 0 0 0.75 0 0] CT
0.929 0.694 0.125 RC
10.0 ML
2 LW
N
377.33 312.47 M
379.716 312.47 L
380.5 310.167 L
381.284 312.47 L
383.67 312.47 L
381.768 313.912 L
382.459 316.197 L
380.5 314.833 L
378.541 316.197 L
379.232 313.912 L
cp
S
GR
GS
[0.75 0 0 0.75 0 0] CT
1 GC
N
449.33 290.47 M
451.716 290.47 L
452.5 288.167 L
453.284 290.47 L
455.67 290.47 L
453.768 291.912 L
454.459 294.197 L
452.5 292.833 L
450.541 294.197 L
451.232 291.912 L
449.33 290.47 L
cp
f
GR
GS
[0.75 0 0 0.75 0 0] CT
0.929 0.694 0.125 RC
10.0 ML
2 LW
N
449.33 290.47 M
451.716 290.47 L
452.5 288.167 L
453.284 290.47 L
455.67 290.47 L
453.768 291.912 L
454.459 294.197 L
452.5 292.833 L
450.541 294.197 L
451.232 291.912 L
cp
S
GR
GS
[0.75 0 0 0.75 0 0] CT
1 GC
N
522.33 269.47 M
524.716 269.47 L
525.5 267.167 L
526.284 269.47 L
528.67 269.47 L
526.768 270.912 L
527.459 273.197 L
525.5 271.833 L
523.541 273.197 L
524.232 270.912 L
522.33 269.47 L
cp
f
GR
GS
[0.75 0 0 0.75 0 0] CT
0.929 0.694 0.125 RC
10.0 ML
2 LW
N
522.33 269.47 M
524.716 269.47 L
525.5 267.167 L
526.284 269.47 L
528.67 269.47 L
526.768 270.912 L
527.459 273.197 L
525.5 271.833 L
523.541 273.197 L
524.232 270.912 L
cp
S
GR
GS
[0.75 0 0 0.75 0 0] CT
1 GC
N
595.33 248.47 M
597.716 248.47 L
598.5 246.167 L
599.284 248.47 L
601.67 248.47 L
599.768 249.912 L
600.459 252.197 L
598.5 250.833 L
596.541 252.197 L
597.232 249.912 L
595.33 248.47 L
cp
f
GR
GS
[0.75 0 0 0.75 0 0] CT
0.929 0.694 0.125 RC
10.0 ML
2 LW
N
595.33 248.47 M
597.716 248.47 L
598.5 246.167 L
599.284 248.47 L
601.67 248.47 L
599.768 249.912 L
600.459 252.197 L
598.5 250.833 L
596.541 252.197 L
597.232 249.912 L
cp
S
GR
GS
[0.75 0 0 0.75 0 0] CT
1 GC
N
668.33 229.47 M
670.716 229.47 L
671.5 227.167 L
672.284 229.47 L
674.67 229.47 L
672.768 230.912 L
673.459 233.197 L
671.5 231.833 L
669.541 233.197 L
670.232 230.912 L
668.33 229.47 L
cp
f
GR
GS
[0.75 0 0 0.75 0 0] CT
0.929 0.694 0.125 RC
10.0 ML
2 LW
N
668.33 229.47 M
670.716 229.47 L
671.5 227.167 L
672.284 229.47 L
674.67 229.47 L
672.768 230.912 L
673.459 233.197 L
671.5 231.833 L
669.541 233.197 L
670.232 230.912 L
cp
S
GR
GS
[0.75 0 0 0.75 0 0] CT
1 GC
N
741.33 211.47 M
743.716 211.47 L
744.5 209.167 L
745.284 211.47 L
747.67 211.47 L
745.768 212.912 L
746.459 215.197 L
744.5 213.833 L
742.541 215.197 L
743.232 212.912 L
741.33 211.47 L
cp
f
GR
GS
[0.75 0 0 0.75 0 0] CT
0.929 0.694 0.125 RC
10.0 ML
2 LW
N
741.33 211.47 M
743.716 211.47 L
744.5 209.167 L
745.284 211.47 L
747.67 211.47 L
745.768 212.912 L
746.459 215.197 L
744.5 213.833 L
742.541 215.197 L
743.232 212.912 L
cp
S
GR
GS
[0.75 0 0 0.75 0 0] CT
0 1 1 RC
1 LJ
2 LW
N
89 419.503 M
161.778 383.569 L
234.556 350.263 L
307.333 318.926 L
380.111 288.717 L
452.889 259.622 L
525.667 232.374 L
598.444 205.611 L
671.222 180.212 L
744 156.243 L
S
GR
GS
[0.75 0 0 0.75 0 0] CT
1 GC
N
89.5 423.943 M
92.833 419.5 L
89.5 415.057 L
86.167 419.5 L
cp
f
GR
GS
[0.75 0 0 0.75 0 0] CT
0 1 1 RC
10.0 ML
2 LW
N
89.5 423.943 M
92.833 419.5 L
89.5 415.057 L
86.167 419.5 L
cp
S
GR
GS
[0.75 0 0 0.75 0 0] CT
1 GC
N
161.5 387.943 M
164.833 383.5 L
161.5 379.057 L
158.167 383.5 L
cp
f
GR
GS
[0.75 0 0 0.75 0 0] CT
0 1 1 RC
10.0 ML
2 LW
N
161.5 387.943 M
164.833 383.5 L
161.5 379.057 L
158.167 383.5 L
cp
S
GR
GS
[0.75 0 0 0.75 0 0] CT
1 GC
N
234.5 354.943 M
237.833 350.5 L
234.5 346.057 L
231.167 350.5 L
cp
f
GR
GS
[0.75 0 0 0.75 0 0] CT
0 1 1 RC
10.0 ML
2 LW
N
234.5 354.943 M
237.833 350.5 L
234.5 346.057 L
231.167 350.5 L
cp
S
GR
GS
[0.75 0 0 0.75 0 0] CT
1 GC
N
307.5 322.943 M
310.833 318.5 L
307.5 314.057 L
304.167 318.5 L
cp
f
GR
GS
[0.75 0 0 0.75 0 0] CT
0 1 1 RC
10.0 ML
2 LW
N
307.5 322.943 M
310.833 318.5 L
307.5 314.057 L
304.167 318.5 L
cp
S
GR
GS
[0.75 0 0 0.75 0 0] CT
1 GC
N
380.5 292.943 M
383.833 288.5 L
380.5 284.057 L
377.167 288.5 L
cp
f
GR
GS
[0.75 0 0 0.75 0 0] CT
0 1 1 RC
10.0 ML
2 LW
N
380.5 292.943 M
383.833 288.5 L
380.5 284.057 L
377.167 288.5 L
cp
S
GR
GS
[0.75 0 0 0.75 0 0] CT
1 GC
N
452.5 263.943 M
455.833 259.5 L
452.5 255.057 L
449.167 259.5 L
cp
f
GR
GS
[0.75 0 0 0.75 0 0] CT
0 1 1 RC
10.0 ML
2 LW
N
452.5 263.943 M
455.833 259.5 L
452.5 255.057 L
449.167 259.5 L
cp
S
GR
GS
[0.75 0 0 0.75 0 0] CT
1 GC
N
525.5 236.943 M
528.833 232.5 L
525.5 228.057 L
522.167 232.5 L
cp
f
GR
GS
[0.75 0 0 0.75 0 0] CT
0 1 1 RC
10.0 ML
2 LW
N
525.5 236.943 M
528.833 232.5 L
525.5 228.057 L
522.167 232.5 L
cp
S
GR
GS
[0.75 0 0 0.75 0 0] CT
1 GC
N
598.5 209.943 M
601.833 205.5 L
598.5 201.057 L
595.167 205.5 L
cp
f
GR
GS
[0.75 0 0 0.75 0 0] CT
0 1 1 RC
10.0 ML
2 LW
N
598.5 209.943 M
601.833 205.5 L
598.5 201.057 L
595.167 205.5 L
cp
S
GR
GS
[0.75 0 0 0.75 0 0] CT
1 GC
N
671.5 184.943 M
674.833 180.5 L
671.5 176.057 L
668.167 180.5 L
cp
f
GR
GS
[0.75 0 0 0.75 0 0] CT
0 1 1 RC
10.0 ML
2 LW
N
671.5 184.943 M
674.833 180.5 L
671.5 176.057 L
668.167 180.5 L
cp
S
GR
GS
[0.75 0 0 0.75 0 0] CT
1 GC
N
744.5 160.943 M
747.833 156.5 L
744.5 152.057 L
741.167 156.5 L
cp
f
GR
GS
[0.75 0 0 0.75 0 0] CT
0 1 1 RC
10.0 ML
2 LW
N
744.5 160.943 M
747.833 156.5 L
744.5 152.057 L
741.167 156.5 L
cp
S
GR
GS
[0.75 0 0 0.75 0 0] CT
0 1 0 RC
1 LJ
2 LW
N
89 419.503 M
161.778 380.809 L
234.556 344.089 L
307.333 308.534 L
380.111 274.051 L
452.889 241.2 L
525.667 209.587 L
598.444 179.21 L
671.222 150.187 L
744 122.134 L
S
GR
GS
[0.75 0 0 0.75 0 0] CT
1 GC
N
86.9 422.1 M
86.9 416.9 L
92.1 416.9 L
92.1 422.1 L
cp
f
GR
GS
[0.75 0 0 0.75 0 0] CT
0 1 0 RC
10.0 ML
2 LW
N
86.9 422.1 M
86.9 416.9 L
92.1 416.9 L
92.1 422.1 L
cp
S
GR
GS
[0.75 0 0 0.75 0 0] CT
1 GC
N
158.9 383.1 M
158.9 377.9 L
164.1 377.9 L
164.1 383.1 L
cp
f
GR
GS
[0.75 0 0 0.75 0 0] CT
0 1 0 RC
10.0 ML
2 LW
N
158.9 383.1 M
158.9 377.9 L
164.1 377.9 L
164.1 383.1 L
cp
S
GR
GS
[0.75 0 0 0.75 0 0] CT
1 GC
N
231.9 347.1 M
231.9 341.9 L
237.1 341.9 L
237.1 347.1 L
cp
f
GR
GS
[0.75 0 0 0.75 0 0] CT
0 1 0 RC
10.0 ML
2 LW
N
231.9 347.1 M
231.9 341.9 L
237.1 341.9 L
237.1 347.1 L
cp
S
GR
GS
[0.75 0 0 0.75 0 0] CT
1 GC
N
304.9 311.1 M
304.9 305.9 L
310.1 305.9 L
310.1 311.1 L
cp
f
GR
GS
[0.75 0 0 0.75 0 0] CT
0 1 0 RC
10.0 ML
2 LW
N
304.9 311.1 M
304.9 305.9 L
310.1 305.9 L
310.1 311.1 L
cp
S
GR
GS
[0.75 0 0 0.75 0 0] CT
1 GC
N
377.9 277.1 M
377.9 271.9 L
383.1 271.9 L
383.1 277.1 L
cp
f
GR
GS
[0.75 0 0 0.75 0 0] CT
0 1 0 RC
10.0 ML
2 LW
N
377.9 277.1 M
377.9 271.9 L
383.1 271.9 L
383.1 277.1 L
cp
S
GR
GS
[0.75 0 0 0.75 0 0] CT
1 GC
N
449.9 244.1 M
449.9 238.9 L
455.1 238.9 L
455.1 244.1 L
cp
f
GR
GS
[0.75 0 0 0.75 0 0] CT
0 1 0 RC
10.0 ML
2 LW
N
449.9 244.1 M
449.9 238.9 L
455.1 238.9 L
455.1 244.1 L
cp
S
GR
GS
[0.75 0 0 0.75 0 0] CT
1 GC
N
522.9 212.1 M
522.9 206.9 L
528.1 206.9 L
528.1 212.1 L
cp
f
GR
GS
[0.75 0 0 0.75 0 0] CT
0 1 0 RC
10.0 ML
2 LW
N
522.9 212.1 M
522.9 206.9 L
528.1 206.9 L
528.1 212.1 L
cp
S
GR
GS
[0.75 0 0 0.75 0 0] CT
1 GC
N
595.9 182.1 M
595.9 176.9 L
601.1 176.9 L
601.1 182.1 L
cp
f
GR
GS
[0.75 0 0 0.75 0 0] CT
0 1 0 RC
10.0 ML
2 LW
N
595.9 182.1 M
595.9 176.9 L
601.1 176.9 L
601.1 182.1 L
cp
S
GR
GS
[0.75 0 0 0.75 0 0] CT
1 GC
N
668.9 153.1 M
668.9 147.9 L
674.1 147.9 L
674.1 153.1 L
cp
f
GR
GS
[0.75 0 0 0.75 0 0] CT
0 1 0 RC
10.0 ML
2 LW
N
668.9 153.1 M
668.9 147.9 L
674.1 147.9 L
674.1 153.1 L
cp
S
GR
GS
[0.75 0 0 0.75 0 0] CT
1 GC
N
741.9 125.1 M
741.9 119.9 L
747.1 119.9 L
747.1 125.1 L
cp
f
GR
GS
[0.75 0 0 0.75 0 0] CT
0 1 0 RC
10.0 ML
2 LW
N
741.9 125.1 M
741.9 119.9 L
747.1 119.9 L
747.1 125.1 L
cp
S
GR
GS
[0.75 0 0 0.75 0 0] CT
0 0 1 RC
1 LJ
2 LW
N
89 419.503 M
161.778 388.463 L
234.556 360.825 L
307.333 334.964 L
380.111 310.34 L
452.889 287.355 L
525.667 265.419 L
598.444 244.722 L
671.222 225.155 L
744 206.674 L
S
GR
GS
[0.75 0 0 0.75 0 0] CT
1 GC
N
85.057 419.5 M
91.722 415.652 L
91.722 423.348 L
cp
f
GR
GS
[0.75 0 0 0.75 0 0] CT
0 0 1 RC
10.0 ML
2 LW
N
85.057 419.5 M
91.722 415.652 L
91.722 423.348 L
cp
S
GR
GS
[0.75 0 0 0.75 0 0] CT
1 GC
N
157.057 388.5 M
163.722 384.652 L
163.722 392.348 L
cp
f
GR
GS
[0.75 0 0 0.75 0 0] CT
0 0 1 RC
10.0 ML
2 LW
N
157.057 388.5 M
163.722 384.652 L
163.722 392.348 L
cp
S
GR
GS
[0.75 0 0 0.75 0 0] CT
1 GC
N
230.057 360.5 M
236.722 356.652 L
236.722 364.348 L
cp
f
GR
GS
[0.75 0 0 0.75 0 0] CT
0 0 1 RC
10.0 ML
2 LW
N
230.057 360.5 M
236.722 356.652 L
236.722 364.348 L
cp
S
GR
GS
[0.75 0 0 0.75 0 0] CT
1 GC
N
303.057 334.5 M
309.722 330.652 L
309.722 338.348 L
cp
f
GR
GS
[0.75 0 0 0.75 0 0] CT
0 0 1 RC
10.0 ML
2 LW
N
303.057 334.5 M
309.722 330.652 L
309.722 338.348 L
cp
S
GR
GS
[0.75 0 0 0.75 0 0] CT
1 GC
N
376.057 310.5 M
382.722 306.652 L
382.722 314.348 L
cp
f
GR
GS
[0.75 0 0 0.75 0 0] CT
0 0 1 RC
10.0 ML
2 LW
N
376.057 310.5 M
382.722 306.652 L
382.722 314.348 L
cp
S
GR
GS
[0.75 0 0 0.75 0 0] CT
1 GC
N
448.057 287.5 M
454.722 283.652 L
454.722 291.348 L
cp
f
GR
GS
[0.75 0 0 0.75 0 0] CT
0 0 1 RC
10.0 ML
2 LW
N
448.057 287.5 M
454.722 283.652 L
454.722 291.348 L
cp
S
GR
GS
[0.75 0 0 0.75 0 0] CT
1 GC
N
521.057 265.5 M
527.722 261.652 L
527.722 269.348 L
cp
f
GR
GS
[0.75 0 0 0.75 0 0] CT
0 0 1 RC
10.0 ML
2 LW
N
521.057 265.5 M
527.722 261.652 L
527.722 269.348 L
cp
S
GR
GS
[0.75 0 0 0.75 0 0] CT
1 GC
N
594.057 244.5 M
600.722 240.652 L
600.722 248.348 L
cp
f
GR
GS
[0.75 0 0 0.75 0 0] CT
0 0 1 RC
10.0 ML
2 LW
N
594.057 244.5 M
600.722 240.652 L
600.722 248.348 L
cp
S
GR
GS
[0.75 0 0 0.75 0 0] CT
1 GC
N
667.057 225.5 M
673.722 221.652 L
673.722 229.348 L
cp
f
GR
GS
[0.75 0 0 0.75 0 0] CT
0 0 1 RC
10.0 ML
2 LW
N
667.057 225.5 M
673.722 221.652 L
673.722 229.348 L
cp
S
GR
GS
[0.75 0 0 0.75 0 0] CT
1 GC
N
740.057 206.5 M
746.722 202.652 L
746.722 210.348 L
cp
f
GR
GS
[0.75 0 0 0.75 0 0] CT
0 0 1 RC
10.0 ML
2 LW
N
740.057 206.5 M
746.722 202.652 L
746.722 210.348 L
cp
S
GR
GS
[0.75 0 0 0.75 0 0] CT
1 0 1 RC
1 LJ
2 LW
N
89 419.503 M
161.778 379.661 L
234.556 341.606 L
307.333 304.926 L
380.111 269.673 L
452.889 235.522 L
525.667 202.511 L
598.444 170.601 L
671.222 139.717 L
744 110.28 L
S
GR
GS
[0.75 0 0 0.75 0 0] CT
1 0 1 RC
1 LJ
2 LW
N
86 419.5 M
93 419.5 L
S
GR
GS
[0.75 0 0 0.75 0 0] CT
1 0 1 RC
1 LJ
2 LW
N
89.5 423 M
89.5 416 L
S
GR
GS
[0.75 0 0 0.75 0 0] CT
1 0 1 RC
1 LJ
2 LW
N
158 379.5 M
165 379.5 L
S
GR
GS
[0.75 0 0 0.75 0 0] CT
1 0 1 RC
1 LJ
2 LW
N
161.5 383 M
161.5 376 L
S
GR
GS
[0.75 0 0 0.75 0 0] CT
1 0 1 RC
1 LJ
2 LW
N
231 341.5 M
238 341.5 L
S
GR
GS
[0.75 0 0 0.75 0 0] CT
1 0 1 RC
1 LJ
2 LW
N
234.5 345 M
234.5 338 L
S
GR
GS
[0.75 0 0 0.75 0 0] CT
1 0 1 RC
1 LJ
2 LW
N
304 304.5 M
311 304.5 L
S
GR
GS
[0.75 0 0 0.75 0 0] CT
1 0 1 RC
1 LJ
2 LW
N
307.5 308 M
307.5 301 L
S
GR
GS
[0.75 0 0 0.75 0 0] CT
1 0 1 RC
1 LJ
2 LW
N
377 269.5 M
384 269.5 L
S
GR
GS
[0.75 0 0 0.75 0 0] CT
1 0 1 RC
1 LJ
2 LW
N
380.5 273 M
380.5 266 L
S
GR
GS
[0.75 0 0 0.75 0 0] CT
1 0 1 RC
1 LJ
2 LW
N
449 235.5 M
456 235.5 L
S
GR
GS
[0.75 0 0 0.75 0 0] CT
1 0 1 RC
1 LJ
2 LW
N
452.5 239 M
452.5 232 L
S
GR
GS
[0.75 0 0 0.75 0 0] CT
1 0 1 RC
1 LJ
2 LW
N
522 202.5 M
529 202.5 L
S
GR
GS
[0.75 0 0 0.75 0 0] CT
1 0 1 RC
1 LJ
2 LW
N
525.5 206 M
525.5 199 L
S
GR
GS
[0.75 0 0 0.75 0 0] CT
1 0 1 RC
1 LJ
2 LW
N
595 170.5 M
602 170.5 L
S
GR
GS
[0.75 0 0 0.75 0 0] CT
1 0 1 RC
1 LJ
2 LW
N
598.5 174 M
598.5 167 L
S
GR
GS
[0.75 0 0 0.75 0 0] CT
1 0 1 RC
1 LJ
2 LW
N
668 139.5 M
675 139.5 L
S
GR
GS
[0.75 0 0 0.75 0 0] CT
1 0 1 RC
1 LJ
2 LW
N
671.5 143 M
671.5 136 L
S
GR
GS
[0.75 0 0 0.75 0 0] CT
1 0 1 RC
1 LJ
2 LW
N
741 110.5 M
748 110.5 L
S
GR
GS
[0.75 0 0 0.75 0 0] CT
1 0 1 RC
1 LJ
2 LW
N
744.5 114 M
744.5 107 L
S
GR
GS
[0.75 0 0 0.75 0 0] CT
1 0 0 RC
1 LJ
2 LW
N
89 419.503 M
161.778 378.202 L
234.556 337.999 L
307.333 299.031 L
380.111 260.705 L
452.889 222.845 L
525.667 185.963 L
598.444 149.808 L
671.222 114.218 L
744 79.674 L
S
GR
GS
[0.75 0 0 0.75 0 0] CT
1 GC
N
86.9 422.1 M
86.9 416.9 L
92.1 416.9 L
92.1 422.1 L
cp
f
GR
GS
[0.75 0 0 0.75 0 0] CT
1 0 0 RC
10.0 ML
2 LW
N
86.9 422.1 M
86.9 416.9 L
92.1 416.9 L
92.1 422.1 L
cp
S
GR
GS
[0.75 0 0 0.75 0 0] CT
1 GC
N
158.9 381.1 M
158.9 375.9 L
164.1 375.9 L
164.1 381.1 L
cp
f
GR
GS
[0.75 0 0 0.75 0 0] CT
1 0 0 RC
10.0 ML
2 LW
N
158.9 381.1 M
158.9 375.9 L
164.1 375.9 L
164.1 381.1 L
cp
S
GR
GS
[0.75 0 0 0.75 0 0] CT
1 GC
N
231.9 340.1 M
231.9 334.9 L
237.1 334.9 L
237.1 340.1 L
cp
f
GR
GS
[0.75 0 0 0.75 0 0] CT
1 0 0 RC
10.0 ML
2 LW
N
231.9 340.1 M
231.9 334.9 L
237.1 334.9 L
237.1 340.1 L
cp
S
GR
GS
[0.75 0 0 0.75 0 0] CT
1 GC
N
304.9 302.1 M
304.9 296.9 L
310.1 296.9 L
310.1 302.1 L
cp
f
GR
GS
[0.75 0 0 0.75 0 0] CT
1 0 0 RC
10.0 ML
2 LW
N
304.9 302.1 M
304.9 296.9 L
310.1 296.9 L
310.1 302.1 L
cp
S
GR
GS
[0.75 0 0 0.75 0 0] CT
1 GC
N
377.9 263.1 M
377.9 257.9 L
383.1 257.9 L
383.1 263.1 L
cp
f
GR
GS
[0.75 0 0 0.75 0 0] CT
1 0 0 RC
10.0 ML
2 LW
N
377.9 263.1 M
377.9 257.9 L
383.1 257.9 L
383.1 263.1 L
cp
S
GR
GS
[0.75 0 0 0.75 0 0] CT
1 GC
N
449.9 225.1 M
449.9 219.9 L
455.1 219.9 L
455.1 225.1 L
cp
f
GR
GS
[0.75 0 0 0.75 0 0] CT
1 0 0 RC
10.0 ML
2 LW
N
449.9 225.1 M
449.9 219.9 L
455.1 219.9 L
455.1 225.1 L
cp
S
GR
GS
[0.75 0 0 0.75 0 0] CT
1 GC
N
522.9 188.1 M
522.9 182.9 L
528.1 182.9 L
528.1 188.1 L
cp
f
GR
GS
[0.75 0 0 0.75 0 0] CT
1 0 0 RC
10.0 ML
2 LW
N
522.9 188.1 M
522.9 182.9 L
528.1 182.9 L
528.1 188.1 L
cp
S
GR
GS
[0.75 0 0 0.75 0 0] CT
1 GC
N
595.9 152.1 M
595.9 146.9 L
601.1 146.9 L
601.1 152.1 L
cp
f
GR
GS
[0.75 0 0 0.75 0 0] CT
1 0 0 RC
10.0 ML
2 LW
N
595.9 152.1 M
595.9 146.9 L
601.1 146.9 L
601.1 152.1 L
cp
S
GR
GS
[0.75 0 0 0.75 0 0] CT
1 GC
N
668.9 117.1 M
668.9 111.9 L
674.1 111.9 L
674.1 117.1 L
cp
f
GR
GS
[0.75 0 0 0.75 0 0] CT
1 0 0 RC
10.0 ML
2 LW
N
668.9 117.1 M
668.9 111.9 L
674.1 111.9 L
674.1 117.1 L
cp
S
GR
GS
[0.75 0 0 0.75 0 0] CT
1 GC
N
741.9 82.1 M
741.9 76.9 L
747.1 76.9 L
747.1 82.1 L
cp
f
GR
GS
[0.75 0 0 0.75 0 0] CT
1 0 0 RC
10.0 ML
2 LW
N
741.9 82.1 M
741.9 76.9 L
747.1 76.9 L
747.1 82.1 L
cp
S
GR
GS
[0.75 0 0 0.75 0 0] CT
1 LJ
2 LW
N
89 419.503 M
161.778 376.973 L
234.556 334.6 L
307.333 293.691 L
380.111 252.947 L
452.889 212.42 L
525.667 172.305 L
598.444 132.591 L
671.222 93.247 L
744 54.279 L
S
GR
GS
[0.75 0 0 0.75 0 0] CT
1 GC
N
92.833 419.5 M
91.857 417.143 L
89.5 416.167 L
87.143 417.143 L
86.167 419.5 L
87.143 421.857 L
89.5 422.833 L
91.857 421.857 L
92.833 419.5 L
cp
f
GR
GS
[0.75 0 0 0.75 0 0] CT
1 LJ
2 LW
N
92.833 419.5 M
92.197 417.541 L
90.53 416.33 L
88.47 416.33 L
86.803 417.541 L
86.167 419.5 L
86.803 421.459 L
88.47 422.67 L
90.53 422.67 L
92.197 421.459 L
cp
S
GR
GS
[0.75 0 0 0.75 0 0] CT
1 GC
N
164.833 376.5 M
163.857 374.143 L
161.5 373.167 L
159.143 374.143 L
158.167 376.5 L
159.143 378.857 L
161.5 379.833 L
163.857 378.857 L
164.833 376.5 L
cp
f
GR
GS
[0.75 0 0 0.75 0 0] CT
1 LJ
2 LW
N
164.833 376.5 M
164.197 374.541 L
162.53 373.33 L
160.47 373.33 L
158.803 374.541 L
158.167 376.5 L
158.803 378.459 L
160.47 379.67 L
162.53 379.67 L
164.197 378.459 L
cp
S
GR
GS
[0.75 0 0 0.75 0 0] CT
1 GC
N
237.833 334.5 M
236.857 332.143 L
234.5 331.167 L
232.143 332.143 L
231.167 334.5 L
232.143 336.857 L
234.5 337.833 L
236.857 336.857 L
237.833 334.5 L
cp
f
GR
GS
[0.75 0 0 0.75 0 0] CT
1 LJ
2 LW
N
237.833 334.5 M
237.197 332.541 L
235.53 331.33 L
233.47 331.33 L
231.803 332.541 L
231.167 334.5 L
231.803 336.459 L
233.47 337.67 L
235.53 337.67 L
237.197 336.459 L
cp
S
GR
GS
[0.75 0 0 0.75 0 0] CT
1 GC
N
310.833 293.5 M
309.857 291.143 L
307.5 290.167 L
305.143 291.143 L
304.167 293.5 L
305.143 295.857 L
307.5 296.833 L
309.857 295.857 L
310.833 293.5 L
cp
f
GR
GS
[0.75 0 0 0.75 0 0] CT
1 LJ
2 LW
N
310.833 293.5 M
310.197 291.541 L
308.53 290.33 L
306.47 290.33 L
304.803 291.541 L
304.167 293.5 L
304.803 295.459 L
306.47 296.67 L
308.53 296.67 L
310.197 295.459 L
cp
S
GR
GS
[0.75 0 0 0.75 0 0] CT
1 GC
N
383.833 252.5 M
382.857 250.143 L
380.5 249.167 L
378.143 250.143 L
377.167 252.5 L
378.143 254.857 L
380.5 255.833 L
382.857 254.857 L
383.833 252.5 L
cp
f
GR
GS
[0.75 0 0 0.75 0 0] CT
1 LJ
2 LW
N
383.833 252.5 M
383.197 250.541 L
381.53 249.33 L
379.47 249.33 L
377.803 250.541 L
377.167 252.5 L
377.803 254.459 L
379.47 255.67 L
381.53 255.67 L
383.197 254.459 L
cp
S
GR
GS
[0.75 0 0 0.75 0 0] CT
1 GC
N
455.833 212.5 M
454.857 210.143 L
452.5 209.167 L
450.143 210.143 L
449.167 212.5 L
450.143 214.857 L
452.5 215.833 L
454.857 214.857 L
455.833 212.5 L
cp
f
GR
GS
[0.75 0 0 0.75 0 0] CT
1 LJ
2 LW
N
455.833 212.5 M
455.197 210.541 L
453.53 209.33 L
451.47 209.33 L
449.803 210.541 L
449.167 212.5 L
449.803 214.459 L
451.47 215.67 L
453.53 215.67 L
455.197 214.459 L
cp
S
GR
GS
[0.75 0 0 0.75 0 0] CT
1 GC
N
528.833 172.5 M
527.857 170.143 L
525.5 169.167 L
523.143 170.143 L
522.167 172.5 L
523.143 174.857 L
525.5 175.833 L
527.857 174.857 L
528.833 172.5 L
cp
f
GR
GS
[0.75 0 0 0.75 0 0] CT
1 LJ
2 LW
N
528.833 172.5 M
528.197 170.541 L
526.53 169.33 L
524.47 169.33 L
522.803 170.541 L
522.167 172.5 L
522.803 174.459 L
524.47 175.67 L
526.53 175.67 L
528.197 174.459 L
cp
S
GR
GS
[0.75 0 0 0.75 0 0] CT
1 GC
N
601.833 132.5 M
600.857 130.143 L
598.5 129.167 L
596.143 130.143 L
595.167 132.5 L
596.143 134.857 L
598.5 135.833 L
600.857 134.857 L
601.833 132.5 L
cp
f
GR
GS
[0.75 0 0 0.75 0 0] CT
1 LJ
2 LW
N
601.833 132.5 M
601.197 130.541 L
599.53 129.33 L
597.47 129.33 L
595.803 130.541 L
595.167 132.5 L
595.803 134.459 L
597.47 135.67 L
599.53 135.67 L
601.197 134.459 L
cp
S
GR
GS
[0.75 0 0 0.75 0 0] CT
1 GC
N
674.833 93.5 M
673.857 91.143 L
671.5 90.167 L
669.143 91.143 L
668.167 93.5 L
669.143 95.857 L
671.5 96.833 L
673.857 95.857 L
674.833 93.5 L
cp
f
GR
GS
[0.75 0 0 0.75 0 0] CT
1 LJ
2 LW
N
674.833 93.5 M
674.197 91.541 L
672.53 90.33 L
670.47 90.33 L
668.803 91.541 L
668.167 93.5 L
668.803 95.459 L
670.47 96.67 L
672.53 96.67 L
674.197 95.459 L
cp
S
GR
GS
[0.75 0 0 0.75 0 0] CT
1 GC
N
747.833 54.5 M
746.857 52.143 L
744.5 51.167 L
742.143 52.143 L
741.167 54.5 L
742.143 56.857 L
744.5 57.833 L
746.857 56.857 L
747.833 54.5 L
cp
f
GR
GS
[0.75 0 0 0.75 0 0] CT
1 LJ
2 LW
N
747.833 54.5 M
747.197 52.541 L
745.53 51.33 L
743.47 51.33 L
741.803 52.541 L
741.167 54.5 L
741.803 56.459 L
743.47 57.67 L
745.53 57.67 L
747.197 56.459 L
cp
S
GR
GS
[0.75 0 0 0.75 0 0] CT
1 GC
N
102 333 M
102 64 L
208 64 L
208 333 L
cp
f
GR
GS
[0.75 0 0 0.75 104.25 60.37501] CT
/Times 24 F
GS
[1 0 0 1 0 0] CT
0 8.5 moveto 
1 -1 scale
(LBP) t 
GR
GR
GS
[0.75 0 0 0.75 0 0] CT
1 0.6 0.784 RC
1 LJ
2 LW
N
106 80.5 M
136 80.5 L
S
GR
GS
[0.75 0 0 0.75 0 0] CT
1 GC
N
119.278 76.652 M
125.943 80.5 L
119.278 84.348 L
cp
f
GR
GS
[0.75 0 0 0.75 0 0] CT
1 0.6 0.784 RC
10.0 ML
2 LW
N
119.278 76.652 M
125.943 80.5 L
119.278 84.348 L
cp
S
GR
GS
[0.75 0 0 0.75 104.25 82.49999] CT
/Times 24 F
GS
[1 0 0 1 0 0] CT
0 8.5 moveto 
1 -1 scale
(LTP) t 
GR
GR
GS
[0.75 0 0 0.75 0 0] CT
0.6 0.2 0 RC
1 LJ
2 LW
N
106 110 M
136 110 L
S
GR
GS
[0.75 0 0 0.75 0 0] CT
1 GC
N
117.057 109.5 M
123.722 105.652 L
123.722 113.348 L
cp
f
GR
GS
[0.75 0 0 0.75 0 0] CT
0.6 0.2 0 RC
10.0 ML
2 LW
N
117.057 109.5 M
123.722 105.652 L
123.722 113.348 L
cp
S
GR
GS
[0.75 0 0 0.75 104.25 104.625] CT
/Times 24 F
GS
[1 0 0 1 0 0] CT
0 8.5 moveto 
1 -1 scale
(LDP) t 
GR
GR
GS
[0.75 0 0 0.75 0 0] CT
0.929 0.694 0.125 RC
1 LJ
2 LW
N
106 139.5 M
136 139.5 L
S
GR
GS
[0.75 0 0 0.75 0 0] CT
1 GC
N
118.33 138.47 M
120.716 138.47 L
121.5 136.167 L
122.284 138.47 L
124.67 138.47 L
122.768 139.912 L
123.459 142.197 L
121.5 140.833 L
119.541 142.197 L
120.232 139.912 L
118.33 138.47 L
cp
f
GR
GS
[0.75 0 0 0.75 0 0] CT
0.929 0.694 0.125 RC
10.0 ML
2 LW
N
118.33 138.47 M
120.716 138.47 L
121.5 136.167 L
122.284 138.47 L
124.67 138.47 L
122.768 139.912 L
123.459 142.197 L
121.5 140.833 L
119.541 142.197 L
120.232 139.912 L
cp
S
GR
GS
[0.75 0 0 0.75 104.25 126.75] CT
/Times 24 F
GS
[1 0 0 1 0 0] CT
0 8.5 moveto 
1 -1 scale
(LDN) t 
GR
GR
GS
[0.75 0 0 0.75 0 0] CT
0 1 1 RC
1 LJ
2 LW
N
106 169 M
136 169 L
S
GR
GS
[0.75 0 0 0.75 0 0] CT
1 GC
N
121.5 172.943 M
124.833 168.5 L
121.5 164.057 L
118.167 168.5 L
cp
f
GR
GS
[0.75 0 0 0.75 0 0] CT
0 1 1 RC
10.0 ML
2 LW
N
121.5 172.943 M
124.833 168.5 L
121.5 164.057 L
118.167 168.5 L
cp
S
GR
GS
[0.75 0 0 0.75 104.25 148.875] CT
/Times 24 F
GS
[1 0 0 1 0 0] CT
0 8.5 moveto 
1 -1 scale
(LVP) t 
GR
GR
GS
[0.75 0 0 0.75 0 0] CT
0 1 0 RC
1 LJ
2 LW
N
106 198.5 M
136 198.5 L
S
GR
GS
[0.75 0 0 0.75 0 0] CT
1 GC
N
118.9 201.1 M
118.9 195.9 L
124.1 195.9 L
124.1 201.1 L
cp
f
GR
GS
[0.75 0 0 0.75 0 0] CT
0 1 0 RC
10.0 ML
2 LW
N
118.9 201.1 M
118.9 195.9 L
124.1 195.9 L
124.1 201.1 L
cp
S
GR
GS
[0.75 0 0 0.75 104.25 171] CT
/Times 24 F
GS
[1 0 0 1 0 0] CT
0 8.5 moveto 
1 -1 scale
(LDGP) t 
GR
GR
GS
[0.75 0 0 0.75 0 0] CT
0 0 1 RC
1 LJ
2 LW
N
106 228 M
136 228 L
S
GR
GS
[0.75 0 0 0.75 0 0] CT
1 GC
N
117.057 227.5 M
123.722 223.652 L
123.722 231.348 L
cp
f
GR
GS
[0.75 0 0 0.75 0 0] CT
0 0 1 RC
10.0 ML
2 LW
N
117.057 227.5 M
123.722 223.652 L
123.722 231.348 L
cp
S
GR
GS
[0.75 0 0 0.75 104.25 193.125] CT
/Times 24 F
GS
[1 0 0 1 0 0] CT
0 8.5 moveto 
1 -1 scale
(DCP) t 
GR
GR
GS
[0.75 0 0 0.75 0 0] CT
1 0 1 RC
1 LJ
2 LW
N
106 257.5 M
136 257.5 L
S
GR
GS
[0.75 0 0 0.75 0 0] CT
1 0 1 RC
1 LJ
2 LW
N
118 257.5 M
125 257.5 L
S
GR
GS
[0.75 0 0 0.75 0 0] CT
1 0 1 RC
1 LJ
2 LW
N
121.5 261 M
121.5 254 L
S
GR
GS
[0.75 0 0 0.75 104.25 215.25] CT
/Times 24 F
GS
[1 0 0 1 0 0] CT
0 8.5 moveto 
1 -1 scale
(LGHP) t 
GR
GR
GS
[0.75 0 0 0.75 0 0] CT
1 0 0 RC
1 LJ
2 LW
N
106 287 M
136 287 L
S
GR
GS
[0.75 0 0 0.75 0 0] CT
1 GC
N
118.9 290.1 M
118.9 284.9 L
124.1 284.9 L
124.1 290.1 L
cp
f
GR
GS
[0.75 0 0 0.75 0 0] CT
1 0 0 RC
10.0 ML
2 LW
N
118.9 290.1 M
118.9 284.9 L
124.1 284.9 L
124.1 290.1 L
cp
S
GR
GS
[0.75 0 0 0.75 104.25 237.375] CT
/Times 24 F
GS
[1 0 0 1 0 0] CT
0 8.5 moveto 
1 -1 scale
(LDRP) t 
GR
GR
GS
[0.75 0 0 0.75 0 0] CT
1 LJ
2 LW
N
106 316.5 M
136 316.5 L
S
GR
GS
[0.75 0 0 0.75 0 0] CT
1 GC
N
124.833 316.5 M
123.857 314.143 L
121.5 313.167 L
119.143 314.143 L
118.167 316.5 L
119.143 318.857 L
121.5 319.833 L
123.857 318.857 L
124.833 316.5 L
cp
f
GR
GS
[0.75 0 0 0.75 0 0] CT
1 LJ
2 LW
N
124.833 316.5 M
124.197 314.541 L
122.53 313.33 L
120.47 313.33 L
118.803 314.541 L
118.167 316.5 L
118.803 318.459 L
120.47 319.67 L
122.53 319.67 L
124.197 318.459 L
cp
S
GR
GS
[0.75 0 0 0.75 0 0] CT
0.149 GC
10.0 ML
0.667 LW
N
102 333 M
102 64 L
208 64 L
208 333 L
cp
S
GR
%%Trailer
%%Pages: 1
%%EOF
