%!PS-Adobe-3.0 EPSF-3.0
%%Creator: (MATLAB, The Mathworks, Inc. Version 9.0.0.341360 \(R2016a\). Operating System: Linux)
%%Title: (/home/shivram/main/Work/1. Research/1. Ongoing/5. LDRP Face/2. Exp/1. Results/ESSEXCropped/essex-anmrr.eps)
%%CreationDate: 2017-08-17T17:17:48
%%Pages: (atend)
%%BoundingBox: 0 0 573 384
%%LanguageLevel: 3
%%EndComments
%%BeginProlog
%%BeginResource: procset (Apache XML Graphics Std ProcSet) 1.2 0
%%Version: 1.2 0
%%Copyright: (Copyright 2001-2003,2010 The Apache Software Foundation. License terms: http://www.apache.org/licenses/LICENSE-2.0)
/bd{bind def}bind def
/ld{load def}bd
/GR/grestore ld
/M/moveto ld
/LJ/setlinejoin ld
/C/curveto ld
/f/fill ld
/LW/setlinewidth ld
/GC/setgray ld
/t/show ld
/N/newpath ld
/CT/concat ld
/cp/closepath ld
/S/stroke ld
/L/lineto ld
/CC/setcmykcolor ld
/A/ashow ld
/GS/gsave ld
/RC/setrgbcolor ld
/RM/rmoveto ld
/ML/setmiterlimit ld
/re {4 2 roll M
1 index 0 rlineto
0 exch rlineto
neg 0 rlineto
cp } bd
/_ctm matrix def
/_tm matrix def
/BT { _ctm currentmatrix pop matrix _tm copy pop 0 0 moveto } bd
/ET { _ctm setmatrix } bd
/iTm { _ctm setmatrix _tm concat } bd
/Tm { _tm astore pop iTm 0 0 moveto } bd
/ux 0.0 def
/uy 0.0 def
/F {
  /Tp exch def
  /Tf exch def
  Tf findfont Tp scalefont setfont
  /cf Tf def  /cs Tp def
} bd
/ULS {currentpoint /uy exch def /ux exch def} bd
/ULE {
  /Tcx currentpoint pop def
  gsave
  newpath
  cf findfont cs scalefont dup
  /FontMatrix get 0 get /Ts exch def /FontInfo get dup
  /UnderlinePosition get Ts mul /To exch def
  /UnderlineThickness get Ts mul /Tt exch def
  ux uy To add moveto  Tcx uy To add lineto
  Tt setlinewidth stroke
  grestore
} bd
/OLE {
  /Tcx currentpoint pop def
  gsave
  newpath
  cf findfont cs scalefont dup
  /FontMatrix get 0 get /Ts exch def /FontInfo get dup
  /UnderlinePosition get Ts mul /To exch def
  /UnderlineThickness get Ts mul /Tt exch def
  ux uy To add cs add moveto Tcx uy To add cs add lineto
  Tt setlinewidth stroke
  grestore
} bd
/SOE {
  /Tcx currentpoint pop def
  gsave
  newpath
  cf findfont cs scalefont dup
  /FontMatrix get 0 get /Ts exch def /FontInfo get dup
  /UnderlinePosition get Ts mul /To exch def
  /UnderlineThickness get Ts mul /Tt exch def
  ux uy To add cs 10 mul 26 idiv add moveto Tcx uy To add cs 10 mul 26 idiv add lineto
  Tt setlinewidth stroke
  grestore
} bd
/QT {
/Y22 exch store
/X22 exch store
/Y21 exch store
/X21 exch store
currentpoint
/Y21 load 2 mul add 3 div exch
/X21 load 2 mul add 3 div exch
/X21 load 2 mul /X22 load add 3 div
/Y21 load 2 mul /Y22 load add 3 div
/X22 load /Y22 load curveto
} bd
/SSPD {
dup length /d exch dict def
{
/v exch def
/k exch def
currentpagedevice k known {
/cpdv currentpagedevice k get def
v cpdv ne {
/upd false def
/nullv v type /nulltype eq def
/nullcpdv cpdv type /nulltype eq def
nullv nullcpdv or
{
/upd true def
} {
/sametype v type cpdv type eq def
sametype {
v type /arraytype eq {
/vlen v length def
/cpdvlen cpdv length def
vlen cpdvlen eq {
0 1 vlen 1 sub {
/i exch def
/obj v i get def
/cpdobj cpdv i get def
obj cpdobj ne {
/upd true def
exit
} if
} for
} {
/upd true def
} ifelse
} {
v type /dicttype eq {
v {
/dv exch def
/dk exch def
/cpddv cpdv dk get def
dv cpddv ne {
/upd true def
exit
} if
} forall
} {
/upd true def
} ifelse
} ifelse
} if
} ifelse
upd true eq {
d k v put
} if
} if
} if
} forall
d length 0 gt {
d setpagedevice
} if
} bd
%%EndResource
%%BeginResource: procset (Apache XML Graphics EPS ProcSet) 1.0 0
%%Version: 1.0 0
%%Copyright: (Copyright 2002-2003 The Apache Software Foundation. License terms: http://www.apache.org/licenses/LICENSE-2.0)
/BeginEPSF { %def
/b4_Inc_state save def         % Save state for cleanup
/dict_count countdictstack def % Count objects on dict stack
/op_count count 1 sub def      % Count objects on operand stack
userdict begin                 % Push userdict on dict stack
/showpage { } def              % Redefine showpage, { } = null proc
0 setgray 0 setlinecap         % Prepare graphics state
1 setlinewidth 0 setlinejoin
10 setmiterlimit [ ] 0 setdash newpath
/languagelevel where           % If level not equal to 1 then
{pop languagelevel             % set strokeadjust and
1 ne                           % overprint to their defaults.
{false setstrokeadjust false setoverprint
} if
} if
} bd
/EndEPSF { %def
count op_count sub {pop} repeat            % Clean up stacks
countdictstack dict_count sub {end} repeat
b4_Inc_state restore
} bd
%%EndResource
%FOPBeginFontDict
%%IncludeResource: font Courier-Bold
%%IncludeResource: font Helvetica
%%IncludeResource: font Courier-BoldOblique
%%IncludeResource: font Courier-Oblique
%%IncludeResource: font Times-Roman
%%IncludeResource: font Helvetica-BoldOblique
%%IncludeResource: font Helvetica-Bold
%%IncludeResource: font Helvetica-Oblique
%%IncludeResource: font Times-BoldItalic
%%IncludeResource: font Courier
%%IncludeResource: font Times-Italic
%%IncludeResource: font Times-Bold
%%IncludeResource: font Symbol
%%IncludeResource: font ZapfDingbats
%FOPEndFontDict
%%BeginResource: encoding WinAnsiEncoding
/WinAnsiEncoding [
/.notdef /.notdef /.notdef /.notdef /.notdef
/.notdef /.notdef /.notdef /.notdef /.notdef
/.notdef /.notdef /.notdef /.notdef /.notdef
/.notdef /.notdef /.notdef /.notdef /.notdef
/.notdef /.notdef /.notdef /.notdef /.notdef
/.notdef /.notdef /.notdef /.notdef /.notdef
/.notdef /.notdef /space /exclam /quotedbl
/numbersign /dollar /percent /ampersand /quotesingle
/parenleft /parenright /asterisk /plus /comma
/hyphen /period /slash /zero /one
/two /three /four /five /six
/seven /eight /nine /colon /semicolon
/less /equal /greater /question /at
/A /B /C /D /E
/F /G /H /I /J
/K /L /M /N /O
/P /Q /R /S /T
/U /V /W /X /Y
/Z /bracketleft /backslash /bracketright /asciicircum
/underscore /quoteleft /a /b /c
/d /e /f /g /h
/i /j /k /l /m
/n /o /p /q /r
/s /t /u /v /w
/x /y /z /braceleft /bar
/braceright /asciitilde /bullet /Euro /bullet
/quotesinglbase /florin /quotedblbase /ellipsis /dagger
/daggerdbl /circumflex /perthousand /Scaron /guilsinglleft
/OE /bullet /Zcaron /bullet /bullet
/quoteleft /quoteright /quotedblleft /quotedblright /bullet
/endash /emdash /asciitilde /trademark /scaron
/guilsinglright /oe /bullet /zcaron /Ydieresis
/space /exclamdown /cent /sterling /currency
/yen /brokenbar /section /dieresis /copyright
/ordfeminine /guillemotleft /logicalnot /sfthyphen /registered
/macron /degree /plusminus /twosuperior /threesuperior
/acute /mu /paragraph /middot /cedilla
/onesuperior /ordmasculine /guillemotright /onequarter /onehalf
/threequarters /questiondown /Agrave /Aacute /Acircumflex
/Atilde /Adieresis /Aring /AE /Ccedilla
/Egrave /Eacute /Ecircumflex /Edieresis /Igrave
/Iacute /Icircumflex /Idieresis /Eth /Ntilde
/Ograve /Oacute /Ocircumflex /Otilde /Odieresis
/multiply /Oslash /Ugrave /Uacute /Ucircumflex
/Udieresis /Yacute /Thorn /germandbls /agrave
/aacute /acircumflex /atilde /adieresis /aring
/ae /ccedilla /egrave /eacute /ecircumflex
/edieresis /igrave /iacute /icircumflex /idieresis
/eth /ntilde /ograve /oacute /ocircumflex
/otilde /odieresis /divide /oslash /ugrave
/uacute /ucircumflex /udieresis /yacute /thorn
/ydieresis
] def
%%EndResource
%FOPBeginFontReencode
/Courier-Bold findfont
dup length dict begin
  {1 index /FID ne {def} {pop pop} ifelse} forall
  /Encoding WinAnsiEncoding def
  currentdict
end
/Courier-Bold exch definefont pop
/Helvetica findfont
dup length dict begin
  {1 index /FID ne {def} {pop pop} ifelse} forall
  /Encoding WinAnsiEncoding def
  currentdict
end
/Helvetica exch definefont pop
/Courier-BoldOblique findfont
dup length dict begin
  {1 index /FID ne {def} {pop pop} ifelse} forall
  /Encoding WinAnsiEncoding def
  currentdict
end
/Courier-BoldOblique exch definefont pop
/Courier-Oblique findfont
dup length dict begin
  {1 index /FID ne {def} {pop pop} ifelse} forall
  /Encoding WinAnsiEncoding def
  currentdict
end
/Courier-Oblique exch definefont pop
/Times-Roman findfont
dup length dict begin
  {1 index /FID ne {def} {pop pop} ifelse} forall
  /Encoding WinAnsiEncoding def
  currentdict
end
/Times-Roman exch definefont pop
/Helvetica-BoldOblique findfont
dup length dict begin
  {1 index /FID ne {def} {pop pop} ifelse} forall
  /Encoding WinAnsiEncoding def
  currentdict
end
/Helvetica-BoldOblique exch definefont pop
/Helvetica-Bold findfont
dup length dict begin
  {1 index /FID ne {def} {pop pop} ifelse} forall
  /Encoding WinAnsiEncoding def
  currentdict
end
/Helvetica-Bold exch definefont pop
/Helvetica-Oblique findfont
dup length dict begin
  {1 index /FID ne {def} {pop pop} ifelse} forall
  /Encoding WinAnsiEncoding def
  currentdict
end
/Helvetica-Oblique exch definefont pop
/Times-BoldItalic findfont
dup length dict begin
  {1 index /FID ne {def} {pop pop} ifelse} forall
  /Encoding WinAnsiEncoding def
  currentdict
end
/Times-BoldItalic exch definefont pop
/Courier findfont
dup length dict begin
  {1 index /FID ne {def} {pop pop} ifelse} forall
  /Encoding WinAnsiEncoding def
  currentdict
end
/Courier exch definefont pop
/Times-Italic findfont
dup length dict begin
  {1 index /FID ne {def} {pop pop} ifelse} forall
  /Encoding WinAnsiEncoding def
  currentdict
end
/Times-Italic exch definefont pop
/Times-Bold findfont
dup length dict begin
  {1 index /FID ne {def} {pop pop} ifelse} forall
  /Encoding WinAnsiEncoding def
  currentdict
end
/Times-Bold exch definefont pop
%FOPEndFontReencode
%%EndProlog
%%Page: 1 1
%%PageBoundingBox: 0 0 573 384
%%BeginPageSetup
[1 0 0 -1 0 384] CT
%%EndPageSetup
GS
[0.75 0 0 0.75 0 0] CT
1 GC
N
0 0 764 512 re
f
GR
GS
[0.75 0 0 0.75 0 0] CT
1 GC
N
0 0 764 512 re
f
GR
GS
[0.75 0 0 0.75 0 0] CT
1 GC
N
91 421 M
744 421 L
744 51 L
91 51 L
cp
f
GR
GS
[0.75 0 0 0.75 0 0] CT
0.149 GC
2 setlinecap
1 LJ
0.667 LW
N
91 421 M
744 421 L
S
GR
GS
[0.75 0 0 0.75 0 0] CT
0.149 GC
2 setlinecap
1 LJ
0.667 LW
N
91 51 M
744 51 L
S
GR
GS
[0.75 0 0 0.75 0 0] CT
0.149 GC
2 setlinecap
1 LJ
0.667 LW
N
91 421 M
91 414.47 L
S
GR
GS
[0.75 0 0 0.75 0 0] CT
0.149 GC
2 setlinecap
1 LJ
0.667 LW
N
163.556 421 M
163.556 414.47 L
S
GR
GS
[0.75 0 0 0.75 0 0] CT
0.149 GC
2 setlinecap
1 LJ
0.667 LW
N
236.111 421 M
236.111 414.47 L
S
GR
GS
[0.75 0 0 0.75 0 0] CT
0.149 GC
2 setlinecap
1 LJ
0.667 LW
N
308.667 421 M
308.667 414.47 L
S
GR
GS
[0.75 0 0 0.75 0 0] CT
0.149 GC
2 setlinecap
1 LJ
0.667 LW
N
381.222 421 M
381.222 414.47 L
S
GR
GS
[0.75 0 0 0.75 0 0] CT
0.149 GC
2 setlinecap
1 LJ
0.667 LW
N
453.778 421 M
453.778 414.47 L
S
GR
GS
[0.75 0 0 0.75 0 0] CT
0.149 GC
2 setlinecap
1 LJ
0.667 LW
N
526.333 421 M
526.333 414.47 L
S
GR
GS
[0.75 0 0 0.75 0 0] CT
0.149 GC
2 setlinecap
1 LJ
0.667 LW
N
598.889 421 M
598.889 414.47 L
S
GR
GS
[0.75 0 0 0.75 0 0] CT
0.149 GC
2 setlinecap
1 LJ
0.667 LW
N
671.444 421 M
671.444 414.47 L
S
GR
GS
[0.75 0 0 0.75 0 0] CT
0.149 GC
2 setlinecap
1 LJ
0.667 LW
N
744 421 M
744 414.47 L
S
GR
GS
[0.75 0 0 0.75 0 0] CT
0.149 GC
2 setlinecap
1 LJ
0.667 LW
N
91 51 M
91 57.53 L
S
GR
GS
[0.75 0 0 0.75 0 0] CT
0.149 GC
2 setlinecap
1 LJ
0.667 LW
N
163.556 51 M
163.556 57.53 L
S
GR
GS
[0.75 0 0 0.75 0 0] CT
0.149 GC
2 setlinecap
1 LJ
0.667 LW
N
236.111 51 M
236.111 57.53 L
S
GR
GS
[0.75 0 0 0.75 0 0] CT
0.149 GC
2 setlinecap
1 LJ
0.667 LW
N
308.667 51 M
308.667 57.53 L
S
GR
GS
[0.75 0 0 0.75 0 0] CT
0.149 GC
2 setlinecap
1 LJ
0.667 LW
N
381.222 51 M
381.222 57.53 L
S
GR
GS
[0.75 0 0 0.75 0 0] CT
0.149 GC
2 setlinecap
1 LJ
0.667 LW
N
453.778 51 M
453.778 57.53 L
S
GR
GS
[0.75 0 0 0.75 0 0] CT
0.149 GC
2 setlinecap
1 LJ
0.667 LW
N
526.333 51 M
526.333 57.53 L
S
GR
GS
[0.75 0 0 0.75 0 0] CT
0.149 GC
2 setlinecap
1 LJ
0.667 LW
N
598.889 51 M
598.889 57.53 L
S
GR
GS
[0.75 0 0 0.75 0 0] CT
0.149 GC
2 setlinecap
1 LJ
0.667 LW
N
671.444 51 M
671.444 57.53 L
S
GR
GS
[0.75 0 0 0.75 0 0] CT
0.149 GC
2 setlinecap
1 LJ
0.667 LW
N
744 51 M
744 57.53 L
S
GR
GS
[0.75 0 0 0.75 68.25 322.55001] CT
0.149 GC
/Times 32 F
GS
[1 0 0 1 0 0] CT
-10.5 30 moveto 
1 -1 scale
(1) t 
GR
GR
GS
[0.75 0 0 0.75 122.66667 322.55001] CT
0.149 GC
/Times 32 F
GS
[1 0 0 1 0 0] CT
-10.5 30 moveto 
1 -1 scale
(2) t 
GR
GR
GS
[0.75 0 0 0.75 177.08334 322.55001] CT
0.149 GC
/Times 32 F
GS
[1 0 0 1 0 0] CT
-10.5 30 moveto 
1 -1 scale
(3) t 
GR
GR
GS
[0.75 0 0 0.75 231.49999 322.55001] CT
0.149 GC
/Times 32 F
GS
[1 0 0 1 0 0] CT
-10.5 30 moveto 
1 -1 scale
(4) t 
GR
GR
GS
[0.75 0 0 0.75 285.91667 322.55001] CT
0.149 GC
/Times 32 F
GS
[1 0 0 1 0 0] CT
-10.5 30 moveto 
1 -1 scale
(5) t 
GR
GR
GS
[0.75 0 0 0.75 340.33333 322.55001] CT
0.149 GC
/Times 32 F
GS
[1 0 0 1 0 0] CT
-10.5 30 moveto 
1 -1 scale
(6) t 
GR
GR
GS
[0.75 0 0 0.75 394.74998 322.55001] CT
0.149 GC
/Times 32 F
GS
[1 0 0 1 0 0] CT
-10.5 30 moveto 
1 -1 scale
(7) t 
GR
GR
GS
[0.75 0 0 0.75 449.16669 322.55001] CT
0.149 GC
/Times 32 F
GS
[1 0 0 1 0 0] CT
-10.5 30 moveto 
1 -1 scale
(8) t 
GR
GR
GS
[0.75 0 0 0.75 503.58334 322.55001] CT
0.149 GC
/Times 32 F
GS
[1 0 0 1 0 0] CT
-10.5 30 moveto 
1 -1 scale
(9) t 
GR
GR
GS
[0.75 0 0 0.75 558 322.55001] CT
0.149 GC
/Times 32 F
GS
[1 0 0 1 0 0] CT
-20.5 30 moveto 
1 -1 scale
(10) t 
GR
GR
GS
[0.75 0 0 0.75 313.12523 352.05] CT
0.149 GC
/Times 35.2 F
GS
[1 0 0 1 0 0] CT
-210 33 moveto 
1 -1 scale
(Number of Top Matches) t 
GR
GR
GS
[0.75 0 0 0.75 0 0] CT
0.149 GC
2 setlinecap
1 LJ
0.667 LW
N
91 421 M
91 51 L
S
GR
GS
[0.75 0 0 0.75 0 0] CT
0.149 GC
2 setlinecap
1 LJ
0.667 LW
N
744 421 M
744 51 L
S
GR
GS
[0.75 0 0 0.75 0 0] CT
0.149 GC
2 setlinecap
1 LJ
0.667 LW
N
91 421 M
97.53 421 L
S
GR
GS
[0.75 0 0 0.75 0 0] CT
0.149 GC
2 setlinecap
1 LJ
0.667 LW
N
91 364.077 M
97.53 364.077 L
S
GR
GS
[0.75 0 0 0.75 0 0] CT
0.149 GC
2 setlinecap
1 LJ
0.667 LW
N
91 307.154 M
97.53 307.154 L
S
GR
GS
[0.75 0 0 0.75 0 0] CT
0.149 GC
2 setlinecap
1 LJ
0.667 LW
N
91 250.231 M
97.53 250.231 L
S
GR
GS
[0.75 0 0 0.75 0 0] CT
0.149 GC
2 setlinecap
1 LJ
0.667 LW
N
91 193.308 M
97.53 193.308 L
S
GR
GS
[0.75 0 0 0.75 0 0] CT
0.149 GC
2 setlinecap
1 LJ
0.667 LW
N
91 136.385 M
97.53 136.385 L
S
GR
GS
[0.75 0 0 0.75 0 0] CT
0.149 GC
2 setlinecap
1 LJ
0.667 LW
N
91 79.462 M
97.53 79.462 L
S
GR
GS
[0.75 0 0 0.75 0 0] CT
0.149 GC
2 setlinecap
1 LJ
0.667 LW
N
91 51 M
97.53 51 L
S
GR
GS
[0.75 0 0 0.75 0 0] CT
0.149 GC
2 setlinecap
1 LJ
0.667 LW
N
744 421 M
737.47 421 L
S
GR
GS
[0.75 0 0 0.75 0 0] CT
0.149 GC
2 setlinecap
1 LJ
0.667 LW
N
744 364.077 M
737.47 364.077 L
S
GR
GS
[0.75 0 0 0.75 0 0] CT
0.149 GC
2 setlinecap
1 LJ
0.667 LW
N
744 307.154 M
737.47 307.154 L
S
GR
GS
[0.75 0 0 0.75 0 0] CT
0.149 GC
2 setlinecap
1 LJ
0.667 LW
N
744 250.231 M
737.47 250.231 L
S
GR
GS
[0.75 0 0 0.75 0 0] CT
0.149 GC
2 setlinecap
1 LJ
0.667 LW
N
744 193.308 M
737.47 193.308 L
S
GR
GS
[0.75 0 0 0.75 0 0] CT
0.149 GC
2 setlinecap
1 LJ
0.667 LW
N
744 136.385 M
737.47 136.385 L
S
GR
GS
[0.75 0 0 0.75 0 0] CT
0.149 GC
2 setlinecap
1 LJ
0.667 LW
N
744 79.462 M
737.47 79.462 L
S
GR
GS
[0.75 0 0 0.75 0 0] CT
0.149 GC
2 setlinecap
1 LJ
0.667 LW
N
744 51 M
737.47 51 L
S
GR
GS
[0.75 0 0 0.75 61.45 315.75] CT
0.149 GC
/Times 32 F
GS
[1 0 0 1 0 0] CT
-21 11 moveto 
1 -1 scale
(0) t 
GR
GR
GS
[0.75 0 0 0.75 61.45 273.0577] CT
0.149 GC
/Times 32 F
GS
[1 0 0 1 0 0] CT
-21 11 moveto 
1 -1 scale
(5) t 
GR
GR
GS
[0.75 0 0 0.75 61.45 230.36538] CT
0.149 GC
/Times 32 F
GS
[1 0 0 1 0 0] CT
-41 11 moveto 
1 -1 scale
(10) t 
GR
GR
GS
[0.75 0 0 0.75 61.45 187.67308] CT
0.149 GC
/Times 32 F
GS
[1 0 0 1 0 0] CT
-41 11 moveto 
1 -1 scale
(15) t 
GR
GR
GS
[0.75 0 0 0.75 61.45 144.98077] CT
0.149 GC
/Times 32 F
GS
[1 0 0 1 0 0] CT
-41 11 moveto 
1 -1 scale
(20) t 
GR
GR
GS
[0.75 0 0 0.75 61.45 102.28846] CT
0.149 GC
/Times 32 F
GS
[1 0 0 1 0 0] CT
-41 11 moveto 
1 -1 scale
(25) t 
GR
GR
GS
[0.75 0 0 0.75 61.45 59.59616] CT
0.149 GC
/Times 32 F
GS
[1 0 0 1 0 0] CT
-41 11 moveto 
1 -1 scale
(30) t 
GR
GR
GS
[0 -0.75 0.75 0 27.7 176.99987] CT
0.149 GC
/Times 35.2 F
GS
[1 0 0 1 0 0] CT
-100.5 -9 moveto 
1 -1 scale
(ANMRR \(%\)) t 
GR
GR
GS
[0.75 0 0 0.75 313.12532 33.29999] CT
/Times 35.2 F
GS
[1 0 0 1 0 0] CT
-145.5 -9 moveto 
1 -1 scale
(ESSEX Database) t 
GR
GR
GS
[0.75 0 0 0.75 0 0] CT
1 0.6 0.784 RC
1 LJ
2 LW
N
91 420.068 M
163.556 416.114 L
236.111 401.443 L
308.667 378.631 L
381.222 353.046 L
453.778 327.22 L
526.333 301.215 L
598.889 277.456 L
671.444 251.995 L
744 227.85 L
S
GR
GS
[0.75 0 0 0.75 0 0] CT
1 GC
N
89.278 416.652 M
95.943 420.5 L
89.278 424.348 L
cp
f
GR
GS
[0.75 0 0 0.75 0 0] CT
1 0.6 0.784 RC
10.0 ML
2 LW
N
89.278 416.652 M
95.943 420.5 L
89.278 424.348 L
cp
S
GR
GS
[0.75 0 0 0.75 0 0] CT
1 GC
N
161.278 412.652 M
167.943 416.5 L
161.278 420.348 L
cp
f
GR
GS
[0.75 0 0 0.75 0 0] CT
1 0.6 0.784 RC
10.0 ML
2 LW
N
161.278 412.652 M
167.943 416.5 L
161.278 420.348 L
cp
S
GR
GS
[0.75 0 0 0.75 0 0] CT
1 GC
N
234.278 397.652 M
240.943 401.5 L
234.278 405.348 L
cp
f
GR
GS
[0.75 0 0 0.75 0 0] CT
1 0.6 0.784 RC
10.0 ML
2 LW
N
234.278 397.652 M
240.943 401.5 L
234.278 405.348 L
cp
S
GR
GS
[0.75 0 0 0.75 0 0] CT
1 GC
N
306.278 374.652 M
312.943 378.5 L
306.278 382.348 L
cp
f
GR
GS
[0.75 0 0 0.75 0 0] CT
1 0.6 0.784 RC
10.0 ML
2 LW
N
306.278 374.652 M
312.943 378.5 L
306.278 382.348 L
cp
S
GR
GS
[0.75 0 0 0.75 0 0] CT
1 GC
N
379.278 349.652 M
385.943 353.5 L
379.278 357.348 L
cp
f
GR
GS
[0.75 0 0 0.75 0 0] CT
1 0.6 0.784 RC
10.0 ML
2 LW
N
379.278 349.652 M
385.943 353.5 L
379.278 357.348 L
cp
S
GR
GS
[0.75 0 0 0.75 0 0] CT
1 GC
N
451.278 323.652 M
457.943 327.5 L
451.278 331.348 L
cp
f
GR
GS
[0.75 0 0 0.75 0 0] CT
1 0.6 0.784 RC
10.0 ML
2 LW
N
451.278 323.652 M
457.943 327.5 L
451.278 331.348 L
cp
S
GR
GS
[0.75 0 0 0.75 0 0] CT
1 GC
N
524.278 297.652 M
530.943 301.5 L
524.278 305.348 L
cp
f
GR
GS
[0.75 0 0 0.75 0 0] CT
1 0.6 0.784 RC
10.0 ML
2 LW
N
524.278 297.652 M
530.943 301.5 L
524.278 305.348 L
cp
S
GR
GS
[0.75 0 0 0.75 0 0] CT
1 GC
N
596.278 273.652 M
602.943 277.5 L
596.278 281.348 L
cp
f
GR
GS
[0.75 0 0 0.75 0 0] CT
1 0.6 0.784 RC
10.0 ML
2 LW
N
596.278 273.652 M
602.943 277.5 L
596.278 281.348 L
cp
S
GR
GS
[0.75 0 0 0.75 0 0] CT
1 GC
N
669.278 247.652 M
675.943 251.5 L
669.278 255.348 L
cp
f
GR
GS
[0.75 0 0 0.75 0 0] CT
1 0.6 0.784 RC
10.0 ML
2 LW
N
669.278 247.652 M
675.943 251.5 L
669.278 255.348 L
cp
S
GR
GS
[0.75 0 0 0.75 0 0] CT
1 GC
N
742.278 223.652 M
748.943 227.5 L
742.278 231.348 L
cp
f
GR
GS
[0.75 0 0 0.75 0 0] CT
1 0.6 0.784 RC
10.0 ML
2 LW
N
742.278 223.652 M
748.943 227.5 L
742.278 231.348 L
cp
S
GR
GS
[0.75 0 0 0.75 0 0] CT
0.6 0.2 0 RC
1 LJ
2 LW
N
91 420.068 M
163.556 416.43 L
236.111 397.759 L
308.667 372.962 L
381.222 347.901 L
453.778 321.718 L
526.333 296.561 L
598.889 273.183 L
671.444 248.774 L
744 224.67 L
S
GR
GS
[0.75 0 0 0.75 0 0] CT
1 GC
N
87.057 420.5 M
93.722 416.652 L
93.722 424.348 L
cp
f
GR
GS
[0.75 0 0 0.75 0 0] CT
0.6 0.2 0 RC
10.0 ML
2 LW
N
87.057 420.5 M
93.722 416.652 L
93.722 424.348 L
cp
S
GR
GS
[0.75 0 0 0.75 0 0] CT
1 GC
N
159.057 416.5 M
165.722 412.652 L
165.722 420.348 L
cp
f
GR
GS
[0.75 0 0 0.75 0 0] CT
0.6 0.2 0 RC
10.0 ML
2 LW
N
159.057 416.5 M
165.722 412.652 L
165.722 420.348 L
cp
S
GR
GS
[0.75 0 0 0.75 0 0] CT
1 GC
N
232.057 397.5 M
238.722 393.652 L
238.722 401.348 L
cp
f
GR
GS
[0.75 0 0 0.75 0 0] CT
0.6 0.2 0 RC
10.0 ML
2 LW
N
232.057 397.5 M
238.722 393.652 L
238.722 401.348 L
cp
S
GR
GS
[0.75 0 0 0.75 0 0] CT
1 GC
N
304.057 372.5 M
310.722 368.652 L
310.722 376.348 L
cp
f
GR
GS
[0.75 0 0 0.75 0 0] CT
0.6 0.2 0 RC
10.0 ML
2 LW
N
304.057 372.5 M
310.722 368.652 L
310.722 376.348 L
cp
S
GR
GS
[0.75 0 0 0.75 0 0] CT
1 GC
N
377.057 347.5 M
383.722 343.652 L
383.722 351.348 L
cp
f
GR
GS
[0.75 0 0 0.75 0 0] CT
0.6 0.2 0 RC
10.0 ML
2 LW
N
377.057 347.5 M
383.722 343.652 L
383.722 351.348 L
cp
S
GR
GS
[0.75 0 0 0.75 0 0] CT
1 GC
N
449.057 321.5 M
455.722 317.652 L
455.722 325.348 L
cp
f
GR
GS
[0.75 0 0 0.75 0 0] CT
0.6 0.2 0 RC
10.0 ML
2 LW
N
449.057 321.5 M
455.722 317.652 L
455.722 325.348 L
cp
S
GR
GS
[0.75 0 0 0.75 0 0] CT
1 GC
N
522.057 296.5 M
528.722 292.652 L
528.722 300.348 L
cp
f
GR
GS
[0.75 0 0 0.75 0 0] CT
0.6 0.2 0 RC
10.0 ML
2 LW
N
522.057 296.5 M
528.722 292.652 L
528.722 300.348 L
cp
S
GR
GS
[0.75 0 0 0.75 0 0] CT
1 GC
N
594.057 273.5 M
600.722 269.652 L
600.722 277.348 L
cp
f
GR
GS
[0.75 0 0 0.75 0 0] CT
0.6 0.2 0 RC
10.0 ML
2 LW
N
594.057 273.5 M
600.722 269.652 L
600.722 277.348 L
cp
S
GR
GS
[0.75 0 0 0.75 0 0] CT
1 GC
N
667.057 248.5 M
673.722 244.652 L
673.722 252.348 L
cp
f
GR
GS
[0.75 0 0 0.75 0 0] CT
0.6 0.2 0 RC
10.0 ML
2 LW
N
667.057 248.5 M
673.722 244.652 L
673.722 252.348 L
cp
S
GR
GS
[0.75 0 0 0.75 0 0] CT
1 GC
N
740.057 224.5 M
746.722 220.652 L
746.722 228.348 L
cp
f
GR
GS
[0.75 0 0 0.75 0 0] CT
0.6 0.2 0 RC
10.0 ML
2 LW
N
740.057 224.5 M
746.722 220.652 L
746.722 228.348 L
cp
S
GR
GS
[0.75 0 0 0.75 0 0] CT
0.929 0.694 0.125 RC
1 LJ
2 LW
N
91 420.068 M
163.556 379.329 L
236.111 306.26 L
308.667 248.39 L
381.222 203.102 L
453.778 166.072 L
526.333 134.513 L
598.889 106.476 L
671.444 79.973 L
744 55.481 L
S
GR
GS
[0.75 0 0 0.75 0 0] CT
1 GC
N
88.33 419.47 M
90.716 419.47 L
91.5 417.167 L
92.284 419.47 L
94.67 419.47 L
92.768 420.912 L
93.459 423.197 L
91.5 421.833 L
89.541 423.197 L
90.232 420.912 L
88.33 419.47 L
cp
f
GR
GS
[0.75 0 0 0.75 0 0] CT
0.929 0.694 0.125 RC
10.0 ML
2 LW
N
88.33 419.47 M
90.716 419.47 L
91.5 417.167 L
92.284 419.47 L
94.67 419.47 L
92.768 420.912 L
93.459 423.197 L
91.5 421.833 L
89.541 423.197 L
90.232 420.912 L
cp
S
GR
GS
[0.75 0 0 0.75 0 0] CT
1 GC
N
160.33 378.47 M
162.716 378.47 L
163.5 376.167 L
164.284 378.47 L
166.67 378.47 L
164.768 379.912 L
165.459 382.197 L
163.5 380.833 L
161.541 382.197 L
162.232 379.912 L
160.33 378.47 L
cp
f
GR
GS
[0.75 0 0 0.75 0 0] CT
0.929 0.694 0.125 RC
10.0 ML
2 LW
N
160.33 378.47 M
162.716 378.47 L
163.5 376.167 L
164.284 378.47 L
166.67 378.47 L
164.768 379.912 L
165.459 382.197 L
163.5 380.833 L
161.541 382.197 L
162.232 379.912 L
cp
S
GR
GS
[0.75 0 0 0.75 0 0] CT
1 GC
N
233.33 305.47 M
235.716 305.47 L
236.5 303.167 L
237.284 305.47 L
239.67 305.47 L
237.768 306.912 L
238.459 309.197 L
236.5 307.833 L
234.541 309.197 L
235.232 306.912 L
233.33 305.47 L
cp
f
GR
GS
[0.75 0 0 0.75 0 0] CT
0.929 0.694 0.125 RC
10.0 ML
2 LW
N
233.33 305.47 M
235.716 305.47 L
236.5 303.167 L
237.284 305.47 L
239.67 305.47 L
237.768 306.912 L
238.459 309.197 L
236.5 307.833 L
234.541 309.197 L
235.232 306.912 L
cp
S
GR
GS
[0.75 0 0 0.75 0 0] CT
1 GC
N
305.33 247.47 M
307.716 247.47 L
308.5 245.167 L
309.284 247.47 L
311.67 247.47 L
309.768 248.912 L
310.459 251.197 L
308.5 249.833 L
306.541 251.197 L
307.232 248.912 L
305.33 247.47 L
cp
f
GR
GS
[0.75 0 0 0.75 0 0] CT
0.929 0.694 0.125 RC
10.0 ML
2 LW
N
305.33 247.47 M
307.716 247.47 L
308.5 245.167 L
309.284 247.47 L
311.67 247.47 L
309.768 248.912 L
310.459 251.197 L
308.5 249.833 L
306.541 251.197 L
307.232 248.912 L
cp
S
GR
GS
[0.75 0 0 0.75 0 0] CT
1 GC
N
378.33 202.47 M
380.716 202.47 L
381.5 200.167 L
382.284 202.47 L
384.67 202.47 L
382.768 203.912 L
383.459 206.197 L
381.5 204.833 L
379.541 206.197 L
380.232 203.912 L
378.33 202.47 L
cp
f
GR
GS
[0.75 0 0 0.75 0 0] CT
0.929 0.694 0.125 RC
10.0 ML
2 LW
N
378.33 202.47 M
380.716 202.47 L
381.5 200.167 L
382.284 202.47 L
384.67 202.47 L
382.768 203.912 L
383.459 206.197 L
381.5 204.833 L
379.541 206.197 L
380.232 203.912 L
cp
S
GR
GS
[0.75 0 0 0.75 0 0] CT
1 GC
N
450.33 165.47 M
452.716 165.47 L
453.5 163.167 L
454.284 165.47 L
456.67 165.47 L
454.768 166.912 L
455.459 169.197 L
453.5 167.833 L
451.541 169.197 L
452.232 166.912 L
450.33 165.47 L
cp
f
GR
GS
[0.75 0 0 0.75 0 0] CT
0.929 0.694 0.125 RC
10.0 ML
2 LW
N
450.33 165.47 M
452.716 165.47 L
453.5 163.167 L
454.284 165.47 L
456.67 165.47 L
454.768 166.912 L
455.459 169.197 L
453.5 167.833 L
451.541 169.197 L
452.232 166.912 L
cp
S
GR
GS
[0.75 0 0 0.75 0 0] CT
1 GC
N
523.33 133.47 M
525.716 133.47 L
526.5 131.167 L
527.284 133.47 L
529.67 133.47 L
527.768 134.912 L
528.459 137.197 L
526.5 135.833 L
524.541 137.197 L
525.232 134.912 L
523.33 133.47 L
cp
f
GR
GS
[0.75 0 0 0.75 0 0] CT
0.929 0.694 0.125 RC
10.0 ML
2 LW
N
523.33 133.47 M
525.716 133.47 L
526.5 131.167 L
527.284 133.47 L
529.67 133.47 L
527.768 134.912 L
528.459 137.197 L
526.5 135.833 L
524.541 137.197 L
525.232 134.912 L
cp
S
GR
GS
[0.75 0 0 0.75 0 0] CT
1 GC
N
595.33 105.47 M
597.716 105.47 L
598.5 103.167 L
599.284 105.47 L
601.67 105.47 L
599.768 106.912 L
600.459 109.197 L
598.5 107.833 L
596.541 109.197 L
597.232 106.912 L
595.33 105.47 L
cp
f
GR
GS
[0.75 0 0 0.75 0 0] CT
0.929 0.694 0.125 RC
10.0 ML
2 LW
N
595.33 105.47 M
597.716 105.47 L
598.5 103.167 L
599.284 105.47 L
601.67 105.47 L
599.768 106.912 L
600.459 109.197 L
598.5 107.833 L
596.541 109.197 L
597.232 106.912 L
cp
S
GR
GS
[0.75 0 0 0.75 0 0] CT
1 GC
N
668.33 78.47 M
670.716 78.47 L
671.5 76.167 L
672.284 78.47 L
674.67 78.47 L
672.768 79.912 L
673.459 82.197 L
671.5 80.833 L
669.541 82.197 L
670.232 79.912 L
668.33 78.47 L
cp
f
GR
GS
[0.75 0 0 0.75 0 0] CT
0.929 0.694 0.125 RC
10.0 ML
2 LW
N
668.33 78.47 M
670.716 78.47 L
671.5 76.167 L
672.284 78.47 L
674.67 78.47 L
672.768 79.912 L
673.459 82.197 L
671.5 80.833 L
669.541 82.197 L
670.232 79.912 L
cp
S
GR
GS
[0.75 0 0 0.75 0 0] CT
1 GC
N
741.33 54.47 M
743.716 54.47 L
744.5 52.167 L
745.284 54.47 L
747.67 54.47 L
745.768 55.912 L
746.459 58.197 L
744.5 56.833 L
742.541 58.197 L
743.232 55.912 L
741.33 54.47 L
cp
f
GR
GS
[0.75 0 0 0.75 0 0] CT
0.929 0.694 0.125 RC
10.0 ML
2 LW
N
741.33 54.47 M
743.716 54.47 L
744.5 52.167 L
745.284 54.47 L
747.67 54.47 L
745.768 55.912 L
746.459 58.197 L
744.5 56.833 L
742.541 58.197 L
743.232 55.912 L
cp
S
GR
GS
[0.75 0 0 0.75 0 0] CT
0 1 1 RC
1 LJ
2 LW
N
91 420.068 M
163.556 414.759 L
236.111 392.177 L
308.667 361.709 L
381.222 332.933 L
453.778 306.761 L
526.333 280.436 L
598.889 256.084 L
671.444 232.299 L
744 209.059 L
S
GR
GS
[0.75 0 0 0.75 0 0] CT
1 GC
N
91.5 424.943 M
94.833 420.5 L
91.5 416.057 L
88.167 420.5 L
cp
f
GR
GS
[0.75 0 0 0.75 0 0] CT
0 1 1 RC
10.0 ML
2 LW
N
91.5 424.943 M
94.833 420.5 L
91.5 416.057 L
88.167 420.5 L
cp
S
GR
GS
[0.75 0 0 0.75 0 0] CT
1 GC
N
163.5 418.943 M
166.833 414.5 L
163.5 410.057 L
160.167 414.5 L
cp
f
GR
GS
[0.75 0 0 0.75 0 0] CT
0 1 1 RC
10.0 ML
2 LW
N
163.5 418.943 M
166.833 414.5 L
163.5 410.057 L
160.167 414.5 L
cp
S
GR
GS
[0.75 0 0 0.75 0 0] CT
1 GC
N
236.5 396.943 M
239.833 392.5 L
236.5 388.057 L
233.167 392.5 L
cp
f
GR
GS
[0.75 0 0 0.75 0 0] CT
0 1 1 RC
10.0 ML
2 LW
N
236.5 396.943 M
239.833 392.5 L
236.5 388.057 L
233.167 392.5 L
cp
S
GR
GS
[0.75 0 0 0.75 0 0] CT
1 GC
N
308.5 365.943 M
311.833 361.5 L
308.5 357.057 L
305.167 361.5 L
cp
f
GR
GS
[0.75 0 0 0.75 0 0] CT
0 1 1 RC
10.0 ML
2 LW
N
308.5 365.943 M
311.833 361.5 L
308.5 357.057 L
305.167 361.5 L
cp
S
GR
GS
[0.75 0 0 0.75 0 0] CT
1 GC
N
381.5 336.943 M
384.833 332.5 L
381.5 328.057 L
378.167 332.5 L
cp
f
GR
GS
[0.75 0 0 0.75 0 0] CT
0 1 1 RC
10.0 ML
2 LW
N
381.5 336.943 M
384.833 332.5 L
381.5 328.057 L
378.167 332.5 L
cp
S
GR
GS
[0.75 0 0 0.75 0 0] CT
1 GC
N
453.5 310.943 M
456.833 306.5 L
453.5 302.057 L
450.167 306.5 L
cp
f
GR
GS
[0.75 0 0 0.75 0 0] CT
0 1 1 RC
10.0 ML
2 LW
N
453.5 310.943 M
456.833 306.5 L
453.5 302.057 L
450.167 306.5 L
cp
S
GR
GS
[0.75 0 0 0.75 0 0] CT
1 GC
N
526.5 284.943 M
529.833 280.5 L
526.5 276.057 L
523.167 280.5 L
cp
f
GR
GS
[0.75 0 0 0.75 0 0] CT
0 1 1 RC
10.0 ML
2 LW
N
526.5 284.943 M
529.833 280.5 L
526.5 276.057 L
523.167 280.5 L
cp
S
GR
GS
[0.75 0 0 0.75 0 0] CT
1 GC
N
598.5 260.943 M
601.833 256.5 L
598.5 252.057 L
595.167 256.5 L
cp
f
GR
GS
[0.75 0 0 0.75 0 0] CT
0 1 1 RC
10.0 ML
2 LW
N
598.5 260.943 M
601.833 256.5 L
598.5 252.057 L
595.167 256.5 L
cp
S
GR
GS
[0.75 0 0 0.75 0 0] CT
1 GC
N
671.5 236.943 M
674.833 232.5 L
671.5 228.057 L
668.167 232.5 L
cp
f
GR
GS
[0.75 0 0 0.75 0 0] CT
0 1 1 RC
10.0 ML
2 LW
N
671.5 236.943 M
674.833 232.5 L
671.5 228.057 L
668.167 232.5 L
cp
S
GR
GS
[0.75 0 0 0.75 0 0] CT
1 GC
N
744.5 213.943 M
747.833 209.5 L
744.5 205.057 L
741.167 209.5 L
cp
f
GR
GS
[0.75 0 0 0.75 0 0] CT
0 1 1 RC
10.0 ML
2 LW
N
744.5 213.943 M
747.833 209.5 L
744.5 205.057 L
741.167 209.5 L
cp
S
GR
GS
[0.75 0 0 0.75 0 0] CT
0 1 0 RC
1 LJ
2 LW
N
91 420.068 M
163.556 418.296 L
236.111 411.147 L
308.667 399.577 L
381.222 384.38 L
453.778 366.574 L
526.333 348.354 L
598.889 328.783 L
671.444 308.086 L
744 287.42 L
S
GR
GS
[0.75 0 0 0.75 0 0] CT
1 GC
N
88.9 423.1 M
88.9 417.9 L
94.1 417.9 L
94.1 423.1 L
cp
f
GR
GS
[0.75 0 0 0.75 0 0] CT
0 1 0 RC
10.0 ML
2 LW
N
88.9 423.1 M
88.9 417.9 L
94.1 417.9 L
94.1 423.1 L
cp
S
GR
GS
[0.75 0 0 0.75 0 0] CT
1 GC
N
160.9 421.1 M
160.9 415.9 L
166.1 415.9 L
166.1 421.1 L
cp
f
GR
GS
[0.75 0 0 0.75 0 0] CT
0 1 0 RC
10.0 ML
2 LW
N
160.9 421.1 M
160.9 415.9 L
166.1 415.9 L
166.1 421.1 L
cp
S
GR
GS
[0.75 0 0 0.75 0 0] CT
1 GC
N
233.9 414.1 M
233.9 408.9 L
239.1 408.9 L
239.1 414.1 L
cp
f
GR
GS
[0.75 0 0 0.75 0 0] CT
0 1 0 RC
10.0 ML
2 LW
N
233.9 414.1 M
233.9 408.9 L
239.1 408.9 L
239.1 414.1 L
cp
S
GR
GS
[0.75 0 0 0.75 0 0] CT
1 GC
N
305.9 402.1 M
305.9 396.9 L
311.1 396.9 L
311.1 402.1 L
cp
f
GR
GS
[0.75 0 0 0.75 0 0] CT
0 1 0 RC
10.0 ML
2 LW
N
305.9 402.1 M
305.9 396.9 L
311.1 396.9 L
311.1 402.1 L
cp
S
GR
GS
[0.75 0 0 0.75 0 0] CT
1 GC
N
378.9 387.1 M
378.9 381.9 L
384.1 381.9 L
384.1 387.1 L
cp
f
GR
GS
[0.75 0 0 0.75 0 0] CT
0 1 0 RC
10.0 ML
2 LW
N
378.9 387.1 M
378.9 381.9 L
384.1 381.9 L
384.1 387.1 L
cp
S
GR
GS
[0.75 0 0 0.75 0 0] CT
1 GC
N
450.9 369.1 M
450.9 363.9 L
456.1 363.9 L
456.1 369.1 L
cp
f
GR
GS
[0.75 0 0 0.75 0 0] CT
0 1 0 RC
10.0 ML
2 LW
N
450.9 369.1 M
450.9 363.9 L
456.1 363.9 L
456.1 369.1 L
cp
S
GR
GS
[0.75 0 0 0.75 0 0] CT
1 GC
N
523.9 351.1 M
523.9 345.9 L
529.1 345.9 L
529.1 351.1 L
cp
f
GR
GS
[0.75 0 0 0.75 0 0] CT
0 1 0 RC
10.0 ML
2 LW
N
523.9 351.1 M
523.9 345.9 L
529.1 345.9 L
529.1 351.1 L
cp
S
GR
GS
[0.75 0 0 0.75 0 0] CT
1 GC
N
595.9 331.1 M
595.9 325.9 L
601.1 325.9 L
601.1 331.1 L
cp
f
GR
GS
[0.75 0 0 0.75 0 0] CT
0 1 0 RC
10.0 ML
2 LW
N
595.9 331.1 M
595.9 325.9 L
601.1 325.9 L
601.1 331.1 L
cp
S
GR
GS
[0.75 0 0 0.75 0 0] CT
1 GC
N
668.9 311.1 M
668.9 305.9 L
674.1 305.9 L
674.1 311.1 L
cp
f
GR
GS
[0.75 0 0 0.75 0 0] CT
0 1 0 RC
10.0 ML
2 LW
N
668.9 311.1 M
668.9 305.9 L
674.1 305.9 L
674.1 311.1 L
cp
S
GR
GS
[0.75 0 0 0.75 0 0] CT
1 GC
N
741.9 290.1 M
741.9 284.9 L
747.1 284.9 L
747.1 290.1 L
cp
f
GR
GS
[0.75 0 0 0.75 0 0] CT
0 1 0 RC
10.0 ML
2 LW
N
741.9 290.1 M
741.9 284.9 L
747.1 284.9 L
747.1 290.1 L
cp
S
GR
GS
[0.75 0 0 0.75 0 0] CT
0 0 1 RC
1 LJ
2 LW
N
91 420.068 M
163.556 391.678 L
236.111 329.436 L
308.667 280.425 L
381.222 238.338 L
453.778 201.145 L
526.333 168.909 L
598.889 138.909 L
671.444 110.561 L
744 83.389 L
S
GR
GS
[0.75 0 0 0.75 0 0] CT
1 GC
N
87.057 420.5 M
93.722 416.652 L
93.722 424.348 L
cp
f
GR
GS
[0.75 0 0 0.75 0 0] CT
0 0 1 RC
10.0 ML
2 LW
N
87.057 420.5 M
93.722 416.652 L
93.722 424.348 L
cp
S
GR
GS
[0.75 0 0 0.75 0 0] CT
1 GC
N
159.057 391.5 M
165.722 387.652 L
165.722 395.348 L
cp
f
GR
GS
[0.75 0 0 0.75 0 0] CT
0 0 1 RC
10.0 ML
2 LW
N
159.057 391.5 M
165.722 387.652 L
165.722 395.348 L
cp
S
GR
GS
[0.75 0 0 0.75 0 0] CT
1 GC
N
232.057 329.5 M
238.722 325.652 L
238.722 333.348 L
cp
f
GR
GS
[0.75 0 0 0.75 0 0] CT
0 0 1 RC
10.0 ML
2 LW
N
232.057 329.5 M
238.722 325.652 L
238.722 333.348 L
cp
S
GR
GS
[0.75 0 0 0.75 0 0] CT
1 GC
N
304.057 280.5 M
310.722 276.652 L
310.722 284.348 L
cp
f
GR
GS
[0.75 0 0 0.75 0 0] CT
0 0 1 RC
10.0 ML
2 LW
N
304.057 280.5 M
310.722 276.652 L
310.722 284.348 L
cp
S
GR
GS
[0.75 0 0 0.75 0 0] CT
1 GC
N
377.057 238.5 M
383.722 234.652 L
383.722 242.348 L
cp
f
GR
GS
[0.75 0 0 0.75 0 0] CT
0 0 1 RC
10.0 ML
2 LW
N
377.057 238.5 M
383.722 234.652 L
383.722 242.348 L
cp
S
GR
GS
[0.75 0 0 0.75 0 0] CT
1 GC
N
449.057 201.5 M
455.722 197.652 L
455.722 205.348 L
cp
f
GR
GS
[0.75 0 0 0.75 0 0] CT
0 0 1 RC
10.0 ML
2 LW
N
449.057 201.5 M
455.722 197.652 L
455.722 205.348 L
cp
S
GR
GS
[0.75 0 0 0.75 0 0] CT
1 GC
N
522.057 168.5 M
528.722 164.652 L
528.722 172.348 L
cp
f
GR
GS
[0.75 0 0 0.75 0 0] CT
0 0 1 RC
10.0 ML
2 LW
N
522.057 168.5 M
528.722 164.652 L
528.722 172.348 L
cp
S
GR
GS
[0.75 0 0 0.75 0 0] CT
1 GC
N
594.057 138.5 M
600.722 134.652 L
600.722 142.348 L
cp
f
GR
GS
[0.75 0 0 0.75 0 0] CT
0 0 1 RC
10.0 ML
2 LW
N
594.057 138.5 M
600.722 134.652 L
600.722 142.348 L
cp
S
GR
GS
[0.75 0 0 0.75 0 0] CT
1 GC
N
667.057 110.5 M
673.722 106.652 L
673.722 114.348 L
cp
f
GR
GS
[0.75 0 0 0.75 0 0] CT
0 0 1 RC
10.0 ML
2 LW
N
667.057 110.5 M
673.722 106.652 L
673.722 114.348 L
cp
S
GR
GS
[0.75 0 0 0.75 0 0] CT
1 GC
N
740.057 83.5 M
746.722 79.652 L
746.722 87.348 L
cp
f
GR
GS
[0.75 0 0 0.75 0 0] CT
0 0 1 RC
10.0 ML
2 LW
N
740.057 83.5 M
746.722 79.652 L
746.722 87.348 L
cp
S
GR
GS
[0.75 0 0 0.75 0 0] CT
1 0 1 RC
1 LJ
2 LW
N
91 420.068 M
163.556 419.424 L
236.111 416.636 L
308.667 411.113 L
381.222 400.882 L
453.778 387.752 L
526.333 372.232 L
598.889 354.699 L
671.444 336.035 L
744 315.665 L
S
GR
GS
[0.75 0 0 0.75 0 0] CT
1 0 1 RC
1 LJ
2 LW
N
88 420.5 M
95 420.5 L
S
GR
GS
[0.75 0 0 0.75 0 0] CT
1 0 1 RC
1 LJ
2 LW
N
91.5 424 M
91.5 417 L
S
GR
GS
[0.75 0 0 0.75 0 0] CT
1 0 1 RC
1 LJ
2 LW
N
160 419.5 M
167 419.5 L
S
GR
GS
[0.75 0 0 0.75 0 0] CT
1 0 1 RC
1 LJ
2 LW
N
163.5 423 M
163.5 416 L
S
GR
GS
[0.75 0 0 0.75 0 0] CT
1 0 1 RC
1 LJ
2 LW
N
233 416.5 M
240 416.5 L
S
GR
GS
[0.75 0 0 0.75 0 0] CT
1 0 1 RC
1 LJ
2 LW
N
236.5 420 M
236.5 413 L
S
GR
GS
[0.75 0 0 0.75 0 0] CT
1 0 1 RC
1 LJ
2 LW
N
305 411.5 M
312 411.5 L
S
GR
GS
[0.75 0 0 0.75 0 0] CT
1 0 1 RC
1 LJ
2 LW
N
308.5 415 M
308.5 408 L
S
GR
GS
[0.75 0 0 0.75 0 0] CT
1 0 1 RC
1 LJ
2 LW
N
378 400.5 M
385 400.5 L
S
GR
GS
[0.75 0 0 0.75 0 0] CT
1 0 1 RC
1 LJ
2 LW
N
381.5 404 M
381.5 397 L
S
GR
GS
[0.75 0 0 0.75 0 0] CT
1 0 1 RC
1 LJ
2 LW
N
450 387.5 M
457 387.5 L
S
GR
GS
[0.75 0 0 0.75 0 0] CT
1 0 1 RC
1 LJ
2 LW
N
453.5 391 M
453.5 384 L
S
GR
GS
[0.75 0 0 0.75 0 0] CT
1 0 1 RC
1 LJ
2 LW
N
523 372.5 M
530 372.5 L
S
GR
GS
[0.75 0 0 0.75 0 0] CT
1 0 1 RC
1 LJ
2 LW
N
526.5 376 M
526.5 369 L
S
GR
GS
[0.75 0 0 0.75 0 0] CT
1 0 1 RC
1 LJ
2 LW
N
595 354.5 M
602 354.5 L
S
GR
GS
[0.75 0 0 0.75 0 0] CT
1 0 1 RC
1 LJ
2 LW
N
598.5 358 M
598.5 351 L
S
GR
GS
[0.75 0 0 0.75 0 0] CT
1 0 1 RC
1 LJ
2 LW
N
668 336.5 M
675 336.5 L
S
GR
GS
[0.75 0 0 0.75 0 0] CT
1 0 1 RC
1 LJ
2 LW
N
671.5 340 M
671.5 333 L
S
GR
GS
[0.75 0 0 0.75 0 0] CT
1 0 1 RC
1 LJ
2 LW
N
741 315.5 M
748 315.5 L
S
GR
GS
[0.75 0 0 0.75 0 0] CT
1 0 1 RC
1 LJ
2 LW
N
744.5 319 M
744.5 312 L
S
GR
GS
[0.75 0 0 0.75 0 0] CT
1 0 0 RC
1 LJ
2 LW
N
91 420.068 M
163.556 419.595 L
236.111 417.918 L
308.667 416.032 L
381.222 414.505 L
453.778 412.554 L
526.333 408.99 L
598.889 402.874 L
671.444 395.229 L
744 385.349 L
S
GR
GS
[0.75 0 0 0.75 0 0] CT
1 GC
N
88.9 423.1 M
88.9 417.9 L
94.1 417.9 L
94.1 423.1 L
cp
f
GR
GS
[0.75 0 0 0.75 0 0] CT
1 0 0 RC
10.0 ML
2 LW
N
88.9 423.1 M
88.9 417.9 L
94.1 417.9 L
94.1 423.1 L
cp
S
GR
GS
[0.75 0 0 0.75 0 0] CT
1 GC
N
160.9 422.1 M
160.9 416.9 L
166.1 416.9 L
166.1 422.1 L
cp
f
GR
GS
[0.75 0 0 0.75 0 0] CT
1 0 0 RC
10.0 ML
2 LW
N
160.9 422.1 M
160.9 416.9 L
166.1 416.9 L
166.1 422.1 L
cp
S
GR
GS
[0.75 0 0 0.75 0 0] CT
1 GC
N
233.9 420.1 M
233.9 414.9 L
239.1 414.9 L
239.1 420.1 L
cp
f
GR
GS
[0.75 0 0 0.75 0 0] CT
1 0 0 RC
10.0 ML
2 LW
N
233.9 420.1 M
233.9 414.9 L
239.1 414.9 L
239.1 420.1 L
cp
S
GR
GS
[0.75 0 0 0.75 0 0] CT
1 GC
N
305.9 419.1 M
305.9 413.9 L
311.1 413.9 L
311.1 419.1 L
cp
f
GR
GS
[0.75 0 0 0.75 0 0] CT
1 0 0 RC
10.0 ML
2 LW
N
305.9 419.1 M
305.9 413.9 L
311.1 413.9 L
311.1 419.1 L
cp
S
GR
GS
[0.75 0 0 0.75 0 0] CT
1 GC
N
378.9 417.1 M
378.9 411.9 L
384.1 411.9 L
384.1 417.1 L
cp
f
GR
GS
[0.75 0 0 0.75 0 0] CT
1 0 0 RC
10.0 ML
2 LW
N
378.9 417.1 M
378.9 411.9 L
384.1 411.9 L
384.1 417.1 L
cp
S
GR
GS
[0.75 0 0 0.75 0 0] CT
1 GC
N
450.9 415.1 M
450.9 409.9 L
456.1 409.9 L
456.1 415.1 L
cp
f
GR
GS
[0.75 0 0 0.75 0 0] CT
1 0 0 RC
10.0 ML
2 LW
N
450.9 415.1 M
450.9 409.9 L
456.1 409.9 L
456.1 415.1 L
cp
S
GR
GS
[0.75 0 0 0.75 0 0] CT
1 GC
N
523.9 411.1 M
523.9 405.9 L
529.1 405.9 L
529.1 411.1 L
cp
f
GR
GS
[0.75 0 0 0.75 0 0] CT
1 0 0 RC
10.0 ML
2 LW
N
523.9 411.1 M
523.9 405.9 L
529.1 405.9 L
529.1 411.1 L
cp
S
GR
GS
[0.75 0 0 0.75 0 0] CT
1 GC
N
595.9 405.1 M
595.9 399.9 L
601.1 399.9 L
601.1 405.1 L
cp
f
GR
GS
[0.75 0 0 0.75 0 0] CT
1 0 0 RC
10.0 ML
2 LW
N
595.9 405.1 M
595.9 399.9 L
601.1 399.9 L
601.1 405.1 L
cp
S
GR
GS
[0.75 0 0 0.75 0 0] CT
1 GC
N
668.9 398.1 M
668.9 392.9 L
674.1 392.9 L
674.1 398.1 L
cp
f
GR
GS
[0.75 0 0 0.75 0 0] CT
1 0 0 RC
10.0 ML
2 LW
N
668.9 398.1 M
668.9 392.9 L
674.1 392.9 L
674.1 398.1 L
cp
S
GR
GS
[0.75 0 0 0.75 0 0] CT
1 GC
N
741.9 388.1 M
741.9 382.9 L
747.1 382.9 L
747.1 388.1 L
cp
f
GR
GS
[0.75 0 0 0.75 0 0] CT
1 0 0 RC
10.0 ML
2 LW
N
741.9 388.1 M
741.9 382.9 L
747.1 382.9 L
747.1 388.1 L
cp
S
GR
GS
[0.75 0 0 0.75 0 0] CT
1 LJ
2 LW
N
91 420.068 M
163.556 419.947 L
236.111 419.33 L
308.667 417.569 L
381.222 416.513 L
453.778 415.788 L
526.333 415.224 L
598.889 414.792 L
671.444 414.068 L
744 413.046 L
S
GR
GS
[0.75 0 0 0.75 0 0] CT
1 GC
N
94.833 420.5 M
93.857 418.143 L
91.5 417.167 L
89.143 418.143 L
88.167 420.5 L
89.143 422.857 L
91.5 423.833 L
93.857 422.857 L
94.833 420.5 L
cp
f
GR
GS
[0.75 0 0 0.75 0 0] CT
1 LJ
2 LW
N
94.833 420.5 M
94.197 418.541 L
92.53 417.33 L
90.47 417.33 L
88.803 418.541 L
88.167 420.5 L
88.803 422.459 L
90.47 423.67 L
92.53 423.67 L
94.197 422.459 L
cp
S
GR
GS
[0.75 0 0 0.75 0 0] CT
1 GC
N
166.833 419.5 M
165.857 417.143 L
163.5 416.167 L
161.143 417.143 L
160.167 419.5 L
161.143 421.857 L
163.5 422.833 L
165.857 421.857 L
166.833 419.5 L
cp
f
GR
GS
[0.75 0 0 0.75 0 0] CT
1 LJ
2 LW
N
166.833 419.5 M
166.197 417.541 L
164.53 416.33 L
162.47 416.33 L
160.803 417.541 L
160.167 419.5 L
160.803 421.459 L
162.47 422.67 L
164.53 422.67 L
166.197 421.459 L
cp
S
GR
GS
[0.75 0 0 0.75 0 0] CT
1 GC
N
239.833 419.5 M
238.857 417.143 L
236.5 416.167 L
234.143 417.143 L
233.167 419.5 L
234.143 421.857 L
236.5 422.833 L
238.857 421.857 L
239.833 419.5 L
cp
f
GR
GS
[0.75 0 0 0.75 0 0] CT
1 LJ
2 LW
N
239.833 419.5 M
239.197 417.541 L
237.53 416.33 L
235.47 416.33 L
233.803 417.541 L
233.167 419.5 L
233.803 421.459 L
235.47 422.67 L
237.53 422.67 L
239.197 421.459 L
cp
S
GR
GS
[0.75 0 0 0.75 0 0] CT
1 GC
N
311.833 417.5 M
310.857 415.143 L
308.5 414.167 L
306.143 415.143 L
305.167 417.5 L
306.143 419.857 L
308.5 420.833 L
310.857 419.857 L
311.833 417.5 L
cp
f
GR
GS
[0.75 0 0 0.75 0 0] CT
1 LJ
2 LW
N
311.833 417.5 M
311.197 415.541 L
309.53 414.33 L
307.47 414.33 L
305.803 415.541 L
305.167 417.5 L
305.803 419.459 L
307.47 420.67 L
309.53 420.67 L
311.197 419.459 L
cp
S
GR
GS
[0.75 0 0 0.75 0 0] CT
1 GC
N
384.833 416.5 M
383.857 414.143 L
381.5 413.167 L
379.143 414.143 L
378.167 416.5 L
379.143 418.857 L
381.5 419.833 L
383.857 418.857 L
384.833 416.5 L
cp
f
GR
GS
[0.75 0 0 0.75 0 0] CT
1 LJ
2 LW
N
384.833 416.5 M
384.197 414.541 L
382.53 413.33 L
380.47 413.33 L
378.803 414.541 L
378.167 416.5 L
378.803 418.459 L
380.47 419.67 L
382.53 419.67 L
384.197 418.459 L
cp
S
GR
GS
[0.75 0 0 0.75 0 0] CT
1 GC
N
456.833 415.5 M
455.857 413.143 L
453.5 412.167 L
451.143 413.143 L
450.167 415.5 L
451.143 417.857 L
453.5 418.833 L
455.857 417.857 L
456.833 415.5 L
cp
f
GR
GS
[0.75 0 0 0.75 0 0] CT
1 LJ
2 LW
N
456.833 415.5 M
456.197 413.541 L
454.53 412.33 L
452.47 412.33 L
450.803 413.541 L
450.167 415.5 L
450.803 417.459 L
452.47 418.67 L
454.53 418.67 L
456.197 417.459 L
cp
S
GR
GS
[0.75 0 0 0.75 0 0] CT
1 GC
N
529.833 415.5 M
528.857 413.143 L
526.5 412.167 L
524.143 413.143 L
523.167 415.5 L
524.143 417.857 L
526.5 418.833 L
528.857 417.857 L
529.833 415.5 L
cp
f
GR
GS
[0.75 0 0 0.75 0 0] CT
1 LJ
2 LW
N
529.833 415.5 M
529.197 413.541 L
527.53 412.33 L
525.47 412.33 L
523.803 413.541 L
523.167 415.5 L
523.803 417.459 L
525.47 418.67 L
527.53 418.67 L
529.197 417.459 L
cp
S
GR
GS
[0.75 0 0 0.75 0 0] CT
1 GC
N
601.833 414.5 M
600.857 412.143 L
598.5 411.167 L
596.143 412.143 L
595.167 414.5 L
596.143 416.857 L
598.5 417.833 L
600.857 416.857 L
601.833 414.5 L
cp
f
GR
GS
[0.75 0 0 0.75 0 0] CT
1 LJ
2 LW
N
601.833 414.5 M
601.197 412.541 L
599.53 411.33 L
597.47 411.33 L
595.803 412.541 L
595.167 414.5 L
595.803 416.459 L
597.47 417.67 L
599.53 417.67 L
601.197 416.459 L
cp
S
GR
GS
[0.75 0 0 0.75 0 0] CT
1 GC
N
674.833 414.5 M
673.857 412.143 L
671.5 411.167 L
669.143 412.143 L
668.167 414.5 L
669.143 416.857 L
671.5 417.833 L
673.857 416.857 L
674.833 414.5 L
cp
f
GR
GS
[0.75 0 0 0.75 0 0] CT
1 LJ
2 LW
N
674.833 414.5 M
674.197 412.541 L
672.53 411.33 L
670.47 411.33 L
668.803 412.541 L
668.167 414.5 L
668.803 416.459 L
670.47 417.67 L
672.53 417.67 L
674.197 416.459 L
cp
S
GR
GS
[0.75 0 0 0.75 0 0] CT
1 GC
N
747.833 413.5 M
746.857 411.143 L
744.5 410.167 L
742.143 411.143 L
741.167 413.5 L
742.143 415.857 L
744.5 416.833 L
746.857 415.857 L
747.833 413.5 L
cp
f
GR
GS
[0.75 0 0 0.75 0 0] CT
1 LJ
2 LW
N
747.833 413.5 M
747.197 411.541 L
745.53 410.33 L
743.47 410.33 L
741.803 411.541 L
741.167 413.5 L
741.803 415.459 L
743.47 416.67 L
745.53 416.67 L
747.197 415.459 L
cp
S
GR
GS
[0.75 0 0 0.75 0 0] CT
1 GC
N
104 333 M
104 64 L
210 64 L
210 333 L
cp
f
GR
GS
[0.75 0 0 0.75 105.75 60.37501] CT
/Times 24 F
GS
[1 0 0 1 0 0] CT
0 8.5 moveto 
1 -1 scale
(LBP) t 
GR
GR
GS
[0.75 0 0 0.75 0 0] CT
1 0.6 0.784 RC
1 LJ
2 LW
N
108 80.5 M
138 80.5 L
S
GR
GS
[0.75 0 0 0.75 0 0] CT
1 GC
N
121.278 76.652 M
127.943 80.5 L
121.278 84.348 L
cp
f
GR
GS
[0.75 0 0 0.75 0 0] CT
1 0.6 0.784 RC
10.0 ML
2 LW
N
121.278 76.652 M
127.943 80.5 L
121.278 84.348 L
cp
S
GR
GS
[0.75 0 0 0.75 105.75 82.49999] CT
/Times 24 F
GS
[1 0 0 1 0 0] CT
0 8.5 moveto 
1 -1 scale
(LTP) t 
GR
GR
GS
[0.75 0 0 0.75 0 0] CT
0.6 0.2 0 RC
1 LJ
2 LW
N
108 110 M
138 110 L
S
GR
GS
[0.75 0 0 0.75 0 0] CT
1 GC
N
119.057 109.5 M
125.722 105.652 L
125.722 113.348 L
cp
f
GR
GS
[0.75 0 0 0.75 0 0] CT
0.6 0.2 0 RC
10.0 ML
2 LW
N
119.057 109.5 M
125.722 105.652 L
125.722 113.348 L
cp
S
GR
GS
[0.75 0 0 0.75 105.75 104.625] CT
/Times 24 F
GS
[1 0 0 1 0 0] CT
0 8.5 moveto 
1 -1 scale
(LDP) t 
GR
GR
GS
[0.75 0 0 0.75 0 0] CT
0.929 0.694 0.125 RC
1 LJ
2 LW
N
108 139.5 M
138 139.5 L
S
GR
GS
[0.75 0 0 0.75 0 0] CT
1 GC
N
120.33 138.47 M
122.716 138.47 L
123.5 136.167 L
124.284 138.47 L
126.67 138.47 L
124.768 139.912 L
125.459 142.197 L
123.5 140.833 L
121.541 142.197 L
122.232 139.912 L
120.33 138.47 L
cp
f
GR
GS
[0.75 0 0 0.75 0 0] CT
0.929 0.694 0.125 RC
10.0 ML
2 LW
N
120.33 138.47 M
122.716 138.47 L
123.5 136.167 L
124.284 138.47 L
126.67 138.47 L
124.768 139.912 L
125.459 142.197 L
123.5 140.833 L
121.541 142.197 L
122.232 139.912 L
cp
S
GR
GS
[0.75 0 0 0.75 105.75 126.75] CT
/Times 24 F
GS
[1 0 0 1 0 0] CT
0 8.5 moveto 
1 -1 scale
(LDN) t 
GR
GR
GS
[0.75 0 0 0.75 0 0] CT
0 1 1 RC
1 LJ
2 LW
N
108 169 M
138 169 L
S
GR
GS
[0.75 0 0 0.75 0 0] CT
1 GC
N
123.5 172.943 M
126.833 168.5 L
123.5 164.057 L
120.167 168.5 L
cp
f
GR
GS
[0.75 0 0 0.75 0 0] CT
0 1 1 RC
10.0 ML
2 LW
N
123.5 172.943 M
126.833 168.5 L
123.5 164.057 L
120.167 168.5 L
cp
S
GR
GS
[0.75 0 0 0.75 105.75 148.875] CT
/Times 24 F
GS
[1 0 0 1 0 0] CT
0 8.5 moveto 
1 -1 scale
(LVP) t 
GR
GR
GS
[0.75 0 0 0.75 0 0] CT
0 1 0 RC
1 LJ
2 LW
N
108 198.5 M
138 198.5 L
S
GR
GS
[0.75 0 0 0.75 0 0] CT
1 GC
N
120.9 201.1 M
120.9 195.9 L
126.1 195.9 L
126.1 201.1 L
cp
f
GR
GS
[0.75 0 0 0.75 0 0] CT
0 1 0 RC
10.0 ML
2 LW
N
120.9 201.1 M
120.9 195.9 L
126.1 195.9 L
126.1 201.1 L
cp
S
GR
GS
[0.75 0 0 0.75 105.75 171] CT
/Times 24 F
GS
[1 0 0 1 0 0] CT
0 8.5 moveto 
1 -1 scale
(LDGP) t 
GR
GR
GS
[0.75 0 0 0.75 0 0] CT
0 0 1 RC
1 LJ
2 LW
N
108 228 M
138 228 L
S
GR
GS
[0.75 0 0 0.75 0 0] CT
1 GC
N
119.057 227.5 M
125.722 223.652 L
125.722 231.348 L
cp
f
GR
GS
[0.75 0 0 0.75 0 0] CT
0 0 1 RC
10.0 ML
2 LW
N
119.057 227.5 M
125.722 223.652 L
125.722 231.348 L
cp
S
GR
GS
[0.75 0 0 0.75 105.75 193.125] CT
/Times 24 F
GS
[1 0 0 1 0 0] CT
0 8.5 moveto 
1 -1 scale
(DCP) t 
GR
GR
GS
[0.75 0 0 0.75 0 0] CT
1 0 1 RC
1 LJ
2 LW
N
108 257.5 M
138 257.5 L
S
GR
GS
[0.75 0 0 0.75 0 0] CT
1 0 1 RC
1 LJ
2 LW
N
120 257.5 M
127 257.5 L
S
GR
GS
[0.75 0 0 0.75 0 0] CT
1 0 1 RC
1 LJ
2 LW
N
123.5 261 M
123.5 254 L
S
GR
GS
[0.75 0 0 0.75 105.75 215.25] CT
/Times 24 F
GS
[1 0 0 1 0 0] CT
0 8.5 moveto 
1 -1 scale
(LGHP) t 
GR
GR
GS
[0.75 0 0 0.75 0 0] CT
1 0 0 RC
1 LJ
2 LW
N
108 287 M
138 287 L
S
GR
GS
[0.75 0 0 0.75 0 0] CT
1 GC
N
120.9 290.1 M
120.9 284.9 L
126.1 284.9 L
126.1 290.1 L
cp
f
GR
GS
[0.75 0 0 0.75 0 0] CT
1 0 0 RC
10.0 ML
2 LW
N
120.9 290.1 M
120.9 284.9 L
126.1 284.9 L
126.1 290.1 L
cp
S
GR
GS
[0.75 0 0 0.75 105.75 237.375] CT
/Times 24 F
GS
[1 0 0 1 0 0] CT
0 8.5 moveto 
1 -1 scale
(LDRP) t 
GR
GR
GS
[0.75 0 0 0.75 0 0] CT
1 LJ
2 LW
N
108 316.5 M
138 316.5 L
S
GR
GS
[0.75 0 0 0.75 0 0] CT
1 GC
N
126.833 316.5 M
125.857 314.143 L
123.5 313.167 L
121.143 314.143 L
120.167 316.5 L
121.143 318.857 L
123.5 319.833 L
125.857 318.857 L
126.833 316.5 L
cp
f
GR
GS
[0.75 0 0 0.75 0 0] CT
1 LJ
2 LW
N
126.833 316.5 M
126.197 314.541 L
124.53 313.33 L
122.47 313.33 L
120.803 314.541 L
120.167 316.5 L
120.803 318.459 L
122.47 319.67 L
124.53 319.67 L
126.197 318.459 L
cp
S
GR
GS
[0.75 0 0 0.75 0 0] CT
0.149 GC
10.0 ML
0.667 LW
N
104 333 M
104 64 L
210 64 L
210 333 L
cp
S
GR
%%Trailer
%%Pages: 1
%%EOF
