%!PS-Adobe-3.0 EPSF-3.0
%%Creator: (MATLAB, The Mathworks, Inc. Version 9.0.0.341360 \(R2016a\). Operating System: Linux)
%%Title: (/home/shivram/main/Work/1. Research/1. Ongoing/5. LDRP Face/2. Exp/1. Results/FERET20/feret-arp.eps)
%%CreationDate: 2017-08-16T16:09:55
%%Pages: (atend)
%%BoundingBox: 0 0 573 384
%%LanguageLevel: 3
%%EndComments
%%BeginProlog
%%BeginResource: procset (Apache XML Graphics Std ProcSet) 1.2 0
%%Version: 1.2 0
%%Copyright: (Copyright 2001-2003,2010 The Apache Software Foundation. License terms: http://www.apache.org/licenses/LICENSE-2.0)
/bd{bind def}bind def
/ld{load def}bd
/GR/grestore ld
/M/moveto ld
/LJ/setlinejoin ld
/C/curveto ld
/f/fill ld
/LW/setlinewidth ld
/GC/setgray ld
/t/show ld
/N/newpath ld
/CT/concat ld
/cp/closepath ld
/S/stroke ld
/L/lineto ld
/CC/setcmykcolor ld
/A/ashow ld
/GS/gsave ld
/RC/setrgbcolor ld
/RM/rmoveto ld
/ML/setmiterlimit ld
/re {4 2 roll M
1 index 0 rlineto
0 exch rlineto
neg 0 rlineto
cp } bd
/_ctm matrix def
/_tm matrix def
/BT { _ctm currentmatrix pop matrix _tm copy pop 0 0 moveto } bd
/ET { _ctm setmatrix } bd
/iTm { _ctm setmatrix _tm concat } bd
/Tm { _tm astore pop iTm 0 0 moveto } bd
/ux 0.0 def
/uy 0.0 def
/F {
  /Tp exch def
  /Tf exch def
  Tf findfont Tp scalefont setfont
  /cf Tf def  /cs Tp def
} bd
/ULS {currentpoint /uy exch def /ux exch def} bd
/ULE {
  /Tcx currentpoint pop def
  gsave
  newpath
  cf findfont cs scalefont dup
  /FontMatrix get 0 get /Ts exch def /FontInfo get dup
  /UnderlinePosition get Ts mul /To exch def
  /UnderlineThickness get Ts mul /Tt exch def
  ux uy To add moveto  Tcx uy To add lineto
  Tt setlinewidth stroke
  grestore
} bd
/OLE {
  /Tcx currentpoint pop def
  gsave
  newpath
  cf findfont cs scalefont dup
  /FontMatrix get 0 get /Ts exch def /FontInfo get dup
  /UnderlinePosition get Ts mul /To exch def
  /UnderlineThickness get Ts mul /Tt exch def
  ux uy To add cs add moveto Tcx uy To add cs add lineto
  Tt setlinewidth stroke
  grestore
} bd
/SOE {
  /Tcx currentpoint pop def
  gsave
  newpath
  cf findfont cs scalefont dup
  /FontMatrix get 0 get /Ts exch def /FontInfo get dup
  /UnderlinePosition get Ts mul /To exch def
  /UnderlineThickness get Ts mul /Tt exch def
  ux uy To add cs 10 mul 26 idiv add moveto Tcx uy To add cs 10 mul 26 idiv add lineto
  Tt setlinewidth stroke
  grestore
} bd
/QT {
/Y22 exch store
/X22 exch store
/Y21 exch store
/X21 exch store
currentpoint
/Y21 load 2 mul add 3 div exch
/X21 load 2 mul add 3 div exch
/X21 load 2 mul /X22 load add 3 div
/Y21 load 2 mul /Y22 load add 3 div
/X22 load /Y22 load curveto
} bd
/SSPD {
dup length /d exch dict def
{
/v exch def
/k exch def
currentpagedevice k known {
/cpdv currentpagedevice k get def
v cpdv ne {
/upd false def
/nullv v type /nulltype eq def
/nullcpdv cpdv type /nulltype eq def
nullv nullcpdv or
{
/upd true def
} {
/sametype v type cpdv type eq def
sametype {
v type /arraytype eq {
/vlen v length def
/cpdvlen cpdv length def
vlen cpdvlen eq {
0 1 vlen 1 sub {
/i exch def
/obj v i get def
/cpdobj cpdv i get def
obj cpdobj ne {
/upd true def
exit
} if
} for
} {
/upd true def
} ifelse
} {
v type /dicttype eq {
v {
/dv exch def
/dk exch def
/cpddv cpdv dk get def
dv cpddv ne {
/upd true def
exit
} if
} forall
} {
/upd true def
} ifelse
} ifelse
} if
} ifelse
upd true eq {
d k v put
} if
} if
} if
} forall
d length 0 gt {
d setpagedevice
} if
} bd
%%EndResource
%%BeginResource: procset (Apache XML Graphics EPS ProcSet) 1.0 0
%%Version: 1.0 0
%%Copyright: (Copyright 2002-2003 The Apache Software Foundation. License terms: http://www.apache.org/licenses/LICENSE-2.0)
/BeginEPSF { %def
/b4_Inc_state save def         % Save state for cleanup
/dict_count countdictstack def % Count objects on dict stack
/op_count count 1 sub def      % Count objects on operand stack
userdict begin                 % Push userdict on dict stack
/showpage { } def              % Redefine showpage, { } = null proc
0 setgray 0 setlinecap         % Prepare graphics state
1 setlinewidth 0 setlinejoin
10 setmiterlimit [ ] 0 setdash newpath
/languagelevel where           % If level not equal to 1 then
{pop languagelevel             % set strokeadjust and
1 ne                           % overprint to their defaults.
{false setstrokeadjust false setoverprint
} if
} if
} bd
/EndEPSF { %def
count op_count sub {pop} repeat            % Clean up stacks
countdictstack dict_count sub {end} repeat
b4_Inc_state restore
} bd
%%EndResource
%FOPBeginFontDict
%%IncludeResource: font Courier-Bold
%%IncludeResource: font Helvetica
%%IncludeResource: font Courier-BoldOblique
%%IncludeResource: font Courier-Oblique
%%IncludeResource: font Times-Roman
%%IncludeResource: font Helvetica-BoldOblique
%%IncludeResource: font Helvetica-Bold
%%IncludeResource: font Helvetica-Oblique
%%IncludeResource: font Times-BoldItalic
%%IncludeResource: font Courier
%%IncludeResource: font Times-Italic
%%IncludeResource: font Times-Bold
%%IncludeResource: font Symbol
%%IncludeResource: font ZapfDingbats
%FOPEndFontDict
%%BeginResource: encoding WinAnsiEncoding
/WinAnsiEncoding [
/.notdef /.notdef /.notdef /.notdef /.notdef
/.notdef /.notdef /.notdef /.notdef /.notdef
/.notdef /.notdef /.notdef /.notdef /.notdef
/.notdef /.notdef /.notdef /.notdef /.notdef
/.notdef /.notdef /.notdef /.notdef /.notdef
/.notdef /.notdef /.notdef /.notdef /.notdef
/.notdef /.notdef /space /exclam /quotedbl
/numbersign /dollar /percent /ampersand /quotesingle
/parenleft /parenright /asterisk /plus /comma
/hyphen /period /slash /zero /one
/two /three /four /five /six
/seven /eight /nine /colon /semicolon
/less /equal /greater /question /at
/A /B /C /D /E
/F /G /H /I /J
/K /L /M /N /O
/P /Q /R /S /T
/U /V /W /X /Y
/Z /bracketleft /backslash /bracketright /asciicircum
/underscore /quoteleft /a /b /c
/d /e /f /g /h
/i /j /k /l /m
/n /o /p /q /r
/s /t /u /v /w
/x /y /z /braceleft /bar
/braceright /asciitilde /bullet /Euro /bullet
/quotesinglbase /florin /quotedblbase /ellipsis /dagger
/daggerdbl /circumflex /perthousand /Scaron /guilsinglleft
/OE /bullet /Zcaron /bullet /bullet
/quoteleft /quoteright /quotedblleft /quotedblright /bullet
/endash /emdash /asciitilde /trademark /scaron
/guilsinglright /oe /bullet /zcaron /Ydieresis
/space /exclamdown /cent /sterling /currency
/yen /brokenbar /section /dieresis /copyright
/ordfeminine /guillemotleft /logicalnot /sfthyphen /registered
/macron /degree /plusminus /twosuperior /threesuperior
/acute /mu /paragraph /middot /cedilla
/onesuperior /ordmasculine /guillemotright /onequarter /onehalf
/threequarters /questiondown /Agrave /Aacute /Acircumflex
/Atilde /Adieresis /Aring /AE /Ccedilla
/Egrave /Eacute /Ecircumflex /Edieresis /Igrave
/Iacute /Icircumflex /Idieresis /Eth /Ntilde
/Ograve /Oacute /Ocircumflex /Otilde /Odieresis
/multiply /Oslash /Ugrave /Uacute /Ucircumflex
/Udieresis /Yacute /Thorn /germandbls /agrave
/aacute /acircumflex /atilde /adieresis /aring
/ae /ccedilla /egrave /eacute /ecircumflex
/edieresis /igrave /iacute /icircumflex /idieresis
/eth /ntilde /ograve /oacute /ocircumflex
/otilde /odieresis /divide /oslash /ugrave
/uacute /ucircumflex /udieresis /yacute /thorn
/ydieresis
] def
%%EndResource
%FOPBeginFontReencode
/Courier-Bold findfont
dup length dict begin
  {1 index /FID ne {def} {pop pop} ifelse} forall
  /Encoding WinAnsiEncoding def
  currentdict
end
/Courier-Bold exch definefont pop
/Helvetica findfont
dup length dict begin
  {1 index /FID ne {def} {pop pop} ifelse} forall
  /Encoding WinAnsiEncoding def
  currentdict
end
/Helvetica exch definefont pop
/Courier-BoldOblique findfont
dup length dict begin
  {1 index /FID ne {def} {pop pop} ifelse} forall
  /Encoding WinAnsiEncoding def
  currentdict
end
/Courier-BoldOblique exch definefont pop
/Courier-Oblique findfont
dup length dict begin
  {1 index /FID ne {def} {pop pop} ifelse} forall
  /Encoding WinAnsiEncoding def
  currentdict
end
/Courier-Oblique exch definefont pop
/Times-Roman findfont
dup length dict begin
  {1 index /FID ne {def} {pop pop} ifelse} forall
  /Encoding WinAnsiEncoding def
  currentdict
end
/Times-Roman exch definefont pop
/Helvetica-BoldOblique findfont
dup length dict begin
  {1 index /FID ne {def} {pop pop} ifelse} forall
  /Encoding WinAnsiEncoding def
  currentdict
end
/Helvetica-BoldOblique exch definefont pop
/Helvetica-Bold findfont
dup length dict begin
  {1 index /FID ne {def} {pop pop} ifelse} forall
  /Encoding WinAnsiEncoding def
  currentdict
end
/Helvetica-Bold exch definefont pop
/Helvetica-Oblique findfont
dup length dict begin
  {1 index /FID ne {def} {pop pop} ifelse} forall
  /Encoding WinAnsiEncoding def
  currentdict
end
/Helvetica-Oblique exch definefont pop
/Times-BoldItalic findfont
dup length dict begin
  {1 index /FID ne {def} {pop pop} ifelse} forall
  /Encoding WinAnsiEncoding def
  currentdict
end
/Times-BoldItalic exch definefont pop
/Courier findfont
dup length dict begin
  {1 index /FID ne {def} {pop pop} ifelse} forall
  /Encoding WinAnsiEncoding def
  currentdict
end
/Courier exch definefont pop
/Times-Italic findfont
dup length dict begin
  {1 index /FID ne {def} {pop pop} ifelse} forall
  /Encoding WinAnsiEncoding def
  currentdict
end
/Times-Italic exch definefont pop
/Times-Bold findfont
dup length dict begin
  {1 index /FID ne {def} {pop pop} ifelse} forall
  /Encoding WinAnsiEncoding def
  currentdict
end
/Times-Bold exch definefont pop
%FOPEndFontReencode
%%EndProlog
%%Page: 1 1
%%PageBoundingBox: 0 0 573 384
%%BeginPageSetup
[1 0 0 -1 0 384] CT
%%EndPageSetup
GS
[0.75 0 0 0.75 0 0] CT
1 GC
N
0 0 764 512 re
f
GR
GS
[0.75 0 0 0.75 0 0] CT
1 GC
N
0 0 764 512 re
f
GR
GS
[0.75 0 0 0.75 0 0] CT
1 GC
N
112 421 M
743 421 L
743 51 L
112 51 L
cp
f
GR
GS
[0.75 0 0 0.75 0 0] CT
0.149 GC
2 setlinecap
1 LJ
0.667 LW
N
112 421 M
743 421 L
S
GR
GS
[0.75 0 0 0.75 0 0] CT
0.149 GC
2 setlinecap
1 LJ
0.667 LW
N
112 51 M
743 51 L
S
GR
GS
[0.75 0 0 0.75 0 0] CT
0.149 GC
2 setlinecap
1 LJ
0.667 LW
N
112 421 M
112 414.69 L
S
GR
GS
[0.75 0 0 0.75 0 0] CT
0.149 GC
2 setlinecap
1 LJ
0.667 LW
N
182.111 421 M
182.111 414.69 L
S
GR
GS
[0.75 0 0 0.75 0 0] CT
0.149 GC
2 setlinecap
1 LJ
0.667 LW
N
252.222 421 M
252.222 414.69 L
S
GR
GS
[0.75 0 0 0.75 0 0] CT
0.149 GC
2 setlinecap
1 LJ
0.667 LW
N
322.333 421 M
322.333 414.69 L
S
GR
GS
[0.75 0 0 0.75 0 0] CT
0.149 GC
2 setlinecap
1 LJ
0.667 LW
N
392.444 421 M
392.444 414.69 L
S
GR
GS
[0.75 0 0 0.75 0 0] CT
0.149 GC
2 setlinecap
1 LJ
0.667 LW
N
462.556 421 M
462.556 414.69 L
S
GR
GS
[0.75 0 0 0.75 0 0] CT
0.149 GC
2 setlinecap
1 LJ
0.667 LW
N
532.667 421 M
532.667 414.69 L
S
GR
GS
[0.75 0 0 0.75 0 0] CT
0.149 GC
2 setlinecap
1 LJ
0.667 LW
N
602.778 421 M
602.778 414.69 L
S
GR
GS
[0.75 0 0 0.75 0 0] CT
0.149 GC
2 setlinecap
1 LJ
0.667 LW
N
672.889 421 M
672.889 414.69 L
S
GR
GS
[0.75 0 0 0.75 0 0] CT
0.149 GC
2 setlinecap
1 LJ
0.667 LW
N
743 421 M
743 414.69 L
S
GR
GS
[0.75 0 0 0.75 0 0] CT
0.149 GC
2 setlinecap
1 LJ
0.667 LW
N
112 51 M
112 57.31 L
S
GR
GS
[0.75 0 0 0.75 0 0] CT
0.149 GC
2 setlinecap
1 LJ
0.667 LW
N
182.111 51 M
182.111 57.31 L
S
GR
GS
[0.75 0 0 0.75 0 0] CT
0.149 GC
2 setlinecap
1 LJ
0.667 LW
N
252.222 51 M
252.222 57.31 L
S
GR
GS
[0.75 0 0 0.75 0 0] CT
0.149 GC
2 setlinecap
1 LJ
0.667 LW
N
322.333 51 M
322.333 57.31 L
S
GR
GS
[0.75 0 0 0.75 0 0] CT
0.149 GC
2 setlinecap
1 LJ
0.667 LW
N
392.444 51 M
392.444 57.31 L
S
GR
GS
[0.75 0 0 0.75 0 0] CT
0.149 GC
2 setlinecap
1 LJ
0.667 LW
N
462.556 51 M
462.556 57.31 L
S
GR
GS
[0.75 0 0 0.75 0 0] CT
0.149 GC
2 setlinecap
1 LJ
0.667 LW
N
532.667 51 M
532.667 57.31 L
S
GR
GS
[0.75 0 0 0.75 0 0] CT
0.149 GC
2 setlinecap
1 LJ
0.667 LW
N
602.778 51 M
602.778 57.31 L
S
GR
GS
[0.75 0 0 0.75 0 0] CT
0.149 GC
2 setlinecap
1 LJ
0.667 LW
N
672.889 51 M
672.889 57.31 L
S
GR
GS
[0.75 0 0 0.75 0 0] CT
0.149 GC
2 setlinecap
1 LJ
0.667 LW
N
743 51 M
743 57.31 L
S
GR
GS
[0.75 0 0 0.75 84 322.55001] CT
0.149 GC
/Times 32 F
GS
[1 0 0 1 0 0] CT
-10.5 30 moveto 
1 -1 scale
(1) t 
GR
GR
GS
[0.75 0 0 0.75 136.58334 322.55001] CT
0.149 GC
/Times 32 F
GS
[1 0 0 1 0 0] CT
-10.5 30 moveto 
1 -1 scale
(2) t 
GR
GR
GS
[0.75 0 0 0.75 189.16667 322.55001] CT
0.149 GC
/Times 32 F
GS
[1 0 0 1 0 0] CT
-10.5 30 moveto 
1 -1 scale
(3) t 
GR
GR
GS
[0.75 0 0 0.75 241.75001 322.55001] CT
0.149 GC
/Times 32 F
GS
[1 0 0 1 0 0] CT
-10.5 30 moveto 
1 -1 scale
(4) t 
GR
GR
GS
[0.75 0 0 0.75 294.33334 322.55001] CT
0.149 GC
/Times 32 F
GS
[1 0 0 1 0 0] CT
-10.5 30 moveto 
1 -1 scale
(5) t 
GR
GR
GS
[0.75 0 0 0.75 346.91666 322.55001] CT
0.149 GC
/Times 32 F
GS
[1 0 0 1 0 0] CT
-10.5 30 moveto 
1 -1 scale
(6) t 
GR
GR
GS
[0.75 0 0 0.75 399.50002 322.55001] CT
0.149 GC
/Times 32 F
GS
[1 0 0 1 0 0] CT
-10.5 30 moveto 
1 -1 scale
(7) t 
GR
GR
GS
[0.75 0 0 0.75 452.08333 322.55001] CT
0.149 GC
/Times 32 F
GS
[1 0 0 1 0 0] CT
-10.5 30 moveto 
1 -1 scale
(8) t 
GR
GR
GS
[0.75 0 0 0.75 504.66669 322.55001] CT
0.149 GC
/Times 32 F
GS
[1 0 0 1 0 0] CT
-10.5 30 moveto 
1 -1 scale
(9) t 
GR
GR
GS
[0.75 0 0 0.75 557.25 322.55001] CT
0.149 GC
/Times 32 F
GS
[1 0 0 1 0 0] CT
-20.5 30 moveto 
1 -1 scale
(10) t 
GR
GR
GS
[0.75 0 0 0.75 320.62523 352.05] CT
0.149 GC
/Times 35.2 F
GS
[1 0 0 1 0 0] CT
-210 33 moveto 
1 -1 scale
(Number of Top Matches) t 
GR
GR
GS
[0.75 0 0 0.75 0 0] CT
0.149 GC
2 setlinecap
1 LJ
0.667 LW
N
112 421 M
112 51 L
S
GR
GS
[0.75 0 0 0.75 0 0] CT
0.149 GC
2 setlinecap
1 LJ
0.667 LW
N
743 421 M
743 51 L
S
GR
GS
[0.75 0 0 0.75 0 0] CT
0.149 GC
2 setlinecap
1 LJ
0.667 LW
N
112 382.343 M
118.31 382.343 L
S
GR
GS
[0.75 0 0 0.75 0 0] CT
0.149 GC
2 setlinecap
1 LJ
0.667 LW
N
112 327.119 M
118.31 327.119 L
S
GR
GS
[0.75 0 0 0.75 0 0] CT
0.149 GC
2 setlinecap
1 LJ
0.667 LW
N
112 271.896 M
118.31 271.896 L
S
GR
GS
[0.75 0 0 0.75 0 0] CT
0.149 GC
2 setlinecap
1 LJ
0.667 LW
N
112 216.672 M
118.31 216.672 L
S
GR
GS
[0.75 0 0 0.75 0 0] CT
0.149 GC
2 setlinecap
1 LJ
0.667 LW
N
112 161.448 M
118.31 161.448 L
S
GR
GS
[0.75 0 0 0.75 0 0] CT
0.149 GC
2 setlinecap
1 LJ
0.667 LW
N
112 106.224 M
118.31 106.224 L
S
GR
GS
[0.75 0 0 0.75 0 0] CT
0.149 GC
2 setlinecap
1 LJ
0.667 LW
N
112 51 M
118.31 51 L
S
GR
GS
[0.75 0 0 0.75 0 0] CT
0.149 GC
2 setlinecap
1 LJ
0.667 LW
N
743 382.343 M
736.69 382.343 L
S
GR
GS
[0.75 0 0 0.75 0 0] CT
0.149 GC
2 setlinecap
1 LJ
0.667 LW
N
743 327.119 M
736.69 327.119 L
S
GR
GS
[0.75 0 0 0.75 0 0] CT
0.149 GC
2 setlinecap
1 LJ
0.667 LW
N
743 271.896 M
736.69 271.896 L
S
GR
GS
[0.75 0 0 0.75 0 0] CT
0.149 GC
2 setlinecap
1 LJ
0.667 LW
N
743 216.672 M
736.69 216.672 L
S
GR
GS
[0.75 0 0 0.75 0 0] CT
0.149 GC
2 setlinecap
1 LJ
0.667 LW
N
743 161.448 M
736.69 161.448 L
S
GR
GS
[0.75 0 0 0.75 0 0] CT
0.149 GC
2 setlinecap
1 LJ
0.667 LW
N
743 106.224 M
736.69 106.224 L
S
GR
GS
[0.75 0 0 0.75 0 0] CT
0.149 GC
2 setlinecap
1 LJ
0.667 LW
N
743 51 M
736.69 51 L
S
GR
GS
[0.75 0 0 0.75 77.2 286.75747] CT
0.149 GC
/Times 32 F
GS
[1 0 0 1 0 0] CT
-41 11 moveto 
1 -1 scale
(40) t 
GR
GR
GS
[0.75 0 0 0.75 77.2 245.33956] CT
0.149 GC
/Times 32 F
GS
[1 0 0 1 0 0] CT
-41 11 moveto 
1 -1 scale
(50) t 
GR
GR
GS
[0.75 0 0 0.75 77.2 203.92163] CT
0.149 GC
/Times 32 F
GS
[1 0 0 1 0 0] CT
-41 11 moveto 
1 -1 scale
(60) t 
GR
GR
GS
[0.75 0 0 0.75 77.2 162.50373] CT
0.149 GC
/Times 32 F
GS
[1 0 0 1 0 0] CT
-41 11 moveto 
1 -1 scale
(70) t 
GR
GR
GS
[0.75 0 0 0.75 77.2 121.08582] CT
0.149 GC
/Times 32 F
GS
[1 0 0 1 0 0] CT
-41 11 moveto 
1 -1 scale
(80) t 
GR
GR
GS
[0.75 0 0 0.75 77.2 79.66791] CT
0.149 GC
/Times 32 F
GS
[1 0 0 1 0 0] CT
-41 11 moveto 
1 -1 scale
(90) t 
GR
GR
GS
[0.75 0 0 0.75 77.2 38.25] CT
0.149 GC
/Times 32 F
GS
[1 0 0 1 0 0] CT
-62 11 moveto 
1 -1 scale
(100) t 
GR
GR
GS
[0 -0.75 0.75 0 27.7 176.99987] CT
0.149 GC
/Times 35.2 F
GS
[1 0 0 1 0 0] CT
-71 -9 moveto 
1 -1 scale
(ARP \(%\)) t 
GR
GR
GS
[0.75 0 0 0.75 320.6253 33.29999] CT
/Times 35.2 F
GS
[1 0 0 1 0 0] CT
-144.5 -9 moveto 
1 -1 scale
(FERET Database) t 
GR
GR
GS
[0.75 0 0 0.75 0 0] CT
1 0.6 0.784 RC
1 LJ
2 LW
N
112 51 M
182.111 103.899 L
252.222 160.58 L
322.333 206.183 L
392.444 244.686 L
462.556 277.401 L
532.667 304.43 L
602.778 328.102 L
672.889 347.993 L
743 364.59 L
S
GR
GS
[0.75 0 0 0.75 0 0] CT
1 GC
N
110.278 46.652 M
116.943 50.5 L
110.278 54.348 L
cp
f
GR
GS
[0.75 0 0 0.75 0 0] CT
1 0.6 0.784 RC
10.0 ML
2 LW
N
110.278 46.652 M
116.943 50.5 L
110.278 54.348 L
cp
S
GR
GS
[0.75 0 0 0.75 0 0] CT
1 GC
N
180.278 99.652 M
186.943 103.5 L
180.278 107.348 L
cp
f
GR
GS
[0.75 0 0 0.75 0 0] CT
1 0.6 0.784 RC
10.0 ML
2 LW
N
180.278 99.652 M
186.943 103.5 L
180.278 107.348 L
cp
S
GR
GS
[0.75 0 0 0.75 0 0] CT
1 GC
N
250.278 156.652 M
256.943 160.5 L
250.278 164.348 L
cp
f
GR
GS
[0.75 0 0 0.75 0 0] CT
1 0.6 0.784 RC
10.0 ML
2 LW
N
250.278 156.652 M
256.943 160.5 L
250.278 164.348 L
cp
S
GR
GS
[0.75 0 0 0.75 0 0] CT
1 GC
N
320.278 202.652 M
326.943 206.5 L
320.278 210.348 L
cp
f
GR
GS
[0.75 0 0 0.75 0 0] CT
1 0.6 0.784 RC
10.0 ML
2 LW
N
320.278 202.652 M
326.943 206.5 L
320.278 210.348 L
cp
S
GR
GS
[0.75 0 0 0.75 0 0] CT
1 GC
N
390.278 240.652 M
396.943 244.5 L
390.278 248.348 L
cp
f
GR
GS
[0.75 0 0 0.75 0 0] CT
1 0.6 0.784 RC
10.0 ML
2 LW
N
390.278 240.652 M
396.943 244.5 L
390.278 248.348 L
cp
S
GR
GS
[0.75 0 0 0.75 0 0] CT
1 GC
N
460.278 273.652 M
466.943 277.5 L
460.278 281.348 L
cp
f
GR
GS
[0.75 0 0 0.75 0 0] CT
1 0.6 0.784 RC
10.0 ML
2 LW
N
460.278 273.652 M
466.943 277.5 L
460.278 281.348 L
cp
S
GR
GS
[0.75 0 0 0.75 0 0] CT
1 GC
N
530.278 300.652 M
536.943 304.5 L
530.278 308.348 L
cp
f
GR
GS
[0.75 0 0 0.75 0 0] CT
1 0.6 0.784 RC
10.0 ML
2 LW
N
530.278 300.652 M
536.943 304.5 L
530.278 308.348 L
cp
S
GR
GS
[0.75 0 0 0.75 0 0] CT
1 GC
N
600.278 324.652 M
606.943 328.5 L
600.278 332.348 L
cp
f
GR
GS
[0.75 0 0 0.75 0 0] CT
1 0.6 0.784 RC
10.0 ML
2 LW
N
600.278 324.652 M
606.943 328.5 L
600.278 332.348 L
cp
S
GR
GS
[0.75 0 0 0.75 0 0] CT
1 GC
N
670.278 343.652 M
676.943 347.5 L
670.278 351.348 L
cp
f
GR
GS
[0.75 0 0 0.75 0 0] CT
1 0.6 0.784 RC
10.0 ML
2 LW
N
670.278 343.652 M
676.943 347.5 L
670.278 351.348 L
cp
S
GR
GS
[0.75 0 0 0.75 0 0] CT
1 GC
N
741.278 360.652 M
747.943 364.5 L
741.278 368.348 L
cp
f
GR
GS
[0.75 0 0 0.75 0 0] CT
1 0.6 0.784 RC
10.0 ML
2 LW
N
741.278 360.652 M
747.943 364.5 L
741.278 368.348 L
cp
S
GR
GS
[0.75 0 0 0.75 0 0] CT
0.6 0.2 0 RC
1 LJ
2 LW
N
112 51 M
182.111 105.845 L
252.222 161.509 L
322.333 207 L
392.444 243.939 L
462.556 276.886 L
532.667 304.594 L
602.778 328.042 L
672.889 348.181 L
743 365.722 L
S
GR
GS
[0.75 0 0 0.75 0 0] CT
1 GC
N
108.057 50.5 M
114.722 46.652 L
114.722 54.348 L
cp
f
GR
GS
[0.75 0 0 0.75 0 0] CT
0.6 0.2 0 RC
10.0 ML
2 LW
N
108.057 50.5 M
114.722 46.652 L
114.722 54.348 L
cp
S
GR
GS
[0.75 0 0 0.75 0 0] CT
1 GC
N
178.057 105.5 M
184.722 101.652 L
184.722 109.348 L
cp
f
GR
GS
[0.75 0 0 0.75 0 0] CT
0.6 0.2 0 RC
10.0 ML
2 LW
N
178.057 105.5 M
184.722 101.652 L
184.722 109.348 L
cp
S
GR
GS
[0.75 0 0 0.75 0 0] CT
1 GC
N
248.057 161.5 M
254.722 157.652 L
254.722 165.348 L
cp
f
GR
GS
[0.75 0 0 0.75 0 0] CT
0.6 0.2 0 RC
10.0 ML
2 LW
N
248.057 161.5 M
254.722 157.652 L
254.722 165.348 L
cp
S
GR
GS
[0.75 0 0 0.75 0 0] CT
1 GC
N
318.057 207.5 M
324.722 203.652 L
324.722 211.348 L
cp
f
GR
GS
[0.75 0 0 0.75 0 0] CT
0.6 0.2 0 RC
10.0 ML
2 LW
N
318.057 207.5 M
324.722 203.652 L
324.722 211.348 L
cp
S
GR
GS
[0.75 0 0 0.75 0 0] CT
1 GC
N
388.057 243.5 M
394.722 239.652 L
394.722 247.348 L
cp
f
GR
GS
[0.75 0 0 0.75 0 0] CT
0.6 0.2 0 RC
10.0 ML
2 LW
N
388.057 243.5 M
394.722 239.652 L
394.722 247.348 L
cp
S
GR
GS
[0.75 0 0 0.75 0 0] CT
1 GC
N
458.057 276.5 M
464.722 272.652 L
464.722 280.348 L
cp
f
GR
GS
[0.75 0 0 0.75 0 0] CT
0.6 0.2 0 RC
10.0 ML
2 LW
N
458.057 276.5 M
464.722 272.652 L
464.722 280.348 L
cp
S
GR
GS
[0.75 0 0 0.75 0 0] CT
1 GC
N
528.057 304.5 M
534.722 300.652 L
534.722 308.348 L
cp
f
GR
GS
[0.75 0 0 0.75 0 0] CT
0.6 0.2 0 RC
10.0 ML
2 LW
N
528.057 304.5 M
534.722 300.652 L
534.722 308.348 L
cp
S
GR
GS
[0.75 0 0 0.75 0 0] CT
1 GC
N
598.057 328.5 M
604.722 324.652 L
604.722 332.348 L
cp
f
GR
GS
[0.75 0 0 0.75 0 0] CT
0.6 0.2 0 RC
10.0 ML
2 LW
N
598.057 328.5 M
604.722 324.652 L
604.722 332.348 L
cp
S
GR
GS
[0.75 0 0 0.75 0 0] CT
1 GC
N
668.057 348.5 M
674.722 344.652 L
674.722 352.348 L
cp
f
GR
GS
[0.75 0 0 0.75 0 0] CT
0.6 0.2 0 RC
10.0 ML
2 LW
N
668.057 348.5 M
674.722 344.652 L
674.722 352.348 L
cp
S
GR
GS
[0.75 0 0 0.75 0 0] CT
1 GC
N
739.057 365.5 M
745.722 361.652 L
745.722 369.348 L
cp
f
GR
GS
[0.75 0 0 0.75 0 0] CT
0.6 0.2 0 RC
10.0 ML
2 LW
N
739.057 365.5 M
745.722 361.652 L
745.722 369.348 L
cp
S
GR
GS
[0.75 0 0 0.75 0 0] CT
0.929 0.694 0.125 RC
1 LJ
2 LW
N
112 51 M
182.111 117.362 L
252.222 173.084 L
322.333 217.298 L
392.444 254.303 L
462.556 284.901 L
532.667 310.64 L
602.778 332.78 L
672.889 351.751 L
743 367.818 L
S
GR
GS
[0.75 0 0 0.75 0 0] CT
1 GC
N
109.33 49.47 M
111.716 49.47 L
112.5 47.167 L
113.284 49.47 L
115.67 49.47 L
113.768 50.912 L
114.459 53.197 L
112.5 51.833 L
110.541 53.197 L
111.232 50.912 L
109.33 49.47 L
cp
f
GR
GS
[0.75 0 0 0.75 0 0] CT
0.929 0.694 0.125 RC
10.0 ML
2 LW
N
109.33 49.47 M
111.716 49.47 L
112.5 47.167 L
113.284 49.47 L
115.67 49.47 L
113.768 50.912 L
114.459 53.197 L
112.5 51.833 L
110.541 53.197 L
111.232 50.912 L
cp
S
GR
GS
[0.75 0 0 0.75 0 0] CT
1 GC
N
179.33 116.47 M
181.716 116.47 L
182.5 114.167 L
183.284 116.47 L
185.67 116.47 L
183.768 117.912 L
184.459 120.197 L
182.5 118.833 L
180.541 120.197 L
181.232 117.912 L
179.33 116.47 L
cp
f
GR
GS
[0.75 0 0 0.75 0 0] CT
0.929 0.694 0.125 RC
10.0 ML
2 LW
N
179.33 116.47 M
181.716 116.47 L
182.5 114.167 L
183.284 116.47 L
185.67 116.47 L
183.768 117.912 L
184.459 120.197 L
182.5 118.833 L
180.541 120.197 L
181.232 117.912 L
cp
S
GR
GS
[0.75 0 0 0.75 0 0] CT
1 GC
N
249.33 172.47 M
251.716 172.47 L
252.5 170.167 L
253.284 172.47 L
255.67 172.47 L
253.768 173.912 L
254.459 176.197 L
252.5 174.833 L
250.541 176.197 L
251.232 173.912 L
249.33 172.47 L
cp
f
GR
GS
[0.75 0 0 0.75 0 0] CT
0.929 0.694 0.125 RC
10.0 ML
2 LW
N
249.33 172.47 M
251.716 172.47 L
252.5 170.167 L
253.284 172.47 L
255.67 172.47 L
253.768 173.912 L
254.459 176.197 L
252.5 174.833 L
250.541 176.197 L
251.232 173.912 L
cp
S
GR
GS
[0.75 0 0 0.75 0 0] CT
1 GC
N
319.33 216.47 M
321.716 216.47 L
322.5 214.167 L
323.284 216.47 L
325.67 216.47 L
323.768 217.912 L
324.459 220.197 L
322.5 218.833 L
320.541 220.197 L
321.232 217.912 L
319.33 216.47 L
cp
f
GR
GS
[0.75 0 0 0.75 0 0] CT
0.929 0.694 0.125 RC
10.0 ML
2 LW
N
319.33 216.47 M
321.716 216.47 L
322.5 214.167 L
323.284 216.47 L
325.67 216.47 L
323.768 217.912 L
324.459 220.197 L
322.5 218.833 L
320.541 220.197 L
321.232 217.912 L
cp
S
GR
GS
[0.75 0 0 0.75 0 0] CT
1 GC
N
389.33 253.47 M
391.716 253.47 L
392.5 251.167 L
393.284 253.47 L
395.67 253.47 L
393.768 254.912 L
394.459 257.197 L
392.5 255.833 L
390.541 257.197 L
391.232 254.912 L
389.33 253.47 L
cp
f
GR
GS
[0.75 0 0 0.75 0 0] CT
0.929 0.694 0.125 RC
10.0 ML
2 LW
N
389.33 253.47 M
391.716 253.47 L
392.5 251.167 L
393.284 253.47 L
395.67 253.47 L
393.768 254.912 L
394.459 257.197 L
392.5 255.833 L
390.541 257.197 L
391.232 254.912 L
cp
S
GR
GS
[0.75 0 0 0.75 0 0] CT
1 GC
N
459.33 283.47 M
461.716 283.47 L
462.5 281.167 L
463.284 283.47 L
465.67 283.47 L
463.768 284.912 L
464.459 287.197 L
462.5 285.833 L
460.541 287.197 L
461.232 284.912 L
459.33 283.47 L
cp
f
GR
GS
[0.75 0 0 0.75 0 0] CT
0.929 0.694 0.125 RC
10.0 ML
2 LW
N
459.33 283.47 M
461.716 283.47 L
462.5 281.167 L
463.284 283.47 L
465.67 283.47 L
463.768 284.912 L
464.459 287.197 L
462.5 285.833 L
460.541 287.197 L
461.232 284.912 L
cp
S
GR
GS
[0.75 0 0 0.75 0 0] CT
1 GC
N
529.33 309.47 M
531.716 309.47 L
532.5 307.167 L
533.284 309.47 L
535.67 309.47 L
533.768 310.912 L
534.459 313.197 L
532.5 311.833 L
530.541 313.197 L
531.232 310.912 L
529.33 309.47 L
cp
f
GR
GS
[0.75 0 0 0.75 0 0] CT
0.929 0.694 0.125 RC
10.0 ML
2 LW
N
529.33 309.47 M
531.716 309.47 L
532.5 307.167 L
533.284 309.47 L
535.67 309.47 L
533.768 310.912 L
534.459 313.197 L
532.5 311.833 L
530.541 313.197 L
531.232 310.912 L
cp
S
GR
GS
[0.75 0 0 0.75 0 0] CT
1 GC
N
599.33 331.47 M
601.716 331.47 L
602.5 329.167 L
603.284 331.47 L
605.67 331.47 L
603.768 332.912 L
604.459 335.197 L
602.5 333.833 L
600.541 335.197 L
601.232 332.912 L
599.33 331.47 L
cp
f
GR
GS
[0.75 0 0 0.75 0 0] CT
0.929 0.694 0.125 RC
10.0 ML
2 LW
N
599.33 331.47 M
601.716 331.47 L
602.5 329.167 L
603.284 331.47 L
605.67 331.47 L
603.768 332.912 L
604.459 335.197 L
602.5 333.833 L
600.541 335.197 L
601.232 332.912 L
cp
S
GR
GS
[0.75 0 0 0.75 0 0] CT
1 GC
N
669.33 350.47 M
671.716 350.47 L
672.5 348.167 L
673.284 350.47 L
675.67 350.47 L
673.768 351.912 L
674.459 354.197 L
672.5 352.833 L
670.541 354.197 L
671.232 351.912 L
669.33 350.47 L
cp
f
GR
GS
[0.75 0 0 0.75 0 0] CT
0.929 0.694 0.125 RC
10.0 ML
2 LW
N
669.33 350.47 M
671.716 350.47 L
672.5 348.167 L
673.284 350.47 L
675.67 350.47 L
673.768 351.912 L
674.459 354.197 L
672.5 352.833 L
670.541 354.197 L
671.232 351.912 L
cp
S
GR
GS
[0.75 0 0 0.75 0 0] CT
1 GC
N
740.33 366.47 M
742.716 366.47 L
743.5 364.167 L
744.284 366.47 L
746.67 366.47 L
744.768 367.912 L
745.459 370.197 L
743.5 368.833 L
741.541 370.197 L
742.232 367.912 L
740.33 366.47 L
cp
f
GR
GS
[0.75 0 0 0.75 0 0] CT
0.929 0.694 0.125 RC
10.0 ML
2 LW
N
740.33 366.47 M
742.716 366.47 L
743.5 364.167 L
744.284 366.47 L
746.67 366.47 L
744.768 367.912 L
745.459 370.197 L
743.5 368.833 L
741.541 370.197 L
742.232 367.912 L
cp
S
GR
GS
[0.75 0 0 0.75 0 0] CT
0 1 1 RC
1 LJ
2 LW
N
112 51 M
182.111 137.986 L
252.222 201.373 L
322.333 250.896 L
392.444 288.598 L
462.556 319.481 L
532.667 344.6 L
602.778 365.504 L
672.889 382.539 L
743 396.948 L
S
GR
GS
[0.75 0 0 0.75 0 0] CT
1 GC
N
112.5 54.943 M
115.833 50.5 L
112.5 46.057 L
109.167 50.5 L
cp
f
GR
GS
[0.75 0 0 0.75 0 0] CT
0 1 1 RC
10.0 ML
2 LW
N
112.5 54.943 M
115.833 50.5 L
112.5 46.057 L
109.167 50.5 L
cp
S
GR
GS
[0.75 0 0 0.75 0 0] CT
1 GC
N
182.5 141.943 M
185.833 137.5 L
182.5 133.057 L
179.167 137.5 L
cp
f
GR
GS
[0.75 0 0 0.75 0 0] CT
0 1 1 RC
10.0 ML
2 LW
N
182.5 141.943 M
185.833 137.5 L
182.5 133.057 L
179.167 137.5 L
cp
S
GR
GS
[0.75 0 0 0.75 0 0] CT
1 GC
N
252.5 205.943 M
255.833 201.5 L
252.5 197.057 L
249.167 201.5 L
cp
f
GR
GS
[0.75 0 0 0.75 0 0] CT
0 1 1 RC
10.0 ML
2 LW
N
252.5 205.943 M
255.833 201.5 L
252.5 197.057 L
249.167 201.5 L
cp
S
GR
GS
[0.75 0 0 0.75 0 0] CT
1 GC
N
322.5 254.943 M
325.833 250.5 L
322.5 246.057 L
319.167 250.5 L
cp
f
GR
GS
[0.75 0 0 0.75 0 0] CT
0 1 1 RC
10.0 ML
2 LW
N
322.5 254.943 M
325.833 250.5 L
322.5 246.057 L
319.167 250.5 L
cp
S
GR
GS
[0.75 0 0 0.75 0 0] CT
1 GC
N
392.5 292.943 M
395.833 288.5 L
392.5 284.057 L
389.167 288.5 L
cp
f
GR
GS
[0.75 0 0 0.75 0 0] CT
0 1 1 RC
10.0 ML
2 LW
N
392.5 292.943 M
395.833 288.5 L
392.5 284.057 L
389.167 288.5 L
cp
S
GR
GS
[0.75 0 0 0.75 0 0] CT
1 GC
N
462.5 323.943 M
465.833 319.5 L
462.5 315.057 L
459.167 319.5 L
cp
f
GR
GS
[0.75 0 0 0.75 0 0] CT
0 1 1 RC
10.0 ML
2 LW
N
462.5 323.943 M
465.833 319.5 L
462.5 315.057 L
459.167 319.5 L
cp
S
GR
GS
[0.75 0 0 0.75 0 0] CT
1 GC
N
532.5 348.943 M
535.833 344.5 L
532.5 340.057 L
529.167 344.5 L
cp
f
GR
GS
[0.75 0 0 0.75 0 0] CT
0 1 1 RC
10.0 ML
2 LW
N
532.5 348.943 M
535.833 344.5 L
532.5 340.057 L
529.167 344.5 L
cp
S
GR
GS
[0.75 0 0 0.75 0 0] CT
1 GC
N
602.5 369.943 M
605.833 365.5 L
602.5 361.057 L
599.167 365.5 L
cp
f
GR
GS
[0.75 0 0 0.75 0 0] CT
0 1 1 RC
10.0 ML
2 LW
N
602.5 369.943 M
605.833 365.5 L
602.5 361.057 L
599.167 365.5 L
cp
S
GR
GS
[0.75 0 0 0.75 0 0] CT
1 GC
N
672.5 386.943 M
675.833 382.5 L
672.5 378.057 L
669.167 382.5 L
cp
f
GR
GS
[0.75 0 0 0.75 0 0] CT
0 1 1 RC
10.0 ML
2 LW
N
672.5 386.943 M
675.833 382.5 L
672.5 378.057 L
669.167 382.5 L
cp
S
GR
GS
[0.75 0 0 0.75 0 0] CT
1 GC
N
743.5 400.943 M
746.833 396.5 L
743.5 392.057 L
740.167 396.5 L
cp
f
GR
GS
[0.75 0 0 0.75 0 0] CT
0 1 1 RC
10.0 ML
2 LW
N
743.5 400.943 M
746.833 396.5 L
743.5 392.057 L
740.167 396.5 L
cp
S
GR
GS
[0.75 0 0 0.75 0 0] CT
0 1 0 RC
1 LJ
2 LW
N
112 51 M
182.111 106.681 L
252.222 167.681 L
322.333 217.877 L
392.444 259.594 L
462.556 293.321 L
532.667 320.799 L
602.778 342.913 L
672.889 362.466 L
743 379.136 L
S
GR
GS
[0.75 0 0 0.75 0 0] CT
1 GC
N
109.9 53.1 M
109.9 47.9 L
115.1 47.9 L
115.1 53.1 L
cp
f
GR
GS
[0.75 0 0 0.75 0 0] CT
0 1 0 RC
10.0 ML
2 LW
N
109.9 53.1 M
109.9 47.9 L
115.1 47.9 L
115.1 53.1 L
cp
S
GR
GS
[0.75 0 0 0.75 0 0] CT
1 GC
N
179.9 109.1 M
179.9 103.9 L
185.1 103.9 L
185.1 109.1 L
cp
f
GR
GS
[0.75 0 0 0.75 0 0] CT
0 1 0 RC
10.0 ML
2 LW
N
179.9 109.1 M
179.9 103.9 L
185.1 103.9 L
185.1 109.1 L
cp
S
GR
GS
[0.75 0 0 0.75 0 0] CT
1 GC
N
249.9 170.1 M
249.9 164.9 L
255.1 164.9 L
255.1 170.1 L
cp
f
GR
GS
[0.75 0 0 0.75 0 0] CT
0 1 0 RC
10.0 ML
2 LW
N
249.9 170.1 M
249.9 164.9 L
255.1 164.9 L
255.1 170.1 L
cp
S
GR
GS
[0.75 0 0 0.75 0 0] CT
1 GC
N
319.9 220.1 M
319.9 214.9 L
325.1 214.9 L
325.1 220.1 L
cp
f
GR
GS
[0.75 0 0 0.75 0 0] CT
0 1 0 RC
10.0 ML
2 LW
N
319.9 220.1 M
319.9 214.9 L
325.1 214.9 L
325.1 220.1 L
cp
S
GR
GS
[0.75 0 0 0.75 0 0] CT
1 GC
N
389.9 262.1 M
389.9 256.9 L
395.1 256.9 L
395.1 262.1 L
cp
f
GR
GS
[0.75 0 0 0.75 0 0] CT
0 1 0 RC
10.0 ML
2 LW
N
389.9 262.1 M
389.9 256.9 L
395.1 256.9 L
395.1 262.1 L
cp
S
GR
GS
[0.75 0 0 0.75 0 0] CT
1 GC
N
459.9 296.1 M
459.9 290.9 L
465.1 290.9 L
465.1 296.1 L
cp
f
GR
GS
[0.75 0 0 0.75 0 0] CT
0 1 0 RC
10.0 ML
2 LW
N
459.9 296.1 M
459.9 290.9 L
465.1 290.9 L
465.1 296.1 L
cp
S
GR
GS
[0.75 0 0 0.75 0 0] CT
1 GC
N
529.9 323.1 M
529.9 317.9 L
535.1 317.9 L
535.1 323.1 L
cp
f
GR
GS
[0.75 0 0 0.75 0 0] CT
0 1 0 RC
10.0 ML
2 LW
N
529.9 323.1 M
529.9 317.9 L
535.1 317.9 L
535.1 323.1 L
cp
S
GR
GS
[0.75 0 0 0.75 0 0] CT
1 GC
N
599.9 345.1 M
599.9 339.9 L
605.1 339.9 L
605.1 345.1 L
cp
f
GR
GS
[0.75 0 0 0.75 0 0] CT
0 1 0 RC
10.0 ML
2 LW
N
599.9 345.1 M
599.9 339.9 L
605.1 339.9 L
605.1 345.1 L
cp
S
GR
GS
[0.75 0 0 0.75 0 0] CT
1 GC
N
669.9 365.1 M
669.9 359.9 L
675.1 359.9 L
675.1 365.1 L
cp
f
GR
GS
[0.75 0 0 0.75 0 0] CT
0 1 0 RC
10.0 ML
2 LW
N
669.9 365.1 M
669.9 359.9 L
675.1 359.9 L
675.1 365.1 L
cp
S
GR
GS
[0.75 0 0 0.75 0 0] CT
1 GC
N
740.9 382.1 M
740.9 376.9 L
746.1 376.9 L
746.1 382.1 L
cp
f
GR
GS
[0.75 0 0 0.75 0 0] CT
0 1 0 RC
10.0 ML
2 LW
N
740.9 382.1 M
740.9 376.9 L
746.1 376.9 L
746.1 382.1 L
cp
S
GR
GS
[0.75 0 0 0.75 0 0] CT
0 0 1 RC
1 LJ
2 LW
N
112 51 M
182.111 169.632 L
252.222 239.588 L
322.333 286.831 L
392.444 320.962 L
462.556 348.037 L
532.667 370.27 L
602.778 388.891 L
672.889 403.632 L
743 416.46 L
S
GR
GS
[0.75 0 0 0.75 0 0] CT
1 GC
N
108.057 50.5 M
114.722 46.652 L
114.722 54.348 L
cp
f
GR
GS
[0.75 0 0 0.75 0 0] CT
0 0 1 RC
10.0 ML
2 LW
N
108.057 50.5 M
114.722 46.652 L
114.722 54.348 L
cp
S
GR
GS
[0.75 0 0 0.75 0 0] CT
1 GC
N
178.057 169.5 M
184.722 165.652 L
184.722 173.348 L
cp
f
GR
GS
[0.75 0 0 0.75 0 0] CT
0 0 1 RC
10.0 ML
2 LW
N
178.057 169.5 M
184.722 165.652 L
184.722 173.348 L
cp
S
GR
GS
[0.75 0 0 0.75 0 0] CT
1 GC
N
248.057 239.5 M
254.722 235.652 L
254.722 243.348 L
cp
f
GR
GS
[0.75 0 0 0.75 0 0] CT
0 0 1 RC
10.0 ML
2 LW
N
248.057 239.5 M
254.722 235.652 L
254.722 243.348 L
cp
S
GR
GS
[0.75 0 0 0.75 0 0] CT
1 GC
N
318.057 286.5 M
324.722 282.652 L
324.722 290.348 L
cp
f
GR
GS
[0.75 0 0 0.75 0 0] CT
0 0 1 RC
10.0 ML
2 LW
N
318.057 286.5 M
324.722 282.652 L
324.722 290.348 L
cp
S
GR
GS
[0.75 0 0 0.75 0 0] CT
1 GC
N
388.057 320.5 M
394.722 316.652 L
394.722 324.348 L
cp
f
GR
GS
[0.75 0 0 0.75 0 0] CT
0 0 1 RC
10.0 ML
2 LW
N
388.057 320.5 M
394.722 316.652 L
394.722 324.348 L
cp
S
GR
GS
[0.75 0 0 0.75 0 0] CT
1 GC
N
458.057 348.5 M
464.722 344.652 L
464.722 352.348 L
cp
f
GR
GS
[0.75 0 0 0.75 0 0] CT
0 0 1 RC
10.0 ML
2 LW
N
458.057 348.5 M
464.722 344.652 L
464.722 352.348 L
cp
S
GR
GS
[0.75 0 0 0.75 0 0] CT
1 GC
N
528.057 370.5 M
534.722 366.652 L
534.722 374.348 L
cp
f
GR
GS
[0.75 0 0 0.75 0 0] CT
0 0 1 RC
10.0 ML
2 LW
N
528.057 370.5 M
534.722 366.652 L
534.722 374.348 L
cp
S
GR
GS
[0.75 0 0 0.75 0 0] CT
1 GC
N
598.057 388.5 M
604.722 384.652 L
604.722 392.348 L
cp
f
GR
GS
[0.75 0 0 0.75 0 0] CT
0 0 1 RC
10.0 ML
2 LW
N
598.057 388.5 M
604.722 384.652 L
604.722 392.348 L
cp
S
GR
GS
[0.75 0 0 0.75 0 0] CT
1 GC
N
668.057 403.5 M
674.722 399.652 L
674.722 407.348 L
cp
f
GR
GS
[0.75 0 0 0.75 0 0] CT
0 0 1 RC
10.0 ML
2 LW
N
668.057 403.5 M
674.722 399.652 L
674.722 407.348 L
cp
S
GR
GS
[0.75 0 0 0.75 0 0] CT
1 GC
N
739.057 416.5 M
745.722 412.652 L
745.722 420.348 L
cp
f
GR
GS
[0.75 0 0 0.75 0 0] CT
0 0 1 RC
10.0 ML
2 LW
N
739.057 416.5 M
745.722 412.652 L
745.722 420.348 L
cp
S
GR
GS
[0.75 0 0 0.75 0 0] CT
1 0 1 RC
1 LJ
2 LW
N
112 51 M
182.111 80.276 L
252.222 120.523 L
322.333 160.48 L
392.444 198.65 L
462.556 235.531 L
532.667 266.928 L
602.778 293.648 L
672.889 316.921 L
743 336.762 L
S
GR
GS
[0.75 0 0 0.75 0 0] CT
1 0 1 RC
1 LJ
2 LW
N
109 50.5 M
116 50.5 L
S
GR
GS
[0.75 0 0 0.75 0 0] CT
1 0 1 RC
1 LJ
2 LW
N
112.5 54 M
112.5 47 L
S
GR
GS
[0.75 0 0 0.75 0 0] CT
1 0 1 RC
1 LJ
2 LW
N
179 80.5 M
186 80.5 L
S
GR
GS
[0.75 0 0 0.75 0 0] CT
1 0 1 RC
1 LJ
2 LW
N
182.5 84 M
182.5 77 L
S
GR
GS
[0.75 0 0 0.75 0 0] CT
1 0 1 RC
1 LJ
2 LW
N
249 120.5 M
256 120.5 L
S
GR
GS
[0.75 0 0 0.75 0 0] CT
1 0 1 RC
1 LJ
2 LW
N
252.5 124 M
252.5 117 L
S
GR
GS
[0.75 0 0 0.75 0 0] CT
1 0 1 RC
1 LJ
2 LW
N
319 160.5 M
326 160.5 L
S
GR
GS
[0.75 0 0 0.75 0 0] CT
1 0 1 RC
1 LJ
2 LW
N
322.5 164 M
322.5 157 L
S
GR
GS
[0.75 0 0 0.75 0 0] CT
1 0 1 RC
1 LJ
2 LW
N
389 198.5 M
396 198.5 L
S
GR
GS
[0.75 0 0 0.75 0 0] CT
1 0 1 RC
1 LJ
2 LW
N
392.5 202 M
392.5 195 L
S
GR
GS
[0.75 0 0 0.75 0 0] CT
1 0 1 RC
1 LJ
2 LW
N
459 235.5 M
466 235.5 L
S
GR
GS
[0.75 0 0 0.75 0 0] CT
1 0 1 RC
1 LJ
2 LW
N
462.5 239 M
462.5 232 L
S
GR
GS
[0.75 0 0 0.75 0 0] CT
1 0 1 RC
1 LJ
2 LW
N
529 266.5 M
536 266.5 L
S
GR
GS
[0.75 0 0 0.75 0 0] CT
1 0 1 RC
1 LJ
2 LW
N
532.5 270 M
532.5 263 L
S
GR
GS
[0.75 0 0 0.75 0 0] CT
1 0 1 RC
1 LJ
2 LW
N
599 293.5 M
606 293.5 L
S
GR
GS
[0.75 0 0 0.75 0 0] CT
1 0 1 RC
1 LJ
2 LW
N
602.5 297 M
602.5 290 L
S
GR
GS
[0.75 0 0 0.75 0 0] CT
1 0 1 RC
1 LJ
2 LW
N
669 316.5 M
676 316.5 L
S
GR
GS
[0.75 0 0 0.75 0 0] CT
1 0 1 RC
1 LJ
2 LW
N
672.5 320 M
672.5 313 L
S
GR
GS
[0.75 0 0 0.75 0 0] CT
1 0 1 RC
1 LJ
2 LW
N
740 336.5 M
747 336.5 L
S
GR
GS
[0.75 0 0 0.75 0 0] CT
1 0 1 RC
1 LJ
2 LW
N
743.5 340 M
743.5 333 L
S
GR
GS
[0.75 0 0 0.75 0 0] CT
1 0 0 RC
1 LJ
2 LW
N
112 51 M
182.111 75.76 L
252.222 113.702 L
322.333 151.278 L
392.444 189.725 L
462.556 225.948 L
532.667 256.946 L
602.778 284.42 L
672.889 308.336 L
743 329.861 L
S
GR
GS
[0.75 0 0 0.75 0 0] CT
1 GC
N
109.9 53.1 M
109.9 47.9 L
115.1 47.9 L
115.1 53.1 L
cp
f
GR
GS
[0.75 0 0 0.75 0 0] CT
1 0 0 RC
10.0 ML
2 LW
N
109.9 53.1 M
109.9 47.9 L
115.1 47.9 L
115.1 53.1 L
cp
S
GR
GS
[0.75 0 0 0.75 0 0] CT
1 GC
N
179.9 78.1 M
179.9 72.9 L
185.1 72.9 L
185.1 78.1 L
cp
f
GR
GS
[0.75 0 0 0.75 0 0] CT
1 0 0 RC
10.0 ML
2 LW
N
179.9 78.1 M
179.9 72.9 L
185.1 72.9 L
185.1 78.1 L
cp
S
GR
GS
[0.75 0 0 0.75 0 0] CT
1 GC
N
249.9 116.1 M
249.9 110.9 L
255.1 110.9 L
255.1 116.1 L
cp
f
GR
GS
[0.75 0 0 0.75 0 0] CT
1 0 0 RC
10.0 ML
2 LW
N
249.9 116.1 M
249.9 110.9 L
255.1 110.9 L
255.1 116.1 L
cp
S
GR
GS
[0.75 0 0 0.75 0 0] CT
1 GC
N
319.9 154.1 M
319.9 148.9 L
325.1 148.9 L
325.1 154.1 L
cp
f
GR
GS
[0.75 0 0 0.75 0 0] CT
1 0 0 RC
10.0 ML
2 LW
N
319.9 154.1 M
319.9 148.9 L
325.1 148.9 L
325.1 154.1 L
cp
S
GR
GS
[0.75 0 0 0.75 0 0] CT
1 GC
N
389.9 192.1 M
389.9 186.9 L
395.1 186.9 L
395.1 192.1 L
cp
f
GR
GS
[0.75 0 0 0.75 0 0] CT
1 0 0 RC
10.0 ML
2 LW
N
389.9 192.1 M
389.9 186.9 L
395.1 186.9 L
395.1 192.1 L
cp
S
GR
GS
[0.75 0 0 0.75 0 0] CT
1 GC
N
459.9 228.1 M
459.9 222.9 L
465.1 222.9 L
465.1 228.1 L
cp
f
GR
GS
[0.75 0 0 0.75 0 0] CT
1 0 0 RC
10.0 ML
2 LW
N
459.9 228.1 M
459.9 222.9 L
465.1 222.9 L
465.1 228.1 L
cp
S
GR
GS
[0.75 0 0 0.75 0 0] CT
1 GC
N
529.9 259.1 M
529.9 253.9 L
535.1 253.9 L
535.1 259.1 L
cp
f
GR
GS
[0.75 0 0 0.75 0 0] CT
1 0 0 RC
10.0 ML
2 LW
N
529.9 259.1 M
529.9 253.9 L
535.1 253.9 L
535.1 259.1 L
cp
S
GR
GS
[0.75 0 0 0.75 0 0] CT
1 GC
N
599.9 287.1 M
599.9 281.9 L
605.1 281.9 L
605.1 287.1 L
cp
f
GR
GS
[0.75 0 0 0.75 0 0] CT
1 0 0 RC
10.0 ML
2 LW
N
599.9 287.1 M
599.9 281.9 L
605.1 281.9 L
605.1 287.1 L
cp
S
GR
GS
[0.75 0 0 0.75 0 0] CT
1 GC
N
669.9 311.1 M
669.9 305.9 L
675.1 305.9 L
675.1 311.1 L
cp
f
GR
GS
[0.75 0 0 0.75 0 0] CT
1 0 0 RC
10.0 ML
2 LW
N
669.9 311.1 M
669.9 305.9 L
675.1 305.9 L
675.1 311.1 L
cp
S
GR
GS
[0.75 0 0 0.75 0 0] CT
1 GC
N
740.9 332.1 M
740.9 326.9 L
746.1 326.9 L
746.1 332.1 L
cp
f
GR
GS
[0.75 0 0 0.75 0 0] CT
1 0 0 RC
10.0 ML
2 LW
N
740.9 332.1 M
740.9 326.9 L
746.1 326.9 L
746.1 332.1 L
cp
S
GR
GS
[0.75 0 0 0.75 0 0] CT
1 LJ
2 LW
N
112 51 M
182.111 71.485 L
252.222 107.132 L
322.333 144.43 L
392.444 184.03 L
462.556 220.172 L
532.667 253.036 L
602.778 281.307 L
672.889 305.573 L
743 326.713 L
S
GR
GS
[0.75 0 0 0.75 0 0] CT
1 GC
N
115.833 50.5 M
114.857 48.143 L
112.5 47.167 L
110.143 48.143 L
109.167 50.5 L
110.143 52.857 L
112.5 53.833 L
114.857 52.857 L
115.833 50.5 L
cp
f
GR
GS
[0.75 0 0 0.75 0 0] CT
1 LJ
2 LW
N
115.833 50.5 M
115.197 48.541 L
113.53 47.33 L
111.47 47.33 L
109.803 48.541 L
109.167 50.5 L
109.803 52.459 L
111.47 53.67 L
113.53 53.67 L
115.197 52.459 L
cp
S
GR
GS
[0.75 0 0 0.75 0 0] CT
1 GC
N
185.833 71.5 M
184.857 69.143 L
182.5 68.167 L
180.143 69.143 L
179.167 71.5 L
180.143 73.857 L
182.5 74.833 L
184.857 73.857 L
185.833 71.5 L
cp
f
GR
GS
[0.75 0 0 0.75 0 0] CT
1 LJ
2 LW
N
185.833 71.5 M
185.197 69.541 L
183.53 68.33 L
181.47 68.33 L
179.803 69.541 L
179.167 71.5 L
179.803 73.459 L
181.47 74.67 L
183.53 74.67 L
185.197 73.459 L
cp
S
GR
GS
[0.75 0 0 0.75 0 0] CT
1 GC
N
255.833 107.5 M
254.857 105.143 L
252.5 104.167 L
250.143 105.143 L
249.167 107.5 L
250.143 109.857 L
252.5 110.833 L
254.857 109.857 L
255.833 107.5 L
cp
f
GR
GS
[0.75 0 0 0.75 0 0] CT
1 LJ
2 LW
N
255.833 107.5 M
255.197 105.541 L
253.53 104.33 L
251.47 104.33 L
249.803 105.541 L
249.167 107.5 L
249.803 109.459 L
251.47 110.67 L
253.53 110.67 L
255.197 109.459 L
cp
S
GR
GS
[0.75 0 0 0.75 0 0] CT
1 GC
N
325.833 144.5 M
324.857 142.143 L
322.5 141.167 L
320.143 142.143 L
319.167 144.5 L
320.143 146.857 L
322.5 147.833 L
324.857 146.857 L
325.833 144.5 L
cp
f
GR
GS
[0.75 0 0 0.75 0 0] CT
1 LJ
2 LW
N
325.833 144.5 M
325.197 142.541 L
323.53 141.33 L
321.47 141.33 L
319.803 142.541 L
319.167 144.5 L
319.803 146.459 L
321.47 147.67 L
323.53 147.67 L
325.197 146.459 L
cp
S
GR
GS
[0.75 0 0 0.75 0 0] CT
1 GC
N
395.833 184.5 M
394.857 182.143 L
392.5 181.167 L
390.143 182.143 L
389.167 184.5 L
390.143 186.857 L
392.5 187.833 L
394.857 186.857 L
395.833 184.5 L
cp
f
GR
GS
[0.75 0 0 0.75 0 0] CT
1 LJ
2 LW
N
395.833 184.5 M
395.197 182.541 L
393.53 181.33 L
391.47 181.33 L
389.803 182.541 L
389.167 184.5 L
389.803 186.459 L
391.47 187.67 L
393.53 187.67 L
395.197 186.459 L
cp
S
GR
GS
[0.75 0 0 0.75 0 0] CT
1 GC
N
465.833 220.5 M
464.857 218.143 L
462.5 217.167 L
460.143 218.143 L
459.167 220.5 L
460.143 222.857 L
462.5 223.833 L
464.857 222.857 L
465.833 220.5 L
cp
f
GR
GS
[0.75 0 0 0.75 0 0] CT
1 LJ
2 LW
N
465.833 220.5 M
465.197 218.541 L
463.53 217.33 L
461.47 217.33 L
459.803 218.541 L
459.167 220.5 L
459.803 222.459 L
461.47 223.67 L
463.53 223.67 L
465.197 222.459 L
cp
S
GR
GS
[0.75 0 0 0.75 0 0] CT
1 GC
N
535.833 253.5 M
534.857 251.143 L
532.5 250.167 L
530.143 251.143 L
529.167 253.5 L
530.143 255.857 L
532.5 256.833 L
534.857 255.857 L
535.833 253.5 L
cp
f
GR
GS
[0.75 0 0 0.75 0 0] CT
1 LJ
2 LW
N
535.833 253.5 M
535.197 251.541 L
533.53 250.33 L
531.47 250.33 L
529.803 251.541 L
529.167 253.5 L
529.803 255.459 L
531.47 256.67 L
533.53 256.67 L
535.197 255.459 L
cp
S
GR
GS
[0.75 0 0 0.75 0 0] CT
1 GC
N
605.833 281.5 M
604.857 279.143 L
602.5 278.167 L
600.143 279.143 L
599.167 281.5 L
600.143 283.857 L
602.5 284.833 L
604.857 283.857 L
605.833 281.5 L
cp
f
GR
GS
[0.75 0 0 0.75 0 0] CT
1 LJ
2 LW
N
605.833 281.5 M
605.197 279.541 L
603.53 278.33 L
601.47 278.33 L
599.803 279.541 L
599.167 281.5 L
599.803 283.459 L
601.47 284.67 L
603.53 284.67 L
605.197 283.459 L
cp
S
GR
GS
[0.75 0 0 0.75 0 0] CT
1 GC
N
675.833 305.5 M
674.857 303.143 L
672.5 302.167 L
670.143 303.143 L
669.167 305.5 L
670.143 307.857 L
672.5 308.833 L
674.857 307.857 L
675.833 305.5 L
cp
f
GR
GS
[0.75 0 0 0.75 0 0] CT
1 LJ
2 LW
N
675.833 305.5 M
675.197 303.541 L
673.53 302.33 L
671.47 302.33 L
669.803 303.541 L
669.167 305.5 L
669.803 307.459 L
671.47 308.67 L
673.53 308.67 L
675.197 307.459 L
cp
S
GR
GS
[0.75 0 0 0.75 0 0] CT
1 GC
N
746.833 326.5 M
745.857 324.143 L
743.5 323.167 L
741.143 324.143 L
740.167 326.5 L
741.143 328.857 L
743.5 329.833 L
745.857 328.857 L
746.833 326.5 L
cp
f
GR
GS
[0.75 0 0 0.75 0 0] CT
1 LJ
2 LW
N
746.833 326.5 M
746.197 324.541 L
744.53 323.33 L
742.47 323.33 L
740.803 324.541 L
740.167 326.5 L
740.803 328.459 L
742.47 329.67 L
744.53 329.67 L
746.197 328.459 L
cp
S
GR
GS
[0.75 0 0 0.75 0 0] CT
1 GC
N
624 333 M
624 64 L
730 64 L
730 333 L
cp
f
GR
GS
[0.75 0 0 0.75 495.75 60.37501] CT
/Times 24 F
GS
[1 0 0 1 0 0] CT
0 8.5 moveto 
1 -1 scale
(LBP) t 
GR
GR
GS
[0.75 0 0 0.75 0 0] CT
1 0.6 0.784 RC
1 LJ
2 LW
N
628 80.5 M
658 80.5 L
S
GR
GS
[0.75 0 0 0.75 0 0] CT
1 GC
N
641.278 76.652 M
647.943 80.5 L
641.278 84.348 L
cp
f
GR
GS
[0.75 0 0 0.75 0 0] CT
1 0.6 0.784 RC
10.0 ML
2 LW
N
641.278 76.652 M
647.943 80.5 L
641.278 84.348 L
cp
S
GR
GS
[0.75 0 0 0.75 495.75 82.49999] CT
/Times 24 F
GS
[1 0 0 1 0 0] CT
0 8.5 moveto 
1 -1 scale
(LTP) t 
GR
GR
GS
[0.75 0 0 0.75 0 0] CT
0.6 0.2 0 RC
1 LJ
2 LW
N
628 110 M
658 110 L
S
GR
GS
[0.75 0 0 0.75 0 0] CT
1 GC
N
639.057 109.5 M
645.722 105.652 L
645.722 113.348 L
cp
f
GR
GS
[0.75 0 0 0.75 0 0] CT
0.6 0.2 0 RC
10.0 ML
2 LW
N
639.057 109.5 M
645.722 105.652 L
645.722 113.348 L
cp
S
GR
GS
[0.75 0 0 0.75 495.75 104.625] CT
/Times 24 F
GS
[1 0 0 1 0 0] CT
0 8.5 moveto 
1 -1 scale
(LDP) t 
GR
GR
GS
[0.75 0 0 0.75 0 0] CT
0.929 0.694 0.125 RC
1 LJ
2 LW
N
628 139.5 M
658 139.5 L
S
GR
GS
[0.75 0 0 0.75 0 0] CT
1 GC
N
640.33 138.47 M
642.716 138.47 L
643.5 136.167 L
644.284 138.47 L
646.67 138.47 L
644.768 139.912 L
645.459 142.197 L
643.5 140.833 L
641.541 142.197 L
642.232 139.912 L
640.33 138.47 L
cp
f
GR
GS
[0.75 0 0 0.75 0 0] CT
0.929 0.694 0.125 RC
10.0 ML
2 LW
N
640.33 138.47 M
642.716 138.47 L
643.5 136.167 L
644.284 138.47 L
646.67 138.47 L
644.768 139.912 L
645.459 142.197 L
643.5 140.833 L
641.541 142.197 L
642.232 139.912 L
cp
S
GR
GS
[0.75 0 0 0.75 495.75 126.75] CT
/Times 24 F
GS
[1 0 0 1 0 0] CT
0 8.5 moveto 
1 -1 scale
(LDN) t 
GR
GR
GS
[0.75 0 0 0.75 0 0] CT
0 1 1 RC
1 LJ
2 LW
N
628 169 M
658 169 L
S
GR
GS
[0.75 0 0 0.75 0 0] CT
1 GC
N
643.5 172.943 M
646.833 168.5 L
643.5 164.057 L
640.167 168.5 L
cp
f
GR
GS
[0.75 0 0 0.75 0 0] CT
0 1 1 RC
10.0 ML
2 LW
N
643.5 172.943 M
646.833 168.5 L
643.5 164.057 L
640.167 168.5 L
cp
S
GR
GS
[0.75 0 0 0.75 495.75 148.875] CT
/Times 24 F
GS
[1 0 0 1 0 0] CT
0 8.5 moveto 
1 -1 scale
(LVP) t 
GR
GR
GS
[0.75 0 0 0.75 0 0] CT
0 1 0 RC
1 LJ
2 LW
N
628 198.5 M
658 198.5 L
S
GR
GS
[0.75 0 0 0.75 0 0] CT
1 GC
N
640.9 201.1 M
640.9 195.9 L
646.1 195.9 L
646.1 201.1 L
cp
f
GR
GS
[0.75 0 0 0.75 0 0] CT
0 1 0 RC
10.0 ML
2 LW
N
640.9 201.1 M
640.9 195.9 L
646.1 195.9 L
646.1 201.1 L
cp
S
GR
GS
[0.75 0 0 0.75 495.75 171] CT
/Times 24 F
GS
[1 0 0 1 0 0] CT
0 8.5 moveto 
1 -1 scale
(LDGP) t 
GR
GR
GS
[0.75 0 0 0.75 0 0] CT
0 0 1 RC
1 LJ
2 LW
N
628 228 M
658 228 L
S
GR
GS
[0.75 0 0 0.75 0 0] CT
1 GC
N
639.057 227.5 M
645.722 223.652 L
645.722 231.348 L
cp
f
GR
GS
[0.75 0 0 0.75 0 0] CT
0 0 1 RC
10.0 ML
2 LW
N
639.057 227.5 M
645.722 223.652 L
645.722 231.348 L
cp
S
GR
GS
[0.75 0 0 0.75 495.75 193.125] CT
/Times 24 F
GS
[1 0 0 1 0 0] CT
0 8.5 moveto 
1 -1 scale
(DCP) t 
GR
GR
GS
[0.75 0 0 0.75 0 0] CT
1 0 1 RC
1 LJ
2 LW
N
628 257.5 M
658 257.5 L
S
GR
GS
[0.75 0 0 0.75 0 0] CT
1 0 1 RC
1 LJ
2 LW
N
640 257.5 M
647 257.5 L
S
GR
GS
[0.75 0 0 0.75 0 0] CT
1 0 1 RC
1 LJ
2 LW
N
643.5 261 M
643.5 254 L
S
GR
GS
[0.75 0 0 0.75 495.75 215.25] CT
/Times 24 F
GS
[1 0 0 1 0 0] CT
0 8.5 moveto 
1 -1 scale
(LGHP) t 
GR
GR
GS
[0.75 0 0 0.75 0 0] CT
1 0 0 RC
1 LJ
2 LW
N
628 287 M
658 287 L
S
GR
GS
[0.75 0 0 0.75 0 0] CT
1 GC
N
640.9 290.1 M
640.9 284.9 L
646.1 284.9 L
646.1 290.1 L
cp
f
GR
GS
[0.75 0 0 0.75 0 0] CT
1 0 0 RC
10.0 ML
2 LW
N
640.9 290.1 M
640.9 284.9 L
646.1 284.9 L
646.1 290.1 L
cp
S
GR
GS
[0.75 0 0 0.75 495.75 237.375] CT
/Times 24 F
GS
[1 0 0 1 0 0] CT
0 8.5 moveto 
1 -1 scale
(LDRP) t 
GR
GR
GS
[0.75 0 0 0.75 0 0] CT
1 LJ
2 LW
N
628 316.5 M
658 316.5 L
S
GR
GS
[0.75 0 0 0.75 0 0] CT
1 GC
N
646.833 316.5 M
645.857 314.143 L
643.5 313.167 L
641.143 314.143 L
640.167 316.5 L
641.143 318.857 L
643.5 319.833 L
645.857 318.857 L
646.833 316.5 L
cp
f
GR
GS
[0.75 0 0 0.75 0 0] CT
1 LJ
2 LW
N
646.833 316.5 M
646.197 314.541 L
644.53 313.33 L
642.47 313.33 L
640.803 314.541 L
640.167 316.5 L
640.803 318.459 L
642.47 319.67 L
644.53 319.67 L
646.197 318.459 L
cp
S
GR
GS
[0.75 0 0 0.75 0 0] CT
0.149 GC
10.0 ML
0.667 LW
N
624 333 M
624 64 L
730 64 L
730 333 L
cp
S
GR
%%Trailer
%%Pages: 1
%%EOF
