%!PS-Adobe-3.0 EPSF-3.0
%%Creator: (MATLAB, The Mathworks, Inc. Version 9.0.0.341360 \(R2016a\). Operating System: Linux)
%%Title: (/home/shivram/main/Work/1. Research/1. Ongoing/5. LDRP Face/2. Exp/1. Results/FERET20/feret-anmrr.eps)
%%CreationDate: 2017-08-16T16:10:45
%%Pages: (atend)
%%BoundingBox: 0 0 573 384
%%LanguageLevel: 3
%%EndComments
%%BeginProlog
%%BeginResource: procset (Apache XML Graphics Std ProcSet) 1.2 0
%%Version: 1.2 0
%%Copyright: (Copyright 2001-2003,2010 The Apache Software Foundation. License terms: http://www.apache.org/licenses/LICENSE-2.0)
/bd{bind def}bind def
/ld{load def}bd
/GR/grestore ld
/M/moveto ld
/LJ/setlinejoin ld
/C/curveto ld
/f/fill ld
/LW/setlinewidth ld
/GC/setgray ld
/t/show ld
/N/newpath ld
/CT/concat ld
/cp/closepath ld
/S/stroke ld
/L/lineto ld
/CC/setcmykcolor ld
/A/ashow ld
/GS/gsave ld
/RC/setrgbcolor ld
/RM/rmoveto ld
/ML/setmiterlimit ld
/re {4 2 roll M
1 index 0 rlineto
0 exch rlineto
neg 0 rlineto
cp } bd
/_ctm matrix def
/_tm matrix def
/BT { _ctm currentmatrix pop matrix _tm copy pop 0 0 moveto } bd
/ET { _ctm setmatrix } bd
/iTm { _ctm setmatrix _tm concat } bd
/Tm { _tm astore pop iTm 0 0 moveto } bd
/ux 0.0 def
/uy 0.0 def
/F {
  /Tp exch def
  /Tf exch def
  Tf findfont Tp scalefont setfont
  /cf Tf def  /cs Tp def
} bd
/ULS {currentpoint /uy exch def /ux exch def} bd
/ULE {
  /Tcx currentpoint pop def
  gsave
  newpath
  cf findfont cs scalefont dup
  /FontMatrix get 0 get /Ts exch def /FontInfo get dup
  /UnderlinePosition get Ts mul /To exch def
  /UnderlineThickness get Ts mul /Tt exch def
  ux uy To add moveto  Tcx uy To add lineto
  Tt setlinewidth stroke
  grestore
} bd
/OLE {
  /Tcx currentpoint pop def
  gsave
  newpath
  cf findfont cs scalefont dup
  /FontMatrix get 0 get /Ts exch def /FontInfo get dup
  /UnderlinePosition get Ts mul /To exch def
  /UnderlineThickness get Ts mul /Tt exch def
  ux uy To add cs add moveto Tcx uy To add cs add lineto
  Tt setlinewidth stroke
  grestore
} bd
/SOE {
  /Tcx currentpoint pop def
  gsave
  newpath
  cf findfont cs scalefont dup
  /FontMatrix get 0 get /Ts exch def /FontInfo get dup
  /UnderlinePosition get Ts mul /To exch def
  /UnderlineThickness get Ts mul /Tt exch def
  ux uy To add cs 10 mul 26 idiv add moveto Tcx uy To add cs 10 mul 26 idiv add lineto
  Tt setlinewidth stroke
  grestore
} bd
/QT {
/Y22 exch store
/X22 exch store
/Y21 exch store
/X21 exch store
currentpoint
/Y21 load 2 mul add 3 div exch
/X21 load 2 mul add 3 div exch
/X21 load 2 mul /X22 load add 3 div
/Y21 load 2 mul /Y22 load add 3 div
/X22 load /Y22 load curveto
} bd
/SSPD {
dup length /d exch dict def
{
/v exch def
/k exch def
currentpagedevice k known {
/cpdv currentpagedevice k get def
v cpdv ne {
/upd false def
/nullv v type /nulltype eq def
/nullcpdv cpdv type /nulltype eq def
nullv nullcpdv or
{
/upd true def
} {
/sametype v type cpdv type eq def
sametype {
v type /arraytype eq {
/vlen v length def
/cpdvlen cpdv length def
vlen cpdvlen eq {
0 1 vlen 1 sub {
/i exch def
/obj v i get def
/cpdobj cpdv i get def
obj cpdobj ne {
/upd true def
exit
} if
} for
} {
/upd true def
} ifelse
} {
v type /dicttype eq {
v {
/dv exch def
/dk exch def
/cpddv cpdv dk get def
dv cpddv ne {
/upd true def
exit
} if
} forall
} {
/upd true def
} ifelse
} ifelse
} if
} ifelse
upd true eq {
d k v put
} if
} if
} if
} forall
d length 0 gt {
d setpagedevice
} if
} bd
%%EndResource
%%BeginResource: procset (Apache XML Graphics EPS ProcSet) 1.0 0
%%Version: 1.0 0
%%Copyright: (Copyright 2002-2003 The Apache Software Foundation. License terms: http://www.apache.org/licenses/LICENSE-2.0)
/BeginEPSF { %def
/b4_Inc_state save def         % Save state for cleanup
/dict_count countdictstack def % Count objects on dict stack
/op_count count 1 sub def      % Count objects on operand stack
userdict begin                 % Push userdict on dict stack
/showpage { } def              % Redefine showpage, { } = null proc
0 setgray 0 setlinecap         % Prepare graphics state
1 setlinewidth 0 setlinejoin
10 setmiterlimit [ ] 0 setdash newpath
/languagelevel where           % If level not equal to 1 then
{pop languagelevel             % set strokeadjust and
1 ne                           % overprint to their defaults.
{false setstrokeadjust false setoverprint
} if
} if
} bd
/EndEPSF { %def
count op_count sub {pop} repeat            % Clean up stacks
countdictstack dict_count sub {end} repeat
b4_Inc_state restore
} bd
%%EndResource
%FOPBeginFontDict
%%IncludeResource: font Courier-Bold
%%IncludeResource: font Helvetica
%%IncludeResource: font Courier-BoldOblique
%%IncludeResource: font Courier-Oblique
%%IncludeResource: font Times-Roman
%%IncludeResource: font Helvetica-BoldOblique
%%IncludeResource: font Helvetica-Bold
%%IncludeResource: font Helvetica-Oblique
%%IncludeResource: font Times-BoldItalic
%%IncludeResource: font Courier
%%IncludeResource: font Times-Italic
%%IncludeResource: font Times-Bold
%%IncludeResource: font Symbol
%%IncludeResource: font ZapfDingbats
%FOPEndFontDict
%%BeginResource: encoding WinAnsiEncoding
/WinAnsiEncoding [
/.notdef /.notdef /.notdef /.notdef /.notdef
/.notdef /.notdef /.notdef /.notdef /.notdef
/.notdef /.notdef /.notdef /.notdef /.notdef
/.notdef /.notdef /.notdef /.notdef /.notdef
/.notdef /.notdef /.notdef /.notdef /.notdef
/.notdef /.notdef /.notdef /.notdef /.notdef
/.notdef /.notdef /space /exclam /quotedbl
/numbersign /dollar /percent /ampersand /quotesingle
/parenleft /parenright /asterisk /plus /comma
/hyphen /period /slash /zero /one
/two /three /four /five /six
/seven /eight /nine /colon /semicolon
/less /equal /greater /question /at
/A /B /C /D /E
/F /G /H /I /J
/K /L /M /N /O
/P /Q /R /S /T
/U /V /W /X /Y
/Z /bracketleft /backslash /bracketright /asciicircum
/underscore /quoteleft /a /b /c
/d /e /f /g /h
/i /j /k /l /m
/n /o /p /q /r
/s /t /u /v /w
/x /y /z /braceleft /bar
/braceright /asciitilde /bullet /Euro /bullet
/quotesinglbase /florin /quotedblbase /ellipsis /dagger
/daggerdbl /circumflex /perthousand /Scaron /guilsinglleft
/OE /bullet /Zcaron /bullet /bullet
/quoteleft /quoteright /quotedblleft /quotedblright /bullet
/endash /emdash /asciitilde /trademark /scaron
/guilsinglright /oe /bullet /zcaron /Ydieresis
/space /exclamdown /cent /sterling /currency
/yen /brokenbar /section /dieresis /copyright
/ordfeminine /guillemotleft /logicalnot /sfthyphen /registered
/macron /degree /plusminus /twosuperior /threesuperior
/acute /mu /paragraph /middot /cedilla
/onesuperior /ordmasculine /guillemotright /onequarter /onehalf
/threequarters /questiondown /Agrave /Aacute /Acircumflex
/Atilde /Adieresis /Aring /AE /Ccedilla
/Egrave /Eacute /Ecircumflex /Edieresis /Igrave
/Iacute /Icircumflex /Idieresis /Eth /Ntilde
/Ograve /Oacute /Ocircumflex /Otilde /Odieresis
/multiply /Oslash /Ugrave /Uacute /Ucircumflex
/Udieresis /Yacute /Thorn /germandbls /agrave
/aacute /acircumflex /atilde /adieresis /aring
/ae /ccedilla /egrave /eacute /ecircumflex
/edieresis /igrave /iacute /icircumflex /idieresis
/eth /ntilde /ograve /oacute /ocircumflex
/otilde /odieresis /divide /oslash /ugrave
/uacute /ucircumflex /udieresis /yacute /thorn
/ydieresis
] def
%%EndResource
%FOPBeginFontReencode
/Courier-Bold findfont
dup length dict begin
  {1 index /FID ne {def} {pop pop} ifelse} forall
  /Encoding WinAnsiEncoding def
  currentdict
end
/Courier-Bold exch definefont pop
/Helvetica findfont
dup length dict begin
  {1 index /FID ne {def} {pop pop} ifelse} forall
  /Encoding WinAnsiEncoding def
  currentdict
end
/Helvetica exch definefont pop
/Courier-BoldOblique findfont
dup length dict begin
  {1 index /FID ne {def} {pop pop} ifelse} forall
  /Encoding WinAnsiEncoding def
  currentdict
end
/Courier-BoldOblique exch definefont pop
/Courier-Oblique findfont
dup length dict begin
  {1 index /FID ne {def} {pop pop} ifelse} forall
  /Encoding WinAnsiEncoding def
  currentdict
end
/Courier-Oblique exch definefont pop
/Times-Roman findfont
dup length dict begin
  {1 index /FID ne {def} {pop pop} ifelse} forall
  /Encoding WinAnsiEncoding def
  currentdict
end
/Times-Roman exch definefont pop
/Helvetica-BoldOblique findfont
dup length dict begin
  {1 index /FID ne {def} {pop pop} ifelse} forall
  /Encoding WinAnsiEncoding def
  currentdict
end
/Helvetica-BoldOblique exch definefont pop
/Helvetica-Bold findfont
dup length dict begin
  {1 index /FID ne {def} {pop pop} ifelse} forall
  /Encoding WinAnsiEncoding def
  currentdict
end
/Helvetica-Bold exch definefont pop
/Helvetica-Oblique findfont
dup length dict begin
  {1 index /FID ne {def} {pop pop} ifelse} forall
  /Encoding WinAnsiEncoding def
  currentdict
end
/Helvetica-Oblique exch definefont pop
/Times-BoldItalic findfont
dup length dict begin
  {1 index /FID ne {def} {pop pop} ifelse} forall
  /Encoding WinAnsiEncoding def
  currentdict
end
/Times-BoldItalic exch definefont pop
/Courier findfont
dup length dict begin
  {1 index /FID ne {def} {pop pop} ifelse} forall
  /Encoding WinAnsiEncoding def
  currentdict
end
/Courier exch definefont pop
/Times-Italic findfont
dup length dict begin
  {1 index /FID ne {def} {pop pop} ifelse} forall
  /Encoding WinAnsiEncoding def
  currentdict
end
/Times-Italic exch definefont pop
/Times-Bold findfont
dup length dict begin
  {1 index /FID ne {def} {pop pop} ifelse} forall
  /Encoding WinAnsiEncoding def
  currentdict
end
/Times-Bold exch definefont pop
%FOPEndFontReencode
%%EndProlog
%%Page: 1 1
%%PageBoundingBox: 0 0 573 384
%%BeginPageSetup
[1 0 0 -1 0 384] CT
%%EndPageSetup
GS
[0.75 0 0 0.75 0 0] CT
1 GC
N
0 0 764 512 re
f
GR
GS
[0.75 0 0 0.75 0 0] CT
1 GC
N
0 0 764 512 re
f
GR
GS
[0.75 0 0 0.75 0 0] CT
1 GC
N
90 421 M
746 421 L
746 51 L
90 51 L
cp
f
GR
GS
[0.75 0 0 0.75 0 0] CT
0.149 GC
2 setlinecap
1 LJ
0.667 LW
N
90 421 M
746 421 L
S
GR
GS
[0.75 0 0 0.75 0 0] CT
0.149 GC
2 setlinecap
1 LJ
0.667 LW
N
90 51 M
746 51 L
S
GR
GS
[0.75 0 0 0.75 0 0] CT
0.149 GC
2 setlinecap
1 LJ
0.667 LW
N
90 421 M
90 414.44 L
S
GR
GS
[0.75 0 0 0.75 0 0] CT
0.149 GC
2 setlinecap
1 LJ
0.667 LW
N
162.889 421 M
162.889 414.44 L
S
GR
GS
[0.75 0 0 0.75 0 0] CT
0.149 GC
2 setlinecap
1 LJ
0.667 LW
N
235.778 421 M
235.778 414.44 L
S
GR
GS
[0.75 0 0 0.75 0 0] CT
0.149 GC
2 setlinecap
1 LJ
0.667 LW
N
308.667 421 M
308.667 414.44 L
S
GR
GS
[0.75 0 0 0.75 0 0] CT
0.149 GC
2 setlinecap
1 LJ
0.667 LW
N
381.556 421 M
381.556 414.44 L
S
GR
GS
[0.75 0 0 0.75 0 0] CT
0.149 GC
2 setlinecap
1 LJ
0.667 LW
N
454.444 421 M
454.444 414.44 L
S
GR
GS
[0.75 0 0 0.75 0 0] CT
0.149 GC
2 setlinecap
1 LJ
0.667 LW
N
527.333 421 M
527.333 414.44 L
S
GR
GS
[0.75 0 0 0.75 0 0] CT
0.149 GC
2 setlinecap
1 LJ
0.667 LW
N
600.222 421 M
600.222 414.44 L
S
GR
GS
[0.75 0 0 0.75 0 0] CT
0.149 GC
2 setlinecap
1 LJ
0.667 LW
N
673.111 421 M
673.111 414.44 L
S
GR
GS
[0.75 0 0 0.75 0 0] CT
0.149 GC
2 setlinecap
1 LJ
0.667 LW
N
746 421 M
746 414.44 L
S
GR
GS
[0.75 0 0 0.75 0 0] CT
0.149 GC
2 setlinecap
1 LJ
0.667 LW
N
90 51 M
90 57.56 L
S
GR
GS
[0.75 0 0 0.75 0 0] CT
0.149 GC
2 setlinecap
1 LJ
0.667 LW
N
162.889 51 M
162.889 57.56 L
S
GR
GS
[0.75 0 0 0.75 0 0] CT
0.149 GC
2 setlinecap
1 LJ
0.667 LW
N
235.778 51 M
235.778 57.56 L
S
GR
GS
[0.75 0 0 0.75 0 0] CT
0.149 GC
2 setlinecap
1 LJ
0.667 LW
N
308.667 51 M
308.667 57.56 L
S
GR
GS
[0.75 0 0 0.75 0 0] CT
0.149 GC
2 setlinecap
1 LJ
0.667 LW
N
381.556 51 M
381.556 57.56 L
S
GR
GS
[0.75 0 0 0.75 0 0] CT
0.149 GC
2 setlinecap
1 LJ
0.667 LW
N
454.444 51 M
454.444 57.56 L
S
GR
GS
[0.75 0 0 0.75 0 0] CT
0.149 GC
2 setlinecap
1 LJ
0.667 LW
N
527.333 51 M
527.333 57.56 L
S
GR
GS
[0.75 0 0 0.75 0 0] CT
0.149 GC
2 setlinecap
1 LJ
0.667 LW
N
600.222 51 M
600.222 57.56 L
S
GR
GS
[0.75 0 0 0.75 0 0] CT
0.149 GC
2 setlinecap
1 LJ
0.667 LW
N
673.111 51 M
673.111 57.56 L
S
GR
GS
[0.75 0 0 0.75 0 0] CT
0.149 GC
2 setlinecap
1 LJ
0.667 LW
N
746 51 M
746 57.56 L
S
GR
GS
[0.75 0 0 0.75 67.5 322.55001] CT
0.149 GC
/Times 32 F
GS
[1 0 0 1 0 0] CT
-10.5 30 moveto 
1 -1 scale
(1) t 
GR
GR
GS
[0.75 0 0 0.75 122.16666 322.55001] CT
0.149 GC
/Times 32 F
GS
[1 0 0 1 0 0] CT
-10.5 30 moveto 
1 -1 scale
(2) t 
GR
GR
GS
[0.75 0 0 0.75 176.83333 322.55001] CT
0.149 GC
/Times 32 F
GS
[1 0 0 1 0 0] CT
-10.5 30 moveto 
1 -1 scale
(3) t 
GR
GR
GS
[0.75 0 0 0.75 231.49999 322.55001] CT
0.149 GC
/Times 32 F
GS
[1 0 0 1 0 0] CT
-10.5 30 moveto 
1 -1 scale
(4) t 
GR
GR
GS
[0.75 0 0 0.75 286.16666 322.55001] CT
0.149 GC
/Times 32 F
GS
[1 0 0 1 0 0] CT
-10.5 30 moveto 
1 -1 scale
(5) t 
GR
GR
GS
[0.75 0 0 0.75 340.83334 322.55001] CT
0.149 GC
/Times 32 F
GS
[1 0 0 1 0 0] CT
-10.5 30 moveto 
1 -1 scale
(6) t 
GR
GR
GS
[0.75 0 0 0.75 395.49998 322.55001] CT
0.149 GC
/Times 32 F
GS
[1 0 0 1 0 0] CT
-10.5 30 moveto 
1 -1 scale
(7) t 
GR
GR
GS
[0.75 0 0 0.75 450.16667 322.55001] CT
0.149 GC
/Times 32 F
GS
[1 0 0 1 0 0] CT
-10.5 30 moveto 
1 -1 scale
(8) t 
GR
GR
GS
[0.75 0 0 0.75 504.83331 322.55001] CT
0.149 GC
/Times 32 F
GS
[1 0 0 1 0 0] CT
-10.5 30 moveto 
1 -1 scale
(9) t 
GR
GR
GS
[0.75 0 0 0.75 559.5 322.55001] CT
0.149 GC
/Times 32 F
GS
[1 0 0 1 0 0] CT
-20.5 30 moveto 
1 -1 scale
(10) t 
GR
GR
GS
[0.75 0 0 0.75 313.50023 352.05] CT
0.149 GC
/Times 35.2 F
GS
[1 0 0 1 0 0] CT
-210 33 moveto 
1 -1 scale
(Number of Top Matches) t 
GR
GR
GS
[0.75 0 0 0.75 0 0] CT
0.149 GC
2 setlinecap
1 LJ
0.667 LW
N
90 421 M
90 51 L
S
GR
GS
[0.75 0 0 0.75 0 0] CT
0.149 GC
2 setlinecap
1 LJ
0.667 LW
N
746 421 M
746 51 L
S
GR
GS
[0.75 0 0 0.75 0 0] CT
0.149 GC
2 setlinecap
1 LJ
0.667 LW
N
90 421 M
96.56 421 L
S
GR
GS
[0.75 0 0 0.75 0 0] CT
0.149 GC
2 setlinecap
1 LJ
0.667 LW
N
90 362.27 M
96.56 362.27 L
S
GR
GS
[0.75 0 0 0.75 0 0] CT
0.149 GC
2 setlinecap
1 LJ
0.667 LW
N
90 303.54 M
96.56 303.54 L
S
GR
GS
[0.75 0 0 0.75 0 0] CT
0.149 GC
2 setlinecap
1 LJ
0.667 LW
N
90 244.81 M
96.56 244.81 L
S
GR
GS
[0.75 0 0 0.75 0 0] CT
0.149 GC
2 setlinecap
1 LJ
0.667 LW
N
90 186.079 M
96.56 186.079 L
S
GR
GS
[0.75 0 0 0.75 0 0] CT
0.149 GC
2 setlinecap
1 LJ
0.667 LW
N
90 127.349 M
96.56 127.349 L
S
GR
GS
[0.75 0 0 0.75 0 0] CT
0.149 GC
2 setlinecap
1 LJ
0.667 LW
N
90 68.619 M
96.56 68.619 L
S
GR
GS
[0.75 0 0 0.75 0 0] CT
0.149 GC
2 setlinecap
1 LJ
0.667 LW
N
90 51 M
96.56 51 L
S
GR
GS
[0.75 0 0 0.75 0 0] CT
0.149 GC
2 setlinecap
1 LJ
0.667 LW
N
746 421 M
739.44 421 L
S
GR
GS
[0.75 0 0 0.75 0 0] CT
0.149 GC
2 setlinecap
1 LJ
0.667 LW
N
746 362.27 M
739.44 362.27 L
S
GR
GS
[0.75 0 0 0.75 0 0] CT
0.149 GC
2 setlinecap
1 LJ
0.667 LW
N
746 303.54 M
739.44 303.54 L
S
GR
GS
[0.75 0 0 0.75 0 0] CT
0.149 GC
2 setlinecap
1 LJ
0.667 LW
N
746 244.81 M
739.44 244.81 L
S
GR
GS
[0.75 0 0 0.75 0 0] CT
0.149 GC
2 setlinecap
1 LJ
0.667 LW
N
746 186.079 M
739.44 186.079 L
S
GR
GS
[0.75 0 0 0.75 0 0] CT
0.149 GC
2 setlinecap
1 LJ
0.667 LW
N
746 127.349 M
739.44 127.349 L
S
GR
GS
[0.75 0 0 0.75 0 0] CT
0.149 GC
2 setlinecap
1 LJ
0.667 LW
N
746 68.619 M
739.44 68.619 L
S
GR
GS
[0.75 0 0 0.75 0 0] CT
0.149 GC
2 setlinecap
1 LJ
0.667 LW
N
746 51 M
739.44 51 L
S
GR
GS
[0.75 0 0 0.75 60.7 315.75] CT
0.149 GC
/Times 32 F
GS
[1 0 0 1 0 0] CT
-21 11 moveto 
1 -1 scale
(0) t 
GR
GR
GS
[0.75 0 0 0.75 60.7 271.70238] CT
0.149 GC
/Times 32 F
GS
[1 0 0 1 0 0] CT
-41 11 moveto 
1 -1 scale
(10) t 
GR
GR
GS
[0.75 0 0 0.75 60.7 227.65475] CT
0.149 GC
/Times 32 F
GS
[1 0 0 1 0 0] CT
-41 11 moveto 
1 -1 scale
(20) t 
GR
GR
GS
[0.75 0 0 0.75 60.7 183.60714] CT
0.149 GC
/Times 32 F
GS
[1 0 0 1 0 0] CT
-41 11 moveto 
1 -1 scale
(30) t 
GR
GR
GS
[0.75 0 0 0.75 60.7 139.55952] CT
0.149 GC
/Times 32 F
GS
[1 0 0 1 0 0] CT
-41 11 moveto 
1 -1 scale
(40) t 
GR
GR
GS
[0.75 0 0 0.75 60.7 95.5119] CT
0.149 GC
/Times 32 F
GS
[1 0 0 1 0 0] CT
-41 11 moveto 
1 -1 scale
(50) t 
GR
GR
GS
[0.75 0 0 0.75 60.7 51.46429] CT
0.149 GC
/Times 32 F
GS
[1 0 0 1 0 0] CT
-41 11 moveto 
1 -1 scale
(60) t 
GR
GR
GS
[0 -0.75 0.75 0 26.95 176.99986] CT
0.149 GC
/Times 35.2 F
GS
[1 0 0 1 0 0] CT
-100.5 -9 moveto 
1 -1 scale
(ANMRR \(%\)) t 
GR
GR
GS
[0.75 0 0 0.75 313.5003 33.29999] CT
/Times 35.2 F
GS
[1 0 0 1 0 0] CT
-144.5 -9 moveto 
1 -1 scale
(FERET Database) t 
GR
GR
GS
[0.75 0 0 0.75 0 0] CT
1 0.6 0.784 RC
1 LJ
2 LW
N
90 421 M
162.889 408.939 L
235.778 358.368 L
308.667 307.171 L
381.556 261.219 L
454.444 221.199 L
527.333 188.107 L
600.222 159.33 L
673.111 135.136 L
746 114.874 L
S
GR
GS
[0.75 0 0 0.75 0 0] CT
1 GC
N
88.278 416.652 M
94.943 420.5 L
88.278 424.348 L
cp
f
GR
GS
[0.75 0 0 0.75 0 0] CT
1 0.6 0.784 RC
10.0 ML
2 LW
N
88.278 416.652 M
94.943 420.5 L
88.278 424.348 L
cp
S
GR
GS
[0.75 0 0 0.75 0 0] CT
1 GC
N
160.278 404.652 M
166.943 408.5 L
160.278 412.348 L
cp
f
GR
GS
[0.75 0 0 0.75 0 0] CT
1 0.6 0.784 RC
10.0 ML
2 LW
N
160.278 404.652 M
166.943 408.5 L
160.278 412.348 L
cp
S
GR
GS
[0.75 0 0 0.75 0 0] CT
1 GC
N
233.278 354.652 M
239.943 358.5 L
233.278 362.348 L
cp
f
GR
GS
[0.75 0 0 0.75 0 0] CT
1 0.6 0.784 RC
10.0 ML
2 LW
N
233.278 354.652 M
239.943 358.5 L
233.278 362.348 L
cp
S
GR
GS
[0.75 0 0 0.75 0 0] CT
1 GC
N
306.278 303.652 M
312.943 307.5 L
306.278 311.348 L
cp
f
GR
GS
[0.75 0 0 0.75 0 0] CT
1 0.6 0.784 RC
10.0 ML
2 LW
N
306.278 303.652 M
312.943 307.5 L
306.278 311.348 L
cp
S
GR
GS
[0.75 0 0 0.75 0 0] CT
1 GC
N
379.278 257.652 M
385.943 261.5 L
379.278 265.348 L
cp
f
GR
GS
[0.75 0 0 0.75 0 0] CT
1 0.6 0.784 RC
10.0 ML
2 LW
N
379.278 257.652 M
385.943 261.5 L
379.278 265.348 L
cp
S
GR
GS
[0.75 0 0 0.75 0 0] CT
1 GC
N
452.278 217.652 M
458.943 221.5 L
452.278 225.348 L
cp
f
GR
GS
[0.75 0 0 0.75 0 0] CT
1 0.6 0.784 RC
10.0 ML
2 LW
N
452.278 217.652 M
458.943 221.5 L
452.278 225.348 L
cp
S
GR
GS
[0.75 0 0 0.75 0 0] CT
1 GC
N
525.278 184.652 M
531.943 188.5 L
525.278 192.348 L
cp
f
GR
GS
[0.75 0 0 0.75 0 0] CT
1 0.6 0.784 RC
10.0 ML
2 LW
N
525.278 184.652 M
531.943 188.5 L
525.278 192.348 L
cp
S
GR
GS
[0.75 0 0 0.75 0 0] CT
1 GC
N
598.278 155.652 M
604.943 159.5 L
598.278 163.348 L
cp
f
GR
GS
[0.75 0 0 0.75 0 0] CT
1 0.6 0.784 RC
10.0 ML
2 LW
N
598.278 155.652 M
604.943 159.5 L
598.278 163.348 L
cp
S
GR
GS
[0.75 0 0 0.75 0 0] CT
1 GC
N
671.278 131.652 M
677.943 135.5 L
671.278 139.348 L
cp
f
GR
GS
[0.75 0 0 0.75 0 0] CT
1 0.6 0.784 RC
10.0 ML
2 LW
N
671.278 131.652 M
677.943 135.5 L
671.278 139.348 L
cp
S
GR
GS
[0.75 0 0 0.75 0 0] CT
1 GC
N
744.278 110.652 M
750.943 114.5 L
744.278 118.348 L
cp
f
GR
GS
[0.75 0 0 0.75 0 0] CT
1 0.6 0.784 RC
10.0 ML
2 LW
N
744.278 110.652 M
750.943 114.5 L
744.278 118.348 L
cp
S
GR
GS
[0.75 0 0 0.75 0 0] CT
0.6 0.2 0 RC
1 LJ
2 LW
N
90 421 M
162.889 408.172 L
235.778 357.765 L
308.667 305.745 L
381.556 261.534 L
454.444 221.63 L
527.333 187.869 L
600.222 159.313 L
673.111 134.845 L
746 113.605 L
S
GR
GS
[0.75 0 0 0.75 0 0] CT
1 GC
N
86.057 420.5 M
92.722 416.652 L
92.722 424.348 L
cp
f
GR
GS
[0.75 0 0 0.75 0 0] CT
0.6 0.2 0 RC
10.0 ML
2 LW
N
86.057 420.5 M
92.722 416.652 L
92.722 424.348 L
cp
S
GR
GS
[0.75 0 0 0.75 0 0] CT
1 GC
N
158.057 408.5 M
164.722 404.652 L
164.722 412.348 L
cp
f
GR
GS
[0.75 0 0 0.75 0 0] CT
0.6 0.2 0 RC
10.0 ML
2 LW
N
158.057 408.5 M
164.722 404.652 L
164.722 412.348 L
cp
S
GR
GS
[0.75 0 0 0.75 0 0] CT
1 GC
N
231.057 357.5 M
237.722 353.652 L
237.722 361.348 L
cp
f
GR
GS
[0.75 0 0 0.75 0 0] CT
0.6 0.2 0 RC
10.0 ML
2 LW
N
231.057 357.5 M
237.722 353.652 L
237.722 361.348 L
cp
S
GR
GS
[0.75 0 0 0.75 0 0] CT
1 GC
N
304.057 305.5 M
310.722 301.652 L
310.722 309.348 L
cp
f
GR
GS
[0.75 0 0 0.75 0 0] CT
0.6 0.2 0 RC
10.0 ML
2 LW
N
304.057 305.5 M
310.722 301.652 L
310.722 309.348 L
cp
S
GR
GS
[0.75 0 0 0.75 0 0] CT
1 GC
N
377.057 261.5 M
383.722 257.652 L
383.722 265.348 L
cp
f
GR
GS
[0.75 0 0 0.75 0 0] CT
0.6 0.2 0 RC
10.0 ML
2 LW
N
377.057 261.5 M
383.722 257.652 L
383.722 265.348 L
cp
S
GR
GS
[0.75 0 0 0.75 0 0] CT
1 GC
N
450.057 221.5 M
456.722 217.652 L
456.722 225.348 L
cp
f
GR
GS
[0.75 0 0 0.75 0 0] CT
0.6 0.2 0 RC
10.0 ML
2 LW
N
450.057 221.5 M
456.722 217.652 L
456.722 225.348 L
cp
S
GR
GS
[0.75 0 0 0.75 0 0] CT
1 GC
N
523.057 187.5 M
529.722 183.652 L
529.722 191.348 L
cp
f
GR
GS
[0.75 0 0 0.75 0 0] CT
0.6 0.2 0 RC
10.0 ML
2 LW
N
523.057 187.5 M
529.722 183.652 L
529.722 191.348 L
cp
S
GR
GS
[0.75 0 0 0.75 0 0] CT
1 GC
N
596.057 159.5 M
602.722 155.652 L
602.722 163.348 L
cp
f
GR
GS
[0.75 0 0 0.75 0 0] CT
0.6 0.2 0 RC
10.0 ML
2 LW
N
596.057 159.5 M
602.722 155.652 L
602.722 163.348 L
cp
S
GR
GS
[0.75 0 0 0.75 0 0] CT
1 GC
N
669.057 134.5 M
675.722 130.652 L
675.722 138.348 L
cp
f
GR
GS
[0.75 0 0 0.75 0 0] CT
0.6 0.2 0 RC
10.0 ML
2 LW
N
669.057 134.5 M
675.722 130.652 L
675.722 138.348 L
cp
S
GR
GS
[0.75 0 0 0.75 0 0] CT
1 GC
N
742.057 113.5 M
748.722 109.652 L
748.722 117.348 L
cp
f
GR
GS
[0.75 0 0 0.75 0 0] CT
0.6 0.2 0 RC
10.0 ML
2 LW
N
742.057 113.5 M
748.722 109.652 L
748.722 117.348 L
cp
S
GR
GS
[0.75 0 0 0.75 0 0] CT
0.929 0.694 0.125 RC
1 LJ
2 LW
N
90 421 M
162.889 401.11 L
235.778 345.968 L
308.667 294.109 L
381.556 249.426 L
454.444 212.025 L
527.333 180.633 L
600.222 153.572 L
673.111 130.496 L
746 110.895 L
S
GR
GS
[0.75 0 0 0.75 0 0] CT
1 GC
N
87.33 419.47 M
89.716 419.47 L
90.5 417.167 L
91.284 419.47 L
93.67 419.47 L
91.768 420.912 L
92.459 423.197 L
90.5 421.833 L
88.541 423.197 L
89.232 420.912 L
87.33 419.47 L
cp
f
GR
GS
[0.75 0 0 0.75 0 0] CT
0.929 0.694 0.125 RC
10.0 ML
2 LW
N
87.33 419.47 M
89.716 419.47 L
90.5 417.167 L
91.284 419.47 L
93.67 419.47 L
91.768 420.912 L
92.459 423.197 L
90.5 421.833 L
88.541 423.197 L
89.232 420.912 L
cp
S
GR
GS
[0.75 0 0 0.75 0 0] CT
1 GC
N
159.33 400.47 M
161.716 400.47 L
162.5 398.167 L
163.284 400.47 L
165.67 400.47 L
163.768 401.912 L
164.459 404.197 L
162.5 402.833 L
160.541 404.197 L
161.232 401.912 L
159.33 400.47 L
cp
f
GR
GS
[0.75 0 0 0.75 0 0] CT
0.929 0.694 0.125 RC
10.0 ML
2 LW
N
159.33 400.47 M
161.716 400.47 L
162.5 398.167 L
163.284 400.47 L
165.67 400.47 L
163.768 401.912 L
164.459 404.197 L
162.5 402.833 L
160.541 404.197 L
161.232 401.912 L
cp
S
GR
GS
[0.75 0 0 0.75 0 0] CT
1 GC
N
232.33 344.47 M
234.716 344.47 L
235.5 342.167 L
236.284 344.47 L
238.67 344.47 L
236.768 345.912 L
237.459 348.197 L
235.5 346.833 L
233.541 348.197 L
234.232 345.912 L
232.33 344.47 L
cp
f
GR
GS
[0.75 0 0 0.75 0 0] CT
0.929 0.694 0.125 RC
10.0 ML
2 LW
N
232.33 344.47 M
234.716 344.47 L
235.5 342.167 L
236.284 344.47 L
238.67 344.47 L
236.768 345.912 L
237.459 348.197 L
235.5 346.833 L
233.541 348.197 L
234.232 345.912 L
cp
S
GR
GS
[0.75 0 0 0.75 0 0] CT
1 GC
N
305.33 293.47 M
307.716 293.47 L
308.5 291.167 L
309.284 293.47 L
311.67 293.47 L
309.768 294.912 L
310.459 297.197 L
308.5 295.833 L
306.541 297.197 L
307.232 294.912 L
305.33 293.47 L
cp
f
GR
GS
[0.75 0 0 0.75 0 0] CT
0.929 0.694 0.125 RC
10.0 ML
2 LW
N
305.33 293.47 M
307.716 293.47 L
308.5 291.167 L
309.284 293.47 L
311.67 293.47 L
309.768 294.912 L
310.459 297.197 L
308.5 295.833 L
306.541 297.197 L
307.232 294.912 L
cp
S
GR
GS
[0.75 0 0 0.75 0 0] CT
1 GC
N
378.33 248.47 M
380.716 248.47 L
381.5 246.167 L
382.284 248.47 L
384.67 248.47 L
382.768 249.912 L
383.459 252.197 L
381.5 250.833 L
379.541 252.197 L
380.232 249.912 L
378.33 248.47 L
cp
f
GR
GS
[0.75 0 0 0.75 0 0] CT
0.929 0.694 0.125 RC
10.0 ML
2 LW
N
378.33 248.47 M
380.716 248.47 L
381.5 246.167 L
382.284 248.47 L
384.67 248.47 L
382.768 249.912 L
383.459 252.197 L
381.5 250.833 L
379.541 252.197 L
380.232 249.912 L
cp
S
GR
GS
[0.75 0 0 0.75 0 0] CT
1 GC
N
451.33 211.47 M
453.716 211.47 L
454.5 209.167 L
455.284 211.47 L
457.67 211.47 L
455.768 212.912 L
456.459 215.197 L
454.5 213.833 L
452.541 215.197 L
453.232 212.912 L
451.33 211.47 L
cp
f
GR
GS
[0.75 0 0 0.75 0 0] CT
0.929 0.694 0.125 RC
10.0 ML
2 LW
N
451.33 211.47 M
453.716 211.47 L
454.5 209.167 L
455.284 211.47 L
457.67 211.47 L
455.768 212.912 L
456.459 215.197 L
454.5 213.833 L
452.541 215.197 L
453.232 212.912 L
cp
S
GR
GS
[0.75 0 0 0.75 0 0] CT
1 GC
N
524.33 179.47 M
526.716 179.47 L
527.5 177.167 L
528.284 179.47 L
530.67 179.47 L
528.768 180.912 L
529.459 183.197 L
527.5 181.833 L
525.541 183.197 L
526.232 180.912 L
524.33 179.47 L
cp
f
GR
GS
[0.75 0 0 0.75 0 0] CT
0.929 0.694 0.125 RC
10.0 ML
2 LW
N
524.33 179.47 M
526.716 179.47 L
527.5 177.167 L
528.284 179.47 L
530.67 179.47 L
528.768 180.912 L
529.459 183.197 L
527.5 181.833 L
525.541 183.197 L
526.232 180.912 L
cp
S
GR
GS
[0.75 0 0 0.75 0 0] CT
1 GC
N
597.33 152.47 M
599.716 152.47 L
600.5 150.167 L
601.284 152.47 L
603.67 152.47 L
601.768 153.912 L
602.459 156.197 L
600.5 154.833 L
598.541 156.197 L
599.232 153.912 L
597.33 152.47 L
cp
f
GR
GS
[0.75 0 0 0.75 0 0] CT
0.929 0.694 0.125 RC
10.0 ML
2 LW
N
597.33 152.47 M
599.716 152.47 L
600.5 150.167 L
601.284 152.47 L
603.67 152.47 L
601.768 153.912 L
602.459 156.197 L
600.5 154.833 L
598.541 156.197 L
599.232 153.912 L
cp
S
GR
GS
[0.75 0 0 0.75 0 0] CT
1 GC
N
670.33 129.47 M
672.716 129.47 L
673.5 127.167 L
674.284 129.47 L
676.67 129.47 L
674.768 130.912 L
675.459 133.197 L
673.5 131.833 L
671.541 133.197 L
672.232 130.912 L
670.33 129.47 L
cp
f
GR
GS
[0.75 0 0 0.75 0 0] CT
0.929 0.694 0.125 RC
10.0 ML
2 LW
N
670.33 129.47 M
672.716 129.47 L
673.5 127.167 L
674.284 129.47 L
676.67 129.47 L
674.768 130.912 L
675.459 133.197 L
673.5 131.833 L
671.541 133.197 L
672.232 130.912 L
cp
S
GR
GS
[0.75 0 0 0.75 0 0] CT
1 GC
N
743.33 109.47 M
745.716 109.47 L
746.5 107.167 L
747.284 109.47 L
749.67 109.47 L
747.768 110.912 L
748.459 113.197 L
746.5 111.833 L
744.541 113.197 L
745.232 110.912 L
743.33 109.47 L
cp
f
GR
GS
[0.75 0 0 0.75 0 0] CT
0.929 0.694 0.125 RC
10.0 ML
2 LW
N
743.33 109.47 M
745.716 109.47 L
746.5 107.167 L
747.284 109.47 L
749.67 109.47 L
747.768 110.912 L
748.459 113.197 L
746.5 111.833 L
744.541 113.197 L
745.232 110.912 L
cp
S
GR
GS
[0.75 0 0 0.75 0 0] CT
0 1 1 RC
1 LJ
2 LW
N
90 421 M
162.889 385.645 L
235.778 314.886 L
308.667 255.856 L
381.556 209.594 L
454.444 171.805 L
527.333 141.108 L
600.222 115.586 L
673.111 94.753 L
746 77.117 L
S
GR
GS
[0.75 0 0 0.75 0 0] CT
1 GC
N
90.5 424.943 M
93.833 420.5 L
90.5 416.057 L
87.167 420.5 L
cp
f
GR
GS
[0.75 0 0 0.75 0 0] CT
0 1 1 RC
10.0 ML
2 LW
N
90.5 424.943 M
93.833 420.5 L
90.5 416.057 L
87.167 420.5 L
cp
S
GR
GS
[0.75 0 0 0.75 0 0] CT
1 GC
N
162.5 389.943 M
165.833 385.5 L
162.5 381.057 L
159.167 385.5 L
cp
f
GR
GS
[0.75 0 0 0.75 0 0] CT
0 1 1 RC
10.0 ML
2 LW
N
162.5 389.943 M
165.833 385.5 L
162.5 381.057 L
159.167 385.5 L
cp
S
GR
GS
[0.75 0 0 0.75 0 0] CT
1 GC
N
235.5 318.943 M
238.833 314.5 L
235.5 310.057 L
232.167 314.5 L
cp
f
GR
GS
[0.75 0 0 0.75 0 0] CT
0 1 1 RC
10.0 ML
2 LW
N
235.5 318.943 M
238.833 314.5 L
235.5 310.057 L
232.167 314.5 L
cp
S
GR
GS
[0.75 0 0 0.75 0 0] CT
1 GC
N
308.5 259.943 M
311.833 255.5 L
308.5 251.057 L
305.167 255.5 L
cp
f
GR
GS
[0.75 0 0 0.75 0 0] CT
0 1 1 RC
10.0 ML
2 LW
N
308.5 259.943 M
311.833 255.5 L
308.5 251.057 L
305.167 255.5 L
cp
S
GR
GS
[0.75 0 0 0.75 0 0] CT
1 GC
N
381.5 213.943 M
384.833 209.5 L
381.5 205.057 L
378.167 209.5 L
cp
f
GR
GS
[0.75 0 0 0.75 0 0] CT
0 1 1 RC
10.0 ML
2 LW
N
381.5 213.943 M
384.833 209.5 L
381.5 205.057 L
378.167 209.5 L
cp
S
GR
GS
[0.75 0 0 0.75 0 0] CT
1 GC
N
454.5 175.943 M
457.833 171.5 L
454.5 167.057 L
451.167 171.5 L
cp
f
GR
GS
[0.75 0 0 0.75 0 0] CT
0 1 1 RC
10.0 ML
2 LW
N
454.5 175.943 M
457.833 171.5 L
454.5 167.057 L
451.167 171.5 L
cp
S
GR
GS
[0.75 0 0 0.75 0 0] CT
1 GC
N
527.5 145.943 M
530.833 141.5 L
527.5 137.057 L
524.167 141.5 L
cp
f
GR
GS
[0.75 0 0 0.75 0 0] CT
0 1 1 RC
10.0 ML
2 LW
N
527.5 145.943 M
530.833 141.5 L
527.5 137.057 L
524.167 141.5 L
cp
S
GR
GS
[0.75 0 0 0.75 0 0] CT
1 GC
N
600.5 119.943 M
603.833 115.5 L
600.5 111.057 L
597.167 115.5 L
cp
f
GR
GS
[0.75 0 0 0.75 0 0] CT
0 1 1 RC
10.0 ML
2 LW
N
600.5 119.943 M
603.833 115.5 L
600.5 111.057 L
597.167 115.5 L
cp
S
GR
GS
[0.75 0 0 0.75 0 0] CT
1 GC
N
673.5 98.943 M
676.833 94.5 L
673.5 90.057 L
670.167 94.5 L
cp
f
GR
GS
[0.75 0 0 0.75 0 0] CT
0 1 1 RC
10.0 ML
2 LW
N
673.5 98.943 M
676.833 94.5 L
673.5 90.057 L
670.167 94.5 L
cp
S
GR
GS
[0.75 0 0 0.75 0 0] CT
1 GC
N
746.5 81.943 M
749.833 77.5 L
746.5 73.057 L
743.167 77.5 L
cp
f
GR
GS
[0.75 0 0 0.75 0 0] CT
0 1 1 RC
10.0 ML
2 LW
N
746.5 81.943 M
749.833 77.5 L
746.5 73.057 L
743.167 77.5 L
cp
S
GR
GS
[0.75 0 0 0.75 0 0] CT
0 1 0 RC
1 LJ
2 LW
N
90 421 M
162.889 408.465 L
235.778 352.441 L
308.667 294.122 L
381.556 243.436 L
454.444 202.385 L
527.333 168.943 L
600.222 142.038 L
673.111 118.311 L
746 98.114 L
S
GR
GS
[0.75 0 0 0.75 0 0] CT
1 GC
N
87.9 423.1 M
87.9 417.9 L
93.1 417.9 L
93.1 423.1 L
cp
f
GR
GS
[0.75 0 0 0.75 0 0] CT
0 1 0 RC
10.0 ML
2 LW
N
87.9 423.1 M
87.9 417.9 L
93.1 417.9 L
93.1 423.1 L
cp
S
GR
GS
[0.75 0 0 0.75 0 0] CT
1 GC
N
159.9 411.1 M
159.9 405.9 L
165.1 405.9 L
165.1 411.1 L
cp
f
GR
GS
[0.75 0 0 0.75 0 0] CT
0 1 0 RC
10.0 ML
2 LW
N
159.9 411.1 M
159.9 405.9 L
165.1 405.9 L
165.1 411.1 L
cp
S
GR
GS
[0.75 0 0 0.75 0 0] CT
1 GC
N
232.9 355.1 M
232.9 349.9 L
238.1 349.9 L
238.1 355.1 L
cp
f
GR
GS
[0.75 0 0 0.75 0 0] CT
0 1 0 RC
10.0 ML
2 LW
N
232.9 355.1 M
232.9 349.9 L
238.1 349.9 L
238.1 355.1 L
cp
S
GR
GS
[0.75 0 0 0.75 0 0] CT
1 GC
N
305.9 297.1 M
305.9 291.9 L
311.1 291.9 L
311.1 297.1 L
cp
f
GR
GS
[0.75 0 0 0.75 0 0] CT
0 1 0 RC
10.0 ML
2 LW
N
305.9 297.1 M
305.9 291.9 L
311.1 291.9 L
311.1 297.1 L
cp
S
GR
GS
[0.75 0 0 0.75 0 0] CT
1 GC
N
378.9 246.1 M
378.9 240.9 L
384.1 240.9 L
384.1 246.1 L
cp
f
GR
GS
[0.75 0 0 0.75 0 0] CT
0 1 0 RC
10.0 ML
2 LW
N
378.9 246.1 M
378.9 240.9 L
384.1 240.9 L
384.1 246.1 L
cp
S
GR
GS
[0.75 0 0 0.75 0 0] CT
1 GC
N
451.9 205.1 M
451.9 199.9 L
457.1 199.9 L
457.1 205.1 L
cp
f
GR
GS
[0.75 0 0 0.75 0 0] CT
0 1 0 RC
10.0 ML
2 LW
N
451.9 205.1 M
451.9 199.9 L
457.1 199.9 L
457.1 205.1 L
cp
S
GR
GS
[0.75 0 0 0.75 0 0] CT
1 GC
N
524.9 171.1 M
524.9 165.9 L
530.1 165.9 L
530.1 171.1 L
cp
f
GR
GS
[0.75 0 0 0.75 0 0] CT
0 1 0 RC
10.0 ML
2 LW
N
524.9 171.1 M
524.9 165.9 L
530.1 165.9 L
530.1 171.1 L
cp
S
GR
GS
[0.75 0 0 0.75 0 0] CT
1 GC
N
597.9 145.1 M
597.9 139.9 L
603.1 139.9 L
603.1 145.1 L
cp
f
GR
GS
[0.75 0 0 0.75 0 0] CT
0 1 0 RC
10.0 ML
2 LW
N
597.9 145.1 M
597.9 139.9 L
603.1 139.9 L
603.1 145.1 L
cp
S
GR
GS
[0.75 0 0 0.75 0 0] CT
1 GC
N
670.9 121.1 M
670.9 115.9 L
676.1 115.9 L
676.1 121.1 L
cp
f
GR
GS
[0.75 0 0 0.75 0 0] CT
0 1 0 RC
10.0 ML
2 LW
N
670.9 121.1 M
670.9 115.9 L
676.1 115.9 L
676.1 121.1 L
cp
S
GR
GS
[0.75 0 0 0.75 0 0] CT
1 GC
N
743.9 101.1 M
743.9 95.9 L
749.1 95.9 L
749.1 101.1 L
cp
f
GR
GS
[0.75 0 0 0.75 0 0] CT
0 1 0 RC
10.0 ML
2 LW
N
743.9 101.1 M
743.9 95.9 L
749.1 95.9 L
749.1 101.1 L
cp
S
GR
GS
[0.75 0 0 0.75 0 0] CT
0 0 1 RC
1 LJ
2 LW
N
90 421 M
162.889 353.891 L
235.778 270.75 L
308.667 213.153 L
381.556 171.178 L
454.444 137.951 L
527.333 110.745 L
600.222 87.977 L
673.111 69.864 L
746 54.165 L
S
GR
GS
[0.75 0 0 0.75 0 0] CT
1 GC
N
86.057 420.5 M
92.722 416.652 L
92.722 424.348 L
cp
f
GR
GS
[0.75 0 0 0.75 0 0] CT
0 0 1 RC
10.0 ML
2 LW
N
86.057 420.5 M
92.722 416.652 L
92.722 424.348 L
cp
S
GR
GS
[0.75 0 0 0.75 0 0] CT
1 GC
N
158.057 353.5 M
164.722 349.652 L
164.722 357.348 L
cp
f
GR
GS
[0.75 0 0 0.75 0 0] CT
0 0 1 RC
10.0 ML
2 LW
N
158.057 353.5 M
164.722 349.652 L
164.722 357.348 L
cp
S
GR
GS
[0.75 0 0 0.75 0 0] CT
1 GC
N
231.057 270.5 M
237.722 266.652 L
237.722 274.348 L
cp
f
GR
GS
[0.75 0 0 0.75 0 0] CT
0 0 1 RC
10.0 ML
2 LW
N
231.057 270.5 M
237.722 266.652 L
237.722 274.348 L
cp
S
GR
GS
[0.75 0 0 0.75 0 0] CT
1 GC
N
304.057 213.5 M
310.722 209.652 L
310.722 217.348 L
cp
f
GR
GS
[0.75 0 0 0.75 0 0] CT
0 0 1 RC
10.0 ML
2 LW
N
304.057 213.5 M
310.722 209.652 L
310.722 217.348 L
cp
S
GR
GS
[0.75 0 0 0.75 0 0] CT
1 GC
N
377.057 171.5 M
383.722 167.652 L
383.722 175.348 L
cp
f
GR
GS
[0.75 0 0 0.75 0 0] CT
0 0 1 RC
10.0 ML
2 LW
N
377.057 171.5 M
383.722 167.652 L
383.722 175.348 L
cp
S
GR
GS
[0.75 0 0 0.75 0 0] CT
1 GC
N
450.057 137.5 M
456.722 133.652 L
456.722 141.348 L
cp
f
GR
GS
[0.75 0 0 0.75 0 0] CT
0 0 1 RC
10.0 ML
2 LW
N
450.057 137.5 M
456.722 133.652 L
456.722 141.348 L
cp
S
GR
GS
[0.75 0 0 0.75 0 0] CT
1 GC
N
523.057 110.5 M
529.722 106.652 L
529.722 114.348 L
cp
f
GR
GS
[0.75 0 0 0.75 0 0] CT
0 0 1 RC
10.0 ML
2 LW
N
523.057 110.5 M
529.722 106.652 L
529.722 114.348 L
cp
S
GR
GS
[0.75 0 0 0.75 0 0] CT
1 GC
N
596.057 87.5 M
602.722 83.652 L
602.722 91.348 L
cp
f
GR
GS
[0.75 0 0 0.75 0 0] CT
0 0 1 RC
10.0 ML
2 LW
N
596.057 87.5 M
602.722 83.652 L
602.722 91.348 L
cp
S
GR
GS
[0.75 0 0 0.75 0 0] CT
1 GC
N
669.057 69.5 M
675.722 65.652 L
675.722 73.348 L
cp
f
GR
GS
[0.75 0 0 0.75 0 0] CT
0 0 1 RC
10.0 ML
2 LW
N
669.057 69.5 M
675.722 65.652 L
675.722 73.348 L
cp
S
GR
GS
[0.75 0 0 0.75 0 0] CT
1 GC
N
742.057 54.5 M
748.722 50.652 L
748.722 58.348 L
cp
f
GR
GS
[0.75 0 0 0.75 0 0] CT
0 0 1 RC
10.0 ML
2 LW
N
742.057 54.5 M
748.722 50.652 L
748.722 58.348 L
cp
S
GR
GS
[0.75 0 0 0.75 0 0] CT
1 0 1 RC
1 LJ
2 LW
N
90 421 M
162.889 418.522 L
235.778 396.17 L
308.667 357.5 L
381.556 314.208 L
454.444 270.201 L
527.333 232.32 L
600.222 199.893 L
673.111 171.69 L
746 147.63 L
S
GR
GS
[0.75 0 0 0.75 0 0] CT
1 0 1 RC
1 LJ
2 LW
N
87 420.5 M
94 420.5 L
S
GR
GS
[0.75 0 0 0.75 0 0] CT
1 0 1 RC
1 LJ
2 LW
N
90.5 424 M
90.5 417 L
S
GR
GS
[0.75 0 0 0.75 0 0] CT
1 0 1 RC
1 LJ
2 LW
N
159 418.5 M
166 418.5 L
S
GR
GS
[0.75 0 0 0.75 0 0] CT
1 0 1 RC
1 LJ
2 LW
N
162.5 422 M
162.5 415 L
S
GR
GS
[0.75 0 0 0.75 0 0] CT
1 0 1 RC
1 LJ
2 LW
N
232 396.5 M
239 396.5 L
S
GR
GS
[0.75 0 0 0.75 0 0] CT
1 0 1 RC
1 LJ
2 LW
N
235.5 400 M
235.5 393 L
S
GR
GS
[0.75 0 0 0.75 0 0] CT
1 0 1 RC
1 LJ
2 LW
N
305 357.5 M
312 357.5 L
S
GR
GS
[0.75 0 0 0.75 0 0] CT
1 0 1 RC
1 LJ
2 LW
N
308.5 361 M
308.5 354 L
S
GR
GS
[0.75 0 0 0.75 0 0] CT
1 0 1 RC
1 LJ
2 LW
N
378 314.5 M
385 314.5 L
S
GR
GS
[0.75 0 0 0.75 0 0] CT
1 0 1 RC
1 LJ
2 LW
N
381.5 318 M
381.5 311 L
S
GR
GS
[0.75 0 0 0.75 0 0] CT
1 0 1 RC
1 LJ
2 LW
N
451 270.5 M
458 270.5 L
S
GR
GS
[0.75 0 0 0.75 0 0] CT
1 0 1 RC
1 LJ
2 LW
N
454.5 274 M
454.5 267 L
S
GR
GS
[0.75 0 0 0.75 0 0] CT
1 0 1 RC
1 LJ
2 LW
N
524 232.5 M
531 232.5 L
S
GR
GS
[0.75 0 0 0.75 0 0] CT
1 0 1 RC
1 LJ
2 LW
N
527.5 236 M
527.5 229 L
S
GR
GS
[0.75 0 0 0.75 0 0] CT
1 0 1 RC
1 LJ
2 LW
N
597 199.5 M
604 199.5 L
S
GR
GS
[0.75 0 0 0.75 0 0] CT
1 0 1 RC
1 LJ
2 LW
N
600.5 203 M
600.5 196 L
S
GR
GS
[0.75 0 0 0.75 0 0] CT
1 0 1 RC
1 LJ
2 LW
N
670 171.5 M
677 171.5 L
S
GR
GS
[0.75 0 0 0.75 0 0] CT
1 0 1 RC
1 LJ
2 LW
N
673.5 175 M
673.5 168 L
S
GR
GS
[0.75 0 0 0.75 0 0] CT
1 0 1 RC
1 LJ
2 LW
N
743 147.5 M
750 147.5 L
S
GR
GS
[0.75 0 0 0.75 0 0] CT
1 0 1 RC
1 LJ
2 LW
N
746.5 151 M
746.5 144 L
S
GR
GS
[0.75 0 0 0.75 0 0] CT
1 0 0 RC
1 LJ
2 LW
N
90 421 M
162.889 419.167 L
235.778 399.491 L
308.667 364.561 L
381.556 322.882 L
454.444 280.717 L
527.333 243.502 L
600.222 210.28 L
673.111 181.298 L
746 155.362 L
S
GR
GS
[0.75 0 0 0.75 0 0] CT
1 GC
N
87.9 423.1 M
87.9 417.9 L
93.1 417.9 L
93.1 423.1 L
cp
f
GR
GS
[0.75 0 0 0.75 0 0] CT
1 0 0 RC
10.0 ML
2 LW
N
87.9 423.1 M
87.9 417.9 L
93.1 417.9 L
93.1 423.1 L
cp
S
GR
GS
[0.75 0 0 0.75 0 0] CT
1 GC
N
159.9 422.1 M
159.9 416.9 L
165.1 416.9 L
165.1 422.1 L
cp
f
GR
GS
[0.75 0 0 0.75 0 0] CT
1 0 0 RC
10.0 ML
2 LW
N
159.9 422.1 M
159.9 416.9 L
165.1 416.9 L
165.1 422.1 L
cp
S
GR
GS
[0.75 0 0 0.75 0 0] CT
1 GC
N
232.9 402.1 M
232.9 396.9 L
238.1 396.9 L
238.1 402.1 L
cp
f
GR
GS
[0.75 0 0 0.75 0 0] CT
1 0 0 RC
10.0 ML
2 LW
N
232.9 402.1 M
232.9 396.9 L
238.1 396.9 L
238.1 402.1 L
cp
S
GR
GS
[0.75 0 0 0.75 0 0] CT
1 GC
N
305.9 367.1 M
305.9 361.9 L
311.1 361.9 L
311.1 367.1 L
cp
f
GR
GS
[0.75 0 0 0.75 0 0] CT
1 0 0 RC
10.0 ML
2 LW
N
305.9 367.1 M
305.9 361.9 L
311.1 361.9 L
311.1 367.1 L
cp
S
GR
GS
[0.75 0 0 0.75 0 0] CT
1 GC
N
378.9 325.1 M
378.9 319.9 L
384.1 319.9 L
384.1 325.1 L
cp
f
GR
GS
[0.75 0 0 0.75 0 0] CT
1 0 0 RC
10.0 ML
2 LW
N
378.9 325.1 M
378.9 319.9 L
384.1 319.9 L
384.1 325.1 L
cp
S
GR
GS
[0.75 0 0 0.75 0 0] CT
1 GC
N
451.9 283.1 M
451.9 277.9 L
457.1 277.9 L
457.1 283.1 L
cp
f
GR
GS
[0.75 0 0 0.75 0 0] CT
1 0 0 RC
10.0 ML
2 LW
N
451.9 283.1 M
451.9 277.9 L
457.1 277.9 L
457.1 283.1 L
cp
S
GR
GS
[0.75 0 0 0.75 0 0] CT
1 GC
N
524.9 246.1 M
524.9 240.9 L
530.1 240.9 L
530.1 246.1 L
cp
f
GR
GS
[0.75 0 0 0.75 0 0] CT
1 0 0 RC
10.0 ML
2 LW
N
524.9 246.1 M
524.9 240.9 L
530.1 240.9 L
530.1 246.1 L
cp
S
GR
GS
[0.75 0 0 0.75 0 0] CT
1 GC
N
597.9 213.1 M
597.9 207.9 L
603.1 207.9 L
603.1 213.1 L
cp
f
GR
GS
[0.75 0 0 0.75 0 0] CT
1 0 0 RC
10.0 ML
2 LW
N
597.9 213.1 M
597.9 207.9 L
603.1 207.9 L
603.1 213.1 L
cp
S
GR
GS
[0.75 0 0 0.75 0 0] CT
1 GC
N
670.9 184.1 M
670.9 178.9 L
676.1 178.9 L
676.1 184.1 L
cp
f
GR
GS
[0.75 0 0 0.75 0 0] CT
1 0 0 RC
10.0 ML
2 LW
N
670.9 184.1 M
670.9 178.9 L
676.1 178.9 L
676.1 184.1 L
cp
S
GR
GS
[0.75 0 0 0.75 0 0] CT
1 GC
N
743.9 158.1 M
743.9 152.9 L
749.1 152.9 L
749.1 158.1 L
cp
f
GR
GS
[0.75 0 0 0.75 0 0] CT
1 0 0 RC
10.0 ML
2 LW
N
743.9 158.1 M
743.9 152.9 L
749.1 152.9 L
749.1 158.1 L
cp
S
GR
GS
[0.75 0 0 0.75 0 0] CT
1 LJ
2 LW
N
90 421 M
162.889 420.148 L
235.778 405.172 L
308.667 373.258 L
381.556 330.859 L
454.444 288.491 L
527.333 248.736 L
600.222 214.463 L
673.111 185.065 L
746 159.523 L
S
GR
GS
[0.75 0 0 0.75 0 0] CT
1 GC
N
93.833 420.5 M
92.857 418.143 L
90.5 417.167 L
88.143 418.143 L
87.167 420.5 L
88.143 422.857 L
90.5 423.833 L
92.857 422.857 L
93.833 420.5 L
cp
f
GR
GS
[0.75 0 0 0.75 0 0] CT
1 LJ
2 LW
N
93.833 420.5 M
93.197 418.541 L
91.53 417.33 L
89.47 417.33 L
87.803 418.541 L
87.167 420.5 L
87.803 422.459 L
89.47 423.67 L
91.53 423.67 L
93.197 422.459 L
cp
S
GR
GS
[0.75 0 0 0.75 0 0] CT
1 GC
N
165.833 420.5 M
164.857 418.143 L
162.5 417.167 L
160.143 418.143 L
159.167 420.5 L
160.143 422.857 L
162.5 423.833 L
164.857 422.857 L
165.833 420.5 L
cp
f
GR
GS
[0.75 0 0 0.75 0 0] CT
1 LJ
2 LW
N
165.833 420.5 M
165.197 418.541 L
163.53 417.33 L
161.47 417.33 L
159.803 418.541 L
159.167 420.5 L
159.803 422.459 L
161.47 423.67 L
163.53 423.67 L
165.197 422.459 L
cp
S
GR
GS
[0.75 0 0 0.75 0 0] CT
1 GC
N
238.833 405.5 M
237.857 403.143 L
235.5 402.167 L
233.143 403.143 L
232.167 405.5 L
233.143 407.857 L
235.5 408.833 L
237.857 407.857 L
238.833 405.5 L
cp
f
GR
GS
[0.75 0 0 0.75 0 0] CT
1 LJ
2 LW
N
238.833 405.5 M
238.197 403.541 L
236.53 402.33 L
234.47 402.33 L
232.803 403.541 L
232.167 405.5 L
232.803 407.459 L
234.47 408.67 L
236.53 408.67 L
238.197 407.459 L
cp
S
GR
GS
[0.75 0 0 0.75 0 0] CT
1 GC
N
311.833 373.5 M
310.857 371.143 L
308.5 370.167 L
306.143 371.143 L
305.167 373.5 L
306.143 375.857 L
308.5 376.833 L
310.857 375.857 L
311.833 373.5 L
cp
f
GR
GS
[0.75 0 0 0.75 0 0] CT
1 LJ
2 LW
N
311.833 373.5 M
311.197 371.541 L
309.53 370.33 L
307.47 370.33 L
305.803 371.541 L
305.167 373.5 L
305.803 375.459 L
307.47 376.67 L
309.53 376.67 L
311.197 375.459 L
cp
S
GR
GS
[0.75 0 0 0.75 0 0] CT
1 GC
N
384.833 330.5 M
383.857 328.143 L
381.5 327.167 L
379.143 328.143 L
378.167 330.5 L
379.143 332.857 L
381.5 333.833 L
383.857 332.857 L
384.833 330.5 L
cp
f
GR
GS
[0.75 0 0 0.75 0 0] CT
1 LJ
2 LW
N
384.833 330.5 M
384.197 328.541 L
382.53 327.33 L
380.47 327.33 L
378.803 328.541 L
378.167 330.5 L
378.803 332.459 L
380.47 333.67 L
382.53 333.67 L
384.197 332.459 L
cp
S
GR
GS
[0.75 0 0 0.75 0 0] CT
1 GC
N
457.833 288.5 M
456.857 286.143 L
454.5 285.167 L
452.143 286.143 L
451.167 288.5 L
452.143 290.857 L
454.5 291.833 L
456.857 290.857 L
457.833 288.5 L
cp
f
GR
GS
[0.75 0 0 0.75 0 0] CT
1 LJ
2 LW
N
457.833 288.5 M
457.197 286.541 L
455.53 285.33 L
453.47 285.33 L
451.803 286.541 L
451.167 288.5 L
451.803 290.459 L
453.47 291.67 L
455.53 291.67 L
457.197 290.459 L
cp
S
GR
GS
[0.75 0 0 0.75 0 0] CT
1 GC
N
530.833 248.5 M
529.857 246.143 L
527.5 245.167 L
525.143 246.143 L
524.167 248.5 L
525.143 250.857 L
527.5 251.833 L
529.857 250.857 L
530.833 248.5 L
cp
f
GR
GS
[0.75 0 0 0.75 0 0] CT
1 LJ
2 LW
N
530.833 248.5 M
530.197 246.541 L
528.53 245.33 L
526.47 245.33 L
524.803 246.541 L
524.167 248.5 L
524.803 250.459 L
526.47 251.67 L
528.53 251.67 L
530.197 250.459 L
cp
S
GR
GS
[0.75 0 0 0.75 0 0] CT
1 GC
N
603.833 214.5 M
602.857 212.143 L
600.5 211.167 L
598.143 212.143 L
597.167 214.5 L
598.143 216.857 L
600.5 217.833 L
602.857 216.857 L
603.833 214.5 L
cp
f
GR
GS
[0.75 0 0 0.75 0 0] CT
1 LJ
2 LW
N
603.833 214.5 M
603.197 212.541 L
601.53 211.33 L
599.47 211.33 L
597.803 212.541 L
597.167 214.5 L
597.803 216.459 L
599.47 217.67 L
601.53 217.67 L
603.197 216.459 L
cp
S
GR
GS
[0.75 0 0 0.75 0 0] CT
1 GC
N
676.833 185.5 M
675.857 183.143 L
673.5 182.167 L
671.143 183.143 L
670.167 185.5 L
671.143 187.857 L
673.5 188.833 L
675.857 187.857 L
676.833 185.5 L
cp
f
GR
GS
[0.75 0 0 0.75 0 0] CT
1 LJ
2 LW
N
676.833 185.5 M
676.197 183.541 L
674.53 182.33 L
672.47 182.33 L
670.803 183.541 L
670.167 185.5 L
670.803 187.459 L
672.47 188.67 L
674.53 188.67 L
676.197 187.459 L
cp
S
GR
GS
[0.75 0 0 0.75 0 0] CT
1 GC
N
749.833 159.5 M
748.857 157.143 L
746.5 156.167 L
744.143 157.143 L
743.167 159.5 L
744.143 161.857 L
746.5 162.833 L
748.857 161.857 L
749.833 159.5 L
cp
f
GR
GS
[0.75 0 0 0.75 0 0] CT
1 LJ
2 LW
N
749.833 159.5 M
749.197 157.541 L
747.53 156.33 L
745.47 156.33 L
743.803 157.541 L
743.167 159.5 L
743.803 161.459 L
745.47 162.67 L
747.53 162.67 L
749.197 161.459 L
cp
S
GR
GS
[0.75 0 0 0.75 0 0] CT
1 GC
N
103 333 M
103 64 L
209 64 L
209 333 L
cp
f
GR
GS
[0.75 0 0 0.75 105 60.37501] CT
/Times 24 F
GS
[1 0 0 1 0 0] CT
0 8.5 moveto 
1 -1 scale
(LBP) t 
GR
GR
GS
[0.75 0 0 0.75 0 0] CT
1 0.6 0.784 RC
1 LJ
2 LW
N
107 80.5 M
137 80.5 L
S
GR
GS
[0.75 0 0 0.75 0 0] CT
1 GC
N
120.278 76.652 M
126.943 80.5 L
120.278 84.348 L
cp
f
GR
GS
[0.75 0 0 0.75 0 0] CT
1 0.6 0.784 RC
10.0 ML
2 LW
N
120.278 76.652 M
126.943 80.5 L
120.278 84.348 L
cp
S
GR
GS
[0.75 0 0 0.75 105 82.49999] CT
/Times 24 F
GS
[1 0 0 1 0 0] CT
0 8.5 moveto 
1 -1 scale
(LTP) t 
GR
GR
GS
[0.75 0 0 0.75 0 0] CT
0.6 0.2 0 RC
1 LJ
2 LW
N
107 110 M
137 110 L
S
GR
GS
[0.75 0 0 0.75 0 0] CT
1 GC
N
118.057 109.5 M
124.722 105.652 L
124.722 113.348 L
cp
f
GR
GS
[0.75 0 0 0.75 0 0] CT
0.6 0.2 0 RC
10.0 ML
2 LW
N
118.057 109.5 M
124.722 105.652 L
124.722 113.348 L
cp
S
GR
GS
[0.75 0 0 0.75 105 104.625] CT
/Times 24 F
GS
[1 0 0 1 0 0] CT
0 8.5 moveto 
1 -1 scale
(LDP) t 
GR
GR
GS
[0.75 0 0 0.75 0 0] CT
0.929 0.694 0.125 RC
1 LJ
2 LW
N
107 139.5 M
137 139.5 L
S
GR
GS
[0.75 0 0 0.75 0 0] CT
1 GC
N
119.33 138.47 M
121.716 138.47 L
122.5 136.167 L
123.284 138.47 L
125.67 138.47 L
123.768 139.912 L
124.459 142.197 L
122.5 140.833 L
120.541 142.197 L
121.232 139.912 L
119.33 138.47 L
cp
f
GR
GS
[0.75 0 0 0.75 0 0] CT
0.929 0.694 0.125 RC
10.0 ML
2 LW
N
119.33 138.47 M
121.716 138.47 L
122.5 136.167 L
123.284 138.47 L
125.67 138.47 L
123.768 139.912 L
124.459 142.197 L
122.5 140.833 L
120.541 142.197 L
121.232 139.912 L
cp
S
GR
GS
[0.75 0 0 0.75 105 126.75] CT
/Times 24 F
GS
[1 0 0 1 0 0] CT
0 8.5 moveto 
1 -1 scale
(LDN) t 
GR
GR
GS
[0.75 0 0 0.75 0 0] CT
0 1 1 RC
1 LJ
2 LW
N
107 169 M
137 169 L
S
GR
GS
[0.75 0 0 0.75 0 0] CT
1 GC
N
122.5 172.943 M
125.833 168.5 L
122.5 164.057 L
119.167 168.5 L
cp
f
GR
GS
[0.75 0 0 0.75 0 0] CT
0 1 1 RC
10.0 ML
2 LW
N
122.5 172.943 M
125.833 168.5 L
122.5 164.057 L
119.167 168.5 L
cp
S
GR
GS
[0.75 0 0 0.75 105 148.875] CT
/Times 24 F
GS
[1 0 0 1 0 0] CT
0 8.5 moveto 
1 -1 scale
(LVP) t 
GR
GR
GS
[0.75 0 0 0.75 0 0] CT
0 1 0 RC
1 LJ
2 LW
N
107 198.5 M
137 198.5 L
S
GR
GS
[0.75 0 0 0.75 0 0] CT
1 GC
N
119.9 201.1 M
119.9 195.9 L
125.1 195.9 L
125.1 201.1 L
cp
f
GR
GS
[0.75 0 0 0.75 0 0] CT
0 1 0 RC
10.0 ML
2 LW
N
119.9 201.1 M
119.9 195.9 L
125.1 195.9 L
125.1 201.1 L
cp
S
GR
GS
[0.75 0 0 0.75 105 171] CT
/Times 24 F
GS
[1 0 0 1 0 0] CT
0 8.5 moveto 
1 -1 scale
(LDGP) t 
GR
GR
GS
[0.75 0 0 0.75 0 0] CT
0 0 1 RC
1 LJ
2 LW
N
107 228 M
137 228 L
S
GR
GS
[0.75 0 0 0.75 0 0] CT
1 GC
N
118.057 227.5 M
124.722 223.652 L
124.722 231.348 L
cp
f
GR
GS
[0.75 0 0 0.75 0 0] CT
0 0 1 RC
10.0 ML
2 LW
N
118.057 227.5 M
124.722 223.652 L
124.722 231.348 L
cp
S
GR
GS
[0.75 0 0 0.75 105 193.125] CT
/Times 24 F
GS
[1 0 0 1 0 0] CT
0 8.5 moveto 
1 -1 scale
(DCP) t 
GR
GR
GS
[0.75 0 0 0.75 0 0] CT
1 0 1 RC
1 LJ
2 LW
N
107 257.5 M
137 257.5 L
S
GR
GS
[0.75 0 0 0.75 0 0] CT
1 0 1 RC
1 LJ
2 LW
N
119 257.5 M
126 257.5 L
S
GR
GS
[0.75 0 0 0.75 0 0] CT
1 0 1 RC
1 LJ
2 LW
N
122.5 261 M
122.5 254 L
S
GR
GS
[0.75 0 0 0.75 105 215.25] CT
/Times 24 F
GS
[1 0 0 1 0 0] CT
0 8.5 moveto 
1 -1 scale
(LGHP) t 
GR
GR
GS
[0.75 0 0 0.75 0 0] CT
1 0 0 RC
1 LJ
2 LW
N
107 287 M
137 287 L
S
GR
GS
[0.75 0 0 0.75 0 0] CT
1 GC
N
119.9 290.1 M
119.9 284.9 L
125.1 284.9 L
125.1 290.1 L
cp
f
GR
GS
[0.75 0 0 0.75 0 0] CT
1 0 0 RC
10.0 ML
2 LW
N
119.9 290.1 M
119.9 284.9 L
125.1 284.9 L
125.1 290.1 L
cp
S
GR
GS
[0.75 0 0 0.75 105 237.375] CT
/Times 24 F
GS
[1 0 0 1 0 0] CT
0 8.5 moveto 
1 -1 scale
(LDRP) t 
GR
GR
GS
[0.75 0 0 0.75 0 0] CT
1 LJ
2 LW
N
107 316.5 M
137 316.5 L
S
GR
GS
[0.75 0 0 0.75 0 0] CT
1 GC
N
125.833 316.5 M
124.857 314.143 L
122.5 313.167 L
120.143 314.143 L
119.167 316.5 L
120.143 318.857 L
122.5 319.833 L
124.857 318.857 L
125.833 316.5 L
cp
f
GR
GS
[0.75 0 0 0.75 0 0] CT
1 LJ
2 LW
N
125.833 316.5 M
125.197 314.541 L
123.53 313.33 L
121.47 313.33 L
119.803 314.541 L
119.167 316.5 L
119.803 318.459 L
121.47 319.67 L
123.53 319.67 L
125.197 318.459 L
cp
S
GR
GS
[0.75 0 0 0.75 0 0] CT
0.149 GC
10.0 ML
0.667 LW
N
103 333 M
103 64 L
209 64 L
209 333 L
cp
S
GR
%%Trailer
%%Pages: 1
%%EOF
