%!PS-Adobe-3.0 EPSF-3.0
%%Creator: (MATLAB, The Mathworks, Inc. Version 9.0.0.341360 \(R2016a\). Operating System: Linux)
%%Title: (/home/shivram/main/Work/1. Research/1. Ongoing/5. LDRP Face/2. Exp/1. Results/FERET20/feret-arr.eps)
%%CreationDate: 2017-08-16T16:10:19
%%Pages: (atend)
%%BoundingBox: 0 0 573 384
%%LanguageLevel: 3
%%EndComments
%%BeginProlog
%%BeginResource: procset (Apache XML Graphics Std ProcSet) 1.2 0
%%Version: 1.2 0
%%Copyright: (Copyright 2001-2003,2010 The Apache Software Foundation. License terms: http://www.apache.org/licenses/LICENSE-2.0)
/bd{bind def}bind def
/ld{load def}bd
/GR/grestore ld
/M/moveto ld
/LJ/setlinejoin ld
/C/curveto ld
/f/fill ld
/LW/setlinewidth ld
/GC/setgray ld
/t/show ld
/N/newpath ld
/CT/concat ld
/cp/closepath ld
/S/stroke ld
/L/lineto ld
/CC/setcmykcolor ld
/A/ashow ld
/GS/gsave ld
/RC/setrgbcolor ld
/RM/rmoveto ld
/ML/setmiterlimit ld
/re {4 2 roll M
1 index 0 rlineto
0 exch rlineto
neg 0 rlineto
cp } bd
/_ctm matrix def
/_tm matrix def
/BT { _ctm currentmatrix pop matrix _tm copy pop 0 0 moveto } bd
/ET { _ctm setmatrix } bd
/iTm { _ctm setmatrix _tm concat } bd
/Tm { _tm astore pop iTm 0 0 moveto } bd
/ux 0.0 def
/uy 0.0 def
/F {
  /Tp exch def
  /Tf exch def
  Tf findfont Tp scalefont setfont
  /cf Tf def  /cs Tp def
} bd
/ULS {currentpoint /uy exch def /ux exch def} bd
/ULE {
  /Tcx currentpoint pop def
  gsave
  newpath
  cf findfont cs scalefont dup
  /FontMatrix get 0 get /Ts exch def /FontInfo get dup
  /UnderlinePosition get Ts mul /To exch def
  /UnderlineThickness get Ts mul /Tt exch def
  ux uy To add moveto  Tcx uy To add lineto
  Tt setlinewidth stroke
  grestore
} bd
/OLE {
  /Tcx currentpoint pop def
  gsave
  newpath
  cf findfont cs scalefont dup
  /FontMatrix get 0 get /Ts exch def /FontInfo get dup
  /UnderlinePosition get Ts mul /To exch def
  /UnderlineThickness get Ts mul /Tt exch def
  ux uy To add cs add moveto Tcx uy To add cs add lineto
  Tt setlinewidth stroke
  grestore
} bd
/SOE {
  /Tcx currentpoint pop def
  gsave
  newpath
  cf findfont cs scalefont dup
  /FontMatrix get 0 get /Ts exch def /FontInfo get dup
  /UnderlinePosition get Ts mul /To exch def
  /UnderlineThickness get Ts mul /Tt exch def
  ux uy To add cs 10 mul 26 idiv add moveto Tcx uy To add cs 10 mul 26 idiv add lineto
  Tt setlinewidth stroke
  grestore
} bd
/QT {
/Y22 exch store
/X22 exch store
/Y21 exch store
/X21 exch store
currentpoint
/Y21 load 2 mul add 3 div exch
/X21 load 2 mul add 3 div exch
/X21 load 2 mul /X22 load add 3 div
/Y21 load 2 mul /Y22 load add 3 div
/X22 load /Y22 load curveto
} bd
/SSPD {
dup length /d exch dict def
{
/v exch def
/k exch def
currentpagedevice k known {
/cpdv currentpagedevice k get def
v cpdv ne {
/upd false def
/nullv v type /nulltype eq def
/nullcpdv cpdv type /nulltype eq def
nullv nullcpdv or
{
/upd true def
} {
/sametype v type cpdv type eq def
sametype {
v type /arraytype eq {
/vlen v length def
/cpdvlen cpdv length def
vlen cpdvlen eq {
0 1 vlen 1 sub {
/i exch def
/obj v i get def
/cpdobj cpdv i get def
obj cpdobj ne {
/upd true def
exit
} if
} for
} {
/upd true def
} ifelse
} {
v type /dicttype eq {
v {
/dv exch def
/dk exch def
/cpddv cpdv dk get def
dv cpddv ne {
/upd true def
exit
} if
} forall
} {
/upd true def
} ifelse
} ifelse
} if
} ifelse
upd true eq {
d k v put
} if
} if
} if
} forall
d length 0 gt {
d setpagedevice
} if
} bd
%%EndResource
%%BeginResource: procset (Apache XML Graphics EPS ProcSet) 1.0 0
%%Version: 1.0 0
%%Copyright: (Copyright 2002-2003 The Apache Software Foundation. License terms: http://www.apache.org/licenses/LICENSE-2.0)
/BeginEPSF { %def
/b4_Inc_state save def         % Save state for cleanup
/dict_count countdictstack def % Count objects on dict stack
/op_count count 1 sub def      % Count objects on operand stack
userdict begin                 % Push userdict on dict stack
/showpage { } def              % Redefine showpage, { } = null proc
0 setgray 0 setlinecap         % Prepare graphics state
1 setlinewidth 0 setlinejoin
10 setmiterlimit [ ] 0 setdash newpath
/languagelevel where           % If level not equal to 1 then
{pop languagelevel             % set strokeadjust and
1 ne                           % overprint to their defaults.
{false setstrokeadjust false setoverprint
} if
} if
} bd
/EndEPSF { %def
count op_count sub {pop} repeat            % Clean up stacks
countdictstack dict_count sub {end} repeat
b4_Inc_state restore
} bd
%%EndResource
%FOPBeginFontDict
%%IncludeResource: font Courier-Bold
%%IncludeResource: font Helvetica
%%IncludeResource: font Courier-BoldOblique
%%IncludeResource: font Courier-Oblique
%%IncludeResource: font Times-Roman
%%IncludeResource: font Helvetica-BoldOblique
%%IncludeResource: font Helvetica-Bold
%%IncludeResource: font Helvetica-Oblique
%%IncludeResource: font Times-BoldItalic
%%IncludeResource: font Courier
%%IncludeResource: font Times-Italic
%%IncludeResource: font Times-Bold
%%IncludeResource: font Symbol
%%IncludeResource: font ZapfDingbats
%FOPEndFontDict
%%BeginResource: encoding WinAnsiEncoding
/WinAnsiEncoding [
/.notdef /.notdef /.notdef /.notdef /.notdef
/.notdef /.notdef /.notdef /.notdef /.notdef
/.notdef /.notdef /.notdef /.notdef /.notdef
/.notdef /.notdef /.notdef /.notdef /.notdef
/.notdef /.notdef /.notdef /.notdef /.notdef
/.notdef /.notdef /.notdef /.notdef /.notdef
/.notdef /.notdef /space /exclam /quotedbl
/numbersign /dollar /percent /ampersand /quotesingle
/parenleft /parenright /asterisk /plus /comma
/hyphen /period /slash /zero /one
/two /three /four /five /six
/seven /eight /nine /colon /semicolon
/less /equal /greater /question /at
/A /B /C /D /E
/F /G /H /I /J
/K /L /M /N /O
/P /Q /R /S /T
/U /V /W /X /Y
/Z /bracketleft /backslash /bracketright /asciicircum
/underscore /quoteleft /a /b /c
/d /e /f /g /h
/i /j /k /l /m
/n /o /p /q /r
/s /t /u /v /w
/x /y /z /braceleft /bar
/braceright /asciitilde /bullet /Euro /bullet
/quotesinglbase /florin /quotedblbase /ellipsis /dagger
/daggerdbl /circumflex /perthousand /Scaron /guilsinglleft
/OE /bullet /Zcaron /bullet /bullet
/quoteleft /quoteright /quotedblleft /quotedblright /bullet
/endash /emdash /asciitilde /trademark /scaron
/guilsinglright /oe /bullet /zcaron /Ydieresis
/space /exclamdown /cent /sterling /currency
/yen /brokenbar /section /dieresis /copyright
/ordfeminine /guillemotleft /logicalnot /sfthyphen /registered
/macron /degree /plusminus /twosuperior /threesuperior
/acute /mu /paragraph /middot /cedilla
/onesuperior /ordmasculine /guillemotright /onequarter /onehalf
/threequarters /questiondown /Agrave /Aacute /Acircumflex
/Atilde /Adieresis /Aring /AE /Ccedilla
/Egrave /Eacute /Ecircumflex /Edieresis /Igrave
/Iacute /Icircumflex /Idieresis /Eth /Ntilde
/Ograve /Oacute /Ocircumflex /Otilde /Odieresis
/multiply /Oslash /Ugrave /Uacute /Ucircumflex
/Udieresis /Yacute /Thorn /germandbls /agrave
/aacute /acircumflex /atilde /adieresis /aring
/ae /ccedilla /egrave /eacute /ecircumflex
/edieresis /igrave /iacute /icircumflex /idieresis
/eth /ntilde /ograve /oacute /ocircumflex
/otilde /odieresis /divide /oslash /ugrave
/uacute /ucircumflex /udieresis /yacute /thorn
/ydieresis
] def
%%EndResource
%FOPBeginFontReencode
/Courier-Bold findfont
dup length dict begin
  {1 index /FID ne {def} {pop pop} ifelse} forall
  /Encoding WinAnsiEncoding def
  currentdict
end
/Courier-Bold exch definefont pop
/Helvetica findfont
dup length dict begin
  {1 index /FID ne {def} {pop pop} ifelse} forall
  /Encoding WinAnsiEncoding def
  currentdict
end
/Helvetica exch definefont pop
/Courier-BoldOblique findfont
dup length dict begin
  {1 index /FID ne {def} {pop pop} ifelse} forall
  /Encoding WinAnsiEncoding def
  currentdict
end
/Courier-BoldOblique exch definefont pop
/Courier-Oblique findfont
dup length dict begin
  {1 index /FID ne {def} {pop pop} ifelse} forall
  /Encoding WinAnsiEncoding def
  currentdict
end
/Courier-Oblique exch definefont pop
/Times-Roman findfont
dup length dict begin
  {1 index /FID ne {def} {pop pop} ifelse} forall
  /Encoding WinAnsiEncoding def
  currentdict
end
/Times-Roman exch definefont pop
/Helvetica-BoldOblique findfont
dup length dict begin
  {1 index /FID ne {def} {pop pop} ifelse} forall
  /Encoding WinAnsiEncoding def
  currentdict
end
/Helvetica-BoldOblique exch definefont pop
/Helvetica-Bold findfont
dup length dict begin
  {1 index /FID ne {def} {pop pop} ifelse} forall
  /Encoding WinAnsiEncoding def
  currentdict
end
/Helvetica-Bold exch definefont pop
/Helvetica-Oblique findfont
dup length dict begin
  {1 index /FID ne {def} {pop pop} ifelse} forall
  /Encoding WinAnsiEncoding def
  currentdict
end
/Helvetica-Oblique exch definefont pop
/Times-BoldItalic findfont
dup length dict begin
  {1 index /FID ne {def} {pop pop} ifelse} forall
  /Encoding WinAnsiEncoding def
  currentdict
end
/Times-BoldItalic exch definefont pop
/Courier findfont
dup length dict begin
  {1 index /FID ne {def} {pop pop} ifelse} forall
  /Encoding WinAnsiEncoding def
  currentdict
end
/Courier exch definefont pop
/Times-Italic findfont
dup length dict begin
  {1 index /FID ne {def} {pop pop} ifelse} forall
  /Encoding WinAnsiEncoding def
  currentdict
end
/Times-Italic exch definefont pop
/Times-Bold findfont
dup length dict begin
  {1 index /FID ne {def} {pop pop} ifelse} forall
  /Encoding WinAnsiEncoding def
  currentdict
end
/Times-Bold exch definefont pop
%FOPEndFontReencode
%%EndProlog
%%Page: 1 1
%%PageBoundingBox: 0 0 573 384
%%BeginPageSetup
[1 0 0 -1 0 384] CT
%%EndPageSetup
GS
[0.75 0 0 0.75 0 0] CT
1 GC
N
0 0 764 512 re
f
GR
GS
[0.75 0 0 0.75 0 0] CT
1 GC
N
0 0 764 512 re
f
GR
GS
[0.75 0 0 0.75 0 0] CT
1 GC
N
89 421 M
746 421 L
746 51 L
89 51 L
cp
f
GR
GS
[0.75 0 0 0.75 0 0] CT
0.149 GC
2 setlinecap
1 LJ
0.667 LW
N
89 421 M
746 421 L
S
GR
GS
[0.75 0 0 0.75 0 0] CT
0.149 GC
2 setlinecap
1 LJ
0.667 LW
N
89 51 M
746 51 L
S
GR
GS
[0.75 0 0 0.75 0 0] CT
0.149 GC
2 setlinecap
1 LJ
0.667 LW
N
89 421 M
89 414.43 L
S
GR
GS
[0.75 0 0 0.75 0 0] CT
0.149 GC
2 setlinecap
1 LJ
0.667 LW
N
162 421 M
162 414.43 L
S
GR
GS
[0.75 0 0 0.75 0 0] CT
0.149 GC
2 setlinecap
1 LJ
0.667 LW
N
235 421 M
235 414.43 L
S
GR
GS
[0.75 0 0 0.75 0 0] CT
0.149 GC
2 setlinecap
1 LJ
0.667 LW
N
308 421 M
308 414.43 L
S
GR
GS
[0.75 0 0 0.75 0 0] CT
0.149 GC
2 setlinecap
1 LJ
0.667 LW
N
381 421 M
381 414.43 L
S
GR
GS
[0.75 0 0 0.75 0 0] CT
0.149 GC
2 setlinecap
1 LJ
0.667 LW
N
454 421 M
454 414.43 L
S
GR
GS
[0.75 0 0 0.75 0 0] CT
0.149 GC
2 setlinecap
1 LJ
0.667 LW
N
527 421 M
527 414.43 L
S
GR
GS
[0.75 0 0 0.75 0 0] CT
0.149 GC
2 setlinecap
1 LJ
0.667 LW
N
600 421 M
600 414.43 L
S
GR
GS
[0.75 0 0 0.75 0 0] CT
0.149 GC
2 setlinecap
1 LJ
0.667 LW
N
673 421 M
673 414.43 L
S
GR
GS
[0.75 0 0 0.75 0 0] CT
0.149 GC
2 setlinecap
1 LJ
0.667 LW
N
746 421 M
746 414.43 L
S
GR
GS
[0.75 0 0 0.75 0 0] CT
0.149 GC
2 setlinecap
1 LJ
0.667 LW
N
89 51 M
89 57.57 L
S
GR
GS
[0.75 0 0 0.75 0 0] CT
0.149 GC
2 setlinecap
1 LJ
0.667 LW
N
162 51 M
162 57.57 L
S
GR
GS
[0.75 0 0 0.75 0 0] CT
0.149 GC
2 setlinecap
1 LJ
0.667 LW
N
235 51 M
235 57.57 L
S
GR
GS
[0.75 0 0 0.75 0 0] CT
0.149 GC
2 setlinecap
1 LJ
0.667 LW
N
308 51 M
308 57.57 L
S
GR
GS
[0.75 0 0 0.75 0 0] CT
0.149 GC
2 setlinecap
1 LJ
0.667 LW
N
381 51 M
381 57.57 L
S
GR
GS
[0.75 0 0 0.75 0 0] CT
0.149 GC
2 setlinecap
1 LJ
0.667 LW
N
454 51 M
454 57.57 L
S
GR
GS
[0.75 0 0 0.75 0 0] CT
0.149 GC
2 setlinecap
1 LJ
0.667 LW
N
527 51 M
527 57.57 L
S
GR
GS
[0.75 0 0 0.75 0 0] CT
0.149 GC
2 setlinecap
1 LJ
0.667 LW
N
600 51 M
600 57.57 L
S
GR
GS
[0.75 0 0 0.75 0 0] CT
0.149 GC
2 setlinecap
1 LJ
0.667 LW
N
673 51 M
673 57.57 L
S
GR
GS
[0.75 0 0 0.75 0 0] CT
0.149 GC
2 setlinecap
1 LJ
0.667 LW
N
746 51 M
746 57.57 L
S
GR
GS
[0.75 0 0 0.75 66.75 322.54999] CT
0.149 GC
/Times 32 F
GS
[1 0 0 1 0 0] CT
-10.5 30 moveto 
1 -1 scale
(1) t 
GR
GR
GS
[0.75 0 0 0.75 121.5 322.54999] CT
0.149 GC
/Times 32 F
GS
[1 0 0 1 0 0] CT
-10.5 30 moveto 
1 -1 scale
(2) t 
GR
GR
GS
[0.75 0 0 0.75 176.25 322.54999] CT
0.149 GC
/Times 32 F
GS
[1 0 0 1 0 0] CT
-10.5 30 moveto 
1 -1 scale
(3) t 
GR
GR
GS
[0.75 0 0 0.75 231 322.54999] CT
0.149 GC
/Times 32 F
GS
[1 0 0 1 0 0] CT
-10.5 30 moveto 
1 -1 scale
(4) t 
GR
GR
GS
[0.75 0 0 0.75 285.75 322.54999] CT
0.149 GC
/Times 32 F
GS
[1 0 0 1 0 0] CT
-10.5 30 moveto 
1 -1 scale
(5) t 
GR
GR
GS
[0.75 0 0 0.75 340.5 322.54999] CT
0.149 GC
/Times 32 F
GS
[1 0 0 1 0 0] CT
-10.5 30 moveto 
1 -1 scale
(6) t 
GR
GR
GS
[0.75 0 0 0.75 395.25 322.54999] CT
0.149 GC
/Times 32 F
GS
[1 0 0 1 0 0] CT
-10.5 30 moveto 
1 -1 scale
(7) t 
GR
GR
GS
[0.75 0 0 0.75 450 322.54999] CT
0.149 GC
/Times 32 F
GS
[1 0 0 1 0 0] CT
-10.5 30 moveto 
1 -1 scale
(8) t 
GR
GR
GS
[0.75 0 0 0.75 504.75 322.54999] CT
0.149 GC
/Times 32 F
GS
[1 0 0 1 0 0] CT
-10.5 30 moveto 
1 -1 scale
(9) t 
GR
GR
GS
[0.75 0 0 0.75 559.5 322.54999] CT
0.149 GC
/Times 32 F
GS
[1 0 0 1 0 0] CT
-20.5 30 moveto 
1 -1 scale
(10) t 
GR
GR
GS
[0.75 0 0 0.75 313.12523 352.05] CT
0.149 GC
/Times 35.2 F
GS
[1 0 0 1 0 0] CT
-210 33 moveto 
1 -1 scale
(Number of Top Matches) t 
GR
GR
GS
[0.75 0 0 0.75 0 0] CT
0.149 GC
2 setlinecap
1 LJ
0.667 LW
N
89 421 M
89 51 L
S
GR
GS
[0.75 0 0 0.75 0 0] CT
0.149 GC
2 setlinecap
1 LJ
0.667 LW
N
746 421 M
746 51 L
S
GR
GS
[0.75 0 0 0.75 0 0] CT
0.149 GC
2 setlinecap
1 LJ
0.667 LW
N
89 421 M
95.57 421 L
S
GR
GS
[0.75 0 0 0.75 0 0] CT
0.149 GC
2 setlinecap
1 LJ
0.667 LW
N
89 352.481 M
95.57 352.481 L
S
GR
GS
[0.75 0 0 0.75 0 0] CT
0.149 GC
2 setlinecap
1 LJ
0.667 LW
N
89 283.963 M
95.57 283.963 L
S
GR
GS
[0.75 0 0 0.75 0 0] CT
0.149 GC
2 setlinecap
1 LJ
0.667 LW
N
89 215.444 M
95.57 215.444 L
S
GR
GS
[0.75 0 0 0.75 0 0] CT
0.149 GC
2 setlinecap
1 LJ
0.667 LW
N
89 146.926 M
95.57 146.926 L
S
GR
GS
[0.75 0 0 0.75 0 0] CT
0.149 GC
2 setlinecap
1 LJ
0.667 LW
N
89 78.407 M
95.57 78.407 L
S
GR
GS
[0.75 0 0 0.75 0 0] CT
0.149 GC
2 setlinecap
1 LJ
0.667 LW
N
89 51 M
95.57 51 L
S
GR
GS
[0.75 0 0 0.75 0 0] CT
0.149 GC
2 setlinecap
1 LJ
0.667 LW
N
746 421 M
739.43 421 L
S
GR
GS
[0.75 0 0 0.75 0 0] CT
0.149 GC
2 setlinecap
1 LJ
0.667 LW
N
746 352.481 M
739.43 352.481 L
S
GR
GS
[0.75 0 0 0.75 0 0] CT
0.149 GC
2 setlinecap
1 LJ
0.667 LW
N
746 283.963 M
739.43 283.963 L
S
GR
GS
[0.75 0 0 0.75 0 0] CT
0.149 GC
2 setlinecap
1 LJ
0.667 LW
N
746 215.444 M
739.43 215.444 L
S
GR
GS
[0.75 0 0 0.75 0 0] CT
0.149 GC
2 setlinecap
1 LJ
0.667 LW
N
746 146.926 M
739.43 146.926 L
S
GR
GS
[0.75 0 0 0.75 0 0] CT
0.149 GC
2 setlinecap
1 LJ
0.667 LW
N
746 78.407 M
739.43 78.407 L
S
GR
GS
[0.75 0 0 0.75 0 0] CT
0.149 GC
2 setlinecap
1 LJ
0.667 LW
N
746 51 M
739.43 51 L
S
GR
GS
[0.75 0 0 0.75 59.95 315.75] CT
0.149 GC
/Times 32 F
GS
[1 0 0 1 0 0] CT
-21 11 moveto 
1 -1 scale
(3) t 
GR
GR
GS
[0.75 0 0 0.75 59.95 264.36111] CT
0.149 GC
/Times 32 F
GS
[1 0 0 1 0 0] CT
-21 11 moveto 
1 -1 scale
(6) t 
GR
GR
GS
[0.75 0 0 0.75 59.95 212.97221] CT
0.149 GC
/Times 32 F
GS
[1 0 0 1 0 0] CT
-21 11 moveto 
1 -1 scale
(9) t 
GR
GR
GS
[0.75 0 0 0.75 59.95 161.58333] CT
0.149 GC
/Times 32 F
GS
[1 0 0 1 0 0] CT
-41 11 moveto 
1 -1 scale
(12) t 
GR
GR
GS
[0.75 0 0 0.75 59.95 110.19444] CT
0.149 GC
/Times 32 F
GS
[1 0 0 1 0 0] CT
-41 11 moveto 
1 -1 scale
(15) t 
GR
GR
GS
[0.75 0 0 0.75 59.95 58.80556] CT
0.149 GC
/Times 32 F
GS
[1 0 0 1 0 0] CT
-41 11 moveto 
1 -1 scale
(18) t 
GR
GR
GS
[0 -0.75 0.75 0 26.2 176.99986] CT
0.149 GC
/Times 35.2 F
GS
[1 0 0 1 0 0] CT
-72.5 -9 moveto 
1 -1 scale
(ARR \(%\)) t 
GR
GR
GS
[0.75 0 0 0.75 313.1253 33.29999] CT
/Times 35.2 F
GS
[1 0 0 1 0 0] CT
-144.5 -9 moveto 
1 -1 scale
(FERET Database) t 
GR
GR
GS
[0.75 0 0 0.75 0 0] CT
1 0.6 0.784 RC
1 LJ
2 LW
N
89 403.152 M
162 332.243 L
235 279.959 L
308 238.258 L
381 205.546 L
454 179.832 L
527 157.962 L
600 140.803 L
673 125.452 L
746 111.236 L
S
GR
GS
[0.75 0 0 0.75 0 0] CT
1 GC
N
87.278 399.652 M
93.943 403.5 L
87.278 407.348 L
cp
f
GR
GS
[0.75 0 0 0.75 0 0] CT
1 0.6 0.784 RC
10.0 ML
2 LW
N
87.278 399.652 M
93.943 403.5 L
87.278 407.348 L
cp
S
GR
GS
[0.75 0 0 0.75 0 0] CT
1 GC
N
159.278 328.652 M
165.943 332.5 L
159.278 336.348 L
cp
f
GR
GS
[0.75 0 0 0.75 0 0] CT
1 0.6 0.784 RC
10.0 ML
2 LW
N
159.278 328.652 M
165.943 332.5 L
159.278 336.348 L
cp
S
GR
GS
[0.75 0 0 0.75 0 0] CT
1 GC
N
232.278 275.652 M
238.943 279.5 L
232.278 283.348 L
cp
f
GR
GS
[0.75 0 0 0.75 0 0] CT
1 0.6 0.784 RC
10.0 ML
2 LW
N
232.278 275.652 M
238.943 279.5 L
232.278 283.348 L
cp
S
GR
GS
[0.75 0 0 0.75 0 0] CT
1 GC
N
305.278 234.652 M
311.943 238.5 L
305.278 242.348 L
cp
f
GR
GS
[0.75 0 0 0.75 0 0] CT
1 0.6 0.784 RC
10.0 ML
2 LW
N
305.278 234.652 M
311.943 238.5 L
305.278 242.348 L
cp
S
GR
GS
[0.75 0 0 0.75 0 0] CT
1 GC
N
378.278 201.652 M
384.943 205.5 L
378.278 209.348 L
cp
f
GR
GS
[0.75 0 0 0.75 0 0] CT
1 0.6 0.784 RC
10.0 ML
2 LW
N
378.278 201.652 M
384.943 205.5 L
378.278 209.348 L
cp
S
GR
GS
[0.75 0 0 0.75 0 0] CT
1 GC
N
452.278 175.652 M
458.943 179.5 L
452.278 183.348 L
cp
f
GR
GS
[0.75 0 0 0.75 0 0] CT
1 0.6 0.784 RC
10.0 ML
2 LW
N
452.278 175.652 M
458.943 179.5 L
452.278 183.348 L
cp
S
GR
GS
[0.75 0 0 0.75 0 0] CT
1 GC
N
525.278 153.652 M
531.943 157.5 L
525.278 161.348 L
cp
f
GR
GS
[0.75 0 0 0.75 0 0] CT
1 0.6 0.784 RC
10.0 ML
2 LW
N
525.278 153.652 M
531.943 157.5 L
525.278 161.348 L
cp
S
GR
GS
[0.75 0 0 0.75 0 0] CT
1 GC
N
598.278 136.652 M
604.943 140.5 L
598.278 144.348 L
cp
f
GR
GS
[0.75 0 0 0.75 0 0] CT
1 0.6 0.784 RC
10.0 ML
2 LW
N
598.278 136.652 M
604.943 140.5 L
598.278 144.348 L
cp
S
GR
GS
[0.75 0 0 0.75 0 0] CT
1 GC
N
671.278 121.652 M
677.943 125.5 L
671.278 129.348 L
cp
f
GR
GS
[0.75 0 0 0.75 0 0] CT
1 0.6 0.784 RC
10.0 ML
2 LW
N
671.278 121.652 M
677.943 125.5 L
671.278 129.348 L
cp
S
GR
GS
[0.75 0 0 0.75 0 0] CT
1 GC
N
744.278 107.652 M
750.943 111.5 L
744.278 115.348 L
cp
f
GR
GS
[0.75 0 0 0.75 0 0] CT
1 0.6 0.784 RC
10.0 ML
2 LW
N
744.278 107.652 M
750.943 111.5 L
744.278 115.348 L
cp
S
GR
GS
[0.75 0 0 0.75 0 0] CT
0.6 0.2 0 RC
1 LJ
2 LW
N
89 403.152 M
162 332.968 L
235 280.503 L
308 238.975 L
381 205.107 L
454 179.486 L
527 158.452 L
600 140.76 L
673 126.008 L
746 113.617 L
S
GR
GS
[0.75 0 0 0.75 0 0] CT
1 GC
N
85.057 403.5 M
91.722 399.652 L
91.722 407.348 L
cp
f
GR
GS
[0.75 0 0 0.75 0 0] CT
0.6 0.2 0 RC
10.0 ML
2 LW
N
85.057 403.5 M
91.722 399.652 L
91.722 407.348 L
cp
S
GR
GS
[0.75 0 0 0.75 0 0] CT
1 GC
N
157.057 332.5 M
163.722 328.652 L
163.722 336.348 L
cp
f
GR
GS
[0.75 0 0 0.75 0 0] CT
0.6 0.2 0 RC
10.0 ML
2 LW
N
157.057 332.5 M
163.722 328.652 L
163.722 336.348 L
cp
S
GR
GS
[0.75 0 0 0.75 0 0] CT
1 GC
N
230.057 280.5 M
236.722 276.652 L
236.722 284.348 L
cp
f
GR
GS
[0.75 0 0 0.75 0 0] CT
0.6 0.2 0 RC
10.0 ML
2 LW
N
230.057 280.5 M
236.722 276.652 L
236.722 284.348 L
cp
S
GR
GS
[0.75 0 0 0.75 0 0] CT
1 GC
N
303.057 238.5 M
309.722 234.652 L
309.722 242.348 L
cp
f
GR
GS
[0.75 0 0 0.75 0 0] CT
0.6 0.2 0 RC
10.0 ML
2 LW
N
303.057 238.5 M
309.722 234.652 L
309.722 242.348 L
cp
S
GR
GS
[0.75 0 0 0.75 0 0] CT
1 GC
N
376.057 205.5 M
382.722 201.652 L
382.722 209.348 L
cp
f
GR
GS
[0.75 0 0 0.75 0 0] CT
0.6 0.2 0 RC
10.0 ML
2 LW
N
376.057 205.5 M
382.722 201.652 L
382.722 209.348 L
cp
S
GR
GS
[0.75 0 0 0.75 0 0] CT
1 GC
N
450.057 179.5 M
456.722 175.652 L
456.722 183.348 L
cp
f
GR
GS
[0.75 0 0 0.75 0 0] CT
0.6 0.2 0 RC
10.0 ML
2 LW
N
450.057 179.5 M
456.722 175.652 L
456.722 183.348 L
cp
S
GR
GS
[0.75 0 0 0.75 0 0] CT
1 GC
N
523.057 158.5 M
529.722 154.652 L
529.722 162.348 L
cp
f
GR
GS
[0.75 0 0 0.75 0 0] CT
0.6 0.2 0 RC
10.0 ML
2 LW
N
523.057 158.5 M
529.722 154.652 L
529.722 162.348 L
cp
S
GR
GS
[0.75 0 0 0.75 0 0] CT
1 GC
N
596.057 140.5 M
602.722 136.652 L
602.722 144.348 L
cp
f
GR
GS
[0.75 0 0 0.75 0 0] CT
0.6 0.2 0 RC
10.0 ML
2 LW
N
596.057 140.5 M
602.722 136.652 L
602.722 144.348 L
cp
S
GR
GS
[0.75 0 0 0.75 0 0] CT
1 GC
N
669.057 126.5 M
675.722 122.652 L
675.722 130.348 L
cp
f
GR
GS
[0.75 0 0 0.75 0 0] CT
0.6 0.2 0 RC
10.0 ML
2 LW
N
669.057 126.5 M
675.722 122.652 L
675.722 130.348 L
cp
S
GR
GS
[0.75 0 0 0.75 0 0] CT
1 GC
N
742.057 113.5 M
748.722 109.652 L
748.722 117.348 L
cp
f
GR
GS
[0.75 0 0 0.75 0 0] CT
0.6 0.2 0 RC
10.0 ML
2 LW
N
742.057 113.5 M
748.722 109.652 L
748.722 117.348 L
cp
S
GR
GS
[0.75 0 0 0.75 0 0] CT
0.929 0.694 0.125 RC
1 LJ
2 LW
N
89 403.152 M
162 336.742 L
235 285.6 L
308 244.905 L
381 212.712 L
454 186.093 L
527 164.302 L
600 145.815 L
673 129.817 L
746 115.292 L
S
GR
GS
[0.75 0 0 0.75 0 0] CT
1 GC
N
86.33 402.47 M
88.716 402.47 L
89.5 400.167 L
90.284 402.47 L
92.67 402.47 L
90.768 403.912 L
91.459 406.197 L
89.5 404.833 L
87.541 406.197 L
88.232 403.912 L
86.33 402.47 L
cp
f
GR
GS
[0.75 0 0 0.75 0 0] CT
0.929 0.694 0.125 RC
10.0 ML
2 LW
N
86.33 402.47 M
88.716 402.47 L
89.5 400.167 L
90.284 402.47 L
92.67 402.47 L
90.768 403.912 L
91.459 406.197 L
89.5 404.833 L
87.541 406.197 L
88.232 403.912 L
cp
S
GR
GS
[0.75 0 0 0.75 0 0] CT
1 GC
N
158.33 335.47 M
160.716 335.47 L
161.5 333.167 L
162.284 335.47 L
164.67 335.47 L
162.768 336.912 L
163.459 339.197 L
161.5 337.833 L
159.541 339.197 L
160.232 336.912 L
158.33 335.47 L
cp
f
GR
GS
[0.75 0 0 0.75 0 0] CT
0.929 0.694 0.125 RC
10.0 ML
2 LW
N
158.33 335.47 M
160.716 335.47 L
161.5 333.167 L
162.284 335.47 L
164.67 335.47 L
162.768 336.912 L
163.459 339.197 L
161.5 337.833 L
159.541 339.197 L
160.232 336.912 L
cp
S
GR
GS
[0.75 0 0 0.75 0 0] CT
1 GC
N
231.33 284.47 M
233.716 284.47 L
234.5 282.167 L
235.284 284.47 L
237.67 284.47 L
235.768 285.912 L
236.459 288.197 L
234.5 286.833 L
232.541 288.197 L
233.232 285.912 L
231.33 284.47 L
cp
f
GR
GS
[0.75 0 0 0.75 0 0] CT
0.929 0.694 0.125 RC
10.0 ML
2 LW
N
231.33 284.47 M
233.716 284.47 L
234.5 282.167 L
235.284 284.47 L
237.67 284.47 L
235.768 285.912 L
236.459 288.197 L
234.5 286.833 L
232.541 288.197 L
233.232 285.912 L
cp
S
GR
GS
[0.75 0 0 0.75 0 0] CT
1 GC
N
304.33 243.47 M
306.716 243.47 L
307.5 241.167 L
308.284 243.47 L
310.67 243.47 L
308.768 244.912 L
309.459 247.197 L
307.5 245.833 L
305.541 247.197 L
306.232 244.912 L
304.33 243.47 L
cp
f
GR
GS
[0.75 0 0 0.75 0 0] CT
0.929 0.694 0.125 RC
10.0 ML
2 LW
N
304.33 243.47 M
306.716 243.47 L
307.5 241.167 L
308.284 243.47 L
310.67 243.47 L
308.768 244.912 L
309.459 247.197 L
307.5 245.833 L
305.541 247.197 L
306.232 244.912 L
cp
S
GR
GS
[0.75 0 0 0.75 0 0] CT
1 GC
N
377.33 211.47 M
379.716 211.47 L
380.5 209.167 L
381.284 211.47 L
383.67 211.47 L
381.768 212.912 L
382.459 215.197 L
380.5 213.833 L
378.541 215.197 L
379.232 212.912 L
377.33 211.47 L
cp
f
GR
GS
[0.75 0 0 0.75 0 0] CT
0.929 0.694 0.125 RC
10.0 ML
2 LW
N
377.33 211.47 M
379.716 211.47 L
380.5 209.167 L
381.284 211.47 L
383.67 211.47 L
381.768 212.912 L
382.459 215.197 L
380.5 213.833 L
378.541 215.197 L
379.232 212.912 L
cp
S
GR
GS
[0.75 0 0 0.75 0 0] CT
1 GC
N
451.33 185.47 M
453.716 185.47 L
454.5 183.167 L
455.284 185.47 L
457.67 185.47 L
455.768 186.912 L
456.459 189.197 L
454.5 187.833 L
452.541 189.197 L
453.232 186.912 L
451.33 185.47 L
cp
f
GR
GS
[0.75 0 0 0.75 0 0] CT
0.929 0.694 0.125 RC
10.0 ML
2 LW
N
451.33 185.47 M
453.716 185.47 L
454.5 183.167 L
455.284 185.47 L
457.67 185.47 L
455.768 186.912 L
456.459 189.197 L
454.5 187.833 L
452.541 189.197 L
453.232 186.912 L
cp
S
GR
GS
[0.75 0 0 0.75 0 0] CT
1 GC
N
524.33 163.47 M
526.716 163.47 L
527.5 161.167 L
528.284 163.47 L
530.67 163.47 L
528.768 164.912 L
529.459 167.197 L
527.5 165.833 L
525.541 167.197 L
526.232 164.912 L
524.33 163.47 L
cp
f
GR
GS
[0.75 0 0 0.75 0 0] CT
0.929 0.694 0.125 RC
10.0 ML
2 LW
N
524.33 163.47 M
526.716 163.47 L
527.5 161.167 L
528.284 163.47 L
530.67 163.47 L
528.768 164.912 L
529.459 167.197 L
527.5 165.833 L
525.541 167.197 L
526.232 164.912 L
cp
S
GR
GS
[0.75 0 0 0.75 0 0] CT
1 GC
N
597.33 144.47 M
599.716 144.47 L
600.5 142.167 L
601.284 144.47 L
603.67 144.47 L
601.768 145.912 L
602.459 148.197 L
600.5 146.833 L
598.541 148.197 L
599.232 145.912 L
597.33 144.47 L
cp
f
GR
GS
[0.75 0 0 0.75 0 0] CT
0.929 0.694 0.125 RC
10.0 ML
2 LW
N
597.33 144.47 M
599.716 144.47 L
600.5 142.167 L
601.284 144.47 L
603.67 144.47 L
601.768 145.912 L
602.459 148.197 L
600.5 146.833 L
598.541 148.197 L
599.232 145.912 L
cp
S
GR
GS
[0.75 0 0 0.75 0 0] CT
1 GC
N
670.33 128.47 M
672.716 128.47 L
673.5 126.167 L
674.284 128.47 L
676.67 128.47 L
674.768 129.912 L
675.459 132.197 L
673.5 130.833 L
671.541 132.197 L
672.232 129.912 L
670.33 128.47 L
cp
f
GR
GS
[0.75 0 0 0.75 0 0] CT
0.929 0.694 0.125 RC
10.0 ML
2 LW
N
670.33 128.47 M
672.716 128.47 L
673.5 126.167 L
674.284 128.47 L
676.67 128.47 L
674.768 129.912 L
675.459 132.197 L
673.5 130.833 L
671.541 132.197 L
672.232 129.912 L
cp
S
GR
GS
[0.75 0 0 0.75 0 0] CT
1 GC
N
743.33 114.47 M
745.716 114.47 L
746.5 112.167 L
747.284 114.47 L
749.67 114.47 L
747.768 115.912 L
748.459 118.197 L
746.5 116.833 L
744.541 118.197 L
745.232 115.912 L
743.33 114.47 L
cp
f
GR
GS
[0.75 0 0 0.75 0 0] CT
0.929 0.694 0.125 RC
10.0 ML
2 LW
N
743.33 114.47 M
745.716 114.47 L
746.5 112.167 L
747.284 114.47 L
749.67 114.47 L
747.768 115.912 L
748.459 118.197 L
746.5 116.833 L
744.541 118.197 L
745.232 115.912 L
cp
S
GR
GS
[0.75 0 0 0.75 0 0] CT
0 1 1 RC
1 LJ
2 LW
N
89 403.152 M
162 342.92 L
235 299.13 L
308 266.751 L
381 240.639 L
454 220.433 L
527 203.366 L
600 188.917 L
673 175.542 L
746 163.339 L
S
GR
GS
[0.75 0 0 0.75 0 0] CT
1 GC
N
89.5 407.943 M
92.833 403.5 L
89.5 399.057 L
86.167 403.5 L
cp
f
GR
GS
[0.75 0 0 0.75 0 0] CT
0 1 1 RC
10.0 ML
2 LW
N
89.5 407.943 M
92.833 403.5 L
89.5 399.057 L
86.167 403.5 L
cp
S
GR
GS
[0.75 0 0 0.75 0 0] CT
1 GC
N
161.5 346.943 M
164.833 342.5 L
161.5 338.057 L
158.167 342.5 L
cp
f
GR
GS
[0.75 0 0 0.75 0 0] CT
0 1 1 RC
10.0 ML
2 LW
N
161.5 346.943 M
164.833 342.5 L
161.5 338.057 L
158.167 342.5 L
cp
S
GR
GS
[0.75 0 0 0.75 0 0] CT
1 GC
N
234.5 303.943 M
237.833 299.5 L
234.5 295.057 L
231.167 299.5 L
cp
f
GR
GS
[0.75 0 0 0.75 0 0] CT
0 1 1 RC
10.0 ML
2 LW
N
234.5 303.943 M
237.833 299.5 L
234.5 295.057 L
231.167 299.5 L
cp
S
GR
GS
[0.75 0 0 0.75 0 0] CT
1 GC
N
307.5 270.943 M
310.833 266.5 L
307.5 262.057 L
304.167 266.5 L
cp
f
GR
GS
[0.75 0 0 0.75 0 0] CT
0 1 1 RC
10.0 ML
2 LW
N
307.5 270.943 M
310.833 266.5 L
307.5 262.057 L
304.167 266.5 L
cp
S
GR
GS
[0.75 0 0 0.75 0 0] CT
1 GC
N
380.5 244.943 M
383.833 240.5 L
380.5 236.057 L
377.167 240.5 L
cp
f
GR
GS
[0.75 0 0 0.75 0 0] CT
0 1 1 RC
10.0 ML
2 LW
N
380.5 244.943 M
383.833 240.5 L
380.5 236.057 L
377.167 240.5 L
cp
S
GR
GS
[0.75 0 0 0.75 0 0] CT
1 GC
N
454.5 224.943 M
457.833 220.5 L
454.5 216.057 L
451.167 220.5 L
cp
f
GR
GS
[0.75 0 0 0.75 0 0] CT
0 1 1 RC
10.0 ML
2 LW
N
454.5 224.943 M
457.833 220.5 L
454.5 216.057 L
451.167 220.5 L
cp
S
GR
GS
[0.75 0 0 0.75 0 0] CT
1 GC
N
527.5 207.943 M
530.833 203.5 L
527.5 199.057 L
524.167 203.5 L
cp
f
GR
GS
[0.75 0 0 0.75 0 0] CT
0 1 1 RC
10.0 ML
2 LW
N
527.5 207.943 M
530.833 203.5 L
527.5 199.057 L
524.167 203.5 L
cp
S
GR
GS
[0.75 0 0 0.75 0 0] CT
1 GC
N
600.5 192.943 M
603.833 188.5 L
600.5 184.057 L
597.167 188.5 L
cp
f
GR
GS
[0.75 0 0 0.75 0 0] CT
0 1 1 RC
10.0 ML
2 LW
N
600.5 192.943 M
603.833 188.5 L
600.5 184.057 L
597.167 188.5 L
cp
S
GR
GS
[0.75 0 0 0.75 0 0] CT
1 GC
N
673.5 179.943 M
676.833 175.5 L
673.5 171.057 L
670.167 175.5 L
cp
f
GR
GS
[0.75 0 0 0.75 0 0] CT
0 1 1 RC
10.0 ML
2 LW
N
673.5 179.943 M
676.833 175.5 L
673.5 171.057 L
670.167 175.5 L
cp
S
GR
GS
[0.75 0 0 0.75 0 0] CT
1 GC
N
746.5 167.943 M
749.833 163.5 L
746.5 159.057 L
743.167 163.5 L
cp
f
GR
GS
[0.75 0 0 0.75 0 0] CT
0 1 1 RC
10.0 ML
2 LW
N
746.5 167.943 M
749.833 163.5 L
746.5 159.057 L
743.167 163.5 L
cp
S
GR
GS
[0.75 0 0 0.75 0 0] CT
0 1 0 RC
1 LJ
2 LW
N
89 403.152 M
162 333.361 L
235 283.505 L
308 245.973 L
381 217.689 L
454 195.301 L
527 176.675 L
600 159.866 L
673 146.853 L
746 135.28 L
S
GR
GS
[0.75 0 0 0.75 0 0] CT
1 GC
N
86.9 406.1 M
86.9 400.9 L
92.1 400.9 L
92.1 406.1 L
cp
f
GR
GS
[0.75 0 0 0.75 0 0] CT
0 1 0 RC
10.0 ML
2 LW
N
86.9 406.1 M
86.9 400.9 L
92.1 400.9 L
92.1 406.1 L
cp
S
GR
GS
[0.75 0 0 0.75 0 0] CT
1 GC
N
158.9 336.1 M
158.9 330.9 L
164.1 330.9 L
164.1 336.1 L
cp
f
GR
GS
[0.75 0 0 0.75 0 0] CT
0 1 0 RC
10.0 ML
2 LW
N
158.9 336.1 M
158.9 330.9 L
164.1 330.9 L
164.1 336.1 L
cp
S
GR
GS
[0.75 0 0 0.75 0 0] CT
1 GC
N
231.9 286.1 M
231.9 280.9 L
237.1 280.9 L
237.1 286.1 L
cp
f
GR
GS
[0.75 0 0 0.75 0 0] CT
0 1 0 RC
10.0 ML
2 LW
N
231.9 286.1 M
231.9 280.9 L
237.1 280.9 L
237.1 286.1 L
cp
S
GR
GS
[0.75 0 0 0.75 0 0] CT
1 GC
N
304.9 248.1 M
304.9 242.9 L
310.1 242.9 L
310.1 248.1 L
cp
f
GR
GS
[0.75 0 0 0.75 0 0] CT
0 1 0 RC
10.0 ML
2 LW
N
304.9 248.1 M
304.9 242.9 L
310.1 242.9 L
310.1 248.1 L
cp
S
GR
GS
[0.75 0 0 0.75 0 0] CT
1 GC
N
377.9 220.1 M
377.9 214.9 L
383.1 214.9 L
383.1 220.1 L
cp
f
GR
GS
[0.75 0 0 0.75 0 0] CT
0 1 0 RC
10.0 ML
2 LW
N
377.9 220.1 M
377.9 214.9 L
383.1 214.9 L
383.1 220.1 L
cp
S
GR
GS
[0.75 0 0 0.75 0 0] CT
1 GC
N
451.9 198.1 M
451.9 192.9 L
457.1 192.9 L
457.1 198.1 L
cp
f
GR
GS
[0.75 0 0 0.75 0 0] CT
0 1 0 RC
10.0 ML
2 LW
N
451.9 198.1 M
451.9 192.9 L
457.1 192.9 L
457.1 198.1 L
cp
S
GR
GS
[0.75 0 0 0.75 0 0] CT
1 GC
N
524.9 179.1 M
524.9 173.9 L
530.1 173.9 L
530.1 179.1 L
cp
f
GR
GS
[0.75 0 0 0.75 0 0] CT
0 1 0 RC
10.0 ML
2 LW
N
524.9 179.1 M
524.9 173.9 L
530.1 173.9 L
530.1 179.1 L
cp
S
GR
GS
[0.75 0 0 0.75 0 0] CT
1 GC
N
597.9 162.1 M
597.9 156.9 L
603.1 156.9 L
603.1 162.1 L
cp
f
GR
GS
[0.75 0 0 0.75 0 0] CT
0 1 0 RC
10.0 ML
2 LW
N
597.9 162.1 M
597.9 156.9 L
603.1 156.9 L
603.1 162.1 L
cp
S
GR
GS
[0.75 0 0 0.75 0 0] CT
1 GC
N
670.9 149.1 M
670.9 143.9 L
676.1 143.9 L
676.1 149.1 L
cp
f
GR
GS
[0.75 0 0 0.75 0 0] CT
0 1 0 RC
10.0 ML
2 LW
N
670.9 149.1 M
670.9 143.9 L
676.1 143.9 L
676.1 149.1 L
cp
S
GR
GS
[0.75 0 0 0.75 0 0] CT
1 GC
N
743.9 138.1 M
743.9 132.9 L
749.1 132.9 L
749.1 138.1 L
cp
f
GR
GS
[0.75 0 0 0.75 0 0] CT
0 1 0 RC
10.0 ML
2 LW
N
743.9 138.1 M
743.9 132.9 L
749.1 132.9 L
749.1 138.1 L
cp
S
GR
GS
[0.75 0 0 0.75 0 0] CT
0 0 1 RC
1 LJ
2 LW
N
89 403.152 M
162 353.023 L
235 317.375 L
308 289.55 L
381 266.161 L
454 247.074 L
527 231.478 L
600 218.255 L
673 205.264 L
746 194.34 L
S
GR
GS
[0.75 0 0 0.75 0 0] CT
1 GC
N
85.057 403.5 M
91.722 399.652 L
91.722 407.348 L
cp
f
GR
GS
[0.75 0 0 0.75 0 0] CT
0 0 1 RC
10.0 ML
2 LW
N
85.057 403.5 M
91.722 399.652 L
91.722 407.348 L
cp
S
GR
GS
[0.75 0 0 0.75 0 0] CT
1 GC
N
157.057 353.5 M
163.722 349.652 L
163.722 357.348 L
cp
f
GR
GS
[0.75 0 0 0.75 0 0] CT
0 0 1 RC
10.0 ML
2 LW
N
157.057 353.5 M
163.722 349.652 L
163.722 357.348 L
cp
S
GR
GS
[0.75 0 0 0.75 0 0] CT
1 GC
N
230.057 317.5 M
236.722 313.652 L
236.722 321.348 L
cp
f
GR
GS
[0.75 0 0 0.75 0 0] CT
0 0 1 RC
10.0 ML
2 LW
N
230.057 317.5 M
236.722 313.652 L
236.722 321.348 L
cp
S
GR
GS
[0.75 0 0 0.75 0 0] CT
1 GC
N
303.057 289.5 M
309.722 285.652 L
309.722 293.348 L
cp
f
GR
GS
[0.75 0 0 0.75 0 0] CT
0 0 1 RC
10.0 ML
2 LW
N
303.057 289.5 M
309.722 285.652 L
309.722 293.348 L
cp
S
GR
GS
[0.75 0 0 0.75 0 0] CT
1 GC
N
376.057 266.5 M
382.722 262.652 L
382.722 270.348 L
cp
f
GR
GS
[0.75 0 0 0.75 0 0] CT
0 0 1 RC
10.0 ML
2 LW
N
376.057 266.5 M
382.722 262.652 L
382.722 270.348 L
cp
S
GR
GS
[0.75 0 0 0.75 0 0] CT
1 GC
N
450.057 247.5 M
456.722 243.652 L
456.722 251.348 L
cp
f
GR
GS
[0.75 0 0 0.75 0 0] CT
0 0 1 RC
10.0 ML
2 LW
N
450.057 247.5 M
456.722 243.652 L
456.722 251.348 L
cp
S
GR
GS
[0.75 0 0 0.75 0 0] CT
1 GC
N
523.057 231.5 M
529.722 227.652 L
529.722 235.348 L
cp
f
GR
GS
[0.75 0 0 0.75 0 0] CT
0 0 1 RC
10.0 ML
2 LW
N
523.057 231.5 M
529.722 227.652 L
529.722 235.348 L
cp
S
GR
GS
[0.75 0 0 0.75 0 0] CT
1 GC
N
596.057 218.5 M
602.722 214.652 L
602.722 222.348 L
cp
f
GR
GS
[0.75 0 0 0.75 0 0] CT
0 0 1 RC
10.0 ML
2 LW
N
596.057 218.5 M
602.722 214.652 L
602.722 222.348 L
cp
S
GR
GS
[0.75 0 0 0.75 0 0] CT
1 GC
N
669.057 205.5 M
675.722 201.652 L
675.722 209.348 L
cp
f
GR
GS
[0.75 0 0 0.75 0 0] CT
0 0 1 RC
10.0 ML
2 LW
N
669.057 205.5 M
675.722 201.652 L
675.722 209.348 L
cp
S
GR
GS
[0.75 0 0 0.75 0 0] CT
1 GC
N
742.057 194.5 M
748.722 190.652 L
748.722 198.348 L
cp
f
GR
GS
[0.75 0 0 0.75 0 0] CT
0 0 1 RC
10.0 ML
2 LW
N
742.057 194.5 M
748.722 190.652 L
748.722 198.348 L
cp
S
GR
GS
[0.75 0 0 0.75 0 0] CT
1 0 1 RC
1 LJ
2 LW
N
89 403.152 M
162 325.292 L
235 261.373 L
308 209.689 L
381 169.487 L
454 140.322 L
527 116.67 L
600 97.325 L
673 81.483 L
746 67.831 L
S
GR
GS
[0.75 0 0 0.75 0 0] CT
1 0 1 RC
1 LJ
2 LW
N
86 403.5 M
93 403.5 L
S
GR
GS
[0.75 0 0 0.75 0 0] CT
1 0 1 RC
1 LJ
2 LW
N
89.5 407 M
89.5 400 L
S
GR
GS
[0.75 0 0 0.75 0 0] CT
1 0 1 RC
1 LJ
2 LW
N
158 325.5 M
165 325.5 L
S
GR
GS
[0.75 0 0 0.75 0 0] CT
1 0 1 RC
1 LJ
2 LW
N
161.5 329 M
161.5 322 L
S
GR
GS
[0.75 0 0 0.75 0 0] CT
1 0 1 RC
1 LJ
2 LW
N
231 261.5 M
238 261.5 L
S
GR
GS
[0.75 0 0 0.75 0 0] CT
1 0 1 RC
1 LJ
2 LW
N
234.5 265 M
234.5 258 L
S
GR
GS
[0.75 0 0 0.75 0 0] CT
1 0 1 RC
1 LJ
2 LW
N
304 209.5 M
311 209.5 L
S
GR
GS
[0.75 0 0 0.75 0 0] CT
1 0 1 RC
1 LJ
2 LW
N
307.5 213 M
307.5 206 L
S
GR
GS
[0.75 0 0 0.75 0 0] CT
1 0 1 RC
1 LJ
2 LW
N
377 169.5 M
384 169.5 L
S
GR
GS
[0.75 0 0 0.75 0 0] CT
1 0 1 RC
1 LJ
2 LW
N
380.5 173 M
380.5 166 L
S
GR
GS
[0.75 0 0 0.75 0 0] CT
1 0 1 RC
1 LJ
2 LW
N
451 140.5 M
458 140.5 L
S
GR
GS
[0.75 0 0 0.75 0 0] CT
1 0 1 RC
1 LJ
2 LW
N
454.5 144 M
454.5 137 L
S
GR
GS
[0.75 0 0 0.75 0 0] CT
1 0 1 RC
1 LJ
2 LW
N
524 116.5 M
531 116.5 L
S
GR
GS
[0.75 0 0 0.75 0 0] CT
1 0 1 RC
1 LJ
2 LW
N
527.5 120 M
527.5 113 L
S
GR
GS
[0.75 0 0 0.75 0 0] CT
1 0 1 RC
1 LJ
2 LW
N
597 97.5 M
604 97.5 L
S
GR
GS
[0.75 0 0 0.75 0 0] CT
1 0 1 RC
1 LJ
2 LW
N
600.5 101 M
600.5 94 L
S
GR
GS
[0.75 0 0 0.75 0 0] CT
1 0 1 RC
1 LJ
2 LW
N
670 81.5 M
677 81.5 L
S
GR
GS
[0.75 0 0 0.75 0 0] CT
1 0 1 RC
1 LJ
2 LW
N
673.5 85 M
673.5 78 L
S
GR
GS
[0.75 0 0 0.75 0 0] CT
1 0 1 RC
1 LJ
2 LW
N
743 67.5 M
750 67.5 L
S
GR
GS
[0.75 0 0 0.75 0 0] CT
1 0 1 RC
1 LJ
2 LW
N
746.5 71 M
746.5 64 L
S
GR
GS
[0.75 0 0 0.75 0 0] CT
1 0 0 RC
1 LJ
2 LW
N
89 403.152 M
162 324.015 L
235 258.245 L
308 203.908 L
381 162.398 L
454 130.895 L
527 105.299 L
600 85.182 L
673 69.091 L
746 56.605 L
S
GR
GS
[0.75 0 0 0.75 0 0] CT
1 GC
N
86.9 406.1 M
86.9 400.9 L
92.1 400.9 L
92.1 406.1 L
cp
f
GR
GS
[0.75 0 0 0.75 0 0] CT
1 0 0 RC
10.0 ML
2 LW
N
86.9 406.1 M
86.9 400.9 L
92.1 400.9 L
92.1 406.1 L
cp
S
GR
GS
[0.75 0 0 0.75 0 0] CT
1 GC
N
158.9 327.1 M
158.9 321.9 L
164.1 321.9 L
164.1 327.1 L
cp
f
GR
GS
[0.75 0 0 0.75 0 0] CT
1 0 0 RC
10.0 ML
2 LW
N
158.9 327.1 M
158.9 321.9 L
164.1 321.9 L
164.1 327.1 L
cp
S
GR
GS
[0.75 0 0 0.75 0 0] CT
1 GC
N
231.9 261.1 M
231.9 255.9 L
237.1 255.9 L
237.1 261.1 L
cp
f
GR
GS
[0.75 0 0 0.75 0 0] CT
1 0 0 RC
10.0 ML
2 LW
N
231.9 261.1 M
231.9 255.9 L
237.1 255.9 L
237.1 261.1 L
cp
S
GR
GS
[0.75 0 0 0.75 0 0] CT
1 GC
N
304.9 206.1 M
304.9 200.9 L
310.1 200.9 L
310.1 206.1 L
cp
f
GR
GS
[0.75 0 0 0.75 0 0] CT
1 0 0 RC
10.0 ML
2 LW
N
304.9 206.1 M
304.9 200.9 L
310.1 200.9 L
310.1 206.1 L
cp
S
GR
GS
[0.75 0 0 0.75 0 0] CT
1 GC
N
377.9 165.1 M
377.9 159.9 L
383.1 159.9 L
383.1 165.1 L
cp
f
GR
GS
[0.75 0 0 0.75 0 0] CT
1 0 0 RC
10.0 ML
2 LW
N
377.9 165.1 M
377.9 159.9 L
383.1 159.9 L
383.1 165.1 L
cp
S
GR
GS
[0.75 0 0 0.75 0 0] CT
1 GC
N
451.9 133.1 M
451.9 127.9 L
457.1 127.9 L
457.1 133.1 L
cp
f
GR
GS
[0.75 0 0 0.75 0 0] CT
1 0 0 RC
10.0 ML
2 LW
N
451.9 133.1 M
451.9 127.9 L
457.1 127.9 L
457.1 133.1 L
cp
S
GR
GS
[0.75 0 0 0.75 0 0] CT
1 GC
N
524.9 108.1 M
524.9 102.9 L
530.1 102.9 L
530.1 108.1 L
cp
f
GR
GS
[0.75 0 0 0.75 0 0] CT
1 0 0 RC
10.0 ML
2 LW
N
524.9 108.1 M
524.9 102.9 L
530.1 102.9 L
530.1 108.1 L
cp
S
GR
GS
[0.75 0 0 0.75 0 0] CT
1 GC
N
597.9 88.1 M
597.9 82.9 L
603.1 82.9 L
603.1 88.1 L
cp
f
GR
GS
[0.75 0 0 0.75 0 0] CT
1 0 0 RC
10.0 ML
2 LW
N
597.9 88.1 M
597.9 82.9 L
603.1 82.9 L
603.1 88.1 L
cp
S
GR
GS
[0.75 0 0 0.75 0 0] CT
1 GC
N
670.9 72.1 M
670.9 66.9 L
676.1 66.9 L
676.1 72.1 L
cp
f
GR
GS
[0.75 0 0 0.75 0 0] CT
1 0 0 RC
10.0 ML
2 LW
N
670.9 72.1 M
670.9 66.9 L
676.1 66.9 L
676.1 72.1 L
cp
S
GR
GS
[0.75 0 0 0.75 0 0] CT
1 GC
N
743.9 59.1 M
743.9 53.9 L
749.1 53.9 L
749.1 59.1 L
cp
f
GR
GS
[0.75 0 0 0.75 0 0] CT
1 0 0 RC
10.0 ML
2 LW
N
743.9 59.1 M
743.9 53.9 L
749.1 53.9 L
749.1 59.1 L
cp
S
GR
GS
[0.75 0 0 0.75 0 0] CT
1 LJ
2 LW
N
89 403.152 M
162 322.79 L
235 255.509 L
308 200.312 L
381 158.734 L
454 126.641 L
527 102.569 L
600 83.311 L
673 67.155 L
746 53.725 L
S
GR
GS
[0.75 0 0 0.75 0 0] CT
1 GC
N
92.833 403.5 M
91.857 401.143 L
89.5 400.167 L
87.143 401.143 L
86.167 403.5 L
87.143 405.857 L
89.5 406.833 L
91.857 405.857 L
92.833 403.5 L
cp
f
GR
GS
[0.75 0 0 0.75 0 0] CT
1 LJ
2 LW
N
92.833 403.5 M
92.197 401.541 L
90.53 400.33 L
88.47 400.33 L
86.803 401.541 L
86.167 403.5 L
86.803 405.459 L
88.47 406.67 L
90.53 406.67 L
92.197 405.459 L
cp
S
GR
GS
[0.75 0 0 0.75 0 0] CT
1 GC
N
164.833 322.5 M
163.857 320.143 L
161.5 319.167 L
159.143 320.143 L
158.167 322.5 L
159.143 324.857 L
161.5 325.833 L
163.857 324.857 L
164.833 322.5 L
cp
f
GR
GS
[0.75 0 0 0.75 0 0] CT
1 LJ
2 LW
N
164.833 322.5 M
164.197 320.541 L
162.53 319.33 L
160.47 319.33 L
158.803 320.541 L
158.167 322.5 L
158.803 324.459 L
160.47 325.67 L
162.53 325.67 L
164.197 324.459 L
cp
S
GR
GS
[0.75 0 0 0.75 0 0] CT
1 GC
N
237.833 255.5 M
236.857 253.143 L
234.5 252.167 L
232.143 253.143 L
231.167 255.5 L
232.143 257.857 L
234.5 258.833 L
236.857 257.857 L
237.833 255.5 L
cp
f
GR
GS
[0.75 0 0 0.75 0 0] CT
1 LJ
2 LW
N
237.833 255.5 M
237.197 253.541 L
235.53 252.33 L
233.47 252.33 L
231.803 253.541 L
231.167 255.5 L
231.803 257.459 L
233.47 258.67 L
235.53 258.67 L
237.197 257.459 L
cp
S
GR
GS
[0.75 0 0 0.75 0 0] CT
1 GC
N
310.833 200.5 M
309.857 198.143 L
307.5 197.167 L
305.143 198.143 L
304.167 200.5 L
305.143 202.857 L
307.5 203.833 L
309.857 202.857 L
310.833 200.5 L
cp
f
GR
GS
[0.75 0 0 0.75 0 0] CT
1 LJ
2 LW
N
310.833 200.5 M
310.197 198.541 L
308.53 197.33 L
306.47 197.33 L
304.803 198.541 L
304.167 200.5 L
304.803 202.459 L
306.47 203.67 L
308.53 203.67 L
310.197 202.459 L
cp
S
GR
GS
[0.75 0 0 0.75 0 0] CT
1 GC
N
383.833 158.5 M
382.857 156.143 L
380.5 155.167 L
378.143 156.143 L
377.167 158.5 L
378.143 160.857 L
380.5 161.833 L
382.857 160.857 L
383.833 158.5 L
cp
f
GR
GS
[0.75 0 0 0.75 0 0] CT
1 LJ
2 LW
N
383.833 158.5 M
383.197 156.541 L
381.53 155.33 L
379.47 155.33 L
377.803 156.541 L
377.167 158.5 L
377.803 160.459 L
379.47 161.67 L
381.53 161.67 L
383.197 160.459 L
cp
S
GR
GS
[0.75 0 0 0.75 0 0] CT
1 GC
N
457.833 126.5 M
456.857 124.143 L
454.5 123.167 L
452.143 124.143 L
451.167 126.5 L
452.143 128.857 L
454.5 129.833 L
456.857 128.857 L
457.833 126.5 L
cp
f
GR
GS
[0.75 0 0 0.75 0 0] CT
1 LJ
2 LW
N
457.833 126.5 M
457.197 124.541 L
455.53 123.33 L
453.47 123.33 L
451.803 124.541 L
451.167 126.5 L
451.803 128.459 L
453.47 129.67 L
455.53 129.67 L
457.197 128.459 L
cp
S
GR
GS
[0.75 0 0 0.75 0 0] CT
1 GC
N
530.833 102.5 M
529.857 100.143 L
527.5 99.167 L
525.143 100.143 L
524.167 102.5 L
525.143 104.857 L
527.5 105.833 L
529.857 104.857 L
530.833 102.5 L
cp
f
GR
GS
[0.75 0 0 0.75 0 0] CT
1 LJ
2 LW
N
530.833 102.5 M
530.197 100.541 L
528.53 99.33 L
526.47 99.33 L
524.803 100.541 L
524.167 102.5 L
524.803 104.459 L
526.47 105.67 L
528.53 105.67 L
530.197 104.459 L
cp
S
GR
GS
[0.75 0 0 0.75 0 0] CT
1 GC
N
603.833 83.5 M
602.857 81.143 L
600.5 80.167 L
598.143 81.143 L
597.167 83.5 L
598.143 85.857 L
600.5 86.833 L
602.857 85.857 L
603.833 83.5 L
cp
f
GR
GS
[0.75 0 0 0.75 0 0] CT
1 LJ
2 LW
N
603.833 83.5 M
603.197 81.541 L
601.53 80.33 L
599.47 80.33 L
597.803 81.541 L
597.167 83.5 L
597.803 85.459 L
599.47 86.67 L
601.53 86.67 L
603.197 85.459 L
cp
S
GR
GS
[0.75 0 0 0.75 0 0] CT
1 GC
N
676.833 67.5 M
675.857 65.143 L
673.5 64.167 L
671.143 65.143 L
670.167 67.5 L
671.143 69.857 L
673.5 70.833 L
675.857 69.857 L
676.833 67.5 L
cp
f
GR
GS
[0.75 0 0 0.75 0 0] CT
1 LJ
2 LW
N
676.833 67.5 M
676.197 65.541 L
674.53 64.33 L
672.47 64.33 L
670.803 65.541 L
670.167 67.5 L
670.803 69.459 L
672.47 70.67 L
674.53 70.67 L
676.197 69.459 L
cp
S
GR
GS
[0.75 0 0 0.75 0 0] CT
1 GC
N
749.833 53.5 M
748.857 51.143 L
746.5 50.167 L
744.143 51.143 L
743.167 53.5 L
744.143 55.857 L
746.5 56.833 L
748.857 55.857 L
749.833 53.5 L
cp
f
GR
GS
[0.75 0 0 0.75 0 0] CT
1 LJ
2 LW
N
749.833 53.5 M
749.197 51.541 L
747.53 50.33 L
745.47 50.33 L
743.803 51.541 L
743.167 53.5 L
743.803 55.459 L
745.47 56.67 L
747.53 56.67 L
749.197 55.459 L
cp
S
GR
GS
[0.75 0 0 0.75 0 0] CT
1 GC
N
627 408 M
627 139 L
733 139 L
733 408 L
cp
f
GR
GS
[0.75 0 0 0.75 498 116.625] CT
/Times 24 F
GS
[1 0 0 1 0 0] CT
0 8.5 moveto 
1 -1 scale
(LBP) t 
GR
GR
GS
[0.75 0 0 0.75 0 0] CT
1 0.6 0.784 RC
1 LJ
2 LW
N
631 155.5 M
661 155.5 L
S
GR
GS
[0.75 0 0 0.75 0 0] CT
1 GC
N
644.278 151.652 M
650.943 155.5 L
644.278 159.348 L
cp
f
GR
GS
[0.75 0 0 0.75 0 0] CT
1 0.6 0.784 RC
10.0 ML
2 LW
N
644.278 151.652 M
650.943 155.5 L
644.278 159.348 L
cp
S
GR
GS
[0.75 0 0 0.75 498 138.75] CT
/Times 24 F
GS
[1 0 0 1 0 0] CT
0 8.5 moveto 
1 -1 scale
(LTP) t 
GR
GR
GS
[0.75 0 0 0.75 0 0] CT
0.6 0.2 0 RC
1 LJ
2 LW
N
631 185 M
661 185 L
S
GR
GS
[0.75 0 0 0.75 0 0] CT
1 GC
N
642.057 184.5 M
648.722 180.652 L
648.722 188.348 L
cp
f
GR
GS
[0.75 0 0 0.75 0 0] CT
0.6 0.2 0 RC
10.0 ML
2 LW
N
642.057 184.5 M
648.722 180.652 L
648.722 188.348 L
cp
S
GR
GS
[0.75 0 0 0.75 498 160.875] CT
/Times 24 F
GS
[1 0 0 1 0 0] CT
0 8.5 moveto 
1 -1 scale
(LDP) t 
GR
GR
GS
[0.75 0 0 0.75 0 0] CT
0.929 0.694 0.125 RC
1 LJ
2 LW
N
631 214.5 M
661 214.5 L
S
GR
GS
[0.75 0 0 0.75 0 0] CT
1 GC
N
643.33 213.47 M
645.716 213.47 L
646.5 211.167 L
647.284 213.47 L
649.67 213.47 L
647.768 214.912 L
648.459 217.197 L
646.5 215.833 L
644.541 217.197 L
645.232 214.912 L
643.33 213.47 L
cp
f
GR
GS
[0.75 0 0 0.75 0 0] CT
0.929 0.694 0.125 RC
10.0 ML
2 LW
N
643.33 213.47 M
645.716 213.47 L
646.5 211.167 L
647.284 213.47 L
649.67 213.47 L
647.768 214.912 L
648.459 217.197 L
646.5 215.833 L
644.541 217.197 L
645.232 214.912 L
cp
S
GR
GS
[0.75 0 0 0.75 498 183] CT
/Times 24 F
GS
[1 0 0 1 0 0] CT
0 8.5 moveto 
1 -1 scale
(LDN) t 
GR
GR
GS
[0.75 0 0 0.75 0 0] CT
0 1 1 RC
1 LJ
2 LW
N
631 244 M
661 244 L
S
GR
GS
[0.75 0 0 0.75 0 0] CT
1 GC
N
646.5 247.943 M
649.833 243.5 L
646.5 239.057 L
643.167 243.5 L
cp
f
GR
GS
[0.75 0 0 0.75 0 0] CT
0 1 1 RC
10.0 ML
2 LW
N
646.5 247.943 M
649.833 243.5 L
646.5 239.057 L
643.167 243.5 L
cp
S
GR
GS
[0.75 0 0 0.75 498 205.125] CT
/Times 24 F
GS
[1 0 0 1 0 0] CT
0 8.5 moveto 
1 -1 scale
(LVP) t 
GR
GR
GS
[0.75 0 0 0.75 0 0] CT
0 1 0 RC
1 LJ
2 LW
N
631 273.5 M
661 273.5 L
S
GR
GS
[0.75 0 0 0.75 0 0] CT
1 GC
N
643.9 276.1 M
643.9 270.9 L
649.1 270.9 L
649.1 276.1 L
cp
f
GR
GS
[0.75 0 0 0.75 0 0] CT
0 1 0 RC
10.0 ML
2 LW
N
643.9 276.1 M
643.9 270.9 L
649.1 270.9 L
649.1 276.1 L
cp
S
GR
GS
[0.75 0 0 0.75 498 227.25] CT
/Times 24 F
GS
[1 0 0 1 0 0] CT
0 8.5 moveto 
1 -1 scale
(LDGP) t 
GR
GR
GS
[0.75 0 0 0.75 0 0] CT
0 0 1 RC
1 LJ
2 LW
N
631 303 M
661 303 L
S
GR
GS
[0.75 0 0 0.75 0 0] CT
1 GC
N
642.057 302.5 M
648.722 298.652 L
648.722 306.348 L
cp
f
GR
GS
[0.75 0 0 0.75 0 0] CT
0 0 1 RC
10.0 ML
2 LW
N
642.057 302.5 M
648.722 298.652 L
648.722 306.348 L
cp
S
GR
GS
[0.75 0 0 0.75 498 249.375] CT
/Times 24 F
GS
[1 0 0 1 0 0] CT
0 8.5 moveto 
1 -1 scale
(DCP) t 
GR
GR
GS
[0.75 0 0 0.75 0 0] CT
1 0 1 RC
1 LJ
2 LW
N
631 332.5 M
661 332.5 L
S
GR
GS
[0.75 0 0 0.75 0 0] CT
1 0 1 RC
1 LJ
2 LW
N
643 332.5 M
650 332.5 L
S
GR
GS
[0.75 0 0 0.75 0 0] CT
1 0 1 RC
1 LJ
2 LW
N
646.5 336 M
646.5 329 L
S
GR
GS
[0.75 0 0 0.75 498 271.5] CT
/Times 24 F
GS
[1 0 0 1 0 0] CT
0 8.5 moveto 
1 -1 scale
(LGHP) t 
GR
GR
GS
[0.75 0 0 0.75 0 0] CT
1 0 0 RC
1 LJ
2 LW
N
631 362 M
661 362 L
S
GR
GS
[0.75 0 0 0.75 0 0] CT
1 GC
N
643.9 365.1 M
643.9 359.9 L
649.1 359.9 L
649.1 365.1 L
cp
f
GR
GS
[0.75 0 0 0.75 0 0] CT
1 0 0 RC
10.0 ML
2 LW
N
643.9 365.1 M
643.9 359.9 L
649.1 359.9 L
649.1 365.1 L
cp
S
GR
GS
[0.75 0 0 0.75 498 293.625] CT
/Times 24 F
GS
[1 0 0 1 0 0] CT
0 8.5 moveto 
1 -1 scale
(LDRP) t 
GR
GR
GS
[0.75 0 0 0.75 0 0] CT
1 LJ
2 LW
N
631 391.5 M
661 391.5 L
S
GR
GS
[0.75 0 0 0.75 0 0] CT
1 GC
N
649.833 391.5 M
648.857 389.143 L
646.5 388.167 L
644.143 389.143 L
643.167 391.5 L
644.143 393.857 L
646.5 394.833 L
648.857 393.857 L
649.833 391.5 L
cp
f
GR
GS
[0.75 0 0 0.75 0 0] CT
1 LJ
2 LW
N
649.833 391.5 M
649.197 389.541 L
647.53 388.33 L
645.47 388.33 L
643.803 389.541 L
643.167 391.5 L
643.803 393.459 L
645.47 394.67 L
647.53 394.67 L
649.197 393.459 L
cp
S
GR
GS
[0.75 0 0 0.75 0 0] CT
0.149 GC
10.0 ML
0.667 LW
N
627 408 M
627 139 L
733 139 L
733 408 L
cp
S
GR
%%Trailer
%%Pages: 1
%%EOF
