%!PS-Adobe-3.0 EPSF-3.0
%%Creator: (MATLAB, The Mathworks, Inc. Version 9.0.0.341360 \(R2016a\). Operating System: Linux)
%%Title: (/home/shivram/main/Work/1. Research/1. Ongoing/5. LDRP Face/2. Exp/1. Results/FERET20/feret-f.eps)
%%CreationDate: 2017-08-16T16:10:33
%%Pages: (atend)
%%BoundingBox: 0 0 573 384
%%LanguageLevel: 3
%%EndComments
%%BeginProlog
%%BeginResource: procset (Apache XML Graphics Std ProcSet) 1.2 0
%%Version: 1.2 0
%%Copyright: (Copyright 2001-2003,2010 The Apache Software Foundation. License terms: http://www.apache.org/licenses/LICENSE-2.0)
/bd{bind def}bind def
/ld{load def}bd
/GR/grestore ld
/M/moveto ld
/LJ/setlinejoin ld
/C/curveto ld
/f/fill ld
/LW/setlinewidth ld
/GC/setgray ld
/t/show ld
/N/newpath ld
/CT/concat ld
/cp/closepath ld
/S/stroke ld
/L/lineto ld
/CC/setcmykcolor ld
/A/ashow ld
/GS/gsave ld
/RC/setrgbcolor ld
/RM/rmoveto ld
/ML/setmiterlimit ld
/re {4 2 roll M
1 index 0 rlineto
0 exch rlineto
neg 0 rlineto
cp } bd
/_ctm matrix def
/_tm matrix def
/BT { _ctm currentmatrix pop matrix _tm copy pop 0 0 moveto } bd
/ET { _ctm setmatrix } bd
/iTm { _ctm setmatrix _tm concat } bd
/Tm { _tm astore pop iTm 0 0 moveto } bd
/ux 0.0 def
/uy 0.0 def
/F {
  /Tp exch def
  /Tf exch def
  Tf findfont Tp scalefont setfont
  /cf Tf def  /cs Tp def
} bd
/ULS {currentpoint /uy exch def /ux exch def} bd
/ULE {
  /Tcx currentpoint pop def
  gsave
  newpath
  cf findfont cs scalefont dup
  /FontMatrix get 0 get /Ts exch def /FontInfo get dup
  /UnderlinePosition get Ts mul /To exch def
  /UnderlineThickness get Ts mul /Tt exch def
  ux uy To add moveto  Tcx uy To add lineto
  Tt setlinewidth stroke
  grestore
} bd
/OLE {
  /Tcx currentpoint pop def
  gsave
  newpath
  cf findfont cs scalefont dup
  /FontMatrix get 0 get /Ts exch def /FontInfo get dup
  /UnderlinePosition get Ts mul /To exch def
  /UnderlineThickness get Ts mul /Tt exch def
  ux uy To add cs add moveto Tcx uy To add cs add lineto
  Tt setlinewidth stroke
  grestore
} bd
/SOE {
  /Tcx currentpoint pop def
  gsave
  newpath
  cf findfont cs scalefont dup
  /FontMatrix get 0 get /Ts exch def /FontInfo get dup
  /UnderlinePosition get Ts mul /To exch def
  /UnderlineThickness get Ts mul /Tt exch def
  ux uy To add cs 10 mul 26 idiv add moveto Tcx uy To add cs 10 mul 26 idiv add lineto
  Tt setlinewidth stroke
  grestore
} bd
/QT {
/Y22 exch store
/X22 exch store
/Y21 exch store
/X21 exch store
currentpoint
/Y21 load 2 mul add 3 div exch
/X21 load 2 mul add 3 div exch
/X21 load 2 mul /X22 load add 3 div
/Y21 load 2 mul /Y22 load add 3 div
/X22 load /Y22 load curveto
} bd
/SSPD {
dup length /d exch dict def
{
/v exch def
/k exch def
currentpagedevice k known {
/cpdv currentpagedevice k get def
v cpdv ne {
/upd false def
/nullv v type /nulltype eq def
/nullcpdv cpdv type /nulltype eq def
nullv nullcpdv or
{
/upd true def
} {
/sametype v type cpdv type eq def
sametype {
v type /arraytype eq {
/vlen v length def
/cpdvlen cpdv length def
vlen cpdvlen eq {
0 1 vlen 1 sub {
/i exch def
/obj v i get def
/cpdobj cpdv i get def
obj cpdobj ne {
/upd true def
exit
} if
} for
} {
/upd true def
} ifelse
} {
v type /dicttype eq {
v {
/dv exch def
/dk exch def
/cpddv cpdv dk get def
dv cpddv ne {
/upd true def
exit
} if
} forall
} {
/upd true def
} ifelse
} ifelse
} if
} ifelse
upd true eq {
d k v put
} if
} if
} if
} forall
d length 0 gt {
d setpagedevice
} if
} bd
%%EndResource
%%BeginResource: procset (Apache XML Graphics EPS ProcSet) 1.0 0
%%Version: 1.0 0
%%Copyright: (Copyright 2002-2003 The Apache Software Foundation. License terms: http://www.apache.org/licenses/LICENSE-2.0)
/BeginEPSF { %def
/b4_Inc_state save def         % Save state for cleanup
/dict_count countdictstack def % Count objects on dict stack
/op_count count 1 sub def      % Count objects on operand stack
userdict begin                 % Push userdict on dict stack
/showpage { } def              % Redefine showpage, { } = null proc
0 setgray 0 setlinecap         % Prepare graphics state
1 setlinewidth 0 setlinejoin
10 setmiterlimit [ ] 0 setdash newpath
/languagelevel where           % If level not equal to 1 then
{pop languagelevel             % set strokeadjust and
1 ne                           % overprint to their defaults.
{false setstrokeadjust false setoverprint
} if
} if
} bd
/EndEPSF { %def
count op_count sub {pop} repeat            % Clean up stacks
countdictstack dict_count sub {end} repeat
b4_Inc_state restore
} bd
%%EndResource
%FOPBeginFontDict
%%IncludeResource: font Courier-Bold
%%IncludeResource: font Helvetica
%%IncludeResource: font Courier-BoldOblique
%%IncludeResource: font Courier-Oblique
%%IncludeResource: font Times-Roman
%%IncludeResource: font Helvetica-BoldOblique
%%IncludeResource: font Helvetica-Bold
%%IncludeResource: font Helvetica-Oblique
%%IncludeResource: font Times-BoldItalic
%%IncludeResource: font Courier
%%IncludeResource: font Times-Italic
%%IncludeResource: font Times-Bold
%%IncludeResource: font Symbol
%%IncludeResource: font ZapfDingbats
%FOPEndFontDict
%%BeginResource: encoding WinAnsiEncoding
/WinAnsiEncoding [
/.notdef /.notdef /.notdef /.notdef /.notdef
/.notdef /.notdef /.notdef /.notdef /.notdef
/.notdef /.notdef /.notdef /.notdef /.notdef
/.notdef /.notdef /.notdef /.notdef /.notdef
/.notdef /.notdef /.notdef /.notdef /.notdef
/.notdef /.notdef /.notdef /.notdef /.notdef
/.notdef /.notdef /space /exclam /quotedbl
/numbersign /dollar /percent /ampersand /quotesingle
/parenleft /parenright /asterisk /plus /comma
/hyphen /period /slash /zero /one
/two /three /four /five /six
/seven /eight /nine /colon /semicolon
/less /equal /greater /question /at
/A /B /C /D /E
/F /G /H /I /J
/K /L /M /N /O
/P /Q /R /S /T
/U /V /W /X /Y
/Z /bracketleft /backslash /bracketright /asciicircum
/underscore /quoteleft /a /b /c
/d /e /f /g /h
/i /j /k /l /m
/n /o /p /q /r
/s /t /u /v /w
/x /y /z /braceleft /bar
/braceright /asciitilde /bullet /Euro /bullet
/quotesinglbase /florin /quotedblbase /ellipsis /dagger
/daggerdbl /circumflex /perthousand /Scaron /guilsinglleft
/OE /bullet /Zcaron /bullet /bullet
/quoteleft /quoteright /quotedblleft /quotedblright /bullet
/endash /emdash /asciitilde /trademark /scaron
/guilsinglright /oe /bullet /zcaron /Ydieresis
/space /exclamdown /cent /sterling /currency
/yen /brokenbar /section /dieresis /copyright
/ordfeminine /guillemotleft /logicalnot /sfthyphen /registered
/macron /degree /plusminus /twosuperior /threesuperior
/acute /mu /paragraph /middot /cedilla
/onesuperior /ordmasculine /guillemotright /onequarter /onehalf
/threequarters /questiondown /Agrave /Aacute /Acircumflex
/Atilde /Adieresis /Aring /AE /Ccedilla
/Egrave /Eacute /Ecircumflex /Edieresis /Igrave
/Iacute /Icircumflex /Idieresis /Eth /Ntilde
/Ograve /Oacute /Ocircumflex /Otilde /Odieresis
/multiply /Oslash /Ugrave /Uacute /Ucircumflex
/Udieresis /Yacute /Thorn /germandbls /agrave
/aacute /acircumflex /atilde /adieresis /aring
/ae /ccedilla /egrave /eacute /ecircumflex
/edieresis /igrave /iacute /icircumflex /idieresis
/eth /ntilde /ograve /oacute /ocircumflex
/otilde /odieresis /divide /oslash /ugrave
/uacute /ucircumflex /udieresis /yacute /thorn
/ydieresis
] def
%%EndResource
%FOPBeginFontReencode
/Courier-Bold findfont
dup length dict begin
  {1 index /FID ne {def} {pop pop} ifelse} forall
  /Encoding WinAnsiEncoding def
  currentdict
end
/Courier-Bold exch definefont pop
/Helvetica findfont
dup length dict begin
  {1 index /FID ne {def} {pop pop} ifelse} forall
  /Encoding WinAnsiEncoding def
  currentdict
end
/Helvetica exch definefont pop
/Courier-BoldOblique findfont
dup length dict begin
  {1 index /FID ne {def} {pop pop} ifelse} forall
  /Encoding WinAnsiEncoding def
  currentdict
end
/Courier-BoldOblique exch definefont pop
/Courier-Oblique findfont
dup length dict begin
  {1 index /FID ne {def} {pop pop} ifelse} forall
  /Encoding WinAnsiEncoding def
  currentdict
end
/Courier-Oblique exch definefont pop
/Times-Roman findfont
dup length dict begin
  {1 index /FID ne {def} {pop pop} ifelse} forall
  /Encoding WinAnsiEncoding def
  currentdict
end
/Times-Roman exch definefont pop
/Helvetica-BoldOblique findfont
dup length dict begin
  {1 index /FID ne {def} {pop pop} ifelse} forall
  /Encoding WinAnsiEncoding def
  currentdict
end
/Helvetica-BoldOblique exch definefont pop
/Helvetica-Bold findfont
dup length dict begin
  {1 index /FID ne {def} {pop pop} ifelse} forall
  /Encoding WinAnsiEncoding def
  currentdict
end
/Helvetica-Bold exch definefont pop
/Helvetica-Oblique findfont
dup length dict begin
  {1 index /FID ne {def} {pop pop} ifelse} forall
  /Encoding WinAnsiEncoding def
  currentdict
end
/Helvetica-Oblique exch definefont pop
/Times-BoldItalic findfont
dup length dict begin
  {1 index /FID ne {def} {pop pop} ifelse} forall
  /Encoding WinAnsiEncoding def
  currentdict
end
/Times-BoldItalic exch definefont pop
/Courier findfont
dup length dict begin
  {1 index /FID ne {def} {pop pop} ifelse} forall
  /Encoding WinAnsiEncoding def
  currentdict
end
/Courier exch definefont pop
/Times-Italic findfont
dup length dict begin
  {1 index /FID ne {def} {pop pop} ifelse} forall
  /Encoding WinAnsiEncoding def
  currentdict
end
/Times-Italic exch definefont pop
/Times-Bold findfont
dup length dict begin
  {1 index /FID ne {def} {pop pop} ifelse} forall
  /Encoding WinAnsiEncoding def
  currentdict
end
/Times-Bold exch definefont pop
%FOPEndFontReencode
%%EndProlog
%%Page: 1 1
%%PageBoundingBox: 0 0 573 384
%%BeginPageSetup
[1 0 0 -1 0 384] CT
%%EndPageSetup
GS
[0.75 0 0 0.75 0 0] CT
1 GC
N
0 0 764 512 re
f
GR
GS
[0.75 0 0 0.75 0 0] CT
1 GC
N
0 0 764 512 re
f
GR
GS
[0.75 0 0 0.75 0 0] CT
1 GC
N
89 421 M
745 421 L
745 51 L
89 51 L
cp
f
GR
GS
[0.75 0 0 0.75 0 0] CT
0.149 GC
2 setlinecap
1 LJ
0.667 LW
N
89 421 M
745 421 L
S
GR
GS
[0.75 0 0 0.75 0 0] CT
0.149 GC
2 setlinecap
1 LJ
0.667 LW
N
89 51 M
745 51 L
S
GR
GS
[0.75 0 0 0.75 0 0] CT
0.149 GC
2 setlinecap
1 LJ
0.667 LW
N
89 421 M
89 414.44 L
S
GR
GS
[0.75 0 0 0.75 0 0] CT
0.149 GC
2 setlinecap
1 LJ
0.667 LW
N
161.889 421 M
161.889 414.44 L
S
GR
GS
[0.75 0 0 0.75 0 0] CT
0.149 GC
2 setlinecap
1 LJ
0.667 LW
N
234.778 421 M
234.778 414.44 L
S
GR
GS
[0.75 0 0 0.75 0 0] CT
0.149 GC
2 setlinecap
1 LJ
0.667 LW
N
307.667 421 M
307.667 414.44 L
S
GR
GS
[0.75 0 0 0.75 0 0] CT
0.149 GC
2 setlinecap
1 LJ
0.667 LW
N
380.556 421 M
380.556 414.44 L
S
GR
GS
[0.75 0 0 0.75 0 0] CT
0.149 GC
2 setlinecap
1 LJ
0.667 LW
N
453.444 421 M
453.444 414.44 L
S
GR
GS
[0.75 0 0 0.75 0 0] CT
0.149 GC
2 setlinecap
1 LJ
0.667 LW
N
526.333 421 M
526.333 414.44 L
S
GR
GS
[0.75 0 0 0.75 0 0] CT
0.149 GC
2 setlinecap
1 LJ
0.667 LW
N
599.222 421 M
599.222 414.44 L
S
GR
GS
[0.75 0 0 0.75 0 0] CT
0.149 GC
2 setlinecap
1 LJ
0.667 LW
N
672.111 421 M
672.111 414.44 L
S
GR
GS
[0.75 0 0 0.75 0 0] CT
0.149 GC
2 setlinecap
1 LJ
0.667 LW
N
745 421 M
745 414.44 L
S
GR
GS
[0.75 0 0 0.75 0 0] CT
0.149 GC
2 setlinecap
1 LJ
0.667 LW
N
89 51 M
89 57.56 L
S
GR
GS
[0.75 0 0 0.75 0 0] CT
0.149 GC
2 setlinecap
1 LJ
0.667 LW
N
161.889 51 M
161.889 57.56 L
S
GR
GS
[0.75 0 0 0.75 0 0] CT
0.149 GC
2 setlinecap
1 LJ
0.667 LW
N
234.778 51 M
234.778 57.56 L
S
GR
GS
[0.75 0 0 0.75 0 0] CT
0.149 GC
2 setlinecap
1 LJ
0.667 LW
N
307.667 51 M
307.667 57.56 L
S
GR
GS
[0.75 0 0 0.75 0 0] CT
0.149 GC
2 setlinecap
1 LJ
0.667 LW
N
380.556 51 M
380.556 57.56 L
S
GR
GS
[0.75 0 0 0.75 0 0] CT
0.149 GC
2 setlinecap
1 LJ
0.667 LW
N
453.444 51 M
453.444 57.56 L
S
GR
GS
[0.75 0 0 0.75 0 0] CT
0.149 GC
2 setlinecap
1 LJ
0.667 LW
N
526.333 51 M
526.333 57.56 L
S
GR
GS
[0.75 0 0 0.75 0 0] CT
0.149 GC
2 setlinecap
1 LJ
0.667 LW
N
599.222 51 M
599.222 57.56 L
S
GR
GS
[0.75 0 0 0.75 0 0] CT
0.149 GC
2 setlinecap
1 LJ
0.667 LW
N
672.111 51 M
672.111 57.56 L
S
GR
GS
[0.75 0 0 0.75 0 0] CT
0.149 GC
2 setlinecap
1 LJ
0.667 LW
N
745 51 M
745 57.56 L
S
GR
GS
[0.75 0 0 0.75 66.75 322.54999] CT
0.149 GC
/Times 32 F
GS
[1 0 0 1 0 0] CT
-10.5 30 moveto 
1 -1 scale
(1) t 
GR
GR
GS
[0.75 0 0 0.75 121.41666 322.54999] CT
0.149 GC
/Times 32 F
GS
[1 0 0 1 0 0] CT
-10.5 30 moveto 
1 -1 scale
(2) t 
GR
GR
GS
[0.75 0 0 0.75 176.08333 322.54999] CT
0.149 GC
/Times 32 F
GS
[1 0 0 1 0 0] CT
-10.5 30 moveto 
1 -1 scale
(3) t 
GR
GR
GS
[0.75 0 0 0.75 230.74999 322.54999] CT
0.149 GC
/Times 32 F
GS
[1 0 0 1 0 0] CT
-10.5 30 moveto 
1 -1 scale
(4) t 
GR
GR
GS
[0.75 0 0 0.75 285.41666 322.54999] CT
0.149 GC
/Times 32 F
GS
[1 0 0 1 0 0] CT
-10.5 30 moveto 
1 -1 scale
(5) t 
GR
GR
GS
[0.75 0 0 0.75 340.08334 322.54999] CT
0.149 GC
/Times 32 F
GS
[1 0 0 1 0 0] CT
-10.5 30 moveto 
1 -1 scale
(6) t 
GR
GR
GS
[0.75 0 0 0.75 394.74998 322.54999] CT
0.149 GC
/Times 32 F
GS
[1 0 0 1 0 0] CT
-10.5 30 moveto 
1 -1 scale
(7) t 
GR
GR
GS
[0.75 0 0 0.75 449.41667 322.54999] CT
0.149 GC
/Times 32 F
GS
[1 0 0 1 0 0] CT
-10.5 30 moveto 
1 -1 scale
(8) t 
GR
GR
GS
[0.75 0 0 0.75 504.08331 322.54999] CT
0.149 GC
/Times 32 F
GS
[1 0 0 1 0 0] CT
-10.5 30 moveto 
1 -1 scale
(9) t 
GR
GR
GS
[0.75 0 0 0.75 558.75 322.54999] CT
0.149 GC
/Times 32 F
GS
[1 0 0 1 0 0] CT
-20.5 30 moveto 
1 -1 scale
(10) t 
GR
GR
GS
[0.75 0 0 0.75 312.75023 352.05] CT
0.149 GC
/Times 35.2 F
GS
[1 0 0 1 0 0] CT
-210 33 moveto 
1 -1 scale
(Number of Top Matches) t 
GR
GR
GS
[0.75 0 0 0.75 0 0] CT
0.149 GC
2 setlinecap
1 LJ
0.667 LW
N
89 421 M
89 51 L
S
GR
GS
[0.75 0 0 0.75 0 0] CT
0.149 GC
2 setlinecap
1 LJ
0.667 LW
N
745 421 M
745 51 L
S
GR
GS
[0.75 0 0 0.75 0 0] CT
0.149 GC
2 setlinecap
1 LJ
0.667 LW
N
89 421 M
95.56 421 L
S
GR
GS
[0.75 0 0 0.75 0 0] CT
0.149 GC
2 setlinecap
1 LJ
0.667 LW
N
89 330.756 M
95.56 330.756 L
S
GR
GS
[0.75 0 0 0.75 0 0] CT
0.149 GC
2 setlinecap
1 LJ
0.667 LW
N
89 240.512 M
95.56 240.512 L
S
GR
GS
[0.75 0 0 0.75 0 0] CT
0.149 GC
2 setlinecap
1 LJ
0.667 LW
N
89 150.268 M
95.56 150.268 L
S
GR
GS
[0.75 0 0 0.75 0 0] CT
0.149 GC
2 setlinecap
1 LJ
0.667 LW
N
89 60.024 M
95.56 60.024 L
S
GR
GS
[0.75 0 0 0.75 0 0] CT
0.149 GC
2 setlinecap
1 LJ
0.667 LW
N
745 421 M
738.44 421 L
S
GR
GS
[0.75 0 0 0.75 0 0] CT
0.149 GC
2 setlinecap
1 LJ
0.667 LW
N
745 330.756 M
738.44 330.756 L
S
GR
GS
[0.75 0 0 0.75 0 0] CT
0.149 GC
2 setlinecap
1 LJ
0.667 LW
N
745 240.512 M
738.44 240.512 L
S
GR
GS
[0.75 0 0 0.75 0 0] CT
0.149 GC
2 setlinecap
1 LJ
0.667 LW
N
745 150.268 M
738.44 150.268 L
S
GR
GS
[0.75 0 0 0.75 0 0] CT
0.149 GC
2 setlinecap
1 LJ
0.667 LW
N
745 60.024 M
738.44 60.024 L
S
GR
GS
[0.75 0 0 0.75 59.95 315.75] CT
0.149 GC
/Times 32 F
GS
[1 0 0 1 0 0] CT
-21 11 moveto 
1 -1 scale
(7) t 
GR
GR
GS
[0.75 0 0 0.75 59.95 248.06708] CT
0.149 GC
/Times 32 F
GS
[1 0 0 1 0 0] CT
-41 11 moveto 
1 -1 scale
(12) t 
GR
GR
GS
[0.75 0 0 0.75 59.95 180.38414] CT
0.149 GC
/Times 32 F
GS
[1 0 0 1 0 0] CT
-41 11 moveto 
1 -1 scale
(17) t 
GR
GR
GS
[0.75 0 0 0.75 59.95 112.70122] CT
0.149 GC
/Times 32 F
GS
[1 0 0 1 0 0] CT
-41 11 moveto 
1 -1 scale
(22) t 
GR
GR
GS
[0.75 0 0 0.75 59.95 45.01829] CT
0.149 GC
/Times 32 F
GS
[1 0 0 1 0 0] CT
-41 11 moveto 
1 -1 scale
(27) t 
GR
GR
GS
[0 -0.75 0.75 0 26.2 176.99987] CT
0.149 GC
/Times 35.2 F
GS
[1 0 0 1 0 0] CT
-102 -9 moveto 
1 -1 scale
(F-Score \(%\)) t 
GR
GR
GS
[0.75 0 0 0.75 312.7503 33.30001] CT
/Times 35.2 F
GS
[1 0 0 1 0 0] CT
-144.5 -9 moveto 
1 -1 scale
(FERET Database) t 
GR
GR
GS
[0.75 0 0 0.75 0 0] CT
1 0.6 0.784 RC
1 LJ
2 LW
N
89 416.089 M
161.889 317.232 L
234.778 251.708 L
307.667 205.156 L
380.556 173.507 L
453.444 152.745 L
526.333 138.04 L
599.222 129.751 L
672.111 124.097 L
745 120.016 L
S
GR
GS
[0.75 0 0 0.75 0 0] CT
1 GC
N
87.278 412.652 M
93.943 416.5 L
87.278 420.348 L
cp
f
GR
GS
[0.75 0 0 0.75 0 0] CT
1 0.6 0.784 RC
10.0 ML
2 LW
N
87.278 412.652 M
93.943 416.5 L
87.278 420.348 L
cp
S
GR
GS
[0.75 0 0 0.75 0 0] CT
1 GC
N
159.278 313.652 M
165.943 317.5 L
159.278 321.348 L
cp
f
GR
GS
[0.75 0 0 0.75 0 0] CT
1 0.6 0.784 RC
10.0 ML
2 LW
N
159.278 313.652 M
165.943 317.5 L
159.278 321.348 L
cp
S
GR
GS
[0.75 0 0 0.75 0 0] CT
1 GC
N
232.278 247.652 M
238.943 251.5 L
232.278 255.348 L
cp
f
GR
GS
[0.75 0 0 0.75 0 0] CT
1 0.6 0.784 RC
10.0 ML
2 LW
N
232.278 247.652 M
238.943 251.5 L
232.278 255.348 L
cp
S
GR
GS
[0.75 0 0 0.75 0 0] CT
1 GC
N
305.278 201.652 M
311.943 205.5 L
305.278 209.348 L
cp
f
GR
GS
[0.75 0 0 0.75 0 0] CT
1 0.6 0.784 RC
10.0 ML
2 LW
N
305.278 201.652 M
311.943 205.5 L
305.278 209.348 L
cp
S
GR
GS
[0.75 0 0 0.75 0 0] CT
1 GC
N
378.278 169.652 M
384.943 173.5 L
378.278 177.348 L
cp
f
GR
GS
[0.75 0 0 0.75 0 0] CT
1 0.6 0.784 RC
10.0 ML
2 LW
N
378.278 169.652 M
384.943 173.5 L
378.278 177.348 L
cp
S
GR
GS
[0.75 0 0 0.75 0 0] CT
1 GC
N
451.278 148.652 M
457.943 152.5 L
451.278 156.348 L
cp
f
GR
GS
[0.75 0 0 0.75 0 0] CT
1 0.6 0.784 RC
10.0 ML
2 LW
N
451.278 148.652 M
457.943 152.5 L
451.278 156.348 L
cp
S
GR
GS
[0.75 0 0 0.75 0 0] CT
1 GC
N
524.278 134.652 M
530.943 138.5 L
524.278 142.348 L
cp
f
GR
GS
[0.75 0 0 0.75 0 0] CT
1 0.6 0.784 RC
10.0 ML
2 LW
N
524.278 134.652 M
530.943 138.5 L
524.278 142.348 L
cp
S
GR
GS
[0.75 0 0 0.75 0 0] CT
1 GC
N
597.278 125.652 M
603.943 129.5 L
597.278 133.348 L
cp
f
GR
GS
[0.75 0 0 0.75 0 0] CT
1 0.6 0.784 RC
10.0 ML
2 LW
N
597.278 125.652 M
603.943 129.5 L
597.278 133.348 L
cp
S
GR
GS
[0.75 0 0 0.75 0 0] CT
1 GC
N
670.278 120.652 M
676.943 124.5 L
670.278 128.348 L
cp
f
GR
GS
[0.75 0 0 0.75 0 0] CT
1 0.6 0.784 RC
10.0 ML
2 LW
N
670.278 120.652 M
676.943 124.5 L
670.278 128.348 L
cp
S
GR
GS
[0.75 0 0 0.75 0 0] CT
1 GC
N
743.278 116.652 M
749.943 120.5 L
743.278 124.348 L
cp
f
GR
GS
[0.75 0 0 0.75 0 0] CT
1 0.6 0.784 RC
10.0 ML
2 LW
N
743.278 116.652 M
749.943 120.5 L
743.278 124.348 L
cp
S
GR
GS
[0.75 0 0 0.75 0 0] CT
0.6 0.2 0 RC
1 LJ
2 LW
N
89 416.089 M
161.889 318.282 L
234.778 252.461 L
307.667 206.091 L
380.556 172.89 L
453.444 152.259 L
526.333 138.557 L
599.222 129.675 L
672.111 124.656 L
745 122.54 L
S
GR
GS
[0.75 0 0 0.75 0 0] CT
1 GC
N
85.057 416.5 M
91.722 412.652 L
91.722 420.348 L
cp
f
GR
GS
[0.75 0 0 0.75 0 0] CT
0.6 0.2 0 RC
10.0 ML
2 LW
N
85.057 416.5 M
91.722 412.652 L
91.722 420.348 L
cp
S
GR
GS
[0.75 0 0 0.75 0 0] CT
1 GC
N
157.057 318.5 M
163.722 314.652 L
163.722 322.348 L
cp
f
GR
GS
[0.75 0 0 0.75 0 0] CT
0.6 0.2 0 RC
10.0 ML
2 LW
N
157.057 318.5 M
163.722 314.652 L
163.722 322.348 L
cp
S
GR
GS
[0.75 0 0 0.75 0 0] CT
1 GC
N
230.057 252.5 M
236.722 248.652 L
236.722 256.348 L
cp
f
GR
GS
[0.75 0 0 0.75 0 0] CT
0.6 0.2 0 RC
10.0 ML
2 LW
N
230.057 252.5 M
236.722 248.652 L
236.722 256.348 L
cp
S
GR
GS
[0.75 0 0 0.75 0 0] CT
1 GC
N
303.057 206.5 M
309.722 202.652 L
309.722 210.348 L
cp
f
GR
GS
[0.75 0 0 0.75 0 0] CT
0.6 0.2 0 RC
10.0 ML
2 LW
N
303.057 206.5 M
309.722 202.652 L
309.722 210.348 L
cp
S
GR
GS
[0.75 0 0 0.75 0 0] CT
1 GC
N
376.057 172.5 M
382.722 168.652 L
382.722 176.348 L
cp
f
GR
GS
[0.75 0 0 0.75 0 0] CT
0.6 0.2 0 RC
10.0 ML
2 LW
N
376.057 172.5 M
382.722 168.652 L
382.722 176.348 L
cp
S
GR
GS
[0.75 0 0 0.75 0 0] CT
1 GC
N
449.057 152.5 M
455.722 148.652 L
455.722 156.348 L
cp
f
GR
GS
[0.75 0 0 0.75 0 0] CT
0.6 0.2 0 RC
10.0 ML
2 LW
N
449.057 152.5 M
455.722 148.652 L
455.722 156.348 L
cp
S
GR
GS
[0.75 0 0 0.75 0 0] CT
1 GC
N
522.057 138.5 M
528.722 134.652 L
528.722 142.348 L
cp
f
GR
GS
[0.75 0 0 0.75 0 0] CT
0.6 0.2 0 RC
10.0 ML
2 LW
N
522.057 138.5 M
528.722 134.652 L
528.722 142.348 L
cp
S
GR
GS
[0.75 0 0 0.75 0 0] CT
1 GC
N
595.057 129.5 M
601.722 125.652 L
601.722 133.348 L
cp
f
GR
GS
[0.75 0 0 0.75 0 0] CT
0.6 0.2 0 RC
10.0 ML
2 LW
N
595.057 129.5 M
601.722 125.652 L
601.722 133.348 L
cp
S
GR
GS
[0.75 0 0 0.75 0 0] CT
1 GC
N
668.057 124.5 M
674.722 120.652 L
674.722 128.348 L
cp
f
GR
GS
[0.75 0 0 0.75 0 0] CT
0.6 0.2 0 RC
10.0 ML
2 LW
N
668.057 124.5 M
674.722 120.652 L
674.722 128.348 L
cp
S
GR
GS
[0.75 0 0 0.75 0 0] CT
1 GC
N
741.057 122.5 M
747.722 118.652 L
747.722 126.348 L
cp
f
GR
GS
[0.75 0 0 0.75 0 0] CT
0.6 0.2 0 RC
10.0 ML
2 LW
N
741.057 122.5 M
747.722 118.652 L
747.722 126.348 L
cp
S
GR
GS
[0.75 0 0 0.75 0 0] CT
0.929 0.694 0.125 RC
1 LJ
2 LW
N
89 416.089 M
161.889 323.793 L
234.778 259.705 L
307.667 214.269 L
380.556 183.029 L
453.444 160.902 L
526.333 145.997 L
599.222 135.99 L
672.111 129.456 L
745 124.925 L
S
GR
GS
[0.75 0 0 0.75 0 0] CT
1 GC
N
86.33 415.47 M
88.716 415.47 L
89.5 413.167 L
90.284 415.47 L
92.67 415.47 L
90.768 416.912 L
91.459 419.197 L
89.5 417.833 L
87.541 419.197 L
88.232 416.912 L
86.33 415.47 L
cp
f
GR
GS
[0.75 0 0 0.75 0 0] CT
0.929 0.694 0.125 RC
10.0 ML
2 LW
N
86.33 415.47 M
88.716 415.47 L
89.5 413.167 L
90.284 415.47 L
92.67 415.47 L
90.768 416.912 L
91.459 419.197 L
89.5 417.833 L
87.541 419.197 L
88.232 416.912 L
cp
S
GR
GS
[0.75 0 0 0.75 0 0] CT
1 GC
N
158.33 322.47 M
160.716 322.47 L
161.5 320.167 L
162.284 322.47 L
164.67 322.47 L
162.768 323.912 L
163.459 326.197 L
161.5 324.833 L
159.541 326.197 L
160.232 323.912 L
158.33 322.47 L
cp
f
GR
GS
[0.75 0 0 0.75 0 0] CT
0.929 0.694 0.125 RC
10.0 ML
2 LW
N
158.33 322.47 M
160.716 322.47 L
161.5 320.167 L
162.284 322.47 L
164.67 322.47 L
162.768 323.912 L
163.459 326.197 L
161.5 324.833 L
159.541 326.197 L
160.232 323.912 L
cp
S
GR
GS
[0.75 0 0 0.75 0 0] CT
1 GC
N
231.33 258.47 M
233.716 258.47 L
234.5 256.167 L
235.284 258.47 L
237.67 258.47 L
235.768 259.912 L
236.459 262.197 L
234.5 260.833 L
232.541 262.197 L
233.232 259.912 L
231.33 258.47 L
cp
f
GR
GS
[0.75 0 0 0.75 0 0] CT
0.929 0.694 0.125 RC
10.0 ML
2 LW
N
231.33 258.47 M
233.716 258.47 L
234.5 256.167 L
235.284 258.47 L
237.67 258.47 L
235.768 259.912 L
236.459 262.197 L
234.5 260.833 L
232.541 262.197 L
233.232 259.912 L
cp
S
GR
GS
[0.75 0 0 0.75 0 0] CT
1 GC
N
304.33 213.47 M
306.716 213.47 L
307.5 211.167 L
308.284 213.47 L
310.67 213.47 L
308.768 214.912 L
309.459 217.197 L
307.5 215.833 L
305.541 217.197 L
306.232 214.912 L
304.33 213.47 L
cp
f
GR
GS
[0.75 0 0 0.75 0 0] CT
0.929 0.694 0.125 RC
10.0 ML
2 LW
N
304.33 213.47 M
306.716 213.47 L
307.5 211.167 L
308.284 213.47 L
310.67 213.47 L
308.768 214.912 L
309.459 217.197 L
307.5 215.833 L
305.541 217.197 L
306.232 214.912 L
cp
S
GR
GS
[0.75 0 0 0.75 0 0] CT
1 GC
N
377.33 182.47 M
379.716 182.47 L
380.5 180.167 L
381.284 182.47 L
383.67 182.47 L
381.768 183.912 L
382.459 186.197 L
380.5 184.833 L
378.541 186.197 L
379.232 183.912 L
377.33 182.47 L
cp
f
GR
GS
[0.75 0 0 0.75 0 0] CT
0.929 0.694 0.125 RC
10.0 ML
2 LW
N
377.33 182.47 M
379.716 182.47 L
380.5 180.167 L
381.284 182.47 L
383.67 182.47 L
381.768 183.912 L
382.459 186.197 L
380.5 184.833 L
378.541 186.197 L
379.232 183.912 L
cp
S
GR
GS
[0.75 0 0 0.75 0 0] CT
1 GC
N
450.33 159.47 M
452.716 159.47 L
453.5 157.167 L
454.284 159.47 L
456.67 159.47 L
454.768 160.912 L
455.459 163.197 L
453.5 161.833 L
451.541 163.197 L
452.232 160.912 L
450.33 159.47 L
cp
f
GR
GS
[0.75 0 0 0.75 0 0] CT
0.929 0.694 0.125 RC
10.0 ML
2 LW
N
450.33 159.47 M
452.716 159.47 L
453.5 157.167 L
454.284 159.47 L
456.67 159.47 L
454.768 160.912 L
455.459 163.197 L
453.5 161.833 L
451.541 163.197 L
452.232 160.912 L
cp
S
GR
GS
[0.75 0 0 0.75 0 0] CT
1 GC
N
523.33 144.47 M
525.716 144.47 L
526.5 142.167 L
527.284 144.47 L
529.67 144.47 L
527.768 145.912 L
528.459 148.197 L
526.5 146.833 L
524.541 148.197 L
525.232 145.912 L
523.33 144.47 L
cp
f
GR
GS
[0.75 0 0 0.75 0 0] CT
0.929 0.694 0.125 RC
10.0 ML
2 LW
N
523.33 144.47 M
525.716 144.47 L
526.5 142.167 L
527.284 144.47 L
529.67 144.47 L
527.768 145.912 L
528.459 148.197 L
526.5 146.833 L
524.541 148.197 L
525.232 145.912 L
cp
S
GR
GS
[0.75 0 0 0.75 0 0] CT
1 GC
N
596.33 134.47 M
598.716 134.47 L
599.5 132.167 L
600.284 134.47 L
602.67 134.47 L
600.768 135.912 L
601.459 138.197 L
599.5 136.833 L
597.541 138.197 L
598.232 135.912 L
596.33 134.47 L
cp
f
GR
GS
[0.75 0 0 0.75 0 0] CT
0.929 0.694 0.125 RC
10.0 ML
2 LW
N
596.33 134.47 M
598.716 134.47 L
599.5 132.167 L
600.284 134.47 L
602.67 134.47 L
600.768 135.912 L
601.459 138.197 L
599.5 136.833 L
597.541 138.197 L
598.232 135.912 L
cp
S
GR
GS
[0.75 0 0 0.75 0 0] CT
1 GC
N
669.33 128.47 M
671.716 128.47 L
672.5 126.167 L
673.284 128.47 L
675.67 128.47 L
673.768 129.912 L
674.459 132.197 L
672.5 130.833 L
670.541 132.197 L
671.232 129.912 L
669.33 128.47 L
cp
f
GR
GS
[0.75 0 0 0.75 0 0] CT
0.929 0.694 0.125 RC
10.0 ML
2 LW
N
669.33 128.47 M
671.716 128.47 L
672.5 126.167 L
673.284 128.47 L
675.67 128.47 L
673.768 129.912 L
674.459 132.197 L
672.5 130.833 L
670.541 132.197 L
671.232 129.912 L
cp
S
GR
GS
[0.75 0 0 0.75 0 0] CT
1 GC
N
742.33 123.47 M
744.716 123.47 L
745.5 121.167 L
746.284 123.47 L
748.67 123.47 L
746.768 124.912 L
747.459 127.197 L
745.5 125.833 L
743.541 127.197 L
744.232 124.912 L
742.33 123.47 L
cp
f
GR
GS
[0.75 0 0 0.75 0 0] CT
0.929 0.694 0.125 RC
10.0 ML
2 LW
N
742.33 123.47 M
744.716 123.47 L
745.5 121.167 L
746.284 123.47 L
748.67 123.47 L
746.768 124.912 L
747.459 127.197 L
745.5 125.833 L
743.541 127.197 L
744.232 124.912 L
cp
S
GR
GS
[0.75 0 0 0.75 0 0] CT
0 1 1 RC
1 LJ
2 LW
N
89 416.089 M
161.889 332.852 L
234.778 278.761 L
307.667 243.912 L
380.556 219.626 L
453.444 204.325 L
526.333 193.877 L
599.222 187.175 L
672.111 182.104 L
745 178.646 L
S
GR
GS
[0.75 0 0 0.75 0 0] CT
1 GC
N
89.5 420.943 M
92.833 416.5 L
89.5 412.057 L
86.167 416.5 L
cp
f
GR
GS
[0.75 0 0 0.75 0 0] CT
0 1 1 RC
10.0 ML
2 LW
N
89.5 420.943 M
92.833 416.5 L
89.5 412.057 L
86.167 416.5 L
cp
S
GR
GS
[0.75 0 0 0.75 0 0] CT
1 GC
N
161.5 336.943 M
164.833 332.5 L
161.5 328.057 L
158.167 332.5 L
cp
f
GR
GS
[0.75 0 0 0.75 0 0] CT
0 1 1 RC
10.0 ML
2 LW
N
161.5 336.943 M
164.833 332.5 L
161.5 328.057 L
158.167 332.5 L
cp
S
GR
GS
[0.75 0 0 0.75 0 0] CT
1 GC
N
234.5 282.943 M
237.833 278.5 L
234.5 274.057 L
231.167 278.5 L
cp
f
GR
GS
[0.75 0 0 0.75 0 0] CT
0 1 1 RC
10.0 ML
2 LW
N
234.5 282.943 M
237.833 278.5 L
234.5 274.057 L
231.167 278.5 L
cp
S
GR
GS
[0.75 0 0 0.75 0 0] CT
1 GC
N
307.5 247.943 M
310.833 243.5 L
307.5 239.057 L
304.167 243.5 L
cp
f
GR
GS
[0.75 0 0 0.75 0 0] CT
0 1 1 RC
10.0 ML
2 LW
N
307.5 247.943 M
310.833 243.5 L
307.5 239.057 L
304.167 243.5 L
cp
S
GR
GS
[0.75 0 0 0.75 0 0] CT
1 GC
N
380.5 223.943 M
383.833 219.5 L
380.5 215.057 L
377.167 219.5 L
cp
f
GR
GS
[0.75 0 0 0.75 0 0] CT
0 1 1 RC
10.0 ML
2 LW
N
380.5 223.943 M
383.833 219.5 L
380.5 215.057 L
377.167 219.5 L
cp
S
GR
GS
[0.75 0 0 0.75 0 0] CT
1 GC
N
453.5 208.943 M
456.833 204.5 L
453.5 200.057 L
450.167 204.5 L
cp
f
GR
GS
[0.75 0 0 0.75 0 0] CT
0 1 1 RC
10.0 ML
2 LW
N
453.5 208.943 M
456.833 204.5 L
453.5 200.057 L
450.167 204.5 L
cp
S
GR
GS
[0.75 0 0 0.75 0 0] CT
1 GC
N
526.5 197.943 M
529.833 193.5 L
526.5 189.057 L
523.167 193.5 L
cp
f
GR
GS
[0.75 0 0 0.75 0 0] CT
0 1 1 RC
10.0 ML
2 LW
N
526.5 197.943 M
529.833 193.5 L
526.5 189.057 L
523.167 193.5 L
cp
S
GR
GS
[0.75 0 0 0.75 0 0] CT
1 GC
N
599.5 191.943 M
602.833 187.5 L
599.5 183.057 L
596.167 187.5 L
cp
f
GR
GS
[0.75 0 0 0.75 0 0] CT
0 1 1 RC
10.0 ML
2 LW
N
599.5 191.943 M
602.833 187.5 L
599.5 183.057 L
596.167 187.5 L
cp
S
GR
GS
[0.75 0 0 0.75 0 0] CT
1 GC
N
672.5 186.943 M
675.833 182.5 L
672.5 178.057 L
669.167 182.5 L
cp
f
GR
GS
[0.75 0 0 0.75 0 0] CT
0 1 1 RC
10.0 ML
2 LW
N
672.5 186.943 M
675.833 182.5 L
672.5 178.057 L
669.167 182.5 L
cp
S
GR
GS
[0.75 0 0 0.75 0 0] CT
1 GC
N
745.5 182.943 M
748.833 178.5 L
745.5 174.057 L
742.167 178.5 L
cp
f
GR
GS
[0.75 0 0 0.75 0 0] CT
0 1 1 RC
10.0 ML
2 LW
N
745.5 182.943 M
748.833 178.5 L
745.5 174.057 L
742.167 178.5 L
cp
S
GR
GS
[0.75 0 0 0.75 0 0] CT
0 1 0 RC
1 LJ
2 LW
N
89 416.089 M
161.889 318.847 L
234.778 256.697 L
307.667 215.629 L
380.556 189.451 L
453.444 172.409 L
526.333 161.052 L
599.222 152.546 L
672.111 148.827 L
745 146.968 L
S
GR
GS
[0.75 0 0 0.75 0 0] CT
1 GC
N
86.9 419.1 M
86.9 413.9 L
92.1 413.9 L
92.1 419.1 L
cp
f
GR
GS
[0.75 0 0 0.75 0 0] CT
0 1 0 RC
10.0 ML
2 LW
N
86.9 419.1 M
86.9 413.9 L
92.1 413.9 L
92.1 419.1 L
cp
S
GR
GS
[0.75 0 0 0.75 0 0] CT
1 GC
N
158.9 321.1 M
158.9 315.9 L
164.1 315.9 L
164.1 321.1 L
cp
f
GR
GS
[0.75 0 0 0.75 0 0] CT
0 1 0 RC
10.0 ML
2 LW
N
158.9 321.1 M
158.9 315.9 L
164.1 315.9 L
164.1 321.1 L
cp
S
GR
GS
[0.75 0 0 0.75 0 0] CT
1 GC
N
231.9 259.1 M
231.9 253.9 L
237.1 253.9 L
237.1 259.1 L
cp
f
GR
GS
[0.75 0 0 0.75 0 0] CT
0 1 0 RC
10.0 ML
2 LW
N
231.9 259.1 M
231.9 253.9 L
237.1 253.9 L
237.1 259.1 L
cp
S
GR
GS
[0.75 0 0 0.75 0 0] CT
1 GC
N
304.9 218.1 M
304.9 212.9 L
310.1 212.9 L
310.1 218.1 L
cp
f
GR
GS
[0.75 0 0 0.75 0 0] CT
0 1 0 RC
10.0 ML
2 LW
N
304.9 218.1 M
304.9 212.9 L
310.1 212.9 L
310.1 218.1 L
cp
S
GR
GS
[0.75 0 0 0.75 0 0] CT
1 GC
N
377.9 192.1 M
377.9 186.9 L
383.1 186.9 L
383.1 192.1 L
cp
f
GR
GS
[0.75 0 0 0.75 0 0] CT
0 1 0 RC
10.0 ML
2 LW
N
377.9 192.1 M
377.9 186.9 L
383.1 186.9 L
383.1 192.1 L
cp
S
GR
GS
[0.75 0 0 0.75 0 0] CT
1 GC
N
450.9 175.1 M
450.9 169.9 L
456.1 169.9 L
456.1 175.1 L
cp
f
GR
GS
[0.75 0 0 0.75 0 0] CT
0 1 0 RC
10.0 ML
2 LW
N
450.9 175.1 M
450.9 169.9 L
456.1 169.9 L
456.1 175.1 L
cp
S
GR
GS
[0.75 0 0 0.75 0 0] CT
1 GC
N
523.9 164.1 M
523.9 158.9 L
529.1 158.9 L
529.1 164.1 L
cp
f
GR
GS
[0.75 0 0 0.75 0 0] CT
0 1 0 RC
10.0 ML
2 LW
N
523.9 164.1 M
523.9 158.9 L
529.1 158.9 L
529.1 164.1 L
cp
S
GR
GS
[0.75 0 0 0.75 0 0] CT
1 GC
N
596.9 155.1 M
596.9 149.9 L
602.1 149.9 L
602.1 155.1 L
cp
f
GR
GS
[0.75 0 0 0.75 0 0] CT
0 1 0 RC
10.0 ML
2 LW
N
596.9 155.1 M
596.9 149.9 L
602.1 149.9 L
602.1 155.1 L
cp
S
GR
GS
[0.75 0 0 0.75 0 0] CT
1 GC
N
669.9 151.1 M
669.9 145.9 L
675.1 145.9 L
675.1 151.1 L
cp
f
GR
GS
[0.75 0 0 0.75 0 0] CT
0 1 0 RC
10.0 ML
2 LW
N
669.9 151.1 M
669.9 145.9 L
675.1 145.9 L
675.1 151.1 L
cp
S
GR
GS
[0.75 0 0 0.75 0 0] CT
1 GC
N
742.9 149.1 M
742.9 143.9 L
748.1 143.9 L
748.1 149.1 L
cp
f
GR
GS
[0.75 0 0 0.75 0 0] CT
0 1 0 RC
10.0 ML
2 LW
N
742.9 149.1 M
742.9 143.9 L
748.1 143.9 L
748.1 149.1 L
cp
S
GR
GS
[0.75 0 0 0.75 0 0] CT
0 0 1 RC
1 LJ
2 LW
N
89 416.089 M
161.889 347.626 L
234.778 304.486 L
307.667 274.966 L
380.556 253.268 L
453.444 238.411 L
526.333 228.717 L
599.222 222.429 L
672.111 216.798 L
745 213.694 L
S
GR
GS
[0.75 0 0 0.75 0 0] CT
1 GC
N
85.057 416.5 M
91.722 412.652 L
91.722 420.348 L
cp
f
GR
GS
[0.75 0 0 0.75 0 0] CT
0 0 1 RC
10.0 ML
2 LW
N
85.057 416.5 M
91.722 412.652 L
91.722 420.348 L
cp
S
GR
GS
[0.75 0 0 0.75 0 0] CT
1 GC
N
157.057 347.5 M
163.722 343.652 L
163.722 351.348 L
cp
f
GR
GS
[0.75 0 0 0.75 0 0] CT
0 0 1 RC
10.0 ML
2 LW
N
157.057 347.5 M
163.722 343.652 L
163.722 351.348 L
cp
S
GR
GS
[0.75 0 0 0.75 0 0] CT
1 GC
N
230.057 304.5 M
236.722 300.652 L
236.722 308.348 L
cp
f
GR
GS
[0.75 0 0 0.75 0 0] CT
0 0 1 RC
10.0 ML
2 LW
N
230.057 304.5 M
236.722 300.652 L
236.722 308.348 L
cp
S
GR
GS
[0.75 0 0 0.75 0 0] CT
1 GC
N
303.057 274.5 M
309.722 270.652 L
309.722 278.348 L
cp
f
GR
GS
[0.75 0 0 0.75 0 0] CT
0 0 1 RC
10.0 ML
2 LW
N
303.057 274.5 M
309.722 270.652 L
309.722 278.348 L
cp
S
GR
GS
[0.75 0 0 0.75 0 0] CT
1 GC
N
376.057 253.5 M
382.722 249.652 L
382.722 257.348 L
cp
f
GR
GS
[0.75 0 0 0.75 0 0] CT
0 0 1 RC
10.0 ML
2 LW
N
376.057 253.5 M
382.722 249.652 L
382.722 257.348 L
cp
S
GR
GS
[0.75 0 0 0.75 0 0] CT
1 GC
N
449.057 238.5 M
455.722 234.652 L
455.722 242.348 L
cp
f
GR
GS
[0.75 0 0 0.75 0 0] CT
0 0 1 RC
10.0 ML
2 LW
N
449.057 238.5 M
455.722 234.652 L
455.722 242.348 L
cp
S
GR
GS
[0.75 0 0 0.75 0 0] CT
1 GC
N
522.057 228.5 M
528.722 224.652 L
528.722 232.348 L
cp
f
GR
GS
[0.75 0 0 0.75 0 0] CT
0 0 1 RC
10.0 ML
2 LW
N
522.057 228.5 M
528.722 224.652 L
528.722 232.348 L
cp
S
GR
GS
[0.75 0 0 0.75 0 0] CT
1 GC
N
595.057 222.5 M
601.722 218.652 L
601.722 226.348 L
cp
f
GR
GS
[0.75 0 0 0.75 0 0] CT
0 0 1 RC
10.0 ML
2 LW
N
595.057 222.5 M
601.722 218.652 L
601.722 226.348 L
cp
S
GR
GS
[0.75 0 0 0.75 0 0] CT
1 GC
N
668.057 216.5 M
674.722 212.652 L
674.722 220.348 L
cp
f
GR
GS
[0.75 0 0 0.75 0 0] CT
0 0 1 RC
10.0 ML
2 LW
N
668.057 216.5 M
674.722 212.652 L
674.722 220.348 L
cp
S
GR
GS
[0.75 0 0 0.75 0 0] CT
1 GC
N
741.057 213.5 M
747.722 209.652 L
747.722 217.348 L
cp
f
GR
GS
[0.75 0 0 0.75 0 0] CT
0 0 1 RC
10.0 ML
2 LW
N
741.057 213.5 M
747.722 209.652 L
747.722 217.348 L
cp
S
GR
GS
[0.75 0 0 0.75 0 0] CT
1 0 1 RC
1 LJ
2 LW
N
89 416.089 M
161.889 307.026 L
234.778 225.454 L
307.667 166.221 L
380.556 126.002 L
453.444 102.384 L
526.333 87.038 L
599.222 77.684 L
672.111 72.941 L
745 70.842 L
S
GR
GS
[0.75 0 0 0.75 0 0] CT
1 0 1 RC
1 LJ
2 LW
N
86 416.5 M
93 416.5 L
S
GR
GS
[0.75 0 0 0.75 0 0] CT
1 0 1 RC
1 LJ
2 LW
N
89.5 420 M
89.5 413 L
S
GR
GS
[0.75 0 0 0.75 0 0] CT
1 0 1 RC
1 LJ
2 LW
N
158 307.5 M
165 307.5 L
S
GR
GS
[0.75 0 0 0.75 0 0] CT
1 0 1 RC
1 LJ
2 LW
N
161.5 311 M
161.5 304 L
S
GR
GS
[0.75 0 0 0.75 0 0] CT
1 0 1 RC
1 LJ
2 LW
N
231 225.5 M
238 225.5 L
S
GR
GS
[0.75 0 0 0.75 0 0] CT
1 0 1 RC
1 LJ
2 LW
N
234.5 229 M
234.5 222 L
S
GR
GS
[0.75 0 0 0.75 0 0] CT
1 0 1 RC
1 LJ
2 LW
N
304 166.5 M
311 166.5 L
S
GR
GS
[0.75 0 0 0.75 0 0] CT
1 0 1 RC
1 LJ
2 LW
N
307.5 170 M
307.5 163 L
S
GR
GS
[0.75 0 0 0.75 0 0] CT
1 0 1 RC
1 LJ
2 LW
N
377 126.5 M
384 126.5 L
S
GR
GS
[0.75 0 0 0.75 0 0] CT
1 0 1 RC
1 LJ
2 LW
N
380.5 130 M
380.5 123 L
S
GR
GS
[0.75 0 0 0.75 0 0] CT
1 0 1 RC
1 LJ
2 LW
N
450 102.5 M
457 102.5 L
S
GR
GS
[0.75 0 0 0.75 0 0] CT
1 0 1 RC
1 LJ
2 LW
N
453.5 106 M
453.5 99 L
S
GR
GS
[0.75 0 0 0.75 0 0] CT
1 0 1 RC
1 LJ
2 LW
N
523 87.5 M
530 87.5 L
S
GR
GS
[0.75 0 0 0.75 0 0] CT
1 0 1 RC
1 LJ
2 LW
N
526.5 91 M
526.5 84 L
S
GR
GS
[0.75 0 0 0.75 0 0] CT
1 0 1 RC
1 LJ
2 LW
N
596 77.5 M
603 77.5 L
S
GR
GS
[0.75 0 0 0.75 0 0] CT
1 0 1 RC
1 LJ
2 LW
N
599.5 81 M
599.5 74 L
S
GR
GS
[0.75 0 0 0.75 0 0] CT
1 0 1 RC
1 LJ
2 LW
N
669 72.5 M
676 72.5 L
S
GR
GS
[0.75 0 0 0.75 0 0] CT
1 0 1 RC
1 LJ
2 LW
N
672.5 76 M
672.5 69 L
S
GR
GS
[0.75 0 0 0.75 0 0] CT
1 0 1 RC
1 LJ
2 LW
N
742 70.5 M
749 70.5 L
S
GR
GS
[0.75 0 0 0.75 0 0] CT
1 0 1 RC
1 LJ
2 LW
N
745.5 74 M
745.5 67 L
S
GR
GS
[0.75 0 0 0.75 0 0] CT
1 0 0 RC
1 LJ
2 LW
N
89 416.089 M
161.889 305.146 L
234.778 221.039 L
307.667 158.347 L
380.556 116.684 L
453.444 90.452 L
526.333 73.088 L
599.222 63.287 L
672.111 58.626 L
745 58.304 L
S
GR
GS
[0.75 0 0 0.75 0 0] CT
1 GC
N
86.9 419.1 M
86.9 413.9 L
92.1 413.9 L
92.1 419.1 L
cp
f
GR
GS
[0.75 0 0 0.75 0 0] CT
1 0 0 RC
10.0 ML
2 LW
N
86.9 419.1 M
86.9 413.9 L
92.1 413.9 L
92.1 419.1 L
cp
S
GR
GS
[0.75 0 0 0.75 0 0] CT
1 GC
N
158.9 308.1 M
158.9 302.9 L
164.1 302.9 L
164.1 308.1 L
cp
f
GR
GS
[0.75 0 0 0.75 0 0] CT
1 0 0 RC
10.0 ML
2 LW
N
158.9 308.1 M
158.9 302.9 L
164.1 302.9 L
164.1 308.1 L
cp
S
GR
GS
[0.75 0 0 0.75 0 0] CT
1 GC
N
231.9 224.1 M
231.9 218.9 L
237.1 218.9 L
237.1 224.1 L
cp
f
GR
GS
[0.75 0 0 0.75 0 0] CT
1 0 0 RC
10.0 ML
2 LW
N
231.9 224.1 M
231.9 218.9 L
237.1 218.9 L
237.1 224.1 L
cp
S
GR
GS
[0.75 0 0 0.75 0 0] CT
1 GC
N
304.9 161.1 M
304.9 155.9 L
310.1 155.9 L
310.1 161.1 L
cp
f
GR
GS
[0.75 0 0 0.75 0 0] CT
1 0 0 RC
10.0 ML
2 LW
N
304.9 161.1 M
304.9 155.9 L
310.1 155.9 L
310.1 161.1 L
cp
S
GR
GS
[0.75 0 0 0.75 0 0] CT
1 GC
N
377.9 119.1 M
377.9 113.9 L
383.1 113.9 L
383.1 119.1 L
cp
f
GR
GS
[0.75 0 0 0.75 0 0] CT
1 0 0 RC
10.0 ML
2 LW
N
377.9 119.1 M
377.9 113.9 L
383.1 113.9 L
383.1 119.1 L
cp
S
GR
GS
[0.75 0 0 0.75 0 0] CT
1 GC
N
450.9 93.1 M
450.9 87.9 L
456.1 87.9 L
456.1 93.1 L
cp
f
GR
GS
[0.75 0 0 0.75 0 0] CT
1 0 0 RC
10.0 ML
2 LW
N
450.9 93.1 M
450.9 87.9 L
456.1 87.9 L
456.1 93.1 L
cp
S
GR
GS
[0.75 0 0 0.75 0 0] CT
1 GC
N
523.9 76.1 M
523.9 70.9 L
529.1 70.9 L
529.1 76.1 L
cp
f
GR
GS
[0.75 0 0 0.75 0 0] CT
1 0 0 RC
10.0 ML
2 LW
N
523.9 76.1 M
523.9 70.9 L
529.1 70.9 L
529.1 76.1 L
cp
S
GR
GS
[0.75 0 0 0.75 0 0] CT
1 GC
N
596.9 66.1 M
596.9 60.9 L
602.1 60.9 L
602.1 66.1 L
cp
f
GR
GS
[0.75 0 0 0.75 0 0] CT
1 0 0 RC
10.0 ML
2 LW
N
596.9 66.1 M
596.9 60.9 L
602.1 60.9 L
602.1 66.1 L
cp
S
GR
GS
[0.75 0 0 0.75 0 0] CT
1 GC
N
669.9 61.1 M
669.9 55.9 L
675.1 55.9 L
675.1 61.1 L
cp
f
GR
GS
[0.75 0 0 0.75 0 0] CT
1 0 0 RC
10.0 ML
2 LW
N
669.9 61.1 M
669.9 55.9 L
675.1 55.9 L
675.1 61.1 L
cp
S
GR
GS
[0.75 0 0 0.75 0 0] CT
1 GC
N
742.9 61.1 M
742.9 55.9 L
748.1 55.9 L
748.1 61.1 L
cp
f
GR
GS
[0.75 0 0 0.75 0 0] CT
1 0 0 RC
10.0 ML
2 LW
N
742.9 61.1 M
742.9 55.9 L
748.1 55.9 L
748.1 61.1 L
cp
S
GR
GS
[0.75 0 0 0.75 0 0] CT
1 LJ
2 LW
N
89 416.089 M
161.889 303.345 L
234.778 217.133 L
307.667 153.336 L
380.556 111.707 L
453.444 84.784 L
526.333 69.362 L
599.222 60.552 L
672.111 55.862 L
745 54.498 L
S
GR
GS
[0.75 0 0 0.75 0 0] CT
1 GC
N
92.833 416.5 M
91.857 414.143 L
89.5 413.167 L
87.143 414.143 L
86.167 416.5 L
87.143 418.857 L
89.5 419.833 L
91.857 418.857 L
92.833 416.5 L
cp
f
GR
GS
[0.75 0 0 0.75 0 0] CT
1 LJ
2 LW
N
92.833 416.5 M
92.197 414.541 L
90.53 413.33 L
88.47 413.33 L
86.803 414.541 L
86.167 416.5 L
86.803 418.459 L
88.47 419.67 L
90.53 419.67 L
92.197 418.459 L
cp
S
GR
GS
[0.75 0 0 0.75 0 0] CT
1 GC
N
164.833 303.5 M
163.857 301.143 L
161.5 300.167 L
159.143 301.143 L
158.167 303.5 L
159.143 305.857 L
161.5 306.833 L
163.857 305.857 L
164.833 303.5 L
cp
f
GR
GS
[0.75 0 0 0.75 0 0] CT
1 LJ
2 LW
N
164.833 303.5 M
164.197 301.541 L
162.53 300.33 L
160.47 300.33 L
158.803 301.541 L
158.167 303.5 L
158.803 305.459 L
160.47 306.67 L
162.53 306.67 L
164.197 305.459 L
cp
S
GR
GS
[0.75 0 0 0.75 0 0] CT
1 GC
N
237.833 217.5 M
236.857 215.143 L
234.5 214.167 L
232.143 215.143 L
231.167 217.5 L
232.143 219.857 L
234.5 220.833 L
236.857 219.857 L
237.833 217.5 L
cp
f
GR
GS
[0.75 0 0 0.75 0 0] CT
1 LJ
2 LW
N
237.833 217.5 M
237.197 215.541 L
235.53 214.33 L
233.47 214.33 L
231.803 215.541 L
231.167 217.5 L
231.803 219.459 L
233.47 220.67 L
235.53 220.67 L
237.197 219.459 L
cp
S
GR
GS
[0.75 0 0 0.75 0 0] CT
1 GC
N
310.833 153.5 M
309.857 151.143 L
307.5 150.167 L
305.143 151.143 L
304.167 153.5 L
305.143 155.857 L
307.5 156.833 L
309.857 155.857 L
310.833 153.5 L
cp
f
GR
GS
[0.75 0 0 0.75 0 0] CT
1 LJ
2 LW
N
310.833 153.5 M
310.197 151.541 L
308.53 150.33 L
306.47 150.33 L
304.803 151.541 L
304.167 153.5 L
304.803 155.459 L
306.47 156.67 L
308.53 156.67 L
310.197 155.459 L
cp
S
GR
GS
[0.75 0 0 0.75 0 0] CT
1 GC
N
383.833 111.5 M
382.857 109.143 L
380.5 108.167 L
378.143 109.143 L
377.167 111.5 L
378.143 113.857 L
380.5 114.833 L
382.857 113.857 L
383.833 111.5 L
cp
f
GR
GS
[0.75 0 0 0.75 0 0] CT
1 LJ
2 LW
N
383.833 111.5 M
383.197 109.541 L
381.53 108.33 L
379.47 108.33 L
377.803 109.541 L
377.167 111.5 L
377.803 113.459 L
379.47 114.67 L
381.53 114.67 L
383.197 113.459 L
cp
S
GR
GS
[0.75 0 0 0.75 0 0] CT
1 GC
N
456.833 84.5 M
455.857 82.143 L
453.5 81.167 L
451.143 82.143 L
450.167 84.5 L
451.143 86.857 L
453.5 87.833 L
455.857 86.857 L
456.833 84.5 L
cp
f
GR
GS
[0.75 0 0 0.75 0 0] CT
1 LJ
2 LW
N
456.833 84.5 M
456.197 82.541 L
454.53 81.33 L
452.47 81.33 L
450.803 82.541 L
450.167 84.5 L
450.803 86.459 L
452.47 87.67 L
454.53 87.67 L
456.197 86.459 L
cp
S
GR
GS
[0.75 0 0 0.75 0 0] CT
1 GC
N
529.833 69.5 M
528.857 67.143 L
526.5 66.167 L
524.143 67.143 L
523.167 69.5 L
524.143 71.857 L
526.5 72.833 L
528.857 71.857 L
529.833 69.5 L
cp
f
GR
GS
[0.75 0 0 0.75 0 0] CT
1 LJ
2 LW
N
529.833 69.5 M
529.197 67.541 L
527.53 66.33 L
525.47 66.33 L
523.803 67.541 L
523.167 69.5 L
523.803 71.459 L
525.47 72.67 L
527.53 72.67 L
529.197 71.459 L
cp
S
GR
GS
[0.75 0 0 0.75 0 0] CT
1 GC
N
602.833 60.5 M
601.857 58.143 L
599.5 57.167 L
597.143 58.143 L
596.167 60.5 L
597.143 62.857 L
599.5 63.833 L
601.857 62.857 L
602.833 60.5 L
cp
f
GR
GS
[0.75 0 0 0.75 0 0] CT
1 LJ
2 LW
N
602.833 60.5 M
602.197 58.541 L
600.53 57.33 L
598.47 57.33 L
596.803 58.541 L
596.167 60.5 L
596.803 62.459 L
598.47 63.67 L
600.53 63.67 L
602.197 62.459 L
cp
S
GR
GS
[0.75 0 0 0.75 0 0] CT
1 GC
N
675.833 55.5 M
674.857 53.143 L
672.5 52.167 L
670.143 53.143 L
669.167 55.5 L
670.143 57.857 L
672.5 58.833 L
674.857 57.857 L
675.833 55.5 L
cp
f
GR
GS
[0.75 0 0 0.75 0 0] CT
1 LJ
2 LW
N
675.833 55.5 M
675.197 53.541 L
673.53 52.33 L
671.47 52.33 L
669.803 53.541 L
669.167 55.5 L
669.803 57.459 L
671.47 58.67 L
673.53 58.67 L
675.197 57.459 L
cp
S
GR
GS
[0.75 0 0 0.75 0 0] CT
1 GC
N
748.833 54.5 M
747.857 52.143 L
745.5 51.167 L
743.143 52.143 L
742.167 54.5 L
743.143 56.857 L
745.5 57.833 L
747.857 56.857 L
748.833 54.5 L
cp
f
GR
GS
[0.75 0 0 0.75 0 0] CT
1 LJ
2 LW
N
748.833 54.5 M
748.197 52.541 L
746.53 51.33 L
744.47 51.33 L
742.803 52.541 L
742.167 54.5 L
742.803 56.459 L
744.47 57.67 L
746.53 57.67 L
748.197 56.459 L
cp
S
GR
GS
[0.75 0 0 0.75 0 0] CT
1 GC
N
626 408 M
626 139 L
732 139 L
732 408 L
cp
f
GR
GS
[0.75 0 0 0.75 497.25 116.625] CT
/Times 24 F
GS
[1 0 0 1 0 0] CT
0 8.5 moveto 
1 -1 scale
(LBP) t 
GR
GR
GS
[0.75 0 0 0.75 0 0] CT
1 0.6 0.784 RC
1 LJ
2 LW
N
630 155.5 M
660 155.5 L
S
GR
GS
[0.75 0 0 0.75 0 0] CT
1 GC
N
643.278 151.652 M
649.943 155.5 L
643.278 159.348 L
cp
f
GR
GS
[0.75 0 0 0.75 0 0] CT
1 0.6 0.784 RC
10.0 ML
2 LW
N
643.278 151.652 M
649.943 155.5 L
643.278 159.348 L
cp
S
GR
GS
[0.75 0 0 0.75 497.25 138.75] CT
/Times 24 F
GS
[1 0 0 1 0 0] CT
0 8.5 moveto 
1 -1 scale
(LTP) t 
GR
GR
GS
[0.75 0 0 0.75 0 0] CT
0.6 0.2 0 RC
1 LJ
2 LW
N
630 185 M
660 185 L
S
GR
GS
[0.75 0 0 0.75 0 0] CT
1 GC
N
641.057 184.5 M
647.722 180.652 L
647.722 188.348 L
cp
f
GR
GS
[0.75 0 0 0.75 0 0] CT
0.6 0.2 0 RC
10.0 ML
2 LW
N
641.057 184.5 M
647.722 180.652 L
647.722 188.348 L
cp
S
GR
GS
[0.75 0 0 0.75 497.25 160.875] CT
/Times 24 F
GS
[1 0 0 1 0 0] CT
0 8.5 moveto 
1 -1 scale
(LDP) t 
GR
GR
GS
[0.75 0 0 0.75 0 0] CT
0.929 0.694 0.125 RC
1 LJ
2 LW
N
630 214.5 M
660 214.5 L
S
GR
GS
[0.75 0 0 0.75 0 0] CT
1 GC
N
642.33 213.47 M
644.716 213.47 L
645.5 211.167 L
646.284 213.47 L
648.67 213.47 L
646.768 214.912 L
647.459 217.197 L
645.5 215.833 L
643.541 217.197 L
644.232 214.912 L
642.33 213.47 L
cp
f
GR
GS
[0.75 0 0 0.75 0 0] CT
0.929 0.694 0.125 RC
10.0 ML
2 LW
N
642.33 213.47 M
644.716 213.47 L
645.5 211.167 L
646.284 213.47 L
648.67 213.47 L
646.768 214.912 L
647.459 217.197 L
645.5 215.833 L
643.541 217.197 L
644.232 214.912 L
cp
S
GR
GS
[0.75 0 0 0.75 497.25 183] CT
/Times 24 F
GS
[1 0 0 1 0 0] CT
0 8.5 moveto 
1 -1 scale
(LDN) t 
GR
GR
GS
[0.75 0 0 0.75 0 0] CT
0 1 1 RC
1 LJ
2 LW
N
630 244 M
660 244 L
S
GR
GS
[0.75 0 0 0.75 0 0] CT
1 GC
N
645.5 247.943 M
648.833 243.5 L
645.5 239.057 L
642.167 243.5 L
cp
f
GR
GS
[0.75 0 0 0.75 0 0] CT
0 1 1 RC
10.0 ML
2 LW
N
645.5 247.943 M
648.833 243.5 L
645.5 239.057 L
642.167 243.5 L
cp
S
GR
GS
[0.75 0 0 0.75 497.25 205.125] CT
/Times 24 F
GS
[1 0 0 1 0 0] CT
0 8.5 moveto 
1 -1 scale
(LVP) t 
GR
GR
GS
[0.75 0 0 0.75 0 0] CT
0 1 0 RC
1 LJ
2 LW
N
630 273.5 M
660 273.5 L
S
GR
GS
[0.75 0 0 0.75 0 0] CT
1 GC
N
642.9 276.1 M
642.9 270.9 L
648.1 270.9 L
648.1 276.1 L
cp
f
GR
GS
[0.75 0 0 0.75 0 0] CT
0 1 0 RC
10.0 ML
2 LW
N
642.9 276.1 M
642.9 270.9 L
648.1 270.9 L
648.1 276.1 L
cp
S
GR
GS
[0.75 0 0 0.75 497.25 227.25] CT
/Times 24 F
GS
[1 0 0 1 0 0] CT
0 8.5 moveto 
1 -1 scale
(LDGP) t 
GR
GR
GS
[0.75 0 0 0.75 0 0] CT
0 0 1 RC
1 LJ
2 LW
N
630 303 M
660 303 L
S
GR
GS
[0.75 0 0 0.75 0 0] CT
1 GC
N
641.057 302.5 M
647.722 298.652 L
647.722 306.348 L
cp
f
GR
GS
[0.75 0 0 0.75 0 0] CT
0 0 1 RC
10.0 ML
2 LW
N
641.057 302.5 M
647.722 298.652 L
647.722 306.348 L
cp
S
GR
GS
[0.75 0 0 0.75 497.25 249.375] CT
/Times 24 F
GS
[1 0 0 1 0 0] CT
0 8.5 moveto 
1 -1 scale
(DCP) t 
GR
GR
GS
[0.75 0 0 0.75 0 0] CT
1 0 1 RC
1 LJ
2 LW
N
630 332.5 M
660 332.5 L
S
GR
GS
[0.75 0 0 0.75 0 0] CT
1 0 1 RC
1 LJ
2 LW
N
642 332.5 M
649 332.5 L
S
GR
GS
[0.75 0 0 0.75 0 0] CT
1 0 1 RC
1 LJ
2 LW
N
645.5 336 M
645.5 329 L
S
GR
GS
[0.75 0 0 0.75 497.25 271.5] CT
/Times 24 F
GS
[1 0 0 1 0 0] CT
0 8.5 moveto 
1 -1 scale
(LGHP) t 
GR
GR
GS
[0.75 0 0 0.75 0 0] CT
1 0 0 RC
1 LJ
2 LW
N
630 362 M
660 362 L
S
GR
GS
[0.75 0 0 0.75 0 0] CT
1 GC
N
642.9 365.1 M
642.9 359.9 L
648.1 359.9 L
648.1 365.1 L
cp
f
GR
GS
[0.75 0 0 0.75 0 0] CT
1 0 0 RC
10.0 ML
2 LW
N
642.9 365.1 M
642.9 359.9 L
648.1 359.9 L
648.1 365.1 L
cp
S
GR
GS
[0.75 0 0 0.75 497.25 293.625] CT
/Times 24 F
GS
[1 0 0 1 0 0] CT
0 8.5 moveto 
1 -1 scale
(LDRP) t 
GR
GR
GS
[0.75 0 0 0.75 0 0] CT
1 LJ
2 LW
N
630 391.5 M
660 391.5 L
S
GR
GS
[0.75 0 0 0.75 0 0] CT
1 GC
N
648.833 391.5 M
647.857 389.143 L
645.5 388.167 L
643.143 389.143 L
642.167 391.5 L
643.143 393.857 L
645.5 394.833 L
647.857 393.857 L
648.833 391.5 L
cp
f
GR
GS
[0.75 0 0 0.75 0 0] CT
1 LJ
2 LW
N
648.833 391.5 M
648.197 389.541 L
646.53 388.33 L
644.47 388.33 L
642.803 389.541 L
642.167 391.5 L
642.803 393.459 L
644.47 394.67 L
646.53 394.67 L
648.197 393.459 L
cp
S
GR
GS
[0.75 0 0 0.75 0 0] CT
0.149 GC
10.0 ML
0.667 LW
N
626 408 M
626 139 L
732 139 L
732 408 L
cp
S
GR
%%Trailer
%%Pages: 1
%%EOF
