# Fdb version 3
["bibtex LDRPPreprint"] 1511603602 "LDRPPreprint.aux" "LDRPPreprint.bbl" "LDRPPreprint" 1511603606
  "/usr/share/texlive/texmf-dist/bibtex/bst/IEEEtran/IEEEtran.bst" 1440712899 57748 7c8250ecf02814ce6ddc0cdbb63df1dd ""
  "LDRPPreprint.aux" 1511603606 10276 6ea89b6586d87c664a34ba1cc7d91e67 ""
  "LDRPPreprint.bcf" 0 -1 0 ""
  "r1.bib" 1511603571 21215 5c9ddde931c628641f6998188ccdb384 ""
  (generated)
  "LDRPPreprint.bbl"
  "LDRPPreprint.blg"
["pdflatex"] 1511603603 "LDRPPreprint.tex" "LDRPPreprint.pdf" "LDRPPreprint" 1511603606
  "/etc/texmf/web2c/texmf.cnf" 1511356803 475 c0e671620eb5563b2130f56340a5fde8 ""
  "/usr/share/texlive/texmf-dist/fonts/map/fontname/texfonts.map" 1272929888 3287 e6b82fe08f5336d4d5ebc73fb1152e87 ""
  "/usr/share/texlive/texmf-dist/fonts/tfm/public/amsfonts/cmextra/cmex7.tfm" 1246382020 1004 54797486969f23fa377b128694d548df ""
  "/usr/share/texlive/texmf-dist/fonts/tfm/public/amsfonts/cmextra/cmex8.tfm" 1246382020 988 bdf658c3bfc2d96d3c8b02cfc1c94c20 ""
  "/usr/share/texlive/texmf-dist/fonts/tfm/public/cm/cmbx10.tfm" 1136768653 1328 c834bbb027764024c09d3d2bf908b5f0 ""
  "/usr/share/texlive/texmf-dist/fonts/tfm/public/cm/cmbx12.tfm" 1136768653 1324 c910af8c371558dc20f2d7822f66fe64 ""
  "/usr/share/texlive/texmf-dist/fonts/tfm/public/cm/cmbx9.tfm" 1136768653 1328 5442e22a7072966dbaf88ca900acf3f0 ""
  "/usr/share/texlive/texmf-dist/fonts/tfm/public/cm/cmex10.tfm" 1136768653 992 662f679a0b3d2d53c1b94050fdaa3f50 ""
  "/usr/share/texlive/texmf-dist/fonts/tfm/public/cm/cmmi12.tfm" 1136768653 1524 4414a8315f39513458b80dfc63bff03a ""
  "/usr/share/texlive/texmf-dist/fonts/tfm/public/cm/cmmi6.tfm" 1136768653 1512 f21f83efb36853c0b70002322c1ab3ad ""
  "/usr/share/texlive/texmf-dist/fonts/tfm/public/cm/cmmi8.tfm" 1136768653 1520 eccf95517727cb11801f4f1aee3a21b4 ""
  "/usr/share/texlive/texmf-dist/fonts/tfm/public/cm/cmr12.tfm" 1136768653 1288 655e228510b4c2a1abe905c368440826 ""
  "/usr/share/texlive/texmf-dist/fonts/tfm/public/cm/cmr17.tfm" 1136768653 1292 296a67155bdbfc32aa9c636f21e91433 ""
  "/usr/share/texlive/texmf-dist/fonts/tfm/public/cm/cmr6.tfm" 1136768653 1300 b62933e007d01cfd073f79b963c01526 ""
  "/usr/share/texlive/texmf-dist/fonts/tfm/public/cm/cmr8.tfm" 1136768653 1292 21c1c5bfeaebccffdb478fd231a0997d ""
  "/usr/share/texlive/texmf-dist/fonts/tfm/public/cm/cmr9.tfm" 1136768653 1292 6b21b9c2c7bebb38aa2273f7ca0fb3af ""
  "/usr/share/texlive/texmf-dist/fonts/tfm/public/cm/cmsy10.tfm" 1136768653 1124 6c73e740cf17375f03eec0ee63599741 ""
  "/usr/share/texlive/texmf-dist/fonts/tfm/public/cm/cmsy6.tfm" 1136768653 1116 933a60c408fc0a863a92debe84b2d294 ""
  "/usr/share/texlive/texmf-dist/fonts/tfm/public/cm/cmsy8.tfm" 1136768653 1120 8b7d695260f3cff42e636090a8002094 ""
  "/usr/share/texlive/texmf-dist/fonts/tfm/public/cm/cmti10.tfm" 1136768653 1480 aa8e34af0eb6a2941b776984cf1dfdc4 ""
  "/usr/share/texlive/texmf-dist/fonts/type1/public/amsfonts/cm/cmbx10.pfb" 1248133631 34811 78b52f49e893bcba91bd7581cdc144c0 ""
  "/usr/share/texlive/texmf-dist/fonts/type1/public/amsfonts/cm/cmbx12.pfb" 1248133631 32080 340ef9bf63678554ee606688e7b5339d ""
  "/usr/share/texlive/texmf-dist/fonts/type1/public/amsfonts/cm/cmbx9.pfb" 1248133631 32298 c6d25bb16d1eac01ebdc6d7084126a1e ""
  "/usr/share/texlive/texmf-dist/fonts/type1/public/amsfonts/cm/cmex10.pfb" 1248133631 30251 6afa5cb1d0204815a708a080681d4674 ""
  "/usr/share/texlive/texmf-dist/fonts/type1/public/amsfonts/cm/cmmi10.pfb" 1248133631 36299 5f9df58c2139e7edcf37c8fca4bd384d ""
  "/usr/share/texlive/texmf-dist/fonts/type1/public/amsfonts/cm/cmmi5.pfb" 1248133631 37912 77d683123f92148345f3fc36a38d9ab1 ""
  "/usr/share/texlive/texmf-dist/fonts/type1/public/amsfonts/cm/cmmi7.pfb" 1248133631 36281 c355509802a035cadc5f15869451dcee ""
  "/usr/share/texlive/texmf-dist/fonts/type1/public/amsfonts/cm/cmr10.pfb" 1248133631 35752 024fb6c41858982481f6968b5fc26508 ""
  "/usr/share/texlive/texmf-dist/fonts/type1/public/amsfonts/cm/cmr12.pfb" 1248133631 32722 d7379af29a190c3f453aba36302ff5a9 ""
  "/usr/share/texlive/texmf-dist/fonts/type1/public/amsfonts/cm/cmr17.pfb" 1248133631 32362 179c33bbf43f19adbb3825bb4e36e57a ""
  "/usr/share/texlive/texmf-dist/fonts/type1/public/amsfonts/cm/cmr5.pfb" 1248133631 31809 8670ca339bf94e56da1fc21c80635e2a ""
  "/usr/share/texlive/texmf-dist/fonts/type1/public/amsfonts/cm/cmr7.pfb" 1248133631 32762 224316ccc9ad3ca0423a14971cfa7fc1 ""
  "/usr/share/texlive/texmf-dist/fonts/type1/public/amsfonts/cm/cmr8.pfb" 1248133631 32726 0a1aea6fcd6468ee2cf64d891f5c43c8 ""
  "/usr/share/texlive/texmf-dist/fonts/type1/public/amsfonts/cm/cmr9.pfb" 1248133631 33993 9b89b85fd2d9df0482bd47194d1d3bf3 ""
  "/usr/share/texlive/texmf-dist/fonts/type1/public/amsfonts/cm/cmsy10.pfb" 1248133631 32569 5e5ddc8df908dea60932f3c484a54c0d ""
  "/usr/share/texlive/texmf-dist/fonts/type1/public/amsfonts/cm/cmsy6.pfb" 1248133631 32587 1788b0c1c5b39540c96f5e42ccd6dae8 ""
  "/usr/share/texlive/texmf-dist/fonts/type1/public/amsfonts/cm/cmsy7.pfb" 1248133631 32716 08e384dc442464e7285e891af9f45947 ""
  "/usr/share/texlive/texmf-dist/fonts/type1/public/amsfonts/cm/cmsy8.pfb" 1248133631 32626 4f5c1b83753b1dd3a97d1b399a005b4b ""
  "/usr/share/texlive/texmf-dist/fonts/type1/public/amsfonts/cm/cmti10.pfb" 1248133631 37944 359e864bd06cde3b1cf57bb20757fb06 ""
  "/usr/share/texlive/texmf-dist/tex/context/base/mkii/supp-pdf.mkii" 1461363279 71627 94eb9990bed73c364d7f53f960cc8c5b ""
  "/usr/share/texlive/texmf-dist/tex/generic/oberdiek/etexcmds.sty" 1463608860 7612 729a8cc22a1ee0029997c7f74717ae05 ""
  "/usr/share/texlive/texmf-dist/tex/generic/oberdiek/ifluatex.sty" 1463608860 7324 2310d1247db0114eb4726807c8837a0e ""
  "/usr/share/texlive/texmf-dist/tex/generic/oberdiek/ifpdf.sty" 1463348357 1226 01a89dfef361f60ae7df13cd2946bc16 ""
  "/usr/share/texlive/texmf-dist/tex/generic/oberdiek/infwarerr.sty" 1463608860 8253 473e0e41f9adadb1977e8631b8f72ea6 ""
  "/usr/share/texlive/texmf-dist/tex/generic/oberdiek/kvdefinekeys.sty" 1463608860 5152 b67a3a964ad9851e095110c854a1d461 ""
  "/usr/share/texlive/texmf-dist/tex/generic/oberdiek/kvsetkeys.sty" 1463608860 14040 ac8866aac45982ac84021584b0abb252 ""
  "/usr/share/texlive/texmf-dist/tex/generic/oberdiek/ltxcmds.sty" 1463608860 18425 5b3c0c59d76fac78978b5558e83c1f36 ""
  "/usr/share/texlive/texmf-dist/tex/generic/oberdiek/pdftexcmds.sty" 1465595255 20115 901306eb5d88a0bb40b00d0ce4448e2f ""
  "/usr/share/texlive/texmf-dist/tex/latex/amsmath/amsbsy.sty" 1456875012 2210 5c54ab129b848a5071554186d0168766 ""
  "/usr/share/texlive/texmf-dist/tex/latex/amsmath/amsgen.sty" 1456875012 4160 c115536cf8d4ff25aa8c1c9bc4ecb79a ""
  "/usr/share/texlive/texmf-dist/tex/latex/amsmath/amsmath.sty" 1467147727 82033 ff9a037b5bad3f86db2c1a9e5c8160c3 ""
  "/usr/share/texlive/texmf-dist/tex/latex/amsmath/amsopn.sty" 1459635588 4115 318a66090112f3aa3f415aeb6fe8540f ""
  "/usr/share/texlive/texmf-dist/tex/latex/amsmath/amstext.sty" 1456875012 2431 fe3078ec12fc30287f568596f8e0b948 ""
  "/usr/share/texlive/texmf-dist/tex/latex/base/article.cls" 1459635588 19821 310da678527a7dfe2a02c88af38079b7 ""
  "/usr/share/texlive/texmf-dist/tex/latex/base/omscmr.fd" 1454284088 2256 80ce1168fb4ce6a85583a9cf8972c013 ""
  "/usr/share/texlive/texmf-dist/tex/latex/base/size10.clo" 1459635588 8292 e897c12e1e886ce77fe26afc5d470886 ""
  "/usr/share/texlive/texmf-dist/tex/latex/caption/caption.sty" 1456094605 66233 8b81cfab95a1f8fc2f0f6c89415b087a ""
  "/usr/share/texlive/texmf-dist/tex/latex/caption/caption3.sty" 1465747931 64866 1ea74c5f2d1685881497f021b8f186b2 ""
  "/usr/share/texlive/texmf-dist/tex/latex/caption/subcaption.sty" 1465747931 5038 413302044f9700cf65465d590c2f4ad1 ""
  "/usr/share/texlive/texmf-dist/tex/latex/graphics-cfg/graphics.cfg" 1465944070 1224 978390e9c2234eab29404bc21b268d1e ""
  "/usr/share/texlive/texmf-dist/tex/latex/graphics-def/pdftex.def" 1468449179 57848 020e44545ff7e21278b080e3175d3354 ""
  "/usr/share/texlive/texmf-dist/tex/latex/graphics/graphics.sty" 1468449256 14539 727a4716746112f20fd860d095ccebd2 ""
  "/usr/share/texlive/texmf-dist/tex/latex/graphics/graphicx.sty" 1428932888 8125 557ab9f1bfa80d369fb45a914aa8a3b4 ""
  "/usr/share/texlive/texmf-dist/tex/latex/graphics/keyval.sty" 1428932888 2594 d18d5e19aa8239cf867fa670c556d2e9 ""
  "/usr/share/texlive/texmf-dist/tex/latex/graphics/trig.sty" 1454284088 3980 0a268fbfda01e381fa95821ab13b6aee ""
  "/usr/share/texlive/texmf-dist/tex/latex/latexconfig/epstopdf-sys.cfg" 1279039959 678 4792914a8f45be57bb98413425e4c7af ""
  "/usr/share/texlive/texmf-dist/tex/latex/multirow/multirow.sty" 1137110401 7374 f7c1f13fc632dd5c9b220a247d233082 ""
  "/usr/share/texlive/texmf-dist/tex/latex/oberdiek/epstopdf-base.sty" 1463608860 12095 5337833c991d80788a43d3ce26bd1c46 ""
  "/usr/share/texlive/texmf-dist/tex/latex/oberdiek/grfext.sty" 1463608860 7075 2fe3d848bba95f139de11ded085e74aa ""
  "/usr/share/texlive/texmf-dist/tex/latex/oberdiek/kvoptions.sty" 1463608860 22417 1d9df1eb66848aa31b18a593099cf45c ""
  "/usr/share/texlive/texmf-dist/tex/latex/tabu/tabu.sty" 1298852510 114961 e56cefaf93c0235eff9664a2490be707 ""
  "/usr/share/texlive/texmf-dist/tex/latex/tools/array.sty" 1459635588 12398 bd782945c489f84ff012bcea4a712d25 ""
  "/usr/share/texlive/texmf-dist/tex/latex/varwidth/varwidth.sty" 1238697683 10894 d359a13923460b2a73d4312d613554c8 ""
  "/usr/share/texlive/texmf-dist/web2c/texmf.cnf" 1471618383 31348 3c11c993a1d7e4662292855f9f7c8e1b ""
  "/usr/share/texmf/web2c/texmf.cnf" 1471618383 31348 3c11c993a1d7e4662292855f9f7c8e1b ""
  "/var/lib/texmf/fonts/map/pdftex/updmap/pdftex.map" 1511357642 2048181 61793b81b24e6f0d4756e3f9109ee541 ""
  "/var/lib/texmf/web2c/pdftex/pdflatex.fmt" 1511357075 3869881 536c3e27d021937945a29d48f74b1a22 ""
  "1.png" 1511603574 82932 79f29a0e081885bcf4704c0e763d11ed ""
  "2.png" 1511603575 375971 804cbfe861f01df595d457d252a8cad1 ""
  "3.png" 1511603576 1402919 e5883ccb629e99484034093ed4b73b02 ""
  "4.png" 1511603576 209509 82929f77c8f1a2c26024818c84bc209d ""
  "LDRPPreprint.aux" 1511603606 10276 6ea89b6586d87c664a34ba1cc7d91e67 ""
  "LDRPPreprint.bbl" 1511603603 17102 2fccea6429f1e7ddefff9d151b861f72 "bibtex LDRPPreprint"
  "LDRPPreprint.tex" 1511603571 50437 b01ef22afd54c856a0dc3099f16689f1 ""
  "att-anmrr.pdf" 1511603571 12661 6cd19859ac3aaaad0270ffa18bbe7598 ""
  "att-arp.pdf" 1511603571 13021 3cb2f067db041e5dec7c2e96e3842e96 ""
  "att-arr.pdf" 1511603571 12765 c689b8a28dd9134a1a8ad1881816a8e9 ""
  "att-f.pdf" 1511603571 13003 e37302eaf1cdfc8ee7aa51bbab2d5244 ""
  "essex-anmrr.pdf" 1511603571 12994 02ebb0e73d9e42c62096958b3c2f0551 ""
  "essex-arp.pdf" 1511603571 13032 dafc4cb8e3da26fc0dd3952bab1b8a13 ""
  "essex-arr.pdf" 1511603571 13030 c34b1a3339f5ccd210569d65c4feeb26 ""
  "essex-f.pdf" 1511603571 12945 824340e15e83dda04e9a11d41beec7cc ""
  "feret-anmrr.pdf" 1511603571 12814 cca6ab46a9ecb307c6e8ecd032610114 ""
  "feret-arp.pdf" 1511603572 12697 066e83a9c1b5fa605d17bd47009652d7 ""
  "feret-arr.pdf" 1511603572 12732 4aa134c1a7a955f39439423ed8d89459 ""
  "feret-f.pdf" 1511603572 12808 e8038eaaa58c477e1747261337bcdc41 ""
  "lfw-anmrr.pdf" 1511603573 12753 6c50742c7fa85df77875192dfb9ee53f ""
  "lfw-arp.pdf" 1511603573 12739 20dd94318a862b485c18dab605898d8c ""
  "lfw-arr.pdf" 1511603573 12759 c849aa23051cc76308f66dc1e86750e6 ""
  "lfw-f.pdf" 1511603573 12841 b894b258dd7ab2fe2c3faad239d1ddd9 ""
  "pasc-anmrr.pdf" 1511603573 12688 5c579884ea43b6fa80d2ea1156f2838a ""
  "pasc-arp.pdf" 1511603573 12684 4884f6749320622732be3bf5e02a3576 ""
  "pasc-arr.pdf" 1511603573 12698 8859e17a01332a1917cb22c79d78f4c0 ""
  "pasc-f.pdf" 1511603573 12681 219fa276656d8f88e009599d7d708b79 ""
  "pubfig-anmrr.pdf" 1511603573 14769 106fbade1b32a2785c4d12b3c745ccf4 ""
  "pubfig-arp.pdf" 1511603573 14710 a0d58e1464e584d726a2bfefaa7fe72a ""
  "pubfig-arr.pdf" 1511603573 14788 db646ecbb73755d713cc312c2426f093 ""
  "pubfig-f.pdf" 1511603574 14967 22ec31f166a02ea451ee5ccc3a07a93d ""
  (generated)
  "LDRPPreprint.aux"
  "LDRPPreprint.pdf"
  "LDRPPreprint.log"
