%!PS-Adobe-3.0 EPSF-3.0
%%Creator: (MATLAB, The Mathworks, Inc. Version 9.0.0.341360 \(R2016a\). Operating System: Linux)
%%Title: (/home/shivram/main/Work/1. Research/1. Ongoing/5. LDRP Face/2. Exp/1. Results/LFW20/lfw-arp.eps)
%%CreationDate: 2017-08-16T15:33:33
%%Pages: (atend)
%%BoundingBox: 0 0 573 384
%%LanguageLevel: 3
%%EndComments
%%BeginProlog
%%BeginResource: procset (Apache XML Graphics Std ProcSet) 1.2 0
%%Version: 1.2 0
%%Copyright: (Copyright 2001-2003,2010 The Apache Software Foundation. License terms: http://www.apache.org/licenses/LICENSE-2.0)
/bd{bind def}bind def
/ld{load def}bd
/GR/grestore ld
/M/moveto ld
/LJ/setlinejoin ld
/C/curveto ld
/f/fill ld
/LW/setlinewidth ld
/GC/setgray ld
/t/show ld
/N/newpath ld
/CT/concat ld
/cp/closepath ld
/S/stroke ld
/L/lineto ld
/CC/setcmykcolor ld
/A/ashow ld
/GS/gsave ld
/RC/setrgbcolor ld
/RM/rmoveto ld
/ML/setmiterlimit ld
/re {4 2 roll M
1 index 0 rlineto
0 exch rlineto
neg 0 rlineto
cp } bd
/_ctm matrix def
/_tm matrix def
/BT { _ctm currentmatrix pop matrix _tm copy pop 0 0 moveto } bd
/ET { _ctm setmatrix } bd
/iTm { _ctm setmatrix _tm concat } bd
/Tm { _tm astore pop iTm 0 0 moveto } bd
/ux 0.0 def
/uy 0.0 def
/F {
  /Tp exch def
  /Tf exch def
  Tf findfont Tp scalefont setfont
  /cf Tf def  /cs Tp def
} bd
/ULS {currentpoint /uy exch def /ux exch def} bd
/ULE {
  /Tcx currentpoint pop def
  gsave
  newpath
  cf findfont cs scalefont dup
  /FontMatrix get 0 get /Ts exch def /FontInfo get dup
  /UnderlinePosition get Ts mul /To exch def
  /UnderlineThickness get Ts mul /Tt exch def
  ux uy To add moveto  Tcx uy To add lineto
  Tt setlinewidth stroke
  grestore
} bd
/OLE {
  /Tcx currentpoint pop def
  gsave
  newpath
  cf findfont cs scalefont dup
  /FontMatrix get 0 get /Ts exch def /FontInfo get dup
  /UnderlinePosition get Ts mul /To exch def
  /UnderlineThickness get Ts mul /Tt exch def
  ux uy To add cs add moveto Tcx uy To add cs add lineto
  Tt setlinewidth stroke
  grestore
} bd
/SOE {
  /Tcx currentpoint pop def
  gsave
  newpath
  cf findfont cs scalefont dup
  /FontMatrix get 0 get /Ts exch def /FontInfo get dup
  /UnderlinePosition get Ts mul /To exch def
  /UnderlineThickness get Ts mul /Tt exch def
  ux uy To add cs 10 mul 26 idiv add moveto Tcx uy To add cs 10 mul 26 idiv add lineto
  Tt setlinewidth stroke
  grestore
} bd
/QT {
/Y22 exch store
/X22 exch store
/Y21 exch store
/X21 exch store
currentpoint
/Y21 load 2 mul add 3 div exch
/X21 load 2 mul add 3 div exch
/X21 load 2 mul /X22 load add 3 div
/Y21 load 2 mul /Y22 load add 3 div
/X22 load /Y22 load curveto
} bd
/SSPD {
dup length /d exch dict def
{
/v exch def
/k exch def
currentpagedevice k known {
/cpdv currentpagedevice k get def
v cpdv ne {
/upd false def
/nullv v type /nulltype eq def
/nullcpdv cpdv type /nulltype eq def
nullv nullcpdv or
{
/upd true def
} {
/sametype v type cpdv type eq def
sametype {
v type /arraytype eq {
/vlen v length def
/cpdvlen cpdv length def
vlen cpdvlen eq {
0 1 vlen 1 sub {
/i exch def
/obj v i get def
/cpdobj cpdv i get def
obj cpdobj ne {
/upd true def
exit
} if
} for
} {
/upd true def
} ifelse
} {
v type /dicttype eq {
v {
/dv exch def
/dk exch def
/cpddv cpdv dk get def
dv cpddv ne {
/upd true def
exit
} if
} forall
} {
/upd true def
} ifelse
} ifelse
} if
} ifelse
upd true eq {
d k v put
} if
} if
} if
} forall
d length 0 gt {
d setpagedevice
} if
} bd
%%EndResource
%%BeginResource: procset (Apache XML Graphics EPS ProcSet) 1.0 0
%%Version: 1.0 0
%%Copyright: (Copyright 2002-2003 The Apache Software Foundation. License terms: http://www.apache.org/licenses/LICENSE-2.0)
/BeginEPSF { %def
/b4_Inc_state save def         % Save state for cleanup
/dict_count countdictstack def % Count objects on dict stack
/op_count count 1 sub def      % Count objects on operand stack
userdict begin                 % Push userdict on dict stack
/showpage { } def              % Redefine showpage, { } = null proc
0 setgray 0 setlinecap         % Prepare graphics state
1 setlinewidth 0 setlinejoin
10 setmiterlimit [ ] 0 setdash newpath
/languagelevel where           % If level not equal to 1 then
{pop languagelevel             % set strokeadjust and
1 ne                           % overprint to their defaults.
{false setstrokeadjust false setoverprint
} if
} if
} bd
/EndEPSF { %def
count op_count sub {pop} repeat            % Clean up stacks
countdictstack dict_count sub {end} repeat
b4_Inc_state restore
} bd
%%EndResource
%FOPBeginFontDict
%%IncludeResource: font Courier-Bold
%%IncludeResource: font Helvetica
%%IncludeResource: font Courier-BoldOblique
%%IncludeResource: font Courier-Oblique
%%IncludeResource: font Times-Roman
%%IncludeResource: font Helvetica-BoldOblique
%%IncludeResource: font Helvetica-Bold
%%IncludeResource: font Helvetica-Oblique
%%IncludeResource: font Times-BoldItalic
%%IncludeResource: font Courier
%%IncludeResource: font Times-Italic
%%IncludeResource: font Times-Bold
%%IncludeResource: font Symbol
%%IncludeResource: font ZapfDingbats
%FOPEndFontDict
%%BeginResource: encoding WinAnsiEncoding
/WinAnsiEncoding [
/.notdef /.notdef /.notdef /.notdef /.notdef
/.notdef /.notdef /.notdef /.notdef /.notdef
/.notdef /.notdef /.notdef /.notdef /.notdef
/.notdef /.notdef /.notdef /.notdef /.notdef
/.notdef /.notdef /.notdef /.notdef /.notdef
/.notdef /.notdef /.notdef /.notdef /.notdef
/.notdef /.notdef /space /exclam /quotedbl
/numbersign /dollar /percent /ampersand /quotesingle
/parenleft /parenright /asterisk /plus /comma
/hyphen /period /slash /zero /one
/two /three /four /five /six
/seven /eight /nine /colon /semicolon
/less /equal /greater /question /at
/A /B /C /D /E
/F /G /H /I /J
/K /L /M /N /O
/P /Q /R /S /T
/U /V /W /X /Y
/Z /bracketleft /backslash /bracketright /asciicircum
/underscore /quoteleft /a /b /c
/d /e /f /g /h
/i /j /k /l /m
/n /o /p /q /r
/s /t /u /v /w
/x /y /z /braceleft /bar
/braceright /asciitilde /bullet /Euro /bullet
/quotesinglbase /florin /quotedblbase /ellipsis /dagger
/daggerdbl /circumflex /perthousand /Scaron /guilsinglleft
/OE /bullet /Zcaron /bullet /bullet
/quoteleft /quoteright /quotedblleft /quotedblright /bullet
/endash /emdash /asciitilde /trademark /scaron
/guilsinglright /oe /bullet /zcaron /Ydieresis
/space /exclamdown /cent /sterling /currency
/yen /brokenbar /section /dieresis /copyright
/ordfeminine /guillemotleft /logicalnot /sfthyphen /registered
/macron /degree /plusminus /twosuperior /threesuperior
/acute /mu /paragraph /middot /cedilla
/onesuperior /ordmasculine /guillemotright /onequarter /onehalf
/threequarters /questiondown /Agrave /Aacute /Acircumflex
/Atilde /Adieresis /Aring /AE /Ccedilla
/Egrave /Eacute /Ecircumflex /Edieresis /Igrave
/Iacute /Icircumflex /Idieresis /Eth /Ntilde
/Ograve /Oacute /Ocircumflex /Otilde /Odieresis
/multiply /Oslash /Ugrave /Uacute /Ucircumflex
/Udieresis /Yacute /Thorn /germandbls /agrave
/aacute /acircumflex /atilde /adieresis /aring
/ae /ccedilla /egrave /eacute /ecircumflex
/edieresis /igrave /iacute /icircumflex /idieresis
/eth /ntilde /ograve /oacute /ocircumflex
/otilde /odieresis /divide /oslash /ugrave
/uacute /ucircumflex /udieresis /yacute /thorn
/ydieresis
] def
%%EndResource
%FOPBeginFontReencode
/Courier-Bold findfont
dup length dict begin
  {1 index /FID ne {def} {pop pop} ifelse} forall
  /Encoding WinAnsiEncoding def
  currentdict
end
/Courier-Bold exch definefont pop
/Helvetica findfont
dup length dict begin
  {1 index /FID ne {def} {pop pop} ifelse} forall
  /Encoding WinAnsiEncoding def
  currentdict
end
/Helvetica exch definefont pop
/Courier-BoldOblique findfont
dup length dict begin
  {1 index /FID ne {def} {pop pop} ifelse} forall
  /Encoding WinAnsiEncoding def
  currentdict
end
/Courier-BoldOblique exch definefont pop
/Courier-Oblique findfont
dup length dict begin
  {1 index /FID ne {def} {pop pop} ifelse} forall
  /Encoding WinAnsiEncoding def
  currentdict
end
/Courier-Oblique exch definefont pop
/Times-Roman findfont
dup length dict begin
  {1 index /FID ne {def} {pop pop} ifelse} forall
  /Encoding WinAnsiEncoding def
  currentdict
end
/Times-Roman exch definefont pop
/Helvetica-BoldOblique findfont
dup length dict begin
  {1 index /FID ne {def} {pop pop} ifelse} forall
  /Encoding WinAnsiEncoding def
  currentdict
end
/Helvetica-BoldOblique exch definefont pop
/Helvetica-Bold findfont
dup length dict begin
  {1 index /FID ne {def} {pop pop} ifelse} forall
  /Encoding WinAnsiEncoding def
  currentdict
end
/Helvetica-Bold exch definefont pop
/Helvetica-Oblique findfont
dup length dict begin
  {1 index /FID ne {def} {pop pop} ifelse} forall
  /Encoding WinAnsiEncoding def
  currentdict
end
/Helvetica-Oblique exch definefont pop
/Times-BoldItalic findfont
dup length dict begin
  {1 index /FID ne {def} {pop pop} ifelse} forall
  /Encoding WinAnsiEncoding def
  currentdict
end
/Times-BoldItalic exch definefont pop
/Courier findfont
dup length dict begin
  {1 index /FID ne {def} {pop pop} ifelse} forall
  /Encoding WinAnsiEncoding def
  currentdict
end
/Courier exch definefont pop
/Times-Italic findfont
dup length dict begin
  {1 index /FID ne {def} {pop pop} ifelse} forall
  /Encoding WinAnsiEncoding def
  currentdict
end
/Times-Italic exch definefont pop
/Times-Bold findfont
dup length dict begin
  {1 index /FID ne {def} {pop pop} ifelse} forall
  /Encoding WinAnsiEncoding def
  currentdict
end
/Times-Bold exch definefont pop
%FOPEndFontReencode
%%EndProlog
%%Page: 1 1
%%PageBoundingBox: 0 0 573 384
%%BeginPageSetup
[1 0 0 -1 0 384] CT
%%EndPageSetup
GS
[0.75 0 0 0.75 0 0] CT
1 GC
N
0 0 764 512 re
f
GR
GS
[0.75 0 0 0.75 0 0] CT
1 GC
N
0 0 764 512 re
f
GR
GS
[0.75 0 0 0.75 0 0] CT
1 GC
N
111 421 M
744 421 L
744 51 L
111 51 L
cp
f
GR
GS
[0.75 0 0 0.75 0 0] CT
0.149 GC
2 setlinecap
1 LJ
0.667 LW
N
111 421 M
744 421 L
S
GR
GS
[0.75 0 0 0.75 0 0] CT
0.149 GC
2 setlinecap
1 LJ
0.667 LW
N
111 51 M
744 51 L
S
GR
GS
[0.75 0 0 0.75 0 0] CT
0.149 GC
2 setlinecap
1 LJ
0.667 LW
N
111 421 M
111 414.67 L
S
GR
GS
[0.75 0 0 0.75 0 0] CT
0.149 GC
2 setlinecap
1 LJ
0.667 LW
N
181.333 421 M
181.333 414.67 L
S
GR
GS
[0.75 0 0 0.75 0 0] CT
0.149 GC
2 setlinecap
1 LJ
0.667 LW
N
251.667 421 M
251.667 414.67 L
S
GR
GS
[0.75 0 0 0.75 0 0] CT
0.149 GC
2 setlinecap
1 LJ
0.667 LW
N
322 421 M
322 414.67 L
S
GR
GS
[0.75 0 0 0.75 0 0] CT
0.149 GC
2 setlinecap
1 LJ
0.667 LW
N
392.333 421 M
392.333 414.67 L
S
GR
GS
[0.75 0 0 0.75 0 0] CT
0.149 GC
2 setlinecap
1 LJ
0.667 LW
N
462.667 421 M
462.667 414.67 L
S
GR
GS
[0.75 0 0 0.75 0 0] CT
0.149 GC
2 setlinecap
1 LJ
0.667 LW
N
533 421 M
533 414.67 L
S
GR
GS
[0.75 0 0 0.75 0 0] CT
0.149 GC
2 setlinecap
1 LJ
0.667 LW
N
603.333 421 M
603.333 414.67 L
S
GR
GS
[0.75 0 0 0.75 0 0] CT
0.149 GC
2 setlinecap
1 LJ
0.667 LW
N
673.667 421 M
673.667 414.67 L
S
GR
GS
[0.75 0 0 0.75 0 0] CT
0.149 GC
2 setlinecap
1 LJ
0.667 LW
N
744 421 M
744 414.67 L
S
GR
GS
[0.75 0 0 0.75 0 0] CT
0.149 GC
2 setlinecap
1 LJ
0.667 LW
N
111 51 M
111 57.33 L
S
GR
GS
[0.75 0 0 0.75 0 0] CT
0.149 GC
2 setlinecap
1 LJ
0.667 LW
N
181.333 51 M
181.333 57.33 L
S
GR
GS
[0.75 0 0 0.75 0 0] CT
0.149 GC
2 setlinecap
1 LJ
0.667 LW
N
251.667 51 M
251.667 57.33 L
S
GR
GS
[0.75 0 0 0.75 0 0] CT
0.149 GC
2 setlinecap
1 LJ
0.667 LW
N
322 51 M
322 57.33 L
S
GR
GS
[0.75 0 0 0.75 0 0] CT
0.149 GC
2 setlinecap
1 LJ
0.667 LW
N
392.333 51 M
392.333 57.33 L
S
GR
GS
[0.75 0 0 0.75 0 0] CT
0.149 GC
2 setlinecap
1 LJ
0.667 LW
N
462.667 51 M
462.667 57.33 L
S
GR
GS
[0.75 0 0 0.75 0 0] CT
0.149 GC
2 setlinecap
1 LJ
0.667 LW
N
533 51 M
533 57.33 L
S
GR
GS
[0.75 0 0 0.75 0 0] CT
0.149 GC
2 setlinecap
1 LJ
0.667 LW
N
603.333 51 M
603.333 57.33 L
S
GR
GS
[0.75 0 0 0.75 0 0] CT
0.149 GC
2 setlinecap
1 LJ
0.667 LW
N
673.667 51 M
673.667 57.33 L
S
GR
GS
[0.75 0 0 0.75 0 0] CT
0.149 GC
2 setlinecap
1 LJ
0.667 LW
N
744 51 M
744 57.33 L
S
GR
GS
[0.75 0 0 0.75 83.25 322.55001] CT
0.149 GC
/Times 32 F
GS
[1 0 0 1 0 0] CT
-10.5 30 moveto 
1 -1 scale
(1) t 
GR
GR
GS
[0.75 0 0 0.75 136 322.55001] CT
0.149 GC
/Times 32 F
GS
[1 0 0 1 0 0] CT
-10.5 30 moveto 
1 -1 scale
(2) t 
GR
GR
GS
[0.75 0 0 0.75 188.75 322.55001] CT
0.149 GC
/Times 32 F
GS
[1 0 0 1 0 0] CT
-10.5 30 moveto 
1 -1 scale
(3) t 
GR
GR
GS
[0.75 0 0 0.75 241.5 322.55001] CT
0.149 GC
/Times 32 F
GS
[1 0 0 1 0 0] CT
-10.5 30 moveto 
1 -1 scale
(4) t 
GR
GR
GS
[0.75 0 0 0.75 294.25001 322.55001] CT
0.149 GC
/Times 32 F
GS
[1 0 0 1 0 0] CT
-10.5 30 moveto 
1 -1 scale
(5) t 
GR
GR
GS
[0.75 0 0 0.75 346.99999 322.55001] CT
0.149 GC
/Times 32 F
GS
[1 0 0 1 0 0] CT
-10.5 30 moveto 
1 -1 scale
(6) t 
GR
GR
GS
[0.75 0 0 0.75 399.75 322.55001] CT
0.149 GC
/Times 32 F
GS
[1 0 0 1 0 0] CT
-10.5 30 moveto 
1 -1 scale
(7) t 
GR
GR
GS
[0.75 0 0 0.75 452.49998 322.55001] CT
0.149 GC
/Times 32 F
GS
[1 0 0 1 0 0] CT
-10.5 30 moveto 
1 -1 scale
(8) t 
GR
GR
GS
[0.75 0 0 0.75 505.25002 322.55001] CT
0.149 GC
/Times 32 F
GS
[1 0 0 1 0 0] CT
-10.5 30 moveto 
1 -1 scale
(9) t 
GR
GR
GS
[0.75 0 0 0.75 558 322.55001] CT
0.149 GC
/Times 32 F
GS
[1 0 0 1 0 0] CT
-20.5 30 moveto 
1 -1 scale
(10) t 
GR
GR
GS
[0.75 0 0 0.75 320.62523 352.05] CT
0.149 GC
/Times 35.2 F
GS
[1 0 0 1 0 0] CT
-210 33 moveto 
1 -1 scale
(Number of Top Matches) t 
GR
GR
GS
[0.75 0 0 0.75 0 0] CT
0.149 GC
2 setlinecap
1 LJ
0.667 LW
N
111 421 M
111 51 L
S
GR
GS
[0.75 0 0 0.75 0 0] CT
0.149 GC
2 setlinecap
1 LJ
0.667 LW
N
744 421 M
744 51 L
S
GR
GS
[0.75 0 0 0.75 0 0] CT
0.149 GC
2 setlinecap
1 LJ
0.667 LW
N
111 391.23 M
117.33 391.23 L
S
GR
GS
[0.75 0 0 0.75 0 0] CT
0.149 GC
2 setlinecap
1 LJ
0.667 LW
N
111 306.172 M
117.33 306.172 L
S
GR
GS
[0.75 0 0 0.75 0 0] CT
0.149 GC
2 setlinecap
1 LJ
0.667 LW
N
111 221.115 M
117.33 221.115 L
S
GR
GS
[0.75 0 0 0.75 0 0] CT
0.149 GC
2 setlinecap
1 LJ
0.667 LW
N
111 136.057 M
117.33 136.057 L
S
GR
GS
[0.75 0 0 0.75 0 0] CT
0.149 GC
2 setlinecap
1 LJ
0.667 LW
N
111 51 M
117.33 51 L
S
GR
GS
[0.75 0 0 0.75 0 0] CT
0.149 GC
2 setlinecap
1 LJ
0.667 LW
N
744 391.23 M
737.67 391.23 L
S
GR
GS
[0.75 0 0 0.75 0 0] CT
0.149 GC
2 setlinecap
1 LJ
0.667 LW
N
744 306.172 M
737.67 306.172 L
S
GR
GS
[0.75 0 0 0.75 0 0] CT
0.149 GC
2 setlinecap
1 LJ
0.667 LW
N
744 221.115 M
737.67 221.115 L
S
GR
GS
[0.75 0 0 0.75 0 0] CT
0.149 GC
2 setlinecap
1 LJ
0.667 LW
N
744 136.057 M
737.67 136.057 L
S
GR
GS
[0.75 0 0 0.75 0 0] CT
0.149 GC
2 setlinecap
1 LJ
0.667 LW
N
744 51 M
737.67 51 L
S
GR
GS
[0.75 0 0 0.75 76.45 293.42242] CT
0.149 GC
/Times 32 F
GS
[1 0 0 1 0 0] CT
-41 11 moveto 
1 -1 scale
(20) t 
GR
GR
GS
[0.75 0 0 0.75 76.45 229.62932] CT
0.149 GC
/Times 32 F
GS
[1 0 0 1 0 0] CT
-41 11 moveto 
1 -1 scale
(40) t 
GR
GR
GS
[0.75 0 0 0.75 76.45 165.83621] CT
0.149 GC
/Times 32 F
GS
[1 0 0 1 0 0] CT
-41 11 moveto 
1 -1 scale
(60) t 
GR
GR
GS
[0.75 0 0 0.75 76.45 102.0431] CT
0.149 GC
/Times 32 F
GS
[1 0 0 1 0 0] CT
-41 11 moveto 
1 -1 scale
(80) t 
GR
GR
GS
[0.75 0 0 0.75 76.45 38.25] CT
0.149 GC
/Times 32 F
GS
[1 0 0 1 0 0] CT
-62 11 moveto 
1 -1 scale
(100) t 
GR
GR
GS
[0 -0.75 0.75 0 26.95 176.99986] CT
0.149 GC
/Times 35.2 F
GS
[1 0 0 1 0 0] CT
-71 -9 moveto 
1 -1 scale
(ARP \(%\)) t 
GR
GR
GS
[0.75 0 0 0.75 320.6253 33.29999] CT
/Times 35.2 F
GS
[1 0 0 1 0 0] CT
-126.5 -9 moveto 
1 -1 scale
(LFW Database) t 
GR
GR
GS
[0.75 0 0 0.75 0 0] CT
1 0.6 0.784 RC
1 LJ
2 LW
N
111 51 M
181.333 242.393 L
251.667 307.838 L
322 342.41 L
392.333 363.021 L
462.667 377.186 L
533 387.924 L
603.333 396.021 L
673.667 402.573 L
744 407.899 L
S
GR
GS
[0.75 0 0 0.75 0 0] CT
1 GC
N
109.278 46.652 M
115.943 50.5 L
109.278 54.348 L
cp
f
GR
GS
[0.75 0 0 0.75 0 0] CT
1 0.6 0.784 RC
10.0 ML
2 LW
N
109.278 46.652 M
115.943 50.5 L
109.278 54.348 L
cp
S
GR
GS
[0.75 0 0 0.75 0 0] CT
1 GC
N
179.278 238.652 M
185.943 242.5 L
179.278 246.348 L
cp
f
GR
GS
[0.75 0 0 0.75 0 0] CT
1 0.6 0.784 RC
10.0 ML
2 LW
N
179.278 238.652 M
185.943 242.5 L
179.278 246.348 L
cp
S
GR
GS
[0.75 0 0 0.75 0 0] CT
1 GC
N
249.278 303.652 M
255.943 307.5 L
249.278 311.348 L
cp
f
GR
GS
[0.75 0 0 0.75 0 0] CT
1 0.6 0.784 RC
10.0 ML
2 LW
N
249.278 303.652 M
255.943 307.5 L
249.278 311.348 L
cp
S
GR
GS
[0.75 0 0 0.75 0 0] CT
1 GC
N
319.278 338.652 M
325.943 342.5 L
319.278 346.348 L
cp
f
GR
GS
[0.75 0 0 0.75 0 0] CT
1 0.6 0.784 RC
10.0 ML
2 LW
N
319.278 338.652 M
325.943 342.5 L
319.278 346.348 L
cp
S
GR
GS
[0.75 0 0 0.75 0 0] CT
1 GC
N
390.278 359.652 M
396.943 363.5 L
390.278 367.348 L
cp
f
GR
GS
[0.75 0 0 0.75 0 0] CT
1 0.6 0.784 RC
10.0 ML
2 LW
N
390.278 359.652 M
396.943 363.5 L
390.278 367.348 L
cp
S
GR
GS
[0.75 0 0 0.75 0 0] CT
1 GC
N
460.278 373.652 M
466.943 377.5 L
460.278 381.348 L
cp
f
GR
GS
[0.75 0 0 0.75 0 0] CT
1 0.6 0.784 RC
10.0 ML
2 LW
N
460.278 373.652 M
466.943 377.5 L
460.278 381.348 L
cp
S
GR
GS
[0.75 0 0 0.75 0 0] CT
1 GC
N
531.278 383.652 M
537.943 387.5 L
531.278 391.348 L
cp
f
GR
GS
[0.75 0 0 0.75 0 0] CT
1 0.6 0.784 RC
10.0 ML
2 LW
N
531.278 383.652 M
537.943 387.5 L
531.278 391.348 L
cp
S
GR
GS
[0.75 0 0 0.75 0 0] CT
1 GC
N
601.278 392.652 M
607.943 396.5 L
601.278 400.348 L
cp
f
GR
GS
[0.75 0 0 0.75 0 0] CT
1 0.6 0.784 RC
10.0 ML
2 LW
N
601.278 392.652 M
607.943 396.5 L
601.278 400.348 L
cp
S
GR
GS
[0.75 0 0 0.75 0 0] CT
1 GC
N
671.278 398.652 M
677.943 402.5 L
671.278 406.348 L
cp
f
GR
GS
[0.75 0 0 0.75 0 0] CT
1 0.6 0.784 RC
10.0 ML
2 LW
N
671.278 398.652 M
677.943 402.5 L
671.278 406.348 L
cp
S
GR
GS
[0.75 0 0 0.75 0 0] CT
1 GC
N
742.278 403.652 M
748.943 407.5 L
742.278 411.348 L
cp
f
GR
GS
[0.75 0 0 0.75 0 0] CT
1 0.6 0.784 RC
10.0 ML
2 LW
N
742.278 403.652 M
748.943 407.5 L
742.278 411.348 L
cp
S
GR
GS
[0.75 0 0 0.75 0 0] CT
0.6 0.2 0 RC
1 LJ
2 LW
N
111 51 M
181.333 240.047 L
251.667 307.82 L
322 341.744 L
392.333 363.35 L
462.667 378.325 L
533 388.472 L
603.333 396.526 L
673.667 402.859 L
744 407.838 L
S
GR
GS
[0.75 0 0 0.75 0 0] CT
1 GC
N
107.057 50.5 M
113.722 46.652 L
113.722 54.348 L
cp
f
GR
GS
[0.75 0 0 0.75 0 0] CT
0.6 0.2 0 RC
10.0 ML
2 LW
N
107.057 50.5 M
113.722 46.652 L
113.722 54.348 L
cp
S
GR
GS
[0.75 0 0 0.75 0 0] CT
1 GC
N
177.057 240.5 M
183.722 236.652 L
183.722 244.348 L
cp
f
GR
GS
[0.75 0 0 0.75 0 0] CT
0.6 0.2 0 RC
10.0 ML
2 LW
N
177.057 240.5 M
183.722 236.652 L
183.722 244.348 L
cp
S
GR
GS
[0.75 0 0 0.75 0 0] CT
1 GC
N
247.057 307.5 M
253.722 303.652 L
253.722 311.348 L
cp
f
GR
GS
[0.75 0 0 0.75 0 0] CT
0.6 0.2 0 RC
10.0 ML
2 LW
N
247.057 307.5 M
253.722 303.652 L
253.722 311.348 L
cp
S
GR
GS
[0.75 0 0 0.75 0 0] CT
1 GC
N
317.057 341.5 M
323.722 337.652 L
323.722 345.348 L
cp
f
GR
GS
[0.75 0 0 0.75 0 0] CT
0.6 0.2 0 RC
10.0 ML
2 LW
N
317.057 341.5 M
323.722 337.652 L
323.722 345.348 L
cp
S
GR
GS
[0.75 0 0 0.75 0 0] CT
1 GC
N
388.057 363.5 M
394.722 359.652 L
394.722 367.348 L
cp
f
GR
GS
[0.75 0 0 0.75 0 0] CT
0.6 0.2 0 RC
10.0 ML
2 LW
N
388.057 363.5 M
394.722 359.652 L
394.722 367.348 L
cp
S
GR
GS
[0.75 0 0 0.75 0 0] CT
1 GC
N
458.057 378.5 M
464.722 374.652 L
464.722 382.348 L
cp
f
GR
GS
[0.75 0 0 0.75 0 0] CT
0.6 0.2 0 RC
10.0 ML
2 LW
N
458.057 378.5 M
464.722 374.652 L
464.722 382.348 L
cp
S
GR
GS
[0.75 0 0 0.75 0 0] CT
1 GC
N
529.057 388.5 M
535.722 384.652 L
535.722 392.348 L
cp
f
GR
GS
[0.75 0 0 0.75 0 0] CT
0.6 0.2 0 RC
10.0 ML
2 LW
N
529.057 388.5 M
535.722 384.652 L
535.722 392.348 L
cp
S
GR
GS
[0.75 0 0 0.75 0 0] CT
1 GC
N
599.057 396.5 M
605.722 392.652 L
605.722 400.348 L
cp
f
GR
GS
[0.75 0 0 0.75 0 0] CT
0.6 0.2 0 RC
10.0 ML
2 LW
N
599.057 396.5 M
605.722 392.652 L
605.722 400.348 L
cp
S
GR
GS
[0.75 0 0 0.75 0 0] CT
1 GC
N
669.057 402.5 M
675.722 398.652 L
675.722 406.348 L
cp
f
GR
GS
[0.75 0 0 0.75 0 0] CT
0.6 0.2 0 RC
10.0 ML
2 LW
N
669.057 402.5 M
675.722 398.652 L
675.722 406.348 L
cp
S
GR
GS
[0.75 0 0 0.75 0 0] CT
1 GC
N
740.057 407.5 M
746.722 403.652 L
746.722 411.348 L
cp
f
GR
GS
[0.75 0 0 0.75 0 0] CT
0.6 0.2 0 RC
10.0 ML
2 LW
N
740.057 407.5 M
746.722 403.652 L
746.722 411.348 L
cp
S
GR
GS
[0.75 0 0 0.75 0 0] CT
0.929 0.694 0.125 RC
1 LJ
2 LW
N
111 51 M
181.333 244.357 L
251.667 311.332 L
322 345.658 L
392.333 366.605 L
462.667 381.018 L
533 391.348 L
603.333 399.425 L
673.667 405.796 L
744 410.761 L
S
GR
GS
[0.75 0 0 0.75 0 0] CT
1 GC
N
108.33 49.47 M
110.716 49.47 L
111.5 47.167 L
112.284 49.47 L
114.67 49.47 L
112.768 50.912 L
113.459 53.197 L
111.5 51.833 L
109.541 53.197 L
110.232 50.912 L
108.33 49.47 L
cp
f
GR
GS
[0.75 0 0 0.75 0 0] CT
0.929 0.694 0.125 RC
10.0 ML
2 LW
N
108.33 49.47 M
110.716 49.47 L
111.5 47.167 L
112.284 49.47 L
114.67 49.47 L
112.768 50.912 L
113.459 53.197 L
111.5 51.833 L
109.541 53.197 L
110.232 50.912 L
cp
S
GR
GS
[0.75 0 0 0.75 0 0] CT
1 GC
N
178.33 243.47 M
180.716 243.47 L
181.5 241.167 L
182.284 243.47 L
184.67 243.47 L
182.768 244.912 L
183.459 247.197 L
181.5 245.833 L
179.541 247.197 L
180.232 244.912 L
178.33 243.47 L
cp
f
GR
GS
[0.75 0 0 0.75 0 0] CT
0.929 0.694 0.125 RC
10.0 ML
2 LW
N
178.33 243.47 M
180.716 243.47 L
181.5 241.167 L
182.284 243.47 L
184.67 243.47 L
182.768 244.912 L
183.459 247.197 L
181.5 245.833 L
179.541 247.197 L
180.232 244.912 L
cp
S
GR
GS
[0.75 0 0 0.75 0 0] CT
1 GC
N
248.33 310.47 M
250.716 310.47 L
251.5 308.167 L
252.284 310.47 L
254.67 310.47 L
252.768 311.912 L
253.459 314.197 L
251.5 312.833 L
249.541 314.197 L
250.232 311.912 L
248.33 310.47 L
cp
f
GR
GS
[0.75 0 0 0.75 0 0] CT
0.929 0.694 0.125 RC
10.0 ML
2 LW
N
248.33 310.47 M
250.716 310.47 L
251.5 308.167 L
252.284 310.47 L
254.67 310.47 L
252.768 311.912 L
253.459 314.197 L
251.5 312.833 L
249.541 314.197 L
250.232 311.912 L
cp
S
GR
GS
[0.75 0 0 0.75 0 0] CT
1 GC
N
318.33 344.47 M
320.716 344.47 L
321.5 342.167 L
322.284 344.47 L
324.67 344.47 L
322.768 345.912 L
323.459 348.197 L
321.5 346.833 L
319.541 348.197 L
320.232 345.912 L
318.33 344.47 L
cp
f
GR
GS
[0.75 0 0 0.75 0 0] CT
0.929 0.694 0.125 RC
10.0 ML
2 LW
N
318.33 344.47 M
320.716 344.47 L
321.5 342.167 L
322.284 344.47 L
324.67 344.47 L
322.768 345.912 L
323.459 348.197 L
321.5 346.833 L
319.541 348.197 L
320.232 345.912 L
cp
S
GR
GS
[0.75 0 0 0.75 0 0] CT
1 GC
N
389.33 365.47 M
391.716 365.47 L
392.5 363.167 L
393.284 365.47 L
395.67 365.47 L
393.768 366.912 L
394.459 369.197 L
392.5 367.833 L
390.541 369.197 L
391.232 366.912 L
389.33 365.47 L
cp
f
GR
GS
[0.75 0 0 0.75 0 0] CT
0.929 0.694 0.125 RC
10.0 ML
2 LW
N
389.33 365.47 M
391.716 365.47 L
392.5 363.167 L
393.284 365.47 L
395.67 365.47 L
393.768 366.912 L
394.459 369.197 L
392.5 367.833 L
390.541 369.197 L
391.232 366.912 L
cp
S
GR
GS
[0.75 0 0 0.75 0 0] CT
1 GC
N
459.33 380.47 M
461.716 380.47 L
462.5 378.167 L
463.284 380.47 L
465.67 380.47 L
463.768 381.912 L
464.459 384.197 L
462.5 382.833 L
460.541 384.197 L
461.232 381.912 L
459.33 380.47 L
cp
f
GR
GS
[0.75 0 0 0.75 0 0] CT
0.929 0.694 0.125 RC
10.0 ML
2 LW
N
459.33 380.47 M
461.716 380.47 L
462.5 378.167 L
463.284 380.47 L
465.67 380.47 L
463.768 381.912 L
464.459 384.197 L
462.5 382.833 L
460.541 384.197 L
461.232 381.912 L
cp
S
GR
GS
[0.75 0 0 0.75 0 0] CT
1 GC
N
530.33 390.47 M
532.716 390.47 L
533.5 388.167 L
534.284 390.47 L
536.67 390.47 L
534.768 391.912 L
535.459 394.197 L
533.5 392.833 L
531.541 394.197 L
532.232 391.912 L
530.33 390.47 L
cp
f
GR
GS
[0.75 0 0 0.75 0 0] CT
0.929 0.694 0.125 RC
10.0 ML
2 LW
N
530.33 390.47 M
532.716 390.47 L
533.5 388.167 L
534.284 390.47 L
536.67 390.47 L
534.768 391.912 L
535.459 394.197 L
533.5 392.833 L
531.541 394.197 L
532.232 391.912 L
cp
S
GR
GS
[0.75 0 0 0.75 0 0] CT
1 GC
N
600.33 398.47 M
602.716 398.47 L
603.5 396.167 L
604.284 398.47 L
606.67 398.47 L
604.768 399.912 L
605.459 402.197 L
603.5 400.833 L
601.541 402.197 L
602.232 399.912 L
600.33 398.47 L
cp
f
GR
GS
[0.75 0 0 0.75 0 0] CT
0.929 0.694 0.125 RC
10.0 ML
2 LW
N
600.33 398.47 M
602.716 398.47 L
603.5 396.167 L
604.284 398.47 L
606.67 398.47 L
604.768 399.912 L
605.459 402.197 L
603.5 400.833 L
601.541 402.197 L
602.232 399.912 L
cp
S
GR
GS
[0.75 0 0 0.75 0 0] CT
1 GC
N
670.33 404.47 M
672.716 404.47 L
673.5 402.167 L
674.284 404.47 L
676.67 404.47 L
674.768 405.912 L
675.459 408.197 L
673.5 406.833 L
671.541 408.197 L
672.232 405.912 L
670.33 404.47 L
cp
f
GR
GS
[0.75 0 0 0.75 0 0] CT
0.929 0.694 0.125 RC
10.0 ML
2 LW
N
670.33 404.47 M
672.716 404.47 L
673.5 402.167 L
674.284 404.47 L
676.67 404.47 L
674.768 405.912 L
675.459 408.197 L
673.5 406.833 L
671.541 408.197 L
672.232 405.912 L
cp
S
GR
GS
[0.75 0 0 0.75 0 0] CT
1 GC
N
741.33 409.47 M
743.716 409.47 L
744.5 407.167 L
745.284 409.47 L
747.67 409.47 L
745.768 410.912 L
746.459 413.197 L
744.5 411.833 L
742.541 413.197 L
743.232 410.912 L
741.33 409.47 L
cp
f
GR
GS
[0.75 0 0 0.75 0 0] CT
0.929 0.694 0.125 RC
10.0 ML
2 LW
N
741.33 409.47 M
743.716 409.47 L
744.5 407.167 L
745.284 409.47 L
747.67 409.47 L
745.768 410.912 L
746.459 413.197 L
744.5 411.833 L
742.541 413.197 L
743.232 410.912 L
cp
S
GR
GS
[0.75 0 0 0.75 0 0] CT
0 1 1 RC
1 LJ
2 LW
N
111 51 M
181.333 244.971 L
251.667 312.906 L
322 347.175 L
392.333 368.215 L
462.667 382.534 L
533 393.23 L
603.333 401.072 L
673.667 406.962 L
744 411.993 L
S
GR
GS
[0.75 0 0 0.75 0 0] CT
1 GC
N
111.5 54.943 M
114.833 50.5 L
111.5 46.057 L
108.167 50.5 L
cp
f
GR
GS
[0.75 0 0 0.75 0 0] CT
0 1 1 RC
10.0 ML
2 LW
N
111.5 54.943 M
114.833 50.5 L
111.5 46.057 L
108.167 50.5 L
cp
S
GR
GS
[0.75 0 0 0.75 0 0] CT
1 GC
N
181.5 248.943 M
184.833 244.5 L
181.5 240.057 L
178.167 244.5 L
cp
f
GR
GS
[0.75 0 0 0.75 0 0] CT
0 1 1 RC
10.0 ML
2 LW
N
181.5 248.943 M
184.833 244.5 L
181.5 240.057 L
178.167 244.5 L
cp
S
GR
GS
[0.75 0 0 0.75 0 0] CT
1 GC
N
251.5 316.943 M
254.833 312.5 L
251.5 308.057 L
248.167 312.5 L
cp
f
GR
GS
[0.75 0 0 0.75 0 0] CT
0 1 1 RC
10.0 ML
2 LW
N
251.5 316.943 M
254.833 312.5 L
251.5 308.057 L
248.167 312.5 L
cp
S
GR
GS
[0.75 0 0 0.75 0 0] CT
1 GC
N
321.5 351.943 M
324.833 347.5 L
321.5 343.057 L
318.167 347.5 L
cp
f
GR
GS
[0.75 0 0 0.75 0 0] CT
0 1 1 RC
10.0 ML
2 LW
N
321.5 351.943 M
324.833 347.5 L
321.5 343.057 L
318.167 347.5 L
cp
S
GR
GS
[0.75 0 0 0.75 0 0] CT
1 GC
N
392.5 372.943 M
395.833 368.5 L
392.5 364.057 L
389.167 368.5 L
cp
f
GR
GS
[0.75 0 0 0.75 0 0] CT
0 1 1 RC
10.0 ML
2 LW
N
392.5 372.943 M
395.833 368.5 L
392.5 364.057 L
389.167 368.5 L
cp
S
GR
GS
[0.75 0 0 0.75 0 0] CT
1 GC
N
462.5 386.943 M
465.833 382.5 L
462.5 378.057 L
459.167 382.5 L
cp
f
GR
GS
[0.75 0 0 0.75 0 0] CT
0 1 1 RC
10.0 ML
2 LW
N
462.5 386.943 M
465.833 382.5 L
462.5 378.057 L
459.167 382.5 L
cp
S
GR
GS
[0.75 0 0 0.75 0 0] CT
1 GC
N
533.5 397.943 M
536.833 393.5 L
533.5 389.057 L
530.167 393.5 L
cp
f
GR
GS
[0.75 0 0 0.75 0 0] CT
0 1 1 RC
10.0 ML
2 LW
N
533.5 397.943 M
536.833 393.5 L
533.5 389.057 L
530.167 393.5 L
cp
S
GR
GS
[0.75 0 0 0.75 0 0] CT
1 GC
N
603.5 405.943 M
606.833 401.5 L
603.5 397.057 L
600.167 401.5 L
cp
f
GR
GS
[0.75 0 0 0.75 0 0] CT
0 1 1 RC
10.0 ML
2 LW
N
603.5 405.943 M
606.833 401.5 L
603.5 397.057 L
600.167 401.5 L
cp
S
GR
GS
[0.75 0 0 0.75 0 0] CT
1 GC
N
673.5 410.943 M
676.833 406.5 L
673.5 402.057 L
670.167 406.5 L
cp
f
GR
GS
[0.75 0 0 0.75 0 0] CT
0 1 1 RC
10.0 ML
2 LW
N
673.5 410.943 M
676.833 406.5 L
673.5 402.057 L
670.167 406.5 L
cp
S
GR
GS
[0.75 0 0 0.75 0 0] CT
1 GC
N
744.5 415.943 M
747.833 411.5 L
744.5 407.057 L
741.167 411.5 L
cp
f
GR
GS
[0.75 0 0 0.75 0 0] CT
0 1 1 RC
10.0 ML
2 LW
N
744.5 415.943 M
747.833 411.5 L
744.5 407.057 L
741.167 411.5 L
cp
S
GR
GS
[0.75 0 0 0.75 0 0] CT
0 1 0 RC
1 LJ
2 LW
N
111 51 M
181.333 222.064 L
251.667 286.845 L
322 321.113 L
392.333 344.47 L
462.667 360.067 L
533 370.949 L
603.333 379.533 L
673.667 386.251 L
744 392.382 L
S
GR
GS
[0.75 0 0 0.75 0 0] CT
1 GC
N
108.9 53.1 M
108.9 47.9 L
114.1 47.9 L
114.1 53.1 L
cp
f
GR
GS
[0.75 0 0 0.75 0 0] CT
0 1 0 RC
10.0 ML
2 LW
N
108.9 53.1 M
108.9 47.9 L
114.1 47.9 L
114.1 53.1 L
cp
S
GR
GS
[0.75 0 0 0.75 0 0] CT
1 GC
N
178.9 225.1 M
178.9 219.9 L
184.1 219.9 L
184.1 225.1 L
cp
f
GR
GS
[0.75 0 0 0.75 0 0] CT
0 1 0 RC
10.0 ML
2 LW
N
178.9 225.1 M
178.9 219.9 L
184.1 219.9 L
184.1 225.1 L
cp
S
GR
GS
[0.75 0 0 0.75 0 0] CT
1 GC
N
248.9 289.1 M
248.9 283.9 L
254.1 283.9 L
254.1 289.1 L
cp
f
GR
GS
[0.75 0 0 0.75 0 0] CT
0 1 0 RC
10.0 ML
2 LW
N
248.9 289.1 M
248.9 283.9 L
254.1 283.9 L
254.1 289.1 L
cp
S
GR
GS
[0.75 0 0 0.75 0 0] CT
1 GC
N
318.9 324.1 M
318.9 318.9 L
324.1 318.9 L
324.1 324.1 L
cp
f
GR
GS
[0.75 0 0 0.75 0 0] CT
0 1 0 RC
10.0 ML
2 LW
N
318.9 324.1 M
318.9 318.9 L
324.1 318.9 L
324.1 324.1 L
cp
S
GR
GS
[0.75 0 0 0.75 0 0] CT
1 GC
N
389.9 347.1 M
389.9 341.9 L
395.1 341.9 L
395.1 347.1 L
cp
f
GR
GS
[0.75 0 0 0.75 0 0] CT
0 1 0 RC
10.0 ML
2 LW
N
389.9 347.1 M
389.9 341.9 L
395.1 341.9 L
395.1 347.1 L
cp
S
GR
GS
[0.75 0 0 0.75 0 0] CT
1 GC
N
459.9 363.1 M
459.9 357.9 L
465.1 357.9 L
465.1 363.1 L
cp
f
GR
GS
[0.75 0 0 0.75 0 0] CT
0 1 0 RC
10.0 ML
2 LW
N
459.9 363.1 M
459.9 357.9 L
465.1 357.9 L
465.1 363.1 L
cp
S
GR
GS
[0.75 0 0 0.75 0 0] CT
1 GC
N
530.9 373.1 M
530.9 367.9 L
536.1 367.9 L
536.1 373.1 L
cp
f
GR
GS
[0.75 0 0 0.75 0 0] CT
0 1 0 RC
10.0 ML
2 LW
N
530.9 373.1 M
530.9 367.9 L
536.1 367.9 L
536.1 373.1 L
cp
S
GR
GS
[0.75 0 0 0.75 0 0] CT
1 GC
N
600.9 382.1 M
600.9 376.9 L
606.1 376.9 L
606.1 382.1 L
cp
f
GR
GS
[0.75 0 0 0.75 0 0] CT
0 1 0 RC
10.0 ML
2 LW
N
600.9 382.1 M
600.9 376.9 L
606.1 376.9 L
606.1 382.1 L
cp
S
GR
GS
[0.75 0 0 0.75 0 0] CT
1 GC
N
670.9 389.1 M
670.9 383.9 L
676.1 383.9 L
676.1 389.1 L
cp
f
GR
GS
[0.75 0 0 0.75 0 0] CT
0 1 0 RC
10.0 ML
2 LW
N
670.9 389.1 M
670.9 383.9 L
676.1 383.9 L
676.1 389.1 L
cp
S
GR
GS
[0.75 0 0 0.75 0 0] CT
1 GC
N
741.9 395.1 M
741.9 389.9 L
747.1 389.9 L
747.1 395.1 L
cp
f
GR
GS
[0.75 0 0 0.75 0 0] CT
0 1 0 RC
10.0 ML
2 LW
N
741.9 395.1 M
741.9 389.9 L
747.1 389.9 L
747.1 395.1 L
cp
S
GR
GS
[0.75 0 0 0.75 0 0] CT
0 0 1 RC
1 LJ
2 LW
N
111 51 M
181.333 249.797 L
251.667 317.638 L
322 352.251 L
392.333 373.487 L
462.667 387.888 L
533 398.206 L
603.333 405.717 L
673.667 411.755 L
744 416.47 L
S
GR
GS
[0.75 0 0 0.75 0 0] CT
1 GC
N
107.057 50.5 M
113.722 46.652 L
113.722 54.348 L
cp
f
GR
GS
[0.75 0 0 0.75 0 0] CT
0 0 1 RC
10.0 ML
2 LW
N
107.057 50.5 M
113.722 46.652 L
113.722 54.348 L
cp
S
GR
GS
[0.75 0 0 0.75 0 0] CT
1 GC
N
177.057 249.5 M
183.722 245.652 L
183.722 253.348 L
cp
f
GR
GS
[0.75 0 0 0.75 0 0] CT
0 0 1 RC
10.0 ML
2 LW
N
177.057 249.5 M
183.722 245.652 L
183.722 253.348 L
cp
S
GR
GS
[0.75 0 0 0.75 0 0] CT
1 GC
N
247.057 317.5 M
253.722 313.652 L
253.722 321.348 L
cp
f
GR
GS
[0.75 0 0 0.75 0 0] CT
0 0 1 RC
10.0 ML
2 LW
N
247.057 317.5 M
253.722 313.652 L
253.722 321.348 L
cp
S
GR
GS
[0.75 0 0 0.75 0 0] CT
1 GC
N
317.057 352.5 M
323.722 348.652 L
323.722 356.348 L
cp
f
GR
GS
[0.75 0 0 0.75 0 0] CT
0 0 1 RC
10.0 ML
2 LW
N
317.057 352.5 M
323.722 348.652 L
323.722 356.348 L
cp
S
GR
GS
[0.75 0 0 0.75 0 0] CT
1 GC
N
388.057 373.5 M
394.722 369.652 L
394.722 377.348 L
cp
f
GR
GS
[0.75 0 0 0.75 0 0] CT
0 0 1 RC
10.0 ML
2 LW
N
388.057 373.5 M
394.722 369.652 L
394.722 377.348 L
cp
S
GR
GS
[0.75 0 0 0.75 0 0] CT
1 GC
N
458.057 387.5 M
464.722 383.652 L
464.722 391.348 L
cp
f
GR
GS
[0.75 0 0 0.75 0 0] CT
0 0 1 RC
10.0 ML
2 LW
N
458.057 387.5 M
464.722 383.652 L
464.722 391.348 L
cp
S
GR
GS
[0.75 0 0 0.75 0 0] CT
1 GC
N
529.057 398.5 M
535.722 394.652 L
535.722 402.348 L
cp
f
GR
GS
[0.75 0 0 0.75 0 0] CT
0 0 1 RC
10.0 ML
2 LW
N
529.057 398.5 M
535.722 394.652 L
535.722 402.348 L
cp
S
GR
GS
[0.75 0 0 0.75 0 0] CT
1 GC
N
599.057 405.5 M
605.722 401.652 L
605.722 409.348 L
cp
f
GR
GS
[0.75 0 0 0.75 0 0] CT
0 0 1 RC
10.0 ML
2 LW
N
599.057 405.5 M
605.722 401.652 L
605.722 409.348 L
cp
S
GR
GS
[0.75 0 0 0.75 0 0] CT
1 GC
N
669.057 411.5 M
675.722 407.652 L
675.722 415.348 L
cp
f
GR
GS
[0.75 0 0 0.75 0 0] CT
0 0 1 RC
10.0 ML
2 LW
N
669.057 411.5 M
675.722 407.652 L
675.722 415.348 L
cp
S
GR
GS
[0.75 0 0 0.75 0 0] CT
1 GC
N
740.057 416.5 M
746.722 412.652 L
746.722 420.348 L
cp
f
GR
GS
[0.75 0 0 0.75 0 0] CT
0 0 1 RC
10.0 ML
2 LW
N
740.057 416.5 M
746.722 412.652 L
746.722 420.348 L
cp
S
GR
GS
[0.75 0 0 0.75 0 0] CT
1 0 1 RC
1 LJ
2 LW
N
111 51 M
181.333 225.16 L
251.667 291.471 L
322 326.426 L
392.333 348.406 L
462.667 363.061 L
533 374.05 L
603.333 383.248 L
673.667 390.303 L
744 396.099 L
S
GR
GS
[0.75 0 0 0.75 0 0] CT
1 0 1 RC
1 LJ
2 LW
N
108 50.5 M
115 50.5 L
S
GR
GS
[0.75 0 0 0.75 0 0] CT
1 0 1 RC
1 LJ
2 LW
N
111.5 54 M
111.5 47 L
S
GR
GS
[0.75 0 0 0.75 0 0] CT
1 0 1 RC
1 LJ
2 LW
N
178 225.5 M
185 225.5 L
S
GR
GS
[0.75 0 0 0.75 0 0] CT
1 0 1 RC
1 LJ
2 LW
N
181.5 229 M
181.5 222 L
S
GR
GS
[0.75 0 0 0.75 0 0] CT
1 0 1 RC
1 LJ
2 LW
N
248 291.5 M
255 291.5 L
S
GR
GS
[0.75 0 0 0.75 0 0] CT
1 0 1 RC
1 LJ
2 LW
N
251.5 295 M
251.5 288 L
S
GR
GS
[0.75 0 0 0.75 0 0] CT
1 0 1 RC
1 LJ
2 LW
N
318 326.5 M
325 326.5 L
S
GR
GS
[0.75 0 0 0.75 0 0] CT
1 0 1 RC
1 LJ
2 LW
N
321.5 330 M
321.5 323 L
S
GR
GS
[0.75 0 0 0.75 0 0] CT
1 0 1 RC
1 LJ
2 LW
N
389 348.5 M
396 348.5 L
S
GR
GS
[0.75 0 0 0.75 0 0] CT
1 0 1 RC
1 LJ
2 LW
N
392.5 352 M
392.5 345 L
S
GR
GS
[0.75 0 0 0.75 0 0] CT
1 0 1 RC
1 LJ
2 LW
N
459 363.5 M
466 363.5 L
S
GR
GS
[0.75 0 0 0.75 0 0] CT
1 0 1 RC
1 LJ
2 LW
N
462.5 367 M
462.5 360 L
S
GR
GS
[0.75 0 0 0.75 0 0] CT
1 0 1 RC
1 LJ
2 LW
N
530 374.5 M
537 374.5 L
S
GR
GS
[0.75 0 0 0.75 0 0] CT
1 0 1 RC
1 LJ
2 LW
N
533.5 378 M
533.5 371 L
S
GR
GS
[0.75 0 0 0.75 0 0] CT
1 0 1 RC
1 LJ
2 LW
N
600 383.5 M
607 383.5 L
S
GR
GS
[0.75 0 0 0.75 0 0] CT
1 0 1 RC
1 LJ
2 LW
N
603.5 387 M
603.5 380 L
S
GR
GS
[0.75 0 0 0.75 0 0] CT
1 0 1 RC
1 LJ
2 LW
N
670 390.5 M
677 390.5 L
S
GR
GS
[0.75 0 0 0.75 0 0] CT
1 0 1 RC
1 LJ
2 LW
N
673.5 394 M
673.5 387 L
S
GR
GS
[0.75 0 0 0.75 0 0] CT
1 0 1 RC
1 LJ
2 LW
N
741 396.5 M
748 396.5 L
S
GR
GS
[0.75 0 0 0.75 0 0] CT
1 0 1 RC
1 LJ
2 LW
N
744.5 400 M
744.5 393 L
S
GR
GS
[0.75 0 0 0.75 0 0] CT
1 0 0 RC
1 LJ
2 LW
N
111 51 M
181.333 183.477 L
251.667 244.322 L
322 281.8 L
392.333 308.192 L
462.667 325.613 L
533 339.665 L
603.333 349.944 L
673.667 359.245 L
744 366.595 L
S
GR
GS
[0.75 0 0 0.75 0 0] CT
1 GC
N
108.9 53.1 M
108.9 47.9 L
114.1 47.9 L
114.1 53.1 L
cp
f
GR
GS
[0.75 0 0 0.75 0 0] CT
1 0 0 RC
10.0 ML
2 LW
N
108.9 53.1 M
108.9 47.9 L
114.1 47.9 L
114.1 53.1 L
cp
S
GR
GS
[0.75 0 0 0.75 0 0] CT
1 GC
N
178.9 186.1 M
178.9 180.9 L
184.1 180.9 L
184.1 186.1 L
cp
f
GR
GS
[0.75 0 0 0.75 0 0] CT
1 0 0 RC
10.0 ML
2 LW
N
178.9 186.1 M
178.9 180.9 L
184.1 180.9 L
184.1 186.1 L
cp
S
GR
GS
[0.75 0 0 0.75 0 0] CT
1 GC
N
248.9 247.1 M
248.9 241.9 L
254.1 241.9 L
254.1 247.1 L
cp
f
GR
GS
[0.75 0 0 0.75 0 0] CT
1 0 0 RC
10.0 ML
2 LW
N
248.9 247.1 M
248.9 241.9 L
254.1 241.9 L
254.1 247.1 L
cp
S
GR
GS
[0.75 0 0 0.75 0 0] CT
1 GC
N
318.9 284.1 M
318.9 278.9 L
324.1 278.9 L
324.1 284.1 L
cp
f
GR
GS
[0.75 0 0 0.75 0 0] CT
1 0 0 RC
10.0 ML
2 LW
N
318.9 284.1 M
318.9 278.9 L
324.1 278.9 L
324.1 284.1 L
cp
S
GR
GS
[0.75 0 0 0.75 0 0] CT
1 GC
N
389.9 311.1 M
389.9 305.9 L
395.1 305.9 L
395.1 311.1 L
cp
f
GR
GS
[0.75 0 0 0.75 0 0] CT
1 0 0 RC
10.0 ML
2 LW
N
389.9 311.1 M
389.9 305.9 L
395.1 305.9 L
395.1 311.1 L
cp
S
GR
GS
[0.75 0 0 0.75 0 0] CT
1 GC
N
459.9 328.1 M
459.9 322.9 L
465.1 322.9 L
465.1 328.1 L
cp
f
GR
GS
[0.75 0 0 0.75 0 0] CT
1 0 0 RC
10.0 ML
2 LW
N
459.9 328.1 M
459.9 322.9 L
465.1 322.9 L
465.1 328.1 L
cp
S
GR
GS
[0.75 0 0 0.75 0 0] CT
1 GC
N
530.9 342.1 M
530.9 336.9 L
536.1 336.9 L
536.1 342.1 L
cp
f
GR
GS
[0.75 0 0 0.75 0 0] CT
1 0 0 RC
10.0 ML
2 LW
N
530.9 342.1 M
530.9 336.9 L
536.1 336.9 L
536.1 342.1 L
cp
S
GR
GS
[0.75 0 0 0.75 0 0] CT
1 GC
N
600.9 352.1 M
600.9 346.9 L
606.1 346.9 L
606.1 352.1 L
cp
f
GR
GS
[0.75 0 0 0.75 0 0] CT
1 0 0 RC
10.0 ML
2 LW
N
600.9 352.1 M
600.9 346.9 L
606.1 346.9 L
606.1 352.1 L
cp
S
GR
GS
[0.75 0 0 0.75 0 0] CT
1 GC
N
670.9 362.1 M
670.9 356.9 L
676.1 356.9 L
676.1 362.1 L
cp
f
GR
GS
[0.75 0 0 0.75 0 0] CT
1 0 0 RC
10.0 ML
2 LW
N
670.9 362.1 M
670.9 356.9 L
676.1 356.9 L
676.1 362.1 L
cp
S
GR
GS
[0.75 0 0 0.75 0 0] CT
1 GC
N
741.9 369.1 M
741.9 363.9 L
747.1 363.9 L
747.1 369.1 L
cp
f
GR
GS
[0.75 0 0 0.75 0 0] CT
1 0 0 RC
10.0 ML
2 LW
N
741.9 369.1 M
741.9 363.9 L
747.1 363.9 L
747.1 369.1 L
cp
S
GR
GS
[0.75 0 0 0.75 0 0] CT
1 LJ
2 LW
N
111 51 M
181.333 176.762 L
251.667 238.874 L
322 276.309 L
392.333 301.755 L
462.667 320.061 L
533 334.599 L
603.333 346.22 L
673.667 355.148 L
744 362.595 L
S
GR
GS
[0.75 0 0 0.75 0 0] CT
1 GC
N
114.833 50.5 M
113.857 48.143 L
111.5 47.167 L
109.143 48.143 L
108.167 50.5 L
109.143 52.857 L
111.5 53.833 L
113.857 52.857 L
114.833 50.5 L
cp
f
GR
GS
[0.75 0 0 0.75 0 0] CT
1 LJ
2 LW
N
114.833 50.5 M
114.197 48.541 L
112.53 47.33 L
110.47 47.33 L
108.803 48.541 L
108.167 50.5 L
108.803 52.459 L
110.47 53.67 L
112.53 53.67 L
114.197 52.459 L
cp
S
GR
GS
[0.75 0 0 0.75 0 0] CT
1 GC
N
184.833 176.5 M
183.857 174.143 L
181.5 173.167 L
179.143 174.143 L
178.167 176.5 L
179.143 178.857 L
181.5 179.833 L
183.857 178.857 L
184.833 176.5 L
cp
f
GR
GS
[0.75 0 0 0.75 0 0] CT
1 LJ
2 LW
N
184.833 176.5 M
184.197 174.541 L
182.53 173.33 L
180.47 173.33 L
178.803 174.541 L
178.167 176.5 L
178.803 178.459 L
180.47 179.67 L
182.53 179.67 L
184.197 178.459 L
cp
S
GR
GS
[0.75 0 0 0.75 0 0] CT
1 GC
N
254.833 238.5 M
253.857 236.143 L
251.5 235.167 L
249.143 236.143 L
248.167 238.5 L
249.143 240.857 L
251.5 241.833 L
253.857 240.857 L
254.833 238.5 L
cp
f
GR
GS
[0.75 0 0 0.75 0 0] CT
1 LJ
2 LW
N
254.833 238.5 M
254.197 236.541 L
252.53 235.33 L
250.47 235.33 L
248.803 236.541 L
248.167 238.5 L
248.803 240.459 L
250.47 241.67 L
252.53 241.67 L
254.197 240.459 L
cp
S
GR
GS
[0.75 0 0 0.75 0 0] CT
1 GC
N
324.833 276.5 M
323.857 274.143 L
321.5 273.167 L
319.143 274.143 L
318.167 276.5 L
319.143 278.857 L
321.5 279.833 L
323.857 278.857 L
324.833 276.5 L
cp
f
GR
GS
[0.75 0 0 0.75 0 0] CT
1 LJ
2 LW
N
324.833 276.5 M
324.197 274.541 L
322.53 273.33 L
320.47 273.33 L
318.803 274.541 L
318.167 276.5 L
318.803 278.459 L
320.47 279.67 L
322.53 279.67 L
324.197 278.459 L
cp
S
GR
GS
[0.75 0 0 0.75 0 0] CT
1 GC
N
395.833 301.5 M
394.857 299.143 L
392.5 298.167 L
390.143 299.143 L
389.167 301.5 L
390.143 303.857 L
392.5 304.833 L
394.857 303.857 L
395.833 301.5 L
cp
f
GR
GS
[0.75 0 0 0.75 0 0] CT
1 LJ
2 LW
N
395.833 301.5 M
395.197 299.541 L
393.53 298.33 L
391.47 298.33 L
389.803 299.541 L
389.167 301.5 L
389.803 303.459 L
391.47 304.67 L
393.53 304.67 L
395.197 303.459 L
cp
S
GR
GS
[0.75 0 0 0.75 0 0] CT
1 GC
N
465.833 320.5 M
464.857 318.143 L
462.5 317.167 L
460.143 318.143 L
459.167 320.5 L
460.143 322.857 L
462.5 323.833 L
464.857 322.857 L
465.833 320.5 L
cp
f
GR
GS
[0.75 0 0 0.75 0 0] CT
1 LJ
2 LW
N
465.833 320.5 M
465.197 318.541 L
463.53 317.33 L
461.47 317.33 L
459.803 318.541 L
459.167 320.5 L
459.803 322.459 L
461.47 323.67 L
463.53 323.67 L
465.197 322.459 L
cp
S
GR
GS
[0.75 0 0 0.75 0 0] CT
1 GC
N
536.833 334.5 M
535.857 332.143 L
533.5 331.167 L
531.143 332.143 L
530.167 334.5 L
531.143 336.857 L
533.5 337.833 L
535.857 336.857 L
536.833 334.5 L
cp
f
GR
GS
[0.75 0 0 0.75 0 0] CT
1 LJ
2 LW
N
536.833 334.5 M
536.197 332.541 L
534.53 331.33 L
532.47 331.33 L
530.803 332.541 L
530.167 334.5 L
530.803 336.459 L
532.47 337.67 L
534.53 337.67 L
536.197 336.459 L
cp
S
GR
GS
[0.75 0 0 0.75 0 0] CT
1 GC
N
606.833 346.5 M
605.857 344.143 L
603.5 343.167 L
601.143 344.143 L
600.167 346.5 L
601.143 348.857 L
603.5 349.833 L
605.857 348.857 L
606.833 346.5 L
cp
f
GR
GS
[0.75 0 0 0.75 0 0] CT
1 LJ
2 LW
N
606.833 346.5 M
606.197 344.541 L
604.53 343.33 L
602.47 343.33 L
600.803 344.541 L
600.167 346.5 L
600.803 348.459 L
602.47 349.67 L
604.53 349.67 L
606.197 348.459 L
cp
S
GR
GS
[0.75 0 0 0.75 0 0] CT
1 GC
N
676.833 355.5 M
675.857 353.143 L
673.5 352.167 L
671.143 353.143 L
670.167 355.5 L
671.143 357.857 L
673.5 358.833 L
675.857 357.857 L
676.833 355.5 L
cp
f
GR
GS
[0.75 0 0 0.75 0 0] CT
1 LJ
2 LW
N
676.833 355.5 M
676.197 353.541 L
674.53 352.33 L
672.47 352.33 L
670.803 353.541 L
670.167 355.5 L
670.803 357.459 L
672.47 358.67 L
674.53 358.67 L
676.197 357.459 L
cp
S
GR
GS
[0.75 0 0 0.75 0 0] CT
1 GC
N
747.833 362.5 M
746.857 360.143 L
744.5 359.167 L
742.143 360.143 L
741.167 362.5 L
742.143 364.857 L
744.5 365.833 L
746.857 364.857 L
747.833 362.5 L
cp
f
GR
GS
[0.75 0 0 0.75 0 0] CT
1 LJ
2 LW
N
747.833 362.5 M
747.197 360.541 L
745.53 359.33 L
743.47 359.33 L
741.803 360.541 L
741.167 362.5 L
741.803 364.459 L
743.47 365.67 L
745.53 365.67 L
747.197 364.459 L
cp
S
GR
GS
[0.75 0 0 0.75 0 0] CT
1 GC
N
625 333 M
625 64 L
731 64 L
731 333 L
cp
f
GR
GS
[0.75 0 0 0.75 496.5 60.37501] CT
/Times 24 F
GS
[1 0 0 1 0 0] CT
0 8.5 moveto 
1 -1 scale
(LBP) t 
GR
GR
GS
[0.75 0 0 0.75 0 0] CT
1 0.6 0.784 RC
1 LJ
2 LW
N
629 80.5 M
659 80.5 L
S
GR
GS
[0.75 0 0 0.75 0 0] CT
1 GC
N
642.278 76.652 M
648.943 80.5 L
642.278 84.348 L
cp
f
GR
GS
[0.75 0 0 0.75 0 0] CT
1 0.6 0.784 RC
10.0 ML
2 LW
N
642.278 76.652 M
648.943 80.5 L
642.278 84.348 L
cp
S
GR
GS
[0.75 0 0 0.75 496.5 82.49999] CT
/Times 24 F
GS
[1 0 0 1 0 0] CT
0 8.5 moveto 
1 -1 scale
(LTP) t 
GR
GR
GS
[0.75 0 0 0.75 0 0] CT
0.6 0.2 0 RC
1 LJ
2 LW
N
629 110 M
659 110 L
S
GR
GS
[0.75 0 0 0.75 0 0] CT
1 GC
N
640.057 109.5 M
646.722 105.652 L
646.722 113.348 L
cp
f
GR
GS
[0.75 0 0 0.75 0 0] CT
0.6 0.2 0 RC
10.0 ML
2 LW
N
640.057 109.5 M
646.722 105.652 L
646.722 113.348 L
cp
S
GR
GS
[0.75 0 0 0.75 496.5 104.625] CT
/Times 24 F
GS
[1 0 0 1 0 0] CT
0 8.5 moveto 
1 -1 scale
(LDP) t 
GR
GR
GS
[0.75 0 0 0.75 0 0] CT
0.929 0.694 0.125 RC
1 LJ
2 LW
N
629 139.5 M
659 139.5 L
S
GR
GS
[0.75 0 0 0.75 0 0] CT
1 GC
N
641.33 138.47 M
643.716 138.47 L
644.5 136.167 L
645.284 138.47 L
647.67 138.47 L
645.768 139.912 L
646.459 142.197 L
644.5 140.833 L
642.541 142.197 L
643.232 139.912 L
641.33 138.47 L
cp
f
GR
GS
[0.75 0 0 0.75 0 0] CT
0.929 0.694 0.125 RC
10.0 ML
2 LW
N
641.33 138.47 M
643.716 138.47 L
644.5 136.167 L
645.284 138.47 L
647.67 138.47 L
645.768 139.912 L
646.459 142.197 L
644.5 140.833 L
642.541 142.197 L
643.232 139.912 L
cp
S
GR
GS
[0.75 0 0 0.75 496.5 126.75] CT
/Times 24 F
GS
[1 0 0 1 0 0] CT
0 8.5 moveto 
1 -1 scale
(LDN) t 
GR
GR
GS
[0.75 0 0 0.75 0 0] CT
0 1 1 RC
1 LJ
2 LW
N
629 169 M
659 169 L
S
GR
GS
[0.75 0 0 0.75 0 0] CT
1 GC
N
644.5 172.943 M
647.833 168.5 L
644.5 164.057 L
641.167 168.5 L
cp
f
GR
GS
[0.75 0 0 0.75 0 0] CT
0 1 1 RC
10.0 ML
2 LW
N
644.5 172.943 M
647.833 168.5 L
644.5 164.057 L
641.167 168.5 L
cp
S
GR
GS
[0.75 0 0 0.75 496.5 148.875] CT
/Times 24 F
GS
[1 0 0 1 0 0] CT
0 8.5 moveto 
1 -1 scale
(LVP) t 
GR
GR
GS
[0.75 0 0 0.75 0 0] CT
0 1 0 RC
1 LJ
2 LW
N
629 198.5 M
659 198.5 L
S
GR
GS
[0.75 0 0 0.75 0 0] CT
1 GC
N
641.9 201.1 M
641.9 195.9 L
647.1 195.9 L
647.1 201.1 L
cp
f
GR
GS
[0.75 0 0 0.75 0 0] CT
0 1 0 RC
10.0 ML
2 LW
N
641.9 201.1 M
641.9 195.9 L
647.1 195.9 L
647.1 201.1 L
cp
S
GR
GS
[0.75 0 0 0.75 496.5 171] CT
/Times 24 F
GS
[1 0 0 1 0 0] CT
0 8.5 moveto 
1 -1 scale
(LDGP) t 
GR
GR
GS
[0.75 0 0 0.75 0 0] CT
0 0 1 RC
1 LJ
2 LW
N
629 228 M
659 228 L
S
GR
GS
[0.75 0 0 0.75 0 0] CT
1 GC
N
640.057 227.5 M
646.722 223.652 L
646.722 231.348 L
cp
f
GR
GS
[0.75 0 0 0.75 0 0] CT
0 0 1 RC
10.0 ML
2 LW
N
640.057 227.5 M
646.722 223.652 L
646.722 231.348 L
cp
S
GR
GS
[0.75 0 0 0.75 496.5 193.125] CT
/Times 24 F
GS
[1 0 0 1 0 0] CT
0 8.5 moveto 
1 -1 scale
(DCP) t 
GR
GR
GS
[0.75 0 0 0.75 0 0] CT
1 0 1 RC
1 LJ
2 LW
N
629 257.5 M
659 257.5 L
S
GR
GS
[0.75 0 0 0.75 0 0] CT
1 0 1 RC
1 LJ
2 LW
N
641 257.5 M
648 257.5 L
S
GR
GS
[0.75 0 0 0.75 0 0] CT
1 0 1 RC
1 LJ
2 LW
N
644.5 261 M
644.5 254 L
S
GR
GS
[0.75 0 0 0.75 496.5 215.25] CT
/Times 24 F
GS
[1 0 0 1 0 0] CT
0 8.5 moveto 
1 -1 scale
(LGHP) t 
GR
GR
GS
[0.75 0 0 0.75 0 0] CT
1 0 0 RC
1 LJ
2 LW
N
629 287 M
659 287 L
S
GR
GS
[0.75 0 0 0.75 0 0] CT
1 GC
N
641.9 290.1 M
641.9 284.9 L
647.1 284.9 L
647.1 290.1 L
cp
f
GR
GS
[0.75 0 0 0.75 0 0] CT
1 0 0 RC
10.0 ML
2 LW
N
641.9 290.1 M
641.9 284.9 L
647.1 284.9 L
647.1 290.1 L
cp
S
GR
GS
[0.75 0 0 0.75 496.5 237.375] CT
/Times 24 F
GS
[1 0 0 1 0 0] CT
0 8.5 moveto 
1 -1 scale
(LDRP) t 
GR
GR
GS
[0.75 0 0 0.75 0 0] CT
1 LJ
2 LW
N
629 316.5 M
659 316.5 L
S
GR
GS
[0.75 0 0 0.75 0 0] CT
1 GC
N
647.833 316.5 M
646.857 314.143 L
644.5 313.167 L
642.143 314.143 L
641.167 316.5 L
642.143 318.857 L
644.5 319.833 L
646.857 318.857 L
647.833 316.5 L
cp
f
GR
GS
[0.75 0 0 0.75 0 0] CT
1 LJ
2 LW
N
647.833 316.5 M
647.197 314.541 L
645.53 313.33 L
643.47 313.33 L
641.803 314.541 L
641.167 316.5 L
641.803 318.459 L
643.47 319.67 L
645.53 319.67 L
647.197 318.459 L
cp
S
GR
GS
[0.75 0 0 0.75 0 0] CT
0.149 GC
10.0 ML
0.667 LW
N
625 333 M
625 64 L
731 64 L
731 333 L
cp
S
GR
%%Trailer
%%Pages: 1
%%EOF
