%!PS-Adobe-3.0 EPSF-3.0
%%Creator: (MATLAB, The Mathworks, Inc. Version 9.0.0.341360 \(R2016a\). Operating System: Linux)
%%Title: (/home/shivram/main/Work/1. Research/1. Ongoing/5. LDRP Face/2. Exp/1. Results/LFW20/lfw-arr.eps)
%%CreationDate: 2017-08-16T15:33:12
%%Pages: (atend)
%%BoundingBox: 0 0 573 384
%%LanguageLevel: 3
%%EndComments
%%BeginProlog
%%BeginResource: procset (Apache XML Graphics Std ProcSet) 1.2 0
%%Version: 1.2 0
%%Copyright: (Copyright 2001-2003,2010 The Apache Software Foundation. License terms: http://www.apache.org/licenses/LICENSE-2.0)
/bd{bind def}bind def
/ld{load def}bd
/GR/grestore ld
/M/moveto ld
/LJ/setlinejoin ld
/C/curveto ld
/f/fill ld
/LW/setlinewidth ld
/GC/setgray ld
/t/show ld
/N/newpath ld
/CT/concat ld
/cp/closepath ld
/S/stroke ld
/L/lineto ld
/CC/setcmykcolor ld
/A/ashow ld
/GS/gsave ld
/RC/setrgbcolor ld
/RM/rmoveto ld
/ML/setmiterlimit ld
/re {4 2 roll M
1 index 0 rlineto
0 exch rlineto
neg 0 rlineto
cp } bd
/_ctm matrix def
/_tm matrix def
/BT { _ctm currentmatrix pop matrix _tm copy pop 0 0 moveto } bd
/ET { _ctm setmatrix } bd
/iTm { _ctm setmatrix _tm concat } bd
/Tm { _tm astore pop iTm 0 0 moveto } bd
/ux 0.0 def
/uy 0.0 def
/F {
  /Tp exch def
  /Tf exch def
  Tf findfont Tp scalefont setfont
  /cf Tf def  /cs Tp def
} bd
/ULS {currentpoint /uy exch def /ux exch def} bd
/ULE {
  /Tcx currentpoint pop def
  gsave
  newpath
  cf findfont cs scalefont dup
  /FontMatrix get 0 get /Ts exch def /FontInfo get dup
  /UnderlinePosition get Ts mul /To exch def
  /UnderlineThickness get Ts mul /Tt exch def
  ux uy To add moveto  Tcx uy To add lineto
  Tt setlinewidth stroke
  grestore
} bd
/OLE {
  /Tcx currentpoint pop def
  gsave
  newpath
  cf findfont cs scalefont dup
  /FontMatrix get 0 get /Ts exch def /FontInfo get dup
  /UnderlinePosition get Ts mul /To exch def
  /UnderlineThickness get Ts mul /Tt exch def
  ux uy To add cs add moveto Tcx uy To add cs add lineto
  Tt setlinewidth stroke
  grestore
} bd
/SOE {
  /Tcx currentpoint pop def
  gsave
  newpath
  cf findfont cs scalefont dup
  /FontMatrix get 0 get /Ts exch def /FontInfo get dup
  /UnderlinePosition get Ts mul /To exch def
  /UnderlineThickness get Ts mul /Tt exch def
  ux uy To add cs 10 mul 26 idiv add moveto Tcx uy To add cs 10 mul 26 idiv add lineto
  Tt setlinewidth stroke
  grestore
} bd
/QT {
/Y22 exch store
/X22 exch store
/Y21 exch store
/X21 exch store
currentpoint
/Y21 load 2 mul add 3 div exch
/X21 load 2 mul add 3 div exch
/X21 load 2 mul /X22 load add 3 div
/Y21 load 2 mul /Y22 load add 3 div
/X22 load /Y22 load curveto
} bd
/SSPD {
dup length /d exch dict def
{
/v exch def
/k exch def
currentpagedevice k known {
/cpdv currentpagedevice k get def
v cpdv ne {
/upd false def
/nullv v type /nulltype eq def
/nullcpdv cpdv type /nulltype eq def
nullv nullcpdv or
{
/upd true def
} {
/sametype v type cpdv type eq def
sametype {
v type /arraytype eq {
/vlen v length def
/cpdvlen cpdv length def
vlen cpdvlen eq {
0 1 vlen 1 sub {
/i exch def
/obj v i get def
/cpdobj cpdv i get def
obj cpdobj ne {
/upd true def
exit
} if
} for
} {
/upd true def
} ifelse
} {
v type /dicttype eq {
v {
/dv exch def
/dk exch def
/cpddv cpdv dk get def
dv cpddv ne {
/upd true def
exit
} if
} forall
} {
/upd true def
} ifelse
} ifelse
} if
} ifelse
upd true eq {
d k v put
} if
} if
} if
} forall
d length 0 gt {
d setpagedevice
} if
} bd
%%EndResource
%%BeginResource: procset (Apache XML Graphics EPS ProcSet) 1.0 0
%%Version: 1.0 0
%%Copyright: (Copyright 2002-2003 The Apache Software Foundation. License terms: http://www.apache.org/licenses/LICENSE-2.0)
/BeginEPSF { %def
/b4_Inc_state save def         % Save state for cleanup
/dict_count countdictstack def % Count objects on dict stack
/op_count count 1 sub def      % Count objects on operand stack
userdict begin                 % Push userdict on dict stack
/showpage { } def              % Redefine showpage, { } = null proc
0 setgray 0 setlinecap         % Prepare graphics state
1 setlinewidth 0 setlinejoin
10 setmiterlimit [ ] 0 setdash newpath
/languagelevel where           % If level not equal to 1 then
{pop languagelevel             % set strokeadjust and
1 ne                           % overprint to their defaults.
{false setstrokeadjust false setoverprint
} if
} if
} bd
/EndEPSF { %def
count op_count sub {pop} repeat            % Clean up stacks
countdictstack dict_count sub {end} repeat
b4_Inc_state restore
} bd
%%EndResource
%FOPBeginFontDict
%%IncludeResource: font Courier-Bold
%%IncludeResource: font Helvetica
%%IncludeResource: font Courier-BoldOblique
%%IncludeResource: font Courier-Oblique
%%IncludeResource: font Times-Roman
%%IncludeResource: font Helvetica-BoldOblique
%%IncludeResource: font Helvetica-Bold
%%IncludeResource: font Helvetica-Oblique
%%IncludeResource: font Times-BoldItalic
%%IncludeResource: font Courier
%%IncludeResource: font Times-Italic
%%IncludeResource: font Times-Bold
%%IncludeResource: font Symbol
%%IncludeResource: font ZapfDingbats
%FOPEndFontDict
%%BeginResource: encoding WinAnsiEncoding
/WinAnsiEncoding [
/.notdef /.notdef /.notdef /.notdef /.notdef
/.notdef /.notdef /.notdef /.notdef /.notdef
/.notdef /.notdef /.notdef /.notdef /.notdef
/.notdef /.notdef /.notdef /.notdef /.notdef
/.notdef /.notdef /.notdef /.notdef /.notdef
/.notdef /.notdef /.notdef /.notdef /.notdef
/.notdef /.notdef /space /exclam /quotedbl
/numbersign /dollar /percent /ampersand /quotesingle
/parenleft /parenright /asterisk /plus /comma
/hyphen /period /slash /zero /one
/two /three /four /five /six
/seven /eight /nine /colon /semicolon
/less /equal /greater /question /at
/A /B /C /D /E
/F /G /H /I /J
/K /L /M /N /O
/P /Q /R /S /T
/U /V /W /X /Y
/Z /bracketleft /backslash /bracketright /asciicircum
/underscore /quoteleft /a /b /c
/d /e /f /g /h
/i /j /k /l /m
/n /o /p /q /r
/s /t /u /v /w
/x /y /z /braceleft /bar
/braceright /asciitilde /bullet /Euro /bullet
/quotesinglbase /florin /quotedblbase /ellipsis /dagger
/daggerdbl /circumflex /perthousand /Scaron /guilsinglleft
/OE /bullet /Zcaron /bullet /bullet
/quoteleft /quoteright /quotedblleft /quotedblright /bullet
/endash /emdash /asciitilde /trademark /scaron
/guilsinglright /oe /bullet /zcaron /Ydieresis
/space /exclamdown /cent /sterling /currency
/yen /brokenbar /section /dieresis /copyright
/ordfeminine /guillemotleft /logicalnot /sfthyphen /registered
/macron /degree /plusminus /twosuperior /threesuperior
/acute /mu /paragraph /middot /cedilla
/onesuperior /ordmasculine /guillemotright /onequarter /onehalf
/threequarters /questiondown /Agrave /Aacute /Acircumflex
/Atilde /Adieresis /Aring /AE /Ccedilla
/Egrave /Eacute /Ecircumflex /Edieresis /Igrave
/Iacute /Icircumflex /Idieresis /Eth /Ntilde
/Ograve /Oacute /Ocircumflex /Otilde /Odieresis
/multiply /Oslash /Ugrave /Uacute /Ucircumflex
/Udieresis /Yacute /Thorn /germandbls /agrave
/aacute /acircumflex /atilde /adieresis /aring
/ae /ccedilla /egrave /eacute /ecircumflex
/edieresis /igrave /iacute /icircumflex /idieresis
/eth /ntilde /ograve /oacute /ocircumflex
/otilde /odieresis /divide /oslash /ugrave
/uacute /ucircumflex /udieresis /yacute /thorn
/ydieresis
] def
%%EndResource
%FOPBeginFontReencode
/Courier-Bold findfont
dup length dict begin
  {1 index /FID ne {def} {pop pop} ifelse} forall
  /Encoding WinAnsiEncoding def
  currentdict
end
/Courier-Bold exch definefont pop
/Helvetica findfont
dup length dict begin
  {1 index /FID ne {def} {pop pop} ifelse} forall
  /Encoding WinAnsiEncoding def
  currentdict
end
/Helvetica exch definefont pop
/Courier-BoldOblique findfont
dup length dict begin
  {1 index /FID ne {def} {pop pop} ifelse} forall
  /Encoding WinAnsiEncoding def
  currentdict
end
/Courier-BoldOblique exch definefont pop
/Courier-Oblique findfont
dup length dict begin
  {1 index /FID ne {def} {pop pop} ifelse} forall
  /Encoding WinAnsiEncoding def
  currentdict
end
/Courier-Oblique exch definefont pop
/Times-Roman findfont
dup length dict begin
  {1 index /FID ne {def} {pop pop} ifelse} forall
  /Encoding WinAnsiEncoding def
  currentdict
end
/Times-Roman exch definefont pop
/Helvetica-BoldOblique findfont
dup length dict begin
  {1 index /FID ne {def} {pop pop} ifelse} forall
  /Encoding WinAnsiEncoding def
  currentdict
end
/Helvetica-BoldOblique exch definefont pop
/Helvetica-Bold findfont
dup length dict begin
  {1 index /FID ne {def} {pop pop} ifelse} forall
  /Encoding WinAnsiEncoding def
  currentdict
end
/Helvetica-Bold exch definefont pop
/Helvetica-Oblique findfont
dup length dict begin
  {1 index /FID ne {def} {pop pop} ifelse} forall
  /Encoding WinAnsiEncoding def
  currentdict
end
/Helvetica-Oblique exch definefont pop
/Times-BoldItalic findfont
dup length dict begin
  {1 index /FID ne {def} {pop pop} ifelse} forall
  /Encoding WinAnsiEncoding def
  currentdict
end
/Times-BoldItalic exch definefont pop
/Courier findfont
dup length dict begin
  {1 index /FID ne {def} {pop pop} ifelse} forall
  /Encoding WinAnsiEncoding def
  currentdict
end
/Courier exch definefont pop
/Times-Italic findfont
dup length dict begin
  {1 index /FID ne {def} {pop pop} ifelse} forall
  /Encoding WinAnsiEncoding def
  currentdict
end
/Times-Italic exch definefont pop
/Times-Bold findfont
dup length dict begin
  {1 index /FID ne {def} {pop pop} ifelse} forall
  /Encoding WinAnsiEncoding def
  currentdict
end
/Times-Bold exch definefont pop
%FOPEndFontReencode
%%EndProlog
%%Page: 1 1
%%PageBoundingBox: 0 0 573 384
%%BeginPageSetup
[1 0 0 -1 0 384] CT
%%EndPageSetup
GS
[0.75 0 0 0.75 0 0] CT
1 GC
N
0 0 764 512 re
f
GR
GS
[0.75 0 0 0.75 0 0] CT
1 GC
N
0 0 764 512 re
f
GR
GS
[0.75 0 0 0.75 0 0] CT
1 GC
N
69 421 M
743 421 L
743 51 L
69 51 L
cp
f
GR
GS
[0.75 0 0 0.75 0 0] CT
0.149 GC
2 setlinecap
1 LJ
0.667 LW
N
69 421 M
743 421 L
S
GR
GS
[0.75 0 0 0.75 0 0] CT
0.149 GC
2 setlinecap
1 LJ
0.667 LW
N
69 51 M
743 51 L
S
GR
GS
[0.75 0 0 0.75 0 0] CT
0.149 GC
2 setlinecap
1 LJ
0.667 LW
N
69 421 M
69 414.26 L
S
GR
GS
[0.75 0 0 0.75 0 0] CT
0.149 GC
2 setlinecap
1 LJ
0.667 LW
N
143.889 421 M
143.889 414.26 L
S
GR
GS
[0.75 0 0 0.75 0 0] CT
0.149 GC
2 setlinecap
1 LJ
0.667 LW
N
218.778 421 M
218.778 414.26 L
S
GR
GS
[0.75 0 0 0.75 0 0] CT
0.149 GC
2 setlinecap
1 LJ
0.667 LW
N
293.667 421 M
293.667 414.26 L
S
GR
GS
[0.75 0 0 0.75 0 0] CT
0.149 GC
2 setlinecap
1 LJ
0.667 LW
N
368.556 421 M
368.556 414.26 L
S
GR
GS
[0.75 0 0 0.75 0 0] CT
0.149 GC
2 setlinecap
1 LJ
0.667 LW
N
443.444 421 M
443.444 414.26 L
S
GR
GS
[0.75 0 0 0.75 0 0] CT
0.149 GC
2 setlinecap
1 LJ
0.667 LW
N
518.333 421 M
518.333 414.26 L
S
GR
GS
[0.75 0 0 0.75 0 0] CT
0.149 GC
2 setlinecap
1 LJ
0.667 LW
N
593.222 421 M
593.222 414.26 L
S
GR
GS
[0.75 0 0 0.75 0 0] CT
0.149 GC
2 setlinecap
1 LJ
0.667 LW
N
668.111 421 M
668.111 414.26 L
S
GR
GS
[0.75 0 0 0.75 0 0] CT
0.149 GC
2 setlinecap
1 LJ
0.667 LW
N
743 421 M
743 414.26 L
S
GR
GS
[0.75 0 0 0.75 0 0] CT
0.149 GC
2 setlinecap
1 LJ
0.667 LW
N
69 51 M
69 57.74 L
S
GR
GS
[0.75 0 0 0.75 0 0] CT
0.149 GC
2 setlinecap
1 LJ
0.667 LW
N
143.889 51 M
143.889 57.74 L
S
GR
GS
[0.75 0 0 0.75 0 0] CT
0.149 GC
2 setlinecap
1 LJ
0.667 LW
N
218.778 51 M
218.778 57.74 L
S
GR
GS
[0.75 0 0 0.75 0 0] CT
0.149 GC
2 setlinecap
1 LJ
0.667 LW
N
293.667 51 M
293.667 57.74 L
S
GR
GS
[0.75 0 0 0.75 0 0] CT
0.149 GC
2 setlinecap
1 LJ
0.667 LW
N
368.556 51 M
368.556 57.74 L
S
GR
GS
[0.75 0 0 0.75 0 0] CT
0.149 GC
2 setlinecap
1 LJ
0.667 LW
N
443.444 51 M
443.444 57.74 L
S
GR
GS
[0.75 0 0 0.75 0 0] CT
0.149 GC
2 setlinecap
1 LJ
0.667 LW
N
518.333 51 M
518.333 57.74 L
S
GR
GS
[0.75 0 0 0.75 0 0] CT
0.149 GC
2 setlinecap
1 LJ
0.667 LW
N
593.222 51 M
593.222 57.74 L
S
GR
GS
[0.75 0 0 0.75 0 0] CT
0.149 GC
2 setlinecap
1 LJ
0.667 LW
N
668.111 51 M
668.111 57.74 L
S
GR
GS
[0.75 0 0 0.75 0 0] CT
0.149 GC
2 setlinecap
1 LJ
0.667 LW
N
743 51 M
743 57.74 L
S
GR
GS
[0.75 0 0 0.75 51.75 322.55001] CT
0.149 GC
/Times 32 F
GS
[1 0 0 1 0 0] CT
-10.5 30 moveto 
1 -1 scale
(1) t 
GR
GR
GS
[0.75 0 0 0.75 107.91666 322.55001] CT
0.149 GC
/Times 32 F
GS
[1 0 0 1 0 0] CT
-10.5 30 moveto 
1 -1 scale
(2) t 
GR
GR
GS
[0.75 0 0 0.75 164.08333 322.55001] CT
0.149 GC
/Times 32 F
GS
[1 0 0 1 0 0] CT
-10.5 30 moveto 
1 -1 scale
(3) t 
GR
GR
GS
[0.75 0 0 0.75 220.24999 322.55001] CT
0.149 GC
/Times 32 F
GS
[1 0 0 1 0 0] CT
-10.5 30 moveto 
1 -1 scale
(4) t 
GR
GR
GS
[0.75 0 0 0.75 276.41666 322.55001] CT
0.149 GC
/Times 32 F
GS
[1 0 0 1 0 0] CT
-10.5 30 moveto 
1 -1 scale
(5) t 
GR
GR
GS
[0.75 0 0 0.75 332.58334 322.55001] CT
0.149 GC
/Times 32 F
GS
[1 0 0 1 0 0] CT
-10.5 30 moveto 
1 -1 scale
(6) t 
GR
GR
GS
[0.75 0 0 0.75 388.74998 322.55001] CT
0.149 GC
/Times 32 F
GS
[1 0 0 1 0 0] CT
-10.5 30 moveto 
1 -1 scale
(7) t 
GR
GR
GS
[0.75 0 0 0.75 444.91667 322.55001] CT
0.149 GC
/Times 32 F
GS
[1 0 0 1 0 0] CT
-10.5 30 moveto 
1 -1 scale
(8) t 
GR
GR
GS
[0.75 0 0 0.75 501.08331 322.55001] CT
0.149 GC
/Times 32 F
GS
[1 0 0 1 0 0] CT
-10.5 30 moveto 
1 -1 scale
(9) t 
GR
GR
GS
[0.75 0 0 0.75 557.25 322.55001] CT
0.149 GC
/Times 32 F
GS
[1 0 0 1 0 0] CT
-20.5 30 moveto 
1 -1 scale
(10) t 
GR
GR
GS
[0.75 0 0 0.75 304.50025 352.05] CT
0.149 GC
/Times 35.2 F
GS
[1 0 0 1 0 0] CT
-210 33 moveto 
1 -1 scale
(Number of Top Matches) t 
GR
GR
GS
[0.75 0 0 0.75 0 0] CT
0.149 GC
2 setlinecap
1 LJ
0.667 LW
N
69 421 M
69 51 L
S
GR
GS
[0.75 0 0 0.75 0 0] CT
0.149 GC
2 setlinecap
1 LJ
0.667 LW
N
743 421 M
743 51 L
S
GR
GS
[0.75 0 0 0.75 0 0] CT
0.149 GC
2 setlinecap
1 LJ
0.667 LW
N
69 421 M
75.74 421 L
S
GR
GS
[0.75 0 0 0.75 0 0] CT
0.149 GC
2 setlinecap
1 LJ
0.667 LW
N
69 340.565 M
75.74 340.565 L
S
GR
GS
[0.75 0 0 0.75 0 0] CT
0.149 GC
2 setlinecap
1 LJ
0.667 LW
N
69 260.13 M
75.74 260.13 L
S
GR
GS
[0.75 0 0 0.75 0 0] CT
0.149 GC
2 setlinecap
1 LJ
0.667 LW
N
69 179.696 M
75.74 179.696 L
S
GR
GS
[0.75 0 0 0.75 0 0] CT
0.149 GC
2 setlinecap
1 LJ
0.667 LW
N
69 99.261 M
75.74 99.261 L
S
GR
GS
[0.75 0 0 0.75 0 0] CT
0.149 GC
2 setlinecap
1 LJ
0.667 LW
N
743 421 M
736.26 421 L
S
GR
GS
[0.75 0 0 0.75 0 0] CT
0.149 GC
2 setlinecap
1 LJ
0.667 LW
N
743 340.565 M
736.26 340.565 L
S
GR
GS
[0.75 0 0 0.75 0 0] CT
0.149 GC
2 setlinecap
1 LJ
0.667 LW
N
743 260.13 M
736.26 260.13 L
S
GR
GS
[0.75 0 0 0.75 0 0] CT
0.149 GC
2 setlinecap
1 LJ
0.667 LW
N
743 179.696 M
736.26 179.696 L
S
GR
GS
[0.75 0 0 0.75 0 0] CT
0.149 GC
2 setlinecap
1 LJ
0.667 LW
N
743 99.261 M
736.26 99.261 L
S
GR
GS
[0.75 0 0 0.75 44.95 315.75] CT
0.149 GC
/Times 32 F
GS
[1 0 0 1 0 0] CT
-21 11 moveto 
1 -1 scale
(3) t 
GR
GR
GS
[0.75 0 0 0.75 44.95 255.42391] CT
0.149 GC
/Times 32 F
GS
[1 0 0 1 0 0] CT
-21 11 moveto 
1 -1 scale
(4) t 
GR
GR
GS
[0.75 0 0 0.75 44.95 195.09782] CT
0.149 GC
/Times 32 F
GS
[1 0 0 1 0 0] CT
-21 11 moveto 
1 -1 scale
(5) t 
GR
GR
GS
[0.75 0 0 0.75 44.95 134.77174] CT
0.149 GC
/Times 32 F
GS
[1 0 0 1 0 0] CT
-21 11 moveto 
1 -1 scale
(6) t 
GR
GR
GS
[0.75 0 0 0.75 44.95 74.44565] CT
0.149 GC
/Times 32 F
GS
[1 0 0 1 0 0] CT
-21 11 moveto 
1 -1 scale
(7) t 
GR
GR
GS
[0 -0.75 0.75 0 26.2 176.99987] CT
0.149 GC
/Times 35.2 F
GS
[1 0 0 1 0 0] CT
-72.5 -9 moveto 
1 -1 scale
(ARR \(%\)) t 
GR
GR
GS
[0.75 0 0 0.75 304.5003 33.3] CT
/Times 35.2 F
GS
[1 0 0 1 0 0] CT
-126.5 -9 moveto 
1 -1 scale
(LFW Database) t 
GR
GR
GS
[0.75 0 0 0.75 0 0] CT
1 0.6 0.784 RC
1 LJ
2 LW
N
69 405.67 M
143.889 385.169 L
218.778 367.181 L
293.667 353.614 L
368.556 338.637 L
443.444 325.033 L
518.333 313.904 L
593.222 302.231 L
668.111 292.28 L
743 283.517 L
S
GR
GS
[0.75 0 0 0.75 0 0] CT
1 GC
N
67.278 401.652 M
73.943 405.5 L
67.278 409.348 L
cp
f
GR
GS
[0.75 0 0 0.75 0 0] CT
1 0.6 0.784 RC
10.0 ML
2 LW
N
67.278 401.652 M
73.943 405.5 L
67.278 409.348 L
cp
S
GR
GS
[0.75 0 0 0.75 0 0] CT
1 GC
N
141.278 381.652 M
147.943 385.5 L
141.278 389.348 L
cp
f
GR
GS
[0.75 0 0 0.75 0 0] CT
1 0.6 0.784 RC
10.0 ML
2 LW
N
141.278 381.652 M
147.943 385.5 L
141.278 389.348 L
cp
S
GR
GS
[0.75 0 0 0.75 0 0] CT
1 GC
N
216.278 363.652 M
222.943 367.5 L
216.278 371.348 L
cp
f
GR
GS
[0.75 0 0 0.75 0 0] CT
1 0.6 0.784 RC
10.0 ML
2 LW
N
216.278 363.652 M
222.943 367.5 L
216.278 371.348 L
cp
S
GR
GS
[0.75 0 0 0.75 0 0] CT
1 GC
N
291.278 349.652 M
297.943 353.5 L
291.278 357.348 L
cp
f
GR
GS
[0.75 0 0 0.75 0 0] CT
1 0.6 0.784 RC
10.0 ML
2 LW
N
291.278 349.652 M
297.943 353.5 L
291.278 357.348 L
cp
S
GR
GS
[0.75 0 0 0.75 0 0] CT
1 GC
N
366.278 334.652 M
372.943 338.5 L
366.278 342.348 L
cp
f
GR
GS
[0.75 0 0 0.75 0 0] CT
1 0.6 0.784 RC
10.0 ML
2 LW
N
366.278 334.652 M
372.943 338.5 L
366.278 342.348 L
cp
S
GR
GS
[0.75 0 0 0.75 0 0] CT
1 GC
N
441.278 321.652 M
447.943 325.5 L
441.278 329.348 L
cp
f
GR
GS
[0.75 0 0 0.75 0 0] CT
1 0.6 0.784 RC
10.0 ML
2 LW
N
441.278 321.652 M
447.943 325.5 L
441.278 329.348 L
cp
S
GR
GS
[0.75 0 0 0.75 0 0] CT
1 GC
N
516.278 309.652 M
522.943 313.5 L
516.278 317.348 L
cp
f
GR
GS
[0.75 0 0 0.75 0 0] CT
1 0.6 0.784 RC
10.0 ML
2 LW
N
516.278 309.652 M
522.943 313.5 L
516.278 317.348 L
cp
S
GR
GS
[0.75 0 0 0.75 0 0] CT
1 GC
N
591.278 298.652 M
597.943 302.5 L
591.278 306.348 L
cp
f
GR
GS
[0.75 0 0 0.75 0 0] CT
1 0.6 0.784 RC
10.0 ML
2 LW
N
591.278 298.652 M
597.943 302.5 L
591.278 306.348 L
cp
S
GR
GS
[0.75 0 0 0.75 0 0] CT
1 GC
N
666.278 288.652 M
672.943 292.5 L
666.278 296.348 L
cp
f
GR
GS
[0.75 0 0 0.75 0 0] CT
1 0.6 0.784 RC
10.0 ML
2 LW
N
666.278 288.652 M
672.943 292.5 L
666.278 296.348 L
cp
S
GR
GS
[0.75 0 0 0.75 0 0] CT
1 GC
N
741.278 279.652 M
747.943 283.5 L
741.278 287.348 L
cp
f
GR
GS
[0.75 0 0 0.75 0 0] CT
1 0.6 0.784 RC
10.0 ML
2 LW
N
741.278 279.652 M
747.943 283.5 L
741.278 287.348 L
cp
S
GR
GS
[0.75 0 0 0.75 0 0] CT
0.6 0.2 0 RC
1 LJ
2 LW
N
69 405.67 M
143.889 381.73 L
218.778 367.368 L
293.667 351.108 L
368.556 337.974 L
443.444 327.671 L
518.333 315.062 L
593.222 304.459 L
668.111 293.756 L
743 283.181 L
S
GR
GS
[0.75 0 0 0.75 0 0] CT
1 GC
N
65.057 405.5 M
71.722 401.652 L
71.722 409.348 L
cp
f
GR
GS
[0.75 0 0 0.75 0 0] CT
0.6 0.2 0 RC
10.0 ML
2 LW
N
65.057 405.5 M
71.722 401.652 L
71.722 409.348 L
cp
S
GR
GS
[0.75 0 0 0.75 0 0] CT
1 GC
N
139.057 381.5 M
145.722 377.652 L
145.722 385.348 L
cp
f
GR
GS
[0.75 0 0 0.75 0 0] CT
0.6 0.2 0 RC
10.0 ML
2 LW
N
139.057 381.5 M
145.722 377.652 L
145.722 385.348 L
cp
S
GR
GS
[0.75 0 0 0.75 0 0] CT
1 GC
N
214.057 367.5 M
220.722 363.652 L
220.722 371.348 L
cp
f
GR
GS
[0.75 0 0 0.75 0 0] CT
0.6 0.2 0 RC
10.0 ML
2 LW
N
214.057 367.5 M
220.722 363.652 L
220.722 371.348 L
cp
S
GR
GS
[0.75 0 0 0.75 0 0] CT
1 GC
N
289.057 351.5 M
295.722 347.652 L
295.722 355.348 L
cp
f
GR
GS
[0.75 0 0 0.75 0 0] CT
0.6 0.2 0 RC
10.0 ML
2 LW
N
289.057 351.5 M
295.722 347.652 L
295.722 355.348 L
cp
S
GR
GS
[0.75 0 0 0.75 0 0] CT
1 GC
N
364.057 337.5 M
370.722 333.652 L
370.722 341.348 L
cp
f
GR
GS
[0.75 0 0 0.75 0 0] CT
0.6 0.2 0 RC
10.0 ML
2 LW
N
364.057 337.5 M
370.722 333.652 L
370.722 341.348 L
cp
S
GR
GS
[0.75 0 0 0.75 0 0] CT
1 GC
N
439.057 327.5 M
445.722 323.652 L
445.722 331.348 L
cp
f
GR
GS
[0.75 0 0 0.75 0 0] CT
0.6 0.2 0 RC
10.0 ML
2 LW
N
439.057 327.5 M
445.722 323.652 L
445.722 331.348 L
cp
S
GR
GS
[0.75 0 0 0.75 0 0] CT
1 GC
N
514.057 315.5 M
520.722 311.652 L
520.722 319.348 L
cp
f
GR
GS
[0.75 0 0 0.75 0 0] CT
0.6 0.2 0 RC
10.0 ML
2 LW
N
514.057 315.5 M
520.722 311.652 L
520.722 319.348 L
cp
S
GR
GS
[0.75 0 0 0.75 0 0] CT
1 GC
N
589.057 304.5 M
595.722 300.652 L
595.722 308.348 L
cp
f
GR
GS
[0.75 0 0 0.75 0 0] CT
0.6 0.2 0 RC
10.0 ML
2 LW
N
589.057 304.5 M
595.722 300.652 L
595.722 308.348 L
cp
S
GR
GS
[0.75 0 0 0.75 0 0] CT
1 GC
N
664.057 293.5 M
670.722 289.652 L
670.722 297.348 L
cp
f
GR
GS
[0.75 0 0 0.75 0 0] CT
0.6 0.2 0 RC
10.0 ML
2 LW
N
664.057 293.5 M
670.722 289.652 L
670.722 297.348 L
cp
S
GR
GS
[0.75 0 0 0.75 0 0] CT
1 GC
N
739.057 283.5 M
745.722 279.652 L
745.722 287.348 L
cp
f
GR
GS
[0.75 0 0 0.75 0 0] CT
0.6 0.2 0 RC
10.0 ML
2 LW
N
739.057 283.5 M
745.722 279.652 L
745.722 287.348 L
cp
S
GR
GS
[0.75 0 0 0.75 0 0] CT
0.929 0.694 0.125 RC
1 LJ
2 LW
N
69 405.67 M
143.889 385.859 L
218.778 370.218 L
293.667 356.944 L
368.556 344.154 L
443.444 333.234 L
518.333 322.545 L
593.222 313.012 L
668.111 304.412 L
743 295.05 L
S
GR
GS
[0.75 0 0 0.75 0 0] CT
1 GC
N
66.33 404.47 M
68.716 404.47 L
69.5 402.167 L
70.284 404.47 L
72.67 404.47 L
70.768 405.912 L
71.459 408.197 L
69.5 406.833 L
67.541 408.197 L
68.232 405.912 L
66.33 404.47 L
cp
f
GR
GS
[0.75 0 0 0.75 0 0] CT
0.929 0.694 0.125 RC
10.0 ML
2 LW
N
66.33 404.47 M
68.716 404.47 L
69.5 402.167 L
70.284 404.47 L
72.67 404.47 L
70.768 405.912 L
71.459 408.197 L
69.5 406.833 L
67.541 408.197 L
68.232 405.912 L
cp
S
GR
GS
[0.75 0 0 0.75 0 0] CT
1 GC
N
140.33 384.47 M
142.716 384.47 L
143.5 382.167 L
144.284 384.47 L
146.67 384.47 L
144.768 385.912 L
145.459 388.197 L
143.5 386.833 L
141.541 388.197 L
142.232 385.912 L
140.33 384.47 L
cp
f
GR
GS
[0.75 0 0 0.75 0 0] CT
0.929 0.694 0.125 RC
10.0 ML
2 LW
N
140.33 384.47 M
142.716 384.47 L
143.5 382.167 L
144.284 384.47 L
146.67 384.47 L
144.768 385.912 L
145.459 388.197 L
143.5 386.833 L
141.541 388.197 L
142.232 385.912 L
cp
S
GR
GS
[0.75 0 0 0.75 0 0] CT
1 GC
N
215.33 369.47 M
217.716 369.47 L
218.5 367.167 L
219.284 369.47 L
221.67 369.47 L
219.768 370.912 L
220.459 373.197 L
218.5 371.833 L
216.541 373.197 L
217.232 370.912 L
215.33 369.47 L
cp
f
GR
GS
[0.75 0 0 0.75 0 0] CT
0.929 0.694 0.125 RC
10.0 ML
2 LW
N
215.33 369.47 M
217.716 369.47 L
218.5 367.167 L
219.284 369.47 L
221.67 369.47 L
219.768 370.912 L
220.459 373.197 L
218.5 371.833 L
216.541 373.197 L
217.232 370.912 L
cp
S
GR
GS
[0.75 0 0 0.75 0 0] CT
1 GC
N
290.33 355.47 M
292.716 355.47 L
293.5 353.167 L
294.284 355.47 L
296.67 355.47 L
294.768 356.912 L
295.459 359.197 L
293.5 357.833 L
291.541 359.197 L
292.232 356.912 L
290.33 355.47 L
cp
f
GR
GS
[0.75 0 0 0.75 0 0] CT
0.929 0.694 0.125 RC
10.0 ML
2 LW
N
290.33 355.47 M
292.716 355.47 L
293.5 353.167 L
294.284 355.47 L
296.67 355.47 L
294.768 356.912 L
295.459 359.197 L
293.5 357.833 L
291.541 359.197 L
292.232 356.912 L
cp
S
GR
GS
[0.75 0 0 0.75 0 0] CT
1 GC
N
365.33 343.47 M
367.716 343.47 L
368.5 341.167 L
369.284 343.47 L
371.67 343.47 L
369.768 344.912 L
370.459 347.197 L
368.5 345.833 L
366.541 347.197 L
367.232 344.912 L
365.33 343.47 L
cp
f
GR
GS
[0.75 0 0 0.75 0 0] CT
0.929 0.694 0.125 RC
10.0 ML
2 LW
N
365.33 343.47 M
367.716 343.47 L
368.5 341.167 L
369.284 343.47 L
371.67 343.47 L
369.768 344.912 L
370.459 347.197 L
368.5 345.833 L
366.541 347.197 L
367.232 344.912 L
cp
S
GR
GS
[0.75 0 0 0.75 0 0] CT
1 GC
N
440.33 332.47 M
442.716 332.47 L
443.5 330.167 L
444.284 332.47 L
446.67 332.47 L
444.768 333.912 L
445.459 336.197 L
443.5 334.833 L
441.541 336.197 L
442.232 333.912 L
440.33 332.47 L
cp
f
GR
GS
[0.75 0 0 0.75 0 0] CT
0.929 0.694 0.125 RC
10.0 ML
2 LW
N
440.33 332.47 M
442.716 332.47 L
443.5 330.167 L
444.284 332.47 L
446.67 332.47 L
444.768 333.912 L
445.459 336.197 L
443.5 334.833 L
441.541 336.197 L
442.232 333.912 L
cp
S
GR
GS
[0.75 0 0 0.75 0 0] CT
1 GC
N
515.33 321.47 M
517.716 321.47 L
518.5 319.167 L
519.284 321.47 L
521.67 321.47 L
519.768 322.912 L
520.459 325.197 L
518.5 323.833 L
516.541 325.197 L
517.232 322.912 L
515.33 321.47 L
cp
f
GR
GS
[0.75 0 0 0.75 0 0] CT
0.929 0.694 0.125 RC
10.0 ML
2 LW
N
515.33 321.47 M
517.716 321.47 L
518.5 319.167 L
519.284 321.47 L
521.67 321.47 L
519.768 322.912 L
520.459 325.197 L
518.5 323.833 L
516.541 325.197 L
517.232 322.912 L
cp
S
GR
GS
[0.75 0 0 0.75 0 0] CT
1 GC
N
590.33 312.47 M
592.716 312.47 L
593.5 310.167 L
594.284 312.47 L
596.67 312.47 L
594.768 313.912 L
595.459 316.197 L
593.5 314.833 L
591.541 316.197 L
592.232 313.912 L
590.33 312.47 L
cp
f
GR
GS
[0.75 0 0 0.75 0 0] CT
0.929 0.694 0.125 RC
10.0 ML
2 LW
N
590.33 312.47 M
592.716 312.47 L
593.5 310.167 L
594.284 312.47 L
596.67 312.47 L
594.768 313.912 L
595.459 316.197 L
593.5 314.833 L
591.541 316.197 L
592.232 313.912 L
cp
S
GR
GS
[0.75 0 0 0.75 0 0] CT
1 GC
N
665.33 303.47 M
667.716 303.47 L
668.5 301.167 L
669.284 303.47 L
671.67 303.47 L
669.768 304.912 L
670.459 307.197 L
668.5 305.833 L
666.541 307.197 L
667.232 304.912 L
665.33 303.47 L
cp
f
GR
GS
[0.75 0 0 0.75 0 0] CT
0.929 0.694 0.125 RC
10.0 ML
2 LW
N
665.33 303.47 M
667.716 303.47 L
668.5 301.167 L
669.284 303.47 L
671.67 303.47 L
669.768 304.912 L
670.459 307.197 L
668.5 305.833 L
666.541 307.197 L
667.232 304.912 L
cp
S
GR
GS
[0.75 0 0 0.75 0 0] CT
1 GC
N
740.33 294.47 M
742.716 294.47 L
743.5 292.167 L
744.284 294.47 L
746.67 294.47 L
744.768 295.912 L
745.459 298.197 L
743.5 296.833 L
741.541 298.197 L
742.232 295.912 L
740.33 294.47 L
cp
f
GR
GS
[0.75 0 0 0.75 0 0] CT
0.929 0.694 0.125 RC
10.0 ML
2 LW
N
740.33 294.47 M
742.716 294.47 L
743.5 292.167 L
744.284 294.47 L
746.67 294.47 L
744.768 295.912 L
745.459 298.197 L
743.5 296.833 L
741.541 298.197 L
742.232 295.912 L
cp
S
GR
GS
[0.75 0 0 0.75 0 0] CT
0 1 1 RC
1 LJ
2 LW
N
69 405.67 M
143.889 388.074 L
218.778 375.646 L
293.667 364.328 L
368.556 353.275 L
443.444 343.173 L
518.333 334.517 L
593.222 325.216 L
668.111 314.45 L
743 306.684 L
S
GR
GS
[0.75 0 0 0.75 0 0] CT
1 GC
N
69.5 409.943 M
72.833 405.5 L
69.5 401.057 L
66.167 405.5 L
cp
f
GR
GS
[0.75 0 0 0.75 0 0] CT
0 1 1 RC
10.0 ML
2 LW
N
69.5 409.943 M
72.833 405.5 L
69.5 401.057 L
66.167 405.5 L
cp
S
GR
GS
[0.75 0 0 0.75 0 0] CT
1 GC
N
143.5 392.943 M
146.833 388.5 L
143.5 384.057 L
140.167 388.5 L
cp
f
GR
GS
[0.75 0 0 0.75 0 0] CT
0 1 1 RC
10.0 ML
2 LW
N
143.5 392.943 M
146.833 388.5 L
143.5 384.057 L
140.167 388.5 L
cp
S
GR
GS
[0.75 0 0 0.75 0 0] CT
1 GC
N
218.5 379.943 M
221.833 375.5 L
218.5 371.057 L
215.167 375.5 L
cp
f
GR
GS
[0.75 0 0 0.75 0 0] CT
0 1 1 RC
10.0 ML
2 LW
N
218.5 379.943 M
221.833 375.5 L
218.5 371.057 L
215.167 375.5 L
cp
S
GR
GS
[0.75 0 0 0.75 0 0] CT
1 GC
N
293.5 368.943 M
296.833 364.5 L
293.5 360.057 L
290.167 364.5 L
cp
f
GR
GS
[0.75 0 0 0.75 0 0] CT
0 1 1 RC
10.0 ML
2 LW
N
293.5 368.943 M
296.833 364.5 L
293.5 360.057 L
290.167 364.5 L
cp
S
GR
GS
[0.75 0 0 0.75 0 0] CT
1 GC
N
368.5 357.943 M
371.833 353.5 L
368.5 349.057 L
365.167 353.5 L
cp
f
GR
GS
[0.75 0 0 0.75 0 0] CT
0 1 1 RC
10.0 ML
2 LW
N
368.5 357.943 M
371.833 353.5 L
368.5 349.057 L
365.167 353.5 L
cp
S
GR
GS
[0.75 0 0 0.75 0 0] CT
1 GC
N
443.5 347.943 M
446.833 343.5 L
443.5 339.057 L
440.167 343.5 L
cp
f
GR
GS
[0.75 0 0 0.75 0 0] CT
0 1 1 RC
10.0 ML
2 LW
N
443.5 347.943 M
446.833 343.5 L
443.5 339.057 L
440.167 343.5 L
cp
S
GR
GS
[0.75 0 0 0.75 0 0] CT
1 GC
N
518.5 338.943 M
521.833 334.5 L
518.5 330.057 L
515.167 334.5 L
cp
f
GR
GS
[0.75 0 0 0.75 0 0] CT
0 1 1 RC
10.0 ML
2 LW
N
518.5 338.943 M
521.833 334.5 L
518.5 330.057 L
515.167 334.5 L
cp
S
GR
GS
[0.75 0 0 0.75 0 0] CT
1 GC
N
593.5 329.943 M
596.833 325.5 L
593.5 321.057 L
590.167 325.5 L
cp
f
GR
GS
[0.75 0 0 0.75 0 0] CT
0 1 1 RC
10.0 ML
2 LW
N
593.5 329.943 M
596.833 325.5 L
593.5 321.057 L
590.167 325.5 L
cp
S
GR
GS
[0.75 0 0 0.75 0 0] CT
1 GC
N
668.5 318.943 M
671.833 314.5 L
668.5 310.057 L
665.167 314.5 L
cp
f
GR
GS
[0.75 0 0 0.75 0 0] CT
0 1 1 RC
10.0 ML
2 LW
N
668.5 318.943 M
671.833 314.5 L
668.5 310.057 L
665.167 314.5 L
cp
S
GR
GS
[0.75 0 0 0.75 0 0] CT
1 GC
N
743.5 310.943 M
746.833 306.5 L
743.5 302.057 L
740.167 306.5 L
cp
f
GR
GS
[0.75 0 0 0.75 0 0] CT
0 1 1 RC
10.0 ML
2 LW
N
743.5 310.943 M
746.833 306.5 L
743.5 302.057 L
740.167 306.5 L
cp
S
GR
GS
[0.75 0 0 0.75 0 0] CT
0 1 0 RC
1 LJ
2 LW
N
69 405.67 M
143.889 362.867 L
218.778 332.7 L
293.667 307.276 L
368.556 290.102 L
443.444 272.668 L
518.333 253.675 L
593.222 236.049 L
668.111 219.114 L
743 206.466 L
S
GR
GS
[0.75 0 0 0.75 0 0] CT
1 GC
N
66.9 408.1 M
66.9 402.9 L
72.1 402.9 L
72.1 408.1 L
cp
f
GR
GS
[0.75 0 0 0.75 0 0] CT
0 1 0 RC
10.0 ML
2 LW
N
66.9 408.1 M
66.9 402.9 L
72.1 402.9 L
72.1 408.1 L
cp
S
GR
GS
[0.75 0 0 0.75 0 0] CT
1 GC
N
140.9 365.1 M
140.9 359.9 L
146.1 359.9 L
146.1 365.1 L
cp
f
GR
GS
[0.75 0 0 0.75 0 0] CT
0 1 0 RC
10.0 ML
2 LW
N
140.9 365.1 M
140.9 359.9 L
146.1 359.9 L
146.1 365.1 L
cp
S
GR
GS
[0.75 0 0 0.75 0 0] CT
1 GC
N
215.9 335.1 M
215.9 329.9 L
221.1 329.9 L
221.1 335.1 L
cp
f
GR
GS
[0.75 0 0 0.75 0 0] CT
0 1 0 RC
10.0 ML
2 LW
N
215.9 335.1 M
215.9 329.9 L
221.1 329.9 L
221.1 335.1 L
cp
S
GR
GS
[0.75 0 0 0.75 0 0] CT
1 GC
N
290.9 310.1 M
290.9 304.9 L
296.1 304.9 L
296.1 310.1 L
cp
f
GR
GS
[0.75 0 0 0.75 0 0] CT
0 1 0 RC
10.0 ML
2 LW
N
290.9 310.1 M
290.9 304.9 L
296.1 304.9 L
296.1 310.1 L
cp
S
GR
GS
[0.75 0 0 0.75 0 0] CT
1 GC
N
365.9 293.1 M
365.9 287.9 L
371.1 287.9 L
371.1 293.1 L
cp
f
GR
GS
[0.75 0 0 0.75 0 0] CT
0 1 0 RC
10.0 ML
2 LW
N
365.9 293.1 M
365.9 287.9 L
371.1 287.9 L
371.1 293.1 L
cp
S
GR
GS
[0.75 0 0 0.75 0 0] CT
1 GC
N
440.9 275.1 M
440.9 269.9 L
446.1 269.9 L
446.1 275.1 L
cp
f
GR
GS
[0.75 0 0 0.75 0 0] CT
0 1 0 RC
10.0 ML
2 LW
N
440.9 275.1 M
440.9 269.9 L
446.1 269.9 L
446.1 275.1 L
cp
S
GR
GS
[0.75 0 0 0.75 0 0] CT
1 GC
N
515.9 256.1 M
515.9 250.9 L
521.1 250.9 L
521.1 256.1 L
cp
f
GR
GS
[0.75 0 0 0.75 0 0] CT
0 1 0 RC
10.0 ML
2 LW
N
515.9 256.1 M
515.9 250.9 L
521.1 250.9 L
521.1 256.1 L
cp
S
GR
GS
[0.75 0 0 0.75 0 0] CT
1 GC
N
590.9 239.1 M
590.9 233.9 L
596.1 233.9 L
596.1 239.1 L
cp
f
GR
GS
[0.75 0 0 0.75 0 0] CT
0 1 0 RC
10.0 ML
2 LW
N
590.9 239.1 M
590.9 233.9 L
596.1 233.9 L
596.1 239.1 L
cp
S
GR
GS
[0.75 0 0 0.75 0 0] CT
1 GC
N
665.9 222.1 M
665.9 216.9 L
671.1 216.9 L
671.1 222.1 L
cp
f
GR
GS
[0.75 0 0 0.75 0 0] CT
0 1 0 RC
10.0 ML
2 LW
N
665.9 222.1 M
665.9 216.9 L
671.1 216.9 L
671.1 222.1 L
cp
S
GR
GS
[0.75 0 0 0.75 0 0] CT
1 GC
N
740.9 209.1 M
740.9 203.9 L
746.1 203.9 L
746.1 209.1 L
cp
f
GR
GS
[0.75 0 0 0.75 0 0] CT
0 1 0 RC
10.0 ML
2 LW
N
740.9 209.1 M
740.9 203.9 L
746.1 203.9 L
746.1 209.1 L
cp
S
GR
GS
[0.75 0 0 0.75 0 0] CT
0 0 1 RC
1 LJ
2 LW
N
69 405.67 M
143.889 391.266 L
218.778 379.961 L
293.667 369.536 L
368.556 361.843 L
443.444 354.55 L
518.333 347.735 L
593.222 338.899 L
668.111 331.784 L
743 323.917 L
S
GR
GS
[0.75 0 0 0.75 0 0] CT
1 GC
N
65.057 405.5 M
71.722 401.652 L
71.722 409.348 L
cp
f
GR
GS
[0.75 0 0 0.75 0 0] CT
0 0 1 RC
10.0 ML
2 LW
N
65.057 405.5 M
71.722 401.652 L
71.722 409.348 L
cp
S
GR
GS
[0.75 0 0 0.75 0 0] CT
1 GC
N
139.057 391.5 M
145.722 387.652 L
145.722 395.348 L
cp
f
GR
GS
[0.75 0 0 0.75 0 0] CT
0 0 1 RC
10.0 ML
2 LW
N
139.057 391.5 M
145.722 387.652 L
145.722 395.348 L
cp
S
GR
GS
[0.75 0 0 0.75 0 0] CT
1 GC
N
214.057 379.5 M
220.722 375.652 L
220.722 383.348 L
cp
f
GR
GS
[0.75 0 0 0.75 0 0] CT
0 0 1 RC
10.0 ML
2 LW
N
214.057 379.5 M
220.722 375.652 L
220.722 383.348 L
cp
S
GR
GS
[0.75 0 0 0.75 0 0] CT
1 GC
N
289.057 369.5 M
295.722 365.652 L
295.722 373.348 L
cp
f
GR
GS
[0.75 0 0 0.75 0 0] CT
0 0 1 RC
10.0 ML
2 LW
N
289.057 369.5 M
295.722 365.652 L
295.722 373.348 L
cp
S
GR
GS
[0.75 0 0 0.75 0 0] CT
1 GC
N
364.057 361.5 M
370.722 357.652 L
370.722 365.348 L
cp
f
GR
GS
[0.75 0 0 0.75 0 0] CT
0 0 1 RC
10.0 ML
2 LW
N
364.057 361.5 M
370.722 357.652 L
370.722 365.348 L
cp
S
GR
GS
[0.75 0 0 0.75 0 0] CT
1 GC
N
439.057 354.5 M
445.722 350.652 L
445.722 358.348 L
cp
f
GR
GS
[0.75 0 0 0.75 0 0] CT
0 0 1 RC
10.0 ML
2 LW
N
439.057 354.5 M
445.722 350.652 L
445.722 358.348 L
cp
S
GR
GS
[0.75 0 0 0.75 0 0] CT
1 GC
N
514.057 347.5 M
520.722 343.652 L
520.722 351.348 L
cp
f
GR
GS
[0.75 0 0 0.75 0 0] CT
0 0 1 RC
10.0 ML
2 LW
N
514.057 347.5 M
520.722 343.652 L
520.722 351.348 L
cp
S
GR
GS
[0.75 0 0 0.75 0 0] CT
1 GC
N
589.057 338.5 M
595.722 334.652 L
595.722 342.348 L
cp
f
GR
GS
[0.75 0 0 0.75 0 0] CT
0 0 1 RC
10.0 ML
2 LW
N
589.057 338.5 M
595.722 334.652 L
595.722 342.348 L
cp
S
GR
GS
[0.75 0 0 0.75 0 0] CT
1 GC
N
664.057 331.5 M
670.722 327.652 L
670.722 335.348 L
cp
f
GR
GS
[0.75 0 0 0.75 0 0] CT
0 0 1 RC
10.0 ML
2 LW
N
664.057 331.5 M
670.722 327.652 L
670.722 335.348 L
cp
S
GR
GS
[0.75 0 0 0.75 0 0] CT
1 GC
N
739.057 323.5 M
745.722 319.652 L
745.722 327.348 L
cp
f
GR
GS
[0.75 0 0 0.75 0 0] CT
0 0 1 RC
10.0 ML
2 LW
N
739.057 323.5 M
745.722 319.652 L
745.722 327.348 L
cp
S
GR
GS
[0.75 0 0 0.75 0 0] CT
1 0 1 RC
1 LJ
2 LW
N
69 405.67 M
143.889 367.04 L
218.778 341.852 L
293.667 320.831 L
368.556 301.398 L
443.444 283.27 L
518.333 266.081 L
593.222 253.398 L
668.111 240.171 L
743 227.719 L
S
GR
GS
[0.75 0 0 0.75 0 0] CT
1 0 1 RC
1 LJ
2 LW
N
66 405.5 M
73 405.5 L
S
GR
GS
[0.75 0 0 0.75 0 0] CT
1 0 1 RC
1 LJ
2 LW
N
69.5 409 M
69.5 402 L
S
GR
GS
[0.75 0 0 0.75 0 0] CT
1 0 1 RC
1 LJ
2 LW
N
140 367.5 M
147 367.5 L
S
GR
GS
[0.75 0 0 0.75 0 0] CT
1 0 1 RC
1 LJ
2 LW
N
143.5 371 M
143.5 364 L
S
GR
GS
[0.75 0 0 0.75 0 0] CT
1 0 1 RC
1 LJ
2 LW
N
215 341.5 M
222 341.5 L
S
GR
GS
[0.75 0 0 0.75 0 0] CT
1 0 1 RC
1 LJ
2 LW
N
218.5 345 M
218.5 338 L
S
GR
GS
[0.75 0 0 0.75 0 0] CT
1 0 1 RC
1 LJ
2 LW
N
290 320.5 M
297 320.5 L
S
GR
GS
[0.75 0 0 0.75 0 0] CT
1 0 1 RC
1 LJ
2 LW
N
293.5 324 M
293.5 317 L
S
GR
GS
[0.75 0 0 0.75 0 0] CT
1 0 1 RC
1 LJ
2 LW
N
365 301.5 M
372 301.5 L
S
GR
GS
[0.75 0 0 0.75 0 0] CT
1 0 1 RC
1 LJ
2 LW
N
368.5 305 M
368.5 298 L
S
GR
GS
[0.75 0 0 0.75 0 0] CT
1 0 1 RC
1 LJ
2 LW
N
440 283.5 M
447 283.5 L
S
GR
GS
[0.75 0 0 0.75 0 0] CT
1 0 1 RC
1 LJ
2 LW
N
443.5 287 M
443.5 280 L
S
GR
GS
[0.75 0 0 0.75 0 0] CT
1 0 1 RC
1 LJ
2 LW
N
515 266.5 M
522 266.5 L
S
GR
GS
[0.75 0 0 0.75 0 0] CT
1 0 1 RC
1 LJ
2 LW
N
518.5 270 M
518.5 263 L
S
GR
GS
[0.75 0 0 0.75 0 0] CT
1 0 1 RC
1 LJ
2 LW
N
590 253.5 M
597 253.5 L
S
GR
GS
[0.75 0 0 0.75 0 0] CT
1 0 1 RC
1 LJ
2 LW
N
593.5 257 M
593.5 250 L
S
GR
GS
[0.75 0 0 0.75 0 0] CT
1 0 1 RC
1 LJ
2 LW
N
665 240.5 M
672 240.5 L
S
GR
GS
[0.75 0 0 0.75 0 0] CT
1 0 1 RC
1 LJ
2 LW
N
668.5 244 M
668.5 237 L
S
GR
GS
[0.75 0 0 0.75 0 0] CT
1 0 1 RC
1 LJ
2 LW
N
740 227.5 M
747 227.5 L
S
GR
GS
[0.75 0 0 0.75 0 0] CT
1 0 1 RC
1 LJ
2 LW
N
743.5 231 M
743.5 224 L
S
GR
GS
[0.75 0 0 0.75 0 0] CT
1 0 0 RC
1 LJ
2 LW
N
69 405.67 M
143.889 316.899 L
218.778 259.845 L
293.667 220.024 L
368.556 192.058 L
443.444 161.08 L
518.333 137.514 L
593.222 111.993 L
668.111 93.208 L
743 73.46 L
S
GR
GS
[0.75 0 0 0.75 0 0] CT
1 GC
N
66.9 408.1 M
66.9 402.9 L
72.1 402.9 L
72.1 408.1 L
cp
f
GR
GS
[0.75 0 0 0.75 0 0] CT
1 0 0 RC
10.0 ML
2 LW
N
66.9 408.1 M
66.9 402.9 L
72.1 402.9 L
72.1 408.1 L
cp
S
GR
GS
[0.75 0 0 0.75 0 0] CT
1 GC
N
140.9 319.1 M
140.9 313.9 L
146.1 313.9 L
146.1 319.1 L
cp
f
GR
GS
[0.75 0 0 0.75 0 0] CT
1 0 0 RC
10.0 ML
2 LW
N
140.9 319.1 M
140.9 313.9 L
146.1 313.9 L
146.1 319.1 L
cp
S
GR
GS
[0.75 0 0 0.75 0 0] CT
1 GC
N
215.9 262.1 M
215.9 256.9 L
221.1 256.9 L
221.1 262.1 L
cp
f
GR
GS
[0.75 0 0 0.75 0 0] CT
1 0 0 RC
10.0 ML
2 LW
N
215.9 262.1 M
215.9 256.9 L
221.1 256.9 L
221.1 262.1 L
cp
S
GR
GS
[0.75 0 0 0.75 0 0] CT
1 GC
N
290.9 223.1 M
290.9 217.9 L
296.1 217.9 L
296.1 223.1 L
cp
f
GR
GS
[0.75 0 0 0.75 0 0] CT
1 0 0 RC
10.0 ML
2 LW
N
290.9 223.1 M
290.9 217.9 L
296.1 217.9 L
296.1 223.1 L
cp
S
GR
GS
[0.75 0 0 0.75 0 0] CT
1 GC
N
365.9 195.1 M
365.9 189.9 L
371.1 189.9 L
371.1 195.1 L
cp
f
GR
GS
[0.75 0 0 0.75 0 0] CT
1 0 0 RC
10.0 ML
2 LW
N
365.9 195.1 M
365.9 189.9 L
371.1 189.9 L
371.1 195.1 L
cp
S
GR
GS
[0.75 0 0 0.75 0 0] CT
1 GC
N
440.9 164.1 M
440.9 158.9 L
446.1 158.9 L
446.1 164.1 L
cp
f
GR
GS
[0.75 0 0 0.75 0 0] CT
1 0 0 RC
10.0 ML
2 LW
N
440.9 164.1 M
440.9 158.9 L
446.1 158.9 L
446.1 164.1 L
cp
S
GR
GS
[0.75 0 0 0.75 0 0] CT
1 GC
N
515.9 140.1 M
515.9 134.9 L
521.1 134.9 L
521.1 140.1 L
cp
f
GR
GS
[0.75 0 0 0.75 0 0] CT
1 0 0 RC
10.0 ML
2 LW
N
515.9 140.1 M
515.9 134.9 L
521.1 134.9 L
521.1 140.1 L
cp
S
GR
GS
[0.75 0 0 0.75 0 0] CT
1 GC
N
590.9 114.1 M
590.9 108.9 L
596.1 108.9 L
596.1 114.1 L
cp
f
GR
GS
[0.75 0 0 0.75 0 0] CT
1 0 0 RC
10.0 ML
2 LW
N
590.9 114.1 M
590.9 108.9 L
596.1 108.9 L
596.1 114.1 L
cp
S
GR
GS
[0.75 0 0 0.75 0 0] CT
1 GC
N
665.9 96.1 M
665.9 90.9 L
671.1 90.9 L
671.1 96.1 L
cp
f
GR
GS
[0.75 0 0 0.75 0 0] CT
1 0 0 RC
10.0 ML
2 LW
N
665.9 96.1 M
665.9 90.9 L
671.1 90.9 L
671.1 96.1 L
cp
S
GR
GS
[0.75 0 0 0.75 0 0] CT
1 GC
N
740.9 76.1 M
740.9 70.9 L
746.1 70.9 L
746.1 76.1 L
cp
f
GR
GS
[0.75 0 0 0.75 0 0] CT
1 0 0 RC
10.0 ML
2 LW
N
740.9 76.1 M
740.9 70.9 L
746.1 70.9 L
746.1 76.1 L
cp
S
GR
GS
[0.75 0 0 0.75 0 0] CT
1 LJ
2 LW
N
69 405.67 M
143.889 308.975 L
218.778 250.305 L
293.667 207.181 L
368.556 173.367 L
443.444 144.369 L
518.333 121.335 L
593.222 101.664 L
668.111 79.092 L
743 58.998 L
S
GR
GS
[0.75 0 0 0.75 0 0] CT
1 GC
N
72.833 405.5 M
71.857 403.143 L
69.5 402.167 L
67.143 403.143 L
66.167 405.5 L
67.143 407.857 L
69.5 408.833 L
71.857 407.857 L
72.833 405.5 L
cp
f
GR
GS
[0.75 0 0 0.75 0 0] CT
1 LJ
2 LW
N
72.833 405.5 M
72.197 403.541 L
70.53 402.33 L
68.47 402.33 L
66.803 403.541 L
66.167 405.5 L
66.803 407.459 L
68.47 408.67 L
70.53 408.67 L
72.197 407.459 L
cp
S
GR
GS
[0.75 0 0 0.75 0 0] CT
1 GC
N
146.833 308.5 M
145.857 306.143 L
143.5 305.167 L
141.143 306.143 L
140.167 308.5 L
141.143 310.857 L
143.5 311.833 L
145.857 310.857 L
146.833 308.5 L
cp
f
GR
GS
[0.75 0 0 0.75 0 0] CT
1 LJ
2 LW
N
146.833 308.5 M
146.197 306.541 L
144.53 305.33 L
142.47 305.33 L
140.803 306.541 L
140.167 308.5 L
140.803 310.459 L
142.47 311.67 L
144.53 311.67 L
146.197 310.459 L
cp
S
GR
GS
[0.75 0 0 0.75 0 0] CT
1 GC
N
221.833 250.5 M
220.857 248.143 L
218.5 247.167 L
216.143 248.143 L
215.167 250.5 L
216.143 252.857 L
218.5 253.833 L
220.857 252.857 L
221.833 250.5 L
cp
f
GR
GS
[0.75 0 0 0.75 0 0] CT
1 LJ
2 LW
N
221.833 250.5 M
221.197 248.541 L
219.53 247.33 L
217.47 247.33 L
215.803 248.541 L
215.167 250.5 L
215.803 252.459 L
217.47 253.67 L
219.53 253.67 L
221.197 252.459 L
cp
S
GR
GS
[0.75 0 0 0.75 0 0] CT
1 GC
N
296.833 207.5 M
295.857 205.143 L
293.5 204.167 L
291.143 205.143 L
290.167 207.5 L
291.143 209.857 L
293.5 210.833 L
295.857 209.857 L
296.833 207.5 L
cp
f
GR
GS
[0.75 0 0 0.75 0 0] CT
1 LJ
2 LW
N
296.833 207.5 M
296.197 205.541 L
294.53 204.33 L
292.47 204.33 L
290.803 205.541 L
290.167 207.5 L
290.803 209.459 L
292.47 210.67 L
294.53 210.67 L
296.197 209.459 L
cp
S
GR
GS
[0.75 0 0 0.75 0 0] CT
1 GC
N
371.833 173.5 M
370.857 171.143 L
368.5 170.167 L
366.143 171.143 L
365.167 173.5 L
366.143 175.857 L
368.5 176.833 L
370.857 175.857 L
371.833 173.5 L
cp
f
GR
GS
[0.75 0 0 0.75 0 0] CT
1 LJ
2 LW
N
371.833 173.5 M
371.197 171.541 L
369.53 170.33 L
367.47 170.33 L
365.803 171.541 L
365.167 173.5 L
365.803 175.459 L
367.47 176.67 L
369.53 176.67 L
371.197 175.459 L
cp
S
GR
GS
[0.75 0 0 0.75 0 0] CT
1 GC
N
446.833 144.5 M
445.857 142.143 L
443.5 141.167 L
441.143 142.143 L
440.167 144.5 L
441.143 146.857 L
443.5 147.833 L
445.857 146.857 L
446.833 144.5 L
cp
f
GR
GS
[0.75 0 0 0.75 0 0] CT
1 LJ
2 LW
N
446.833 144.5 M
446.197 142.541 L
444.53 141.33 L
442.47 141.33 L
440.803 142.541 L
440.167 144.5 L
440.803 146.459 L
442.47 147.67 L
444.53 147.67 L
446.197 146.459 L
cp
S
GR
GS
[0.75 0 0 0.75 0 0] CT
1 GC
N
521.833 121.5 M
520.857 119.143 L
518.5 118.167 L
516.143 119.143 L
515.167 121.5 L
516.143 123.857 L
518.5 124.833 L
520.857 123.857 L
521.833 121.5 L
cp
f
GR
GS
[0.75 0 0 0.75 0 0] CT
1 LJ
2 LW
N
521.833 121.5 M
521.197 119.541 L
519.53 118.33 L
517.47 118.33 L
515.803 119.541 L
515.167 121.5 L
515.803 123.459 L
517.47 124.67 L
519.53 124.67 L
521.197 123.459 L
cp
S
GR
GS
[0.75 0 0 0.75 0 0] CT
1 GC
N
596.833 101.5 M
595.857 99.143 L
593.5 98.167 L
591.143 99.143 L
590.167 101.5 L
591.143 103.857 L
593.5 104.833 L
595.857 103.857 L
596.833 101.5 L
cp
f
GR
GS
[0.75 0 0 0.75 0 0] CT
1 LJ
2 LW
N
596.833 101.5 M
596.197 99.541 L
594.53 98.33 L
592.47 98.33 L
590.803 99.541 L
590.167 101.5 L
590.803 103.459 L
592.47 104.67 L
594.53 104.67 L
596.197 103.459 L
cp
S
GR
GS
[0.75 0 0 0.75 0 0] CT
1 GC
N
671.833 79.5 M
670.857 77.143 L
668.5 76.167 L
666.143 77.143 L
665.167 79.5 L
666.143 81.857 L
668.5 82.833 L
670.857 81.857 L
671.833 79.5 L
cp
f
GR
GS
[0.75 0 0 0.75 0 0] CT
1 LJ
2 LW
N
671.833 79.5 M
671.197 77.541 L
669.53 76.33 L
667.47 76.33 L
665.803 77.541 L
665.167 79.5 L
665.803 81.459 L
667.47 82.67 L
669.53 82.67 L
671.197 81.459 L
cp
S
GR
GS
[0.75 0 0 0.75 0 0] CT
1 GC
N
746.833 58.5 M
745.857 56.143 L
743.5 55.167 L
741.143 56.143 L
740.167 58.5 L
741.143 60.857 L
743.5 61.833 L
745.857 60.857 L
746.833 58.5 L
cp
f
GR
GS
[0.75 0 0 0.75 0 0] CT
1 LJ
2 LW
N
746.833 58.5 M
746.197 56.541 L
744.53 55.33 L
742.47 55.33 L
740.803 56.541 L
740.167 58.5 L
740.803 60.459 L
742.47 61.67 L
744.53 61.67 L
746.197 60.459 L
cp
S
GR
GS
[0.75 0 0 0.75 0 0] CT
1 GC
N
624 408 M
624 139 L
730 139 L
730 408 L
cp
f
GR
GS
[0.75 0 0 0.75 495.75 116.625] CT
/Times 24 F
GS
[1 0 0 1 0 0] CT
0 8.5 moveto 
1 -1 scale
(LBP) t 
GR
GR
GS
[0.75 0 0 0.75 0 0] CT
1 0.6 0.784 RC
1 LJ
2 LW
N
628 155.5 M
658 155.5 L
S
GR
GS
[0.75 0 0 0.75 0 0] CT
1 GC
N
641.278 151.652 M
647.943 155.5 L
641.278 159.348 L
cp
f
GR
GS
[0.75 0 0 0.75 0 0] CT
1 0.6 0.784 RC
10.0 ML
2 LW
N
641.278 151.652 M
647.943 155.5 L
641.278 159.348 L
cp
S
GR
GS
[0.75 0 0 0.75 495.75 138.75] CT
/Times 24 F
GS
[1 0 0 1 0 0] CT
0 8.5 moveto 
1 -1 scale
(LTP) t 
GR
GR
GS
[0.75 0 0 0.75 0 0] CT
0.6 0.2 0 RC
1 LJ
2 LW
N
628 185 M
658 185 L
S
GR
GS
[0.75 0 0 0.75 0 0] CT
1 GC
N
639.057 184.5 M
645.722 180.652 L
645.722 188.348 L
cp
f
GR
GS
[0.75 0 0 0.75 0 0] CT
0.6 0.2 0 RC
10.0 ML
2 LW
N
639.057 184.5 M
645.722 180.652 L
645.722 188.348 L
cp
S
GR
GS
[0.75 0 0 0.75 495.75 160.875] CT
/Times 24 F
GS
[1 0 0 1 0 0] CT
0 8.5 moveto 
1 -1 scale
(LDP) t 
GR
GR
GS
[0.75 0 0 0.75 0 0] CT
0.929 0.694 0.125 RC
1 LJ
2 LW
N
628 214.5 M
658 214.5 L
S
GR
GS
[0.75 0 0 0.75 0 0] CT
1 GC
N
640.33 213.47 M
642.716 213.47 L
643.5 211.167 L
644.284 213.47 L
646.67 213.47 L
644.768 214.912 L
645.459 217.197 L
643.5 215.833 L
641.541 217.197 L
642.232 214.912 L
640.33 213.47 L
cp
f
GR
GS
[0.75 0 0 0.75 0 0] CT
0.929 0.694 0.125 RC
10.0 ML
2 LW
N
640.33 213.47 M
642.716 213.47 L
643.5 211.167 L
644.284 213.47 L
646.67 213.47 L
644.768 214.912 L
645.459 217.197 L
643.5 215.833 L
641.541 217.197 L
642.232 214.912 L
cp
S
GR
GS
[0.75 0 0 0.75 495.75 183] CT
/Times 24 F
GS
[1 0 0 1 0 0] CT
0 8.5 moveto 
1 -1 scale
(LDN) t 
GR
GR
GS
[0.75 0 0 0.75 0 0] CT
0 1 1 RC
1 LJ
2 LW
N
628 244 M
658 244 L
S
GR
GS
[0.75 0 0 0.75 0 0] CT
1 GC
N
643.5 247.943 M
646.833 243.5 L
643.5 239.057 L
640.167 243.5 L
cp
f
GR
GS
[0.75 0 0 0.75 0 0] CT
0 1 1 RC
10.0 ML
2 LW
N
643.5 247.943 M
646.833 243.5 L
643.5 239.057 L
640.167 243.5 L
cp
S
GR
GS
[0.75 0 0 0.75 495.75 205.125] CT
/Times 24 F
GS
[1 0 0 1 0 0] CT
0 8.5 moveto 
1 -1 scale
(LVP) t 
GR
GR
GS
[0.75 0 0 0.75 0 0] CT
0 1 0 RC
1 LJ
2 LW
N
628 273.5 M
658 273.5 L
S
GR
GS
[0.75 0 0 0.75 0 0] CT
1 GC
N
640.9 276.1 M
640.9 270.9 L
646.1 270.9 L
646.1 276.1 L
cp
f
GR
GS
[0.75 0 0 0.75 0 0] CT
0 1 0 RC
10.0 ML
2 LW
N
640.9 276.1 M
640.9 270.9 L
646.1 270.9 L
646.1 276.1 L
cp
S
GR
GS
[0.75 0 0 0.75 495.75 227.25] CT
/Times 24 F
GS
[1 0 0 1 0 0] CT
0 8.5 moveto 
1 -1 scale
(LDGP) t 
GR
GR
GS
[0.75 0 0 0.75 0 0] CT
0 0 1 RC
1 LJ
2 LW
N
628 303 M
658 303 L
S
GR
GS
[0.75 0 0 0.75 0 0] CT
1 GC
N
639.057 302.5 M
645.722 298.652 L
645.722 306.348 L
cp
f
GR
GS
[0.75 0 0 0.75 0 0] CT
0 0 1 RC
10.0 ML
2 LW
N
639.057 302.5 M
645.722 298.652 L
645.722 306.348 L
cp
S
GR
GS
[0.75 0 0 0.75 495.75 249.375] CT
/Times 24 F
GS
[1 0 0 1 0 0] CT
0 8.5 moveto 
1 -1 scale
(DCP) t 
GR
GR
GS
[0.75 0 0 0.75 0 0] CT
1 0 1 RC
1 LJ
2 LW
N
628 332.5 M
658 332.5 L
S
GR
GS
[0.75 0 0 0.75 0 0] CT
1 0 1 RC
1 LJ
2 LW
N
640 332.5 M
647 332.5 L
S
GR
GS
[0.75 0 0 0.75 0 0] CT
1 0 1 RC
1 LJ
2 LW
N
643.5 336 M
643.5 329 L
S
GR
GS
[0.75 0 0 0.75 495.75 271.5] CT
/Times 24 F
GS
[1 0 0 1 0 0] CT
0 8.5 moveto 
1 -1 scale
(LGHP) t 
GR
GR
GS
[0.75 0 0 0.75 0 0] CT
1 0 0 RC
1 LJ
2 LW
N
628 362 M
658 362 L
S
GR
GS
[0.75 0 0 0.75 0 0] CT
1 GC
N
640.9 365.1 M
640.9 359.9 L
646.1 359.9 L
646.1 365.1 L
cp
f
GR
GS
[0.75 0 0 0.75 0 0] CT
1 0 0 RC
10.0 ML
2 LW
N
640.9 365.1 M
640.9 359.9 L
646.1 359.9 L
646.1 365.1 L
cp
S
GR
GS
[0.75 0 0 0.75 495.75 293.625] CT
/Times 24 F
GS
[1 0 0 1 0 0] CT
0 8.5 moveto 
1 -1 scale
(LDRP) t 
GR
GR
GS
[0.75 0 0 0.75 0 0] CT
1 LJ
2 LW
N
628 391.5 M
658 391.5 L
S
GR
GS
[0.75 0 0 0.75 0 0] CT
1 GC
N
646.833 391.5 M
645.857 389.143 L
643.5 388.167 L
641.143 389.143 L
640.167 391.5 L
641.143 393.857 L
643.5 394.833 L
645.857 393.857 L
646.833 391.5 L
cp
f
GR
GS
[0.75 0 0 0.75 0 0] CT
1 LJ
2 LW
N
646.833 391.5 M
646.197 389.541 L
644.53 388.33 L
642.47 388.33 L
640.803 389.541 L
640.167 391.5 L
640.803 393.459 L
642.47 394.67 L
644.53 394.67 L
646.197 393.459 L
cp
S
GR
GS
[0.75 0 0 0.75 0 0] CT
0.149 GC
10.0 ML
0.667 LW
N
624 408 M
624 139 L
730 139 L
730 408 L
cp
S
GR
%%Trailer
%%Pages: 1
%%EOF
