%!PS-Adobe-3.0 EPSF-3.0
%%Creator: (MATLAB, The Mathworks, Inc. Version 9.0.0.341360 \(R2016a\). Operating System: Linux)
%%Title: (/home/shivram/main/Work/1. Research/1. Ongoing/5. LDRP Face/2. Exp/1. Results/LFW20/lfw-anmrr.eps)
%%CreationDate: 2017-08-16T15:32:28
%%Pages: (atend)
%%BoundingBox: 0 0 573 384
%%LanguageLevel: 3
%%EndComments
%%BeginProlog
%%BeginResource: procset (Apache XML Graphics Std ProcSet) 1.2 0
%%Version: 1.2 0
%%Copyright: (Copyright 2001-2003,2010 The Apache Software Foundation. License terms: http://www.apache.org/licenses/LICENSE-2.0)
/bd{bind def}bind def
/ld{load def}bd
/GR/grestore ld
/M/moveto ld
/LJ/setlinejoin ld
/C/curveto ld
/f/fill ld
/LW/setlinewidth ld
/GC/setgray ld
/t/show ld
/N/newpath ld
/CT/concat ld
/cp/closepath ld
/S/stroke ld
/L/lineto ld
/CC/setcmykcolor ld
/A/ashow ld
/GS/gsave ld
/RC/setrgbcolor ld
/RM/rmoveto ld
/ML/setmiterlimit ld
/re {4 2 roll M
1 index 0 rlineto
0 exch rlineto
neg 0 rlineto
cp } bd
/_ctm matrix def
/_tm matrix def
/BT { _ctm currentmatrix pop matrix _tm copy pop 0 0 moveto } bd
/ET { _ctm setmatrix } bd
/iTm { _ctm setmatrix _tm concat } bd
/Tm { _tm astore pop iTm 0 0 moveto } bd
/ux 0.0 def
/uy 0.0 def
/F {
  /Tp exch def
  /Tf exch def
  Tf findfont Tp scalefont setfont
  /cf Tf def  /cs Tp def
} bd
/ULS {currentpoint /uy exch def /ux exch def} bd
/ULE {
  /Tcx currentpoint pop def
  gsave
  newpath
  cf findfont cs scalefont dup
  /FontMatrix get 0 get /Ts exch def /FontInfo get dup
  /UnderlinePosition get Ts mul /To exch def
  /UnderlineThickness get Ts mul /Tt exch def
  ux uy To add moveto  Tcx uy To add lineto
  Tt setlinewidth stroke
  grestore
} bd
/OLE {
  /Tcx currentpoint pop def
  gsave
  newpath
  cf findfont cs scalefont dup
  /FontMatrix get 0 get /Ts exch def /FontInfo get dup
  /UnderlinePosition get Ts mul /To exch def
  /UnderlineThickness get Ts mul /Tt exch def
  ux uy To add cs add moveto Tcx uy To add cs add lineto
  Tt setlinewidth stroke
  grestore
} bd
/SOE {
  /Tcx currentpoint pop def
  gsave
  newpath
  cf findfont cs scalefont dup
  /FontMatrix get 0 get /Ts exch def /FontInfo get dup
  /UnderlinePosition get Ts mul /To exch def
  /UnderlineThickness get Ts mul /Tt exch def
  ux uy To add cs 10 mul 26 idiv add moveto Tcx uy To add cs 10 mul 26 idiv add lineto
  Tt setlinewidth stroke
  grestore
} bd
/QT {
/Y22 exch store
/X22 exch store
/Y21 exch store
/X21 exch store
currentpoint
/Y21 load 2 mul add 3 div exch
/X21 load 2 mul add 3 div exch
/X21 load 2 mul /X22 load add 3 div
/Y21 load 2 mul /Y22 load add 3 div
/X22 load /Y22 load curveto
} bd
/SSPD {
dup length /d exch dict def
{
/v exch def
/k exch def
currentpagedevice k known {
/cpdv currentpagedevice k get def
v cpdv ne {
/upd false def
/nullv v type /nulltype eq def
/nullcpdv cpdv type /nulltype eq def
nullv nullcpdv or
{
/upd true def
} {
/sametype v type cpdv type eq def
sametype {
v type /arraytype eq {
/vlen v length def
/cpdvlen cpdv length def
vlen cpdvlen eq {
0 1 vlen 1 sub {
/i exch def
/obj v i get def
/cpdobj cpdv i get def
obj cpdobj ne {
/upd true def
exit
} if
} for
} {
/upd true def
} ifelse
} {
v type /dicttype eq {
v {
/dv exch def
/dk exch def
/cpddv cpdv dk get def
dv cpddv ne {
/upd true def
exit
} if
} forall
} {
/upd true def
} ifelse
} ifelse
} if
} ifelse
upd true eq {
d k v put
} if
} if
} if
} forall
d length 0 gt {
d setpagedevice
} if
} bd
%%EndResource
%%BeginResource: procset (Apache XML Graphics EPS ProcSet) 1.0 0
%%Version: 1.0 0
%%Copyright: (Copyright 2002-2003 The Apache Software Foundation. License terms: http://www.apache.org/licenses/LICENSE-2.0)
/BeginEPSF { %def
/b4_Inc_state save def         % Save state for cleanup
/dict_count countdictstack def % Count objects on dict stack
/op_count count 1 sub def      % Count objects on operand stack
userdict begin                 % Push userdict on dict stack
/showpage { } def              % Redefine showpage, { } = null proc
0 setgray 0 setlinecap         % Prepare graphics state
1 setlinewidth 0 setlinejoin
10 setmiterlimit [ ] 0 setdash newpath
/languagelevel where           % If level not equal to 1 then
{pop languagelevel             % set strokeadjust and
1 ne                           % overprint to their defaults.
{false setstrokeadjust false setoverprint
} if
} if
} bd
/EndEPSF { %def
count op_count sub {pop} repeat            % Clean up stacks
countdictstack dict_count sub {end} repeat
b4_Inc_state restore
} bd
%%EndResource
%FOPBeginFontDict
%%IncludeResource: font Courier-Bold
%%IncludeResource: font Helvetica
%%IncludeResource: font Courier-BoldOblique
%%IncludeResource: font Courier-Oblique
%%IncludeResource: font Times-Roman
%%IncludeResource: font Helvetica-BoldOblique
%%IncludeResource: font Helvetica-Bold
%%IncludeResource: font Helvetica-Oblique
%%IncludeResource: font Times-BoldItalic
%%IncludeResource: font Courier
%%IncludeResource: font Times-Italic
%%IncludeResource: font Times-Bold
%%IncludeResource: font Symbol
%%IncludeResource: font ZapfDingbats
%FOPEndFontDict
%%BeginResource: encoding WinAnsiEncoding
/WinAnsiEncoding [
/.notdef /.notdef /.notdef /.notdef /.notdef
/.notdef /.notdef /.notdef /.notdef /.notdef
/.notdef /.notdef /.notdef /.notdef /.notdef
/.notdef /.notdef /.notdef /.notdef /.notdef
/.notdef /.notdef /.notdef /.notdef /.notdef
/.notdef /.notdef /.notdef /.notdef /.notdef
/.notdef /.notdef /space /exclam /quotedbl
/numbersign /dollar /percent /ampersand /quotesingle
/parenleft /parenright /asterisk /plus /comma
/hyphen /period /slash /zero /one
/two /three /four /five /six
/seven /eight /nine /colon /semicolon
/less /equal /greater /question /at
/A /B /C /D /E
/F /G /H /I /J
/K /L /M /N /O
/P /Q /R /S /T
/U /V /W /X /Y
/Z /bracketleft /backslash /bracketright /asciicircum
/underscore /quoteleft /a /b /c
/d /e /f /g /h
/i /j /k /l /m
/n /o /p /q /r
/s /t /u /v /w
/x /y /z /braceleft /bar
/braceright /asciitilde /bullet /Euro /bullet
/quotesinglbase /florin /quotedblbase /ellipsis /dagger
/daggerdbl /circumflex /perthousand /Scaron /guilsinglleft
/OE /bullet /Zcaron /bullet /bullet
/quoteleft /quoteright /quotedblleft /quotedblright /bullet
/endash /emdash /asciitilde /trademark /scaron
/guilsinglright /oe /bullet /zcaron /Ydieresis
/space /exclamdown /cent /sterling /currency
/yen /brokenbar /section /dieresis /copyright
/ordfeminine /guillemotleft /logicalnot /sfthyphen /registered
/macron /degree /plusminus /twosuperior /threesuperior
/acute /mu /paragraph /middot /cedilla
/onesuperior /ordmasculine /guillemotright /onequarter /onehalf
/threequarters /questiondown /Agrave /Aacute /Acircumflex
/Atilde /Adieresis /Aring /AE /Ccedilla
/Egrave /Eacute /Ecircumflex /Edieresis /Igrave
/Iacute /Icircumflex /Idieresis /Eth /Ntilde
/Ograve /Oacute /Ocircumflex /Otilde /Odieresis
/multiply /Oslash /Ugrave /Uacute /Ucircumflex
/Udieresis /Yacute /Thorn /germandbls /agrave
/aacute /acircumflex /atilde /adieresis /aring
/ae /ccedilla /egrave /eacute /ecircumflex
/edieresis /igrave /iacute /icircumflex /idieresis
/eth /ntilde /ograve /oacute /ocircumflex
/otilde /odieresis /divide /oslash /ugrave
/uacute /ucircumflex /udieresis /yacute /thorn
/ydieresis
] def
%%EndResource
%FOPBeginFontReencode
/Courier-Bold findfont
dup length dict begin
  {1 index /FID ne {def} {pop pop} ifelse} forall
  /Encoding WinAnsiEncoding def
  currentdict
end
/Courier-Bold exch definefont pop
/Helvetica findfont
dup length dict begin
  {1 index /FID ne {def} {pop pop} ifelse} forall
  /Encoding WinAnsiEncoding def
  currentdict
end
/Helvetica exch definefont pop
/Courier-BoldOblique findfont
dup length dict begin
  {1 index /FID ne {def} {pop pop} ifelse} forall
  /Encoding WinAnsiEncoding def
  currentdict
end
/Courier-BoldOblique exch definefont pop
/Courier-Oblique findfont
dup length dict begin
  {1 index /FID ne {def} {pop pop} ifelse} forall
  /Encoding WinAnsiEncoding def
  currentdict
end
/Courier-Oblique exch definefont pop
/Times-Roman findfont
dup length dict begin
  {1 index /FID ne {def} {pop pop} ifelse} forall
  /Encoding WinAnsiEncoding def
  currentdict
end
/Times-Roman exch definefont pop
/Helvetica-BoldOblique findfont
dup length dict begin
  {1 index /FID ne {def} {pop pop} ifelse} forall
  /Encoding WinAnsiEncoding def
  currentdict
end
/Helvetica-BoldOblique exch definefont pop
/Helvetica-Bold findfont
dup length dict begin
  {1 index /FID ne {def} {pop pop} ifelse} forall
  /Encoding WinAnsiEncoding def
  currentdict
end
/Helvetica-Bold exch definefont pop
/Helvetica-Oblique findfont
dup length dict begin
  {1 index /FID ne {def} {pop pop} ifelse} forall
  /Encoding WinAnsiEncoding def
  currentdict
end
/Helvetica-Oblique exch definefont pop
/Times-BoldItalic findfont
dup length dict begin
  {1 index /FID ne {def} {pop pop} ifelse} forall
  /Encoding WinAnsiEncoding def
  currentdict
end
/Times-BoldItalic exch definefont pop
/Courier findfont
dup length dict begin
  {1 index /FID ne {def} {pop pop} ifelse} forall
  /Encoding WinAnsiEncoding def
  currentdict
end
/Courier exch definefont pop
/Times-Italic findfont
dup length dict begin
  {1 index /FID ne {def} {pop pop} ifelse} forall
  /Encoding WinAnsiEncoding def
  currentdict
end
/Times-Italic exch definefont pop
/Times-Bold findfont
dup length dict begin
  {1 index /FID ne {def} {pop pop} ifelse} forall
  /Encoding WinAnsiEncoding def
  currentdict
end
/Times-Bold exch definefont pop
%FOPEndFontReencode
%%EndProlog
%%Page: 1 1
%%PageBoundingBox: 0 0 573 384
%%BeginPageSetup
[1 0 0 -1 0 384] CT
%%EndPageSetup
GS
[0.75 0 0 0.75 0 0] CT
1 GC
N
0 0 764 512 re
f
GR
GS
[0.75 0 0 0.75 0 0] CT
1 GC
N
0 0 764 512 re
f
GR
GS
[0.75 0 0 0.75 0 0] CT
1 GC
N
91 421 M
741 421 L
741 51 L
91 51 L
cp
f
GR
GS
[0.75 0 0 0.75 0 0] CT
0.149 GC
2 setlinecap
1 LJ
0.667 LW
N
91 421 M
741 421 L
S
GR
GS
[0.75 0 0 0.75 0 0] CT
0.149 GC
2 setlinecap
1 LJ
0.667 LW
N
91 51 M
741 51 L
S
GR
GS
[0.75 0 0 0.75 0 0] CT
0.149 GC
2 setlinecap
1 LJ
0.667 LW
N
91 421 M
91 414.5 L
S
GR
GS
[0.75 0 0 0.75 0 0] CT
0.149 GC
2 setlinecap
1 LJ
0.667 LW
N
163.222 421 M
163.222 414.5 L
S
GR
GS
[0.75 0 0 0.75 0 0] CT
0.149 GC
2 setlinecap
1 LJ
0.667 LW
N
235.444 421 M
235.444 414.5 L
S
GR
GS
[0.75 0 0 0.75 0 0] CT
0.149 GC
2 setlinecap
1 LJ
0.667 LW
N
307.667 421 M
307.667 414.5 L
S
GR
GS
[0.75 0 0 0.75 0 0] CT
0.149 GC
2 setlinecap
1 LJ
0.667 LW
N
379.889 421 M
379.889 414.5 L
S
GR
GS
[0.75 0 0 0.75 0 0] CT
0.149 GC
2 setlinecap
1 LJ
0.667 LW
N
452.111 421 M
452.111 414.5 L
S
GR
GS
[0.75 0 0 0.75 0 0] CT
0.149 GC
2 setlinecap
1 LJ
0.667 LW
N
524.333 421 M
524.333 414.5 L
S
GR
GS
[0.75 0 0 0.75 0 0] CT
0.149 GC
2 setlinecap
1 LJ
0.667 LW
N
596.556 421 M
596.556 414.5 L
S
GR
GS
[0.75 0 0 0.75 0 0] CT
0.149 GC
2 setlinecap
1 LJ
0.667 LW
N
668.778 421 M
668.778 414.5 L
S
GR
GS
[0.75 0 0 0.75 0 0] CT
0.149 GC
2 setlinecap
1 LJ
0.667 LW
N
741 421 M
741 414.5 L
S
GR
GS
[0.75 0 0 0.75 0 0] CT
0.149 GC
2 setlinecap
1 LJ
0.667 LW
N
91 51 M
91 57.5 L
S
GR
GS
[0.75 0 0 0.75 0 0] CT
0.149 GC
2 setlinecap
1 LJ
0.667 LW
N
163.222 51 M
163.222 57.5 L
S
GR
GS
[0.75 0 0 0.75 0 0] CT
0.149 GC
2 setlinecap
1 LJ
0.667 LW
N
235.444 51 M
235.444 57.5 L
S
GR
GS
[0.75 0 0 0.75 0 0] CT
0.149 GC
2 setlinecap
1 LJ
0.667 LW
N
307.667 51 M
307.667 57.5 L
S
GR
GS
[0.75 0 0 0.75 0 0] CT
0.149 GC
2 setlinecap
1 LJ
0.667 LW
N
379.889 51 M
379.889 57.5 L
S
GR
GS
[0.75 0 0 0.75 0 0] CT
0.149 GC
2 setlinecap
1 LJ
0.667 LW
N
452.111 51 M
452.111 57.5 L
S
GR
GS
[0.75 0 0 0.75 0 0] CT
0.149 GC
2 setlinecap
1 LJ
0.667 LW
N
524.333 51 M
524.333 57.5 L
S
GR
GS
[0.75 0 0 0.75 0 0] CT
0.149 GC
2 setlinecap
1 LJ
0.667 LW
N
596.556 51 M
596.556 57.5 L
S
GR
GS
[0.75 0 0 0.75 0 0] CT
0.149 GC
2 setlinecap
1 LJ
0.667 LW
N
668.778 51 M
668.778 57.5 L
S
GR
GS
[0.75 0 0 0.75 0 0] CT
0.149 GC
2 setlinecap
1 LJ
0.667 LW
N
741 51 M
741 57.5 L
S
GR
GS
[0.75 0 0 0.75 68.25 322.55001] CT
0.149 GC
/Times 32 F
GS
[1 0 0 1 0 0] CT
-10.5 30 moveto 
1 -1 scale
(1) t 
GR
GR
GS
[0.75 0 0 0.75 122.41667 322.55001] CT
0.149 GC
/Times 32 F
GS
[1 0 0 1 0 0] CT
-10.5 30 moveto 
1 -1 scale
(2) t 
GR
GR
GS
[0.75 0 0 0.75 176.58333 322.55001] CT
0.149 GC
/Times 32 F
GS
[1 0 0 1 0 0] CT
-10.5 30 moveto 
1 -1 scale
(3) t 
GR
GR
GS
[0.75 0 0 0.75 230.74999 322.55001] CT
0.149 GC
/Times 32 F
GS
[1 0 0 1 0 0] CT
-10.5 30 moveto 
1 -1 scale
(4) t 
GR
GR
GS
[0.75 0 0 0.75 284.91666 322.55001] CT
0.149 GC
/Times 32 F
GS
[1 0 0 1 0 0] CT
-10.5 30 moveto 
1 -1 scale
(5) t 
GR
GR
GS
[0.75 0 0 0.75 339.08334 322.55001] CT
0.149 GC
/Times 32 F
GS
[1 0 0 1 0 0] CT
-10.5 30 moveto 
1 -1 scale
(6) t 
GR
GR
GS
[0.75 0 0 0.75 393.24998 322.55001] CT
0.149 GC
/Times 32 F
GS
[1 0 0 1 0 0] CT
-10.5 30 moveto 
1 -1 scale
(7) t 
GR
GR
GS
[0.75 0 0 0.75 447.41666 322.55001] CT
0.149 GC
/Times 32 F
GS
[1 0 0 1 0 0] CT
-10.5 30 moveto 
1 -1 scale
(8) t 
GR
GR
GS
[0.75 0 0 0.75 501.58333 322.55001] CT
0.149 GC
/Times 32 F
GS
[1 0 0 1 0 0] CT
-10.5 30 moveto 
1 -1 scale
(9) t 
GR
GR
GS
[0.75 0 0 0.75 555.75 322.55001] CT
0.149 GC
/Times 32 F
GS
[1 0 0 1 0 0] CT
-20.5 30 moveto 
1 -1 scale
(10) t 
GR
GR
GS
[0.75 0 0 0.75 312.00023 352.05] CT
0.149 GC
/Times 35.2 F
GS
[1 0 0 1 0 0] CT
-210 33 moveto 
1 -1 scale
(Number of Top Matches) t 
GR
GR
GS
[0.75 0 0 0.75 0 0] CT
0.149 GC
2 setlinecap
1 LJ
0.667 LW
N
91 421 M
91 51 L
S
GR
GS
[0.75 0 0 0.75 0 0] CT
0.149 GC
2 setlinecap
1 LJ
0.667 LW
N
741 421 M
741 51 L
S
GR
GS
[0.75 0 0 0.75 0 0] CT
0.149 GC
2 setlinecap
1 LJ
0.667 LW
N
91 421 M
97.5 421 L
S
GR
GS
[0.75 0 0 0.75 0 0] CT
0.149 GC
2 setlinecap
1 LJ
0.667 LW
N
91 377.471 M
97.5 377.471 L
S
GR
GS
[0.75 0 0 0.75 0 0] CT
0.149 GC
2 setlinecap
1 LJ
0.667 LW
N
91 333.941 M
97.5 333.941 L
S
GR
GS
[0.75 0 0 0.75 0 0] CT
0.149 GC
2 setlinecap
1 LJ
0.667 LW
N
91 290.412 M
97.5 290.412 L
S
GR
GS
[0.75 0 0 0.75 0 0] CT
0.149 GC
2 setlinecap
1 LJ
0.667 LW
N
91 246.882 M
97.5 246.882 L
S
GR
GS
[0.75 0 0 0.75 0 0] CT
0.149 GC
2 setlinecap
1 LJ
0.667 LW
N
91 203.353 M
97.5 203.353 L
S
GR
GS
[0.75 0 0 0.75 0 0] CT
0.149 GC
2 setlinecap
1 LJ
0.667 LW
N
91 159.824 M
97.5 159.824 L
S
GR
GS
[0.75 0 0 0.75 0 0] CT
0.149 GC
2 setlinecap
1 LJ
0.667 LW
N
91 116.294 M
97.5 116.294 L
S
GR
GS
[0.75 0 0 0.75 0 0] CT
0.149 GC
2 setlinecap
1 LJ
0.667 LW
N
91 72.765 M
97.5 72.765 L
S
GR
GS
[0.75 0 0 0.75 0 0] CT
0.149 GC
2 setlinecap
1 LJ
0.667 LW
N
91 51 M
97.5 51 L
S
GR
GS
[0.75 0 0 0.75 0 0] CT
0.149 GC
2 setlinecap
1 LJ
0.667 LW
N
741 421 M
734.5 421 L
S
GR
GS
[0.75 0 0 0.75 0 0] CT
0.149 GC
2 setlinecap
1 LJ
0.667 LW
N
741 377.471 M
734.5 377.471 L
S
GR
GS
[0.75 0 0 0.75 0 0] CT
0.149 GC
2 setlinecap
1 LJ
0.667 LW
N
741 333.941 M
734.5 333.941 L
S
GR
GS
[0.75 0 0 0.75 0 0] CT
0.149 GC
2 setlinecap
1 LJ
0.667 LW
N
741 290.412 M
734.5 290.412 L
S
GR
GS
[0.75 0 0 0.75 0 0] CT
0.149 GC
2 setlinecap
1 LJ
0.667 LW
N
741 246.882 M
734.5 246.882 L
S
GR
GS
[0.75 0 0 0.75 0 0] CT
0.149 GC
2 setlinecap
1 LJ
0.667 LW
N
741 203.353 M
734.5 203.353 L
S
GR
GS
[0.75 0 0 0.75 0 0] CT
0.149 GC
2 setlinecap
1 LJ
0.667 LW
N
741 159.824 M
734.5 159.824 L
S
GR
GS
[0.75 0 0 0.75 0 0] CT
0.149 GC
2 setlinecap
1 LJ
0.667 LW
N
741 116.294 M
734.5 116.294 L
S
GR
GS
[0.75 0 0 0.75 0 0] CT
0.149 GC
2 setlinecap
1 LJ
0.667 LW
N
741 72.765 M
734.5 72.765 L
S
GR
GS
[0.75 0 0 0.75 0 0] CT
0.149 GC
2 setlinecap
1 LJ
0.667 LW
N
741 51 M
734.5 51 L
S
GR
GS
[0.75 0 0 0.75 61.45 315.75] CT
0.149 GC
/Times 32 F
GS
[1 0 0 1 0 0] CT
-21 11 moveto 
1 -1 scale
(0) t 
GR
GR
GS
[0.75 0 0 0.75 61.45 283.10294] CT
0.149 GC
/Times 32 F
GS
[1 0 0 1 0 0] CT
-41 11 moveto 
1 -1 scale
(10) t 
GR
GR
GS
[0.75 0 0 0.75 61.45 250.45587] CT
0.149 GC
/Times 32 F
GS
[1 0 0 1 0 0] CT
-41 11 moveto 
1 -1 scale
(20) t 
GR
GR
GS
[0.75 0 0 0.75 61.45 217.80883] CT
0.149 GC
/Times 32 F
GS
[1 0 0 1 0 0] CT
-41 11 moveto 
1 -1 scale
(30) t 
GR
GR
GS
[0.75 0 0 0.75 61.45 185.16177] CT
0.149 GC
/Times 32 F
GS
[1 0 0 1 0 0] CT
-41 11 moveto 
1 -1 scale
(40) t 
GR
GR
GS
[0.75 0 0 0.75 61.45 152.5147] CT
0.149 GC
/Times 32 F
GS
[1 0 0 1 0 0] CT
-41 11 moveto 
1 -1 scale
(50) t 
GR
GR
GS
[0.75 0 0 0.75 61.45 119.86765] CT
0.149 GC
/Times 32 F
GS
[1 0 0 1 0 0] CT
-41 11 moveto 
1 -1 scale
(60) t 
GR
GR
GS
[0.75 0 0 0.75 61.45 87.22059] CT
0.149 GC
/Times 32 F
GS
[1 0 0 1 0 0] CT
-41 11 moveto 
1 -1 scale
(70) t 
GR
GR
GS
[0.75 0 0 0.75 61.45 54.57353] CT
0.149 GC
/Times 32 F
GS
[1 0 0 1 0 0] CT
-41 11 moveto 
1 -1 scale
(80) t 
GR
GR
GS
[0 -0.75 0.75 0 27.7 176.99986] CT
0.149 GC
/Times 35.2 F
GS
[1 0 0 1 0 0] CT
-100.5 -9 moveto 
1 -1 scale
(ANMRR \(%\)) t 
GR
GR
GS
[0.75 0 0 0.75 312.00032 33.30001] CT
/Times 35.2 F
GS
[1 0 0 1 0 0] CT
-126.5 -9 moveto 
1 -1 scale
(LFW Database) t 
GR
GR
GS
[0.75 0 0 0.75 0 0] CT
1 0.6 0.784 RC
1 LJ
2 LW
N
91 421 M
163.222 258.876 L
235.444 182.398 L
307.667 141.976 L
379.889 117.814 L
452.111 101.185 L
524.333 88.59 L
596.556 79.063 L
668.778 71.354 L
741 65.091 L
S
GR
GS
[0.75 0 0 0.75 0 0] CT
1 GC
N
89.278 416.652 M
95.943 420.5 L
89.278 424.348 L
cp
f
GR
GS
[0.75 0 0 0.75 0 0] CT
1 0.6 0.784 RC
10.0 ML
2 LW
N
89.278 416.652 M
95.943 420.5 L
89.278 424.348 L
cp
S
GR
GS
[0.75 0 0 0.75 0 0] CT
1 GC
N
161.278 254.652 M
167.943 258.5 L
161.278 262.348 L
cp
f
GR
GS
[0.75 0 0 0.75 0 0] CT
1 0.6 0.784 RC
10.0 ML
2 LW
N
161.278 254.652 M
167.943 258.5 L
161.278 262.348 L
cp
S
GR
GS
[0.75 0 0 0.75 0 0] CT
1 GC
N
233.278 178.652 M
239.943 182.5 L
233.278 186.348 L
cp
f
GR
GS
[0.75 0 0 0.75 0 0] CT
1 0.6 0.784 RC
10.0 ML
2 LW
N
233.278 178.652 M
239.943 182.5 L
233.278 186.348 L
cp
S
GR
GS
[0.75 0 0 0.75 0 0] CT
1 GC
N
305.278 137.652 M
311.943 141.5 L
305.278 145.348 L
cp
f
GR
GS
[0.75 0 0 0.75 0 0] CT
1 0.6 0.784 RC
10.0 ML
2 LW
N
305.278 137.652 M
311.943 141.5 L
305.278 145.348 L
cp
S
GR
GS
[0.75 0 0 0.75 0 0] CT
1 GC
N
377.278 113.652 M
383.943 117.5 L
377.278 121.348 L
cp
f
GR
GS
[0.75 0 0 0.75 0 0] CT
1 0.6 0.784 RC
10.0 ML
2 LW
N
377.278 113.652 M
383.943 117.5 L
377.278 121.348 L
cp
S
GR
GS
[0.75 0 0 0.75 0 0] CT
1 GC
N
450.278 97.652 M
456.943 101.5 L
450.278 105.348 L
cp
f
GR
GS
[0.75 0 0 0.75 0 0] CT
1 0.6 0.784 RC
10.0 ML
2 LW
N
450.278 97.652 M
456.943 101.5 L
450.278 105.348 L
cp
S
GR
GS
[0.75 0 0 0.75 0 0] CT
1 GC
N
522.278 84.652 M
528.943 88.5 L
522.278 92.348 L
cp
f
GR
GS
[0.75 0 0 0.75 0 0] CT
1 0.6 0.784 RC
10.0 ML
2 LW
N
522.278 84.652 M
528.943 88.5 L
522.278 92.348 L
cp
S
GR
GS
[0.75 0 0 0.75 0 0] CT
1 GC
N
594.278 75.652 M
600.943 79.5 L
594.278 83.348 L
cp
f
GR
GS
[0.75 0 0 0.75 0 0] CT
1 0.6 0.784 RC
10.0 ML
2 LW
N
594.278 75.652 M
600.943 79.5 L
594.278 83.348 L
cp
S
GR
GS
[0.75 0 0 0.75 0 0] CT
1 GC
N
666.278 67.652 M
672.943 71.5 L
666.278 75.348 L
cp
f
GR
GS
[0.75 0 0 0.75 0 0] CT
1 0.6 0.784 RC
10.0 ML
2 LW
N
666.278 67.652 M
672.943 71.5 L
666.278 75.348 L
cp
S
GR
GS
[0.75 0 0 0.75 0 0] CT
1 GC
N
739.278 61.652 M
745.943 65.5 L
739.278 69.348 L
cp
f
GR
GS
[0.75 0 0 0.75 0 0] CT
1 0.6 0.784 RC
10.0 ML
2 LW
N
739.278 61.652 M
745.943 65.5 L
739.278 69.348 L
cp
S
GR
GS
[0.75 0 0 0.75 0 0] CT
0.6 0.2 0 RC
1 LJ
2 LW
N
91 421 M
163.222 261.569 L
235.444 182.439 L
307.667 142.726 L
379.889 117.427 L
452.111 99.899 L
524.333 87.965 L
596.556 78.496 L
668.778 71.037 L
741 65.156 L
S
GR
GS
[0.75 0 0 0.75 0 0] CT
1 GC
N
87.057 420.5 M
93.722 416.652 L
93.722 424.348 L
cp
f
GR
GS
[0.75 0 0 0.75 0 0] CT
0.6 0.2 0 RC
10.0 ML
2 LW
N
87.057 420.5 M
93.722 416.652 L
93.722 424.348 L
cp
S
GR
GS
[0.75 0 0 0.75 0 0] CT
1 GC
N
159.057 261.5 M
165.722 257.652 L
165.722 265.348 L
cp
f
GR
GS
[0.75 0 0 0.75 0 0] CT
0.6 0.2 0 RC
10.0 ML
2 LW
N
159.057 261.5 M
165.722 257.652 L
165.722 265.348 L
cp
S
GR
GS
[0.75 0 0 0.75 0 0] CT
1 GC
N
231.057 182.5 M
237.722 178.652 L
237.722 186.348 L
cp
f
GR
GS
[0.75 0 0 0.75 0 0] CT
0.6 0.2 0 RC
10.0 ML
2 LW
N
231.057 182.5 M
237.722 178.652 L
237.722 186.348 L
cp
S
GR
GS
[0.75 0 0 0.75 0 0] CT
1 GC
N
303.057 142.5 M
309.722 138.652 L
309.722 146.348 L
cp
f
GR
GS
[0.75 0 0 0.75 0 0] CT
0.6 0.2 0 RC
10.0 ML
2 LW
N
303.057 142.5 M
309.722 138.652 L
309.722 146.348 L
cp
S
GR
GS
[0.75 0 0 0.75 0 0] CT
1 GC
N
375.057 117.5 M
381.722 113.652 L
381.722 121.348 L
cp
f
GR
GS
[0.75 0 0 0.75 0 0] CT
0.6 0.2 0 RC
10.0 ML
2 LW
N
375.057 117.5 M
381.722 113.652 L
381.722 121.348 L
cp
S
GR
GS
[0.75 0 0 0.75 0 0] CT
1 GC
N
448.057 99.5 M
454.722 95.652 L
454.722 103.348 L
cp
f
GR
GS
[0.75 0 0 0.75 0 0] CT
0.6 0.2 0 RC
10.0 ML
2 LW
N
448.057 99.5 M
454.722 95.652 L
454.722 103.348 L
cp
S
GR
GS
[0.75 0 0 0.75 0 0] CT
1 GC
N
520.057 87.5 M
526.722 83.652 L
526.722 91.348 L
cp
f
GR
GS
[0.75 0 0 0.75 0 0] CT
0.6 0.2 0 RC
10.0 ML
2 LW
N
520.057 87.5 M
526.722 83.652 L
526.722 91.348 L
cp
S
GR
GS
[0.75 0 0 0.75 0 0] CT
1 GC
N
592.057 78.5 M
598.722 74.652 L
598.722 82.348 L
cp
f
GR
GS
[0.75 0 0 0.75 0 0] CT
0.6 0.2 0 RC
10.0 ML
2 LW
N
592.057 78.5 M
598.722 74.652 L
598.722 82.348 L
cp
S
GR
GS
[0.75 0 0 0.75 0 0] CT
1 GC
N
664.057 71.5 M
670.722 67.652 L
670.722 75.348 L
cp
f
GR
GS
[0.75 0 0 0.75 0 0] CT
0.6 0.2 0 RC
10.0 ML
2 LW
N
664.057 71.5 M
670.722 67.652 L
670.722 75.348 L
cp
S
GR
GS
[0.75 0 0 0.75 0 0] CT
1 GC
N
737.057 65.5 M
743.722 61.652 L
743.722 69.348 L
cp
f
GR
GS
[0.75 0 0 0.75 0 0] CT
0.6 0.2 0 RC
10.0 ML
2 LW
N
737.057 65.5 M
743.722 61.652 L
743.722 69.348 L
cp
S
GR
GS
[0.75 0 0 0.75 0 0] CT
0.929 0.694 0.125 RC
1 LJ
2 LW
N
91 421 M
163.222 256.513 L
235.444 178.264 L
307.667 138.128 L
379.889 113.604 L
452.111 96.722 L
524.333 84.598 L
596.556 75.115 L
668.778 67.632 L
741 61.775 L
S
GR
GS
[0.75 0 0 0.75 0 0] CT
1 GC
N
88.33 419.47 M
90.716 419.47 L
91.5 417.167 L
92.284 419.47 L
94.67 419.47 L
92.768 420.912 L
93.459 423.197 L
91.5 421.833 L
89.541 423.197 L
90.232 420.912 L
88.33 419.47 L
cp
f
GR
GS
[0.75 0 0 0.75 0 0] CT
0.929 0.694 0.125 RC
10.0 ML
2 LW
N
88.33 419.47 M
90.716 419.47 L
91.5 417.167 L
92.284 419.47 L
94.67 419.47 L
92.768 420.912 L
93.459 423.197 L
91.5 421.833 L
89.541 423.197 L
90.232 420.912 L
cp
S
GR
GS
[0.75 0 0 0.75 0 0] CT
1 GC
N
160.33 255.47 M
162.716 255.47 L
163.5 253.167 L
164.284 255.47 L
166.67 255.47 L
164.768 256.912 L
165.459 259.197 L
163.5 257.833 L
161.541 259.197 L
162.232 256.912 L
160.33 255.47 L
cp
f
GR
GS
[0.75 0 0 0.75 0 0] CT
0.929 0.694 0.125 RC
10.0 ML
2 LW
N
160.33 255.47 M
162.716 255.47 L
163.5 253.167 L
164.284 255.47 L
166.67 255.47 L
164.768 256.912 L
165.459 259.197 L
163.5 257.833 L
161.541 259.197 L
162.232 256.912 L
cp
S
GR
GS
[0.75 0 0 0.75 0 0] CT
1 GC
N
232.33 177.47 M
234.716 177.47 L
235.5 175.167 L
236.284 177.47 L
238.67 177.47 L
236.768 178.912 L
237.459 181.197 L
235.5 179.833 L
233.541 181.197 L
234.232 178.912 L
232.33 177.47 L
cp
f
GR
GS
[0.75 0 0 0.75 0 0] CT
0.929 0.694 0.125 RC
10.0 ML
2 LW
N
232.33 177.47 M
234.716 177.47 L
235.5 175.167 L
236.284 177.47 L
238.67 177.47 L
236.768 178.912 L
237.459 181.197 L
235.5 179.833 L
233.541 181.197 L
234.232 178.912 L
cp
S
GR
GS
[0.75 0 0 0.75 0 0] CT
1 GC
N
304.33 137.47 M
306.716 137.47 L
307.5 135.167 L
308.284 137.47 L
310.67 137.47 L
308.768 138.912 L
309.459 141.197 L
307.5 139.833 L
305.541 141.197 L
306.232 138.912 L
304.33 137.47 L
cp
f
GR
GS
[0.75 0 0 0.75 0 0] CT
0.929 0.694 0.125 RC
10.0 ML
2 LW
N
304.33 137.47 M
306.716 137.47 L
307.5 135.167 L
308.284 137.47 L
310.67 137.47 L
308.768 138.912 L
309.459 141.197 L
307.5 139.833 L
305.541 141.197 L
306.232 138.912 L
cp
S
GR
GS
[0.75 0 0 0.75 0 0] CT
1 GC
N
376.33 112.47 M
378.716 112.47 L
379.5 110.167 L
380.284 112.47 L
382.67 112.47 L
380.768 113.912 L
381.459 116.197 L
379.5 114.833 L
377.541 116.197 L
378.232 113.912 L
376.33 112.47 L
cp
f
GR
GS
[0.75 0 0 0.75 0 0] CT
0.929 0.694 0.125 RC
10.0 ML
2 LW
N
376.33 112.47 M
378.716 112.47 L
379.5 110.167 L
380.284 112.47 L
382.67 112.47 L
380.768 113.912 L
381.459 116.197 L
379.5 114.833 L
377.541 116.197 L
378.232 113.912 L
cp
S
GR
GS
[0.75 0 0 0.75 0 0] CT
1 GC
N
449.33 95.47 M
451.716 95.47 L
452.5 93.167 L
453.284 95.47 L
455.67 95.47 L
453.768 96.912 L
454.459 99.197 L
452.5 97.833 L
450.541 99.197 L
451.232 96.912 L
449.33 95.47 L
cp
f
GR
GS
[0.75 0 0 0.75 0 0] CT
0.929 0.694 0.125 RC
10.0 ML
2 LW
N
449.33 95.47 M
451.716 95.47 L
452.5 93.167 L
453.284 95.47 L
455.67 95.47 L
453.768 96.912 L
454.459 99.197 L
452.5 97.833 L
450.541 99.197 L
451.232 96.912 L
cp
S
GR
GS
[0.75 0 0 0.75 0 0] CT
1 GC
N
521.33 83.47 M
523.716 83.47 L
524.5 81.167 L
525.284 83.47 L
527.67 83.47 L
525.768 84.912 L
526.459 87.197 L
524.5 85.833 L
522.541 87.197 L
523.232 84.912 L
521.33 83.47 L
cp
f
GR
GS
[0.75 0 0 0.75 0 0] CT
0.929 0.694 0.125 RC
10.0 ML
2 LW
N
521.33 83.47 M
523.716 83.47 L
524.5 81.167 L
525.284 83.47 L
527.67 83.47 L
525.768 84.912 L
526.459 87.197 L
524.5 85.833 L
522.541 87.197 L
523.232 84.912 L
cp
S
GR
GS
[0.75 0 0 0.75 0 0] CT
1 GC
N
593.33 74.47 M
595.716 74.47 L
596.5 72.167 L
597.284 74.47 L
599.67 74.47 L
597.768 75.912 L
598.459 78.197 L
596.5 76.833 L
594.541 78.197 L
595.232 75.912 L
593.33 74.47 L
cp
f
GR
GS
[0.75 0 0 0.75 0 0] CT
0.929 0.694 0.125 RC
10.0 ML
2 LW
N
593.33 74.47 M
595.716 74.47 L
596.5 72.167 L
597.284 74.47 L
599.67 74.47 L
597.768 75.912 L
598.459 78.197 L
596.5 76.833 L
594.541 78.197 L
595.232 75.912 L
cp
S
GR
GS
[0.75 0 0 0.75 0 0] CT
1 GC
N
665.33 66.47 M
667.716 66.47 L
668.5 64.167 L
669.284 66.47 L
671.67 66.47 L
669.768 67.912 L
670.459 70.197 L
668.5 68.833 L
666.541 70.197 L
667.232 67.912 L
665.33 66.47 L
cp
f
GR
GS
[0.75 0 0 0.75 0 0] CT
0.929 0.694 0.125 RC
10.0 ML
2 LW
N
665.33 66.47 M
667.716 66.47 L
668.5 64.167 L
669.284 66.47 L
671.67 66.47 L
669.768 67.912 L
670.459 70.197 L
668.5 68.833 L
666.541 70.197 L
667.232 67.912 L
cp
S
GR
GS
[0.75 0 0 0.75 0 0] CT
1 GC
N
738.33 60.47 M
740.716 60.47 L
741.5 58.167 L
742.284 60.47 L
744.67 60.47 L
742.768 61.912 L
743.459 64.197 L
741.5 62.833 L
739.541 64.197 L
740.232 61.912 L
738.33 60.47 L
cp
f
GR
GS
[0.75 0 0 0.75 0 0] CT
0.929 0.694 0.125 RC
10.0 ML
2 LW
N
738.33 60.47 M
740.716 60.47 L
741.5 58.167 L
742.284 60.47 L
744.67 60.47 L
742.768 61.912 L
743.459 64.197 L
741.5 62.833 L
739.541 64.197 L
740.232 61.912 L
cp
S
GR
GS
[0.75 0 0 0.75 0 0] CT
0 1 1 RC
1 LJ
2 LW
N
91 421 M
163.222 255.866 L
235.444 176.522 L
307.667 136.466 L
379.889 111.829 L
452.111 95.049 L
524.333 82.513 L
596.556 73.297 L
668.778 66.336 L
741 60.42 L
S
GR
GS
[0.75 0 0 0.75 0 0] CT
1 GC
N
91.5 424.943 M
94.833 420.5 L
91.5 416.057 L
88.167 420.5 L
cp
f
GR
GS
[0.75 0 0 0.75 0 0] CT
0 1 1 RC
10.0 ML
2 LW
N
91.5 424.943 M
94.833 420.5 L
91.5 416.057 L
88.167 420.5 L
cp
S
GR
GS
[0.75 0 0 0.75 0 0] CT
1 GC
N
163.5 259.943 M
166.833 255.5 L
163.5 251.057 L
160.167 255.5 L
cp
f
GR
GS
[0.75 0 0 0.75 0 0] CT
0 1 1 RC
10.0 ML
2 LW
N
163.5 259.943 M
166.833 255.5 L
163.5 251.057 L
160.167 255.5 L
cp
S
GR
GS
[0.75 0 0 0.75 0 0] CT
1 GC
N
235.5 180.943 M
238.833 176.5 L
235.5 172.057 L
232.167 176.5 L
cp
f
GR
GS
[0.75 0 0 0.75 0 0] CT
0 1 1 RC
10.0 ML
2 LW
N
235.5 180.943 M
238.833 176.5 L
235.5 172.057 L
232.167 176.5 L
cp
S
GR
GS
[0.75 0 0 0.75 0 0] CT
1 GC
N
307.5 140.943 M
310.833 136.5 L
307.5 132.057 L
304.167 136.5 L
cp
f
GR
GS
[0.75 0 0 0.75 0 0] CT
0 1 1 RC
10.0 ML
2 LW
N
307.5 140.943 M
310.833 136.5 L
307.5 132.057 L
304.167 136.5 L
cp
S
GR
GS
[0.75 0 0 0.75 0 0] CT
1 GC
N
379.5 115.943 M
382.833 111.5 L
379.5 107.057 L
376.167 111.5 L
cp
f
GR
GS
[0.75 0 0 0.75 0 0] CT
0 1 1 RC
10.0 ML
2 LW
N
379.5 115.943 M
382.833 111.5 L
379.5 107.057 L
376.167 111.5 L
cp
S
GR
GS
[0.75 0 0 0.75 0 0] CT
1 GC
N
452.5 99.943 M
455.833 95.5 L
452.5 91.057 L
449.167 95.5 L
cp
f
GR
GS
[0.75 0 0 0.75 0 0] CT
0 1 1 RC
10.0 ML
2 LW
N
452.5 99.943 M
455.833 95.5 L
452.5 91.057 L
449.167 95.5 L
cp
S
GR
GS
[0.75 0 0 0.75 0 0] CT
1 GC
N
524.5 86.943 M
527.833 82.5 L
524.5 78.057 L
521.167 82.5 L
cp
f
GR
GS
[0.75 0 0 0.75 0 0] CT
0 1 1 RC
10.0 ML
2 LW
N
524.5 86.943 M
527.833 82.5 L
524.5 78.057 L
521.167 82.5 L
cp
S
GR
GS
[0.75 0 0 0.75 0 0] CT
1 GC
N
596.5 77.943 M
599.833 73.5 L
596.5 69.057 L
593.167 73.5 L
cp
f
GR
GS
[0.75 0 0 0.75 0 0] CT
0 1 1 RC
10.0 ML
2 LW
N
596.5 77.943 M
599.833 73.5 L
596.5 69.057 L
593.167 73.5 L
cp
S
GR
GS
[0.75 0 0 0.75 0 0] CT
1 GC
N
668.5 70.943 M
671.833 66.5 L
668.5 62.057 L
665.167 66.5 L
cp
f
GR
GS
[0.75 0 0 0.75 0 0] CT
0 1 1 RC
10.0 ML
2 LW
N
668.5 70.943 M
671.833 66.5 L
668.5 62.057 L
665.167 66.5 L
cp
S
GR
GS
[0.75 0 0 0.75 0 0] CT
1 GC
N
741.5 64.943 M
744.833 60.5 L
741.5 56.057 L
738.167 60.5 L
cp
f
GR
GS
[0.75 0 0 0.75 0 0] CT
0 1 1 RC
10.0 ML
2 LW
N
741.5 64.943 M
744.833 60.5 L
741.5 56.057 L
738.167 60.5 L
cp
S
GR
GS
[0.75 0 0 0.75 0 0] CT
0 1 0 RC
1 LJ
2 LW
N
91 421 M
163.222 281.793 L
235.444 206.809 L
307.667 166.68 L
379.889 139.36 L
452.111 121.066 L
524.333 108.239 L
596.556 98.105 L
668.778 90.152 L
741 82.941 L
S
GR
GS
[0.75 0 0 0.75 0 0] CT
1 GC
N
88.9 423.1 M
88.9 417.9 L
94.1 417.9 L
94.1 423.1 L
cp
f
GR
GS
[0.75 0 0 0.75 0 0] CT
0 1 0 RC
10.0 ML
2 LW
N
88.9 423.1 M
88.9 417.9 L
94.1 417.9 L
94.1 423.1 L
cp
S
GR
GS
[0.75 0 0 0.75 0 0] CT
1 GC
N
160.9 284.1 M
160.9 278.9 L
166.1 278.9 L
166.1 284.1 L
cp
f
GR
GS
[0.75 0 0 0.75 0 0] CT
0 1 0 RC
10.0 ML
2 LW
N
160.9 284.1 M
160.9 278.9 L
166.1 278.9 L
166.1 284.1 L
cp
S
GR
GS
[0.75 0 0 0.75 0 0] CT
1 GC
N
232.9 209.1 M
232.9 203.9 L
238.1 203.9 L
238.1 209.1 L
cp
f
GR
GS
[0.75 0 0 0.75 0 0] CT
0 1 0 RC
10.0 ML
2 LW
N
232.9 209.1 M
232.9 203.9 L
238.1 203.9 L
238.1 209.1 L
cp
S
GR
GS
[0.75 0 0 0.75 0 0] CT
1 GC
N
304.9 169.1 M
304.9 163.9 L
310.1 163.9 L
310.1 169.1 L
cp
f
GR
GS
[0.75 0 0 0.75 0 0] CT
0 1 0 RC
10.0 ML
2 LW
N
304.9 169.1 M
304.9 163.9 L
310.1 163.9 L
310.1 169.1 L
cp
S
GR
GS
[0.75 0 0 0.75 0 0] CT
1 GC
N
376.9 142.1 M
376.9 136.9 L
382.1 136.9 L
382.1 142.1 L
cp
f
GR
GS
[0.75 0 0 0.75 0 0] CT
0 1 0 RC
10.0 ML
2 LW
N
376.9 142.1 M
376.9 136.9 L
382.1 136.9 L
382.1 142.1 L
cp
S
GR
GS
[0.75 0 0 0.75 0 0] CT
1 GC
N
449.9 124.1 M
449.9 118.9 L
455.1 118.9 L
455.1 124.1 L
cp
f
GR
GS
[0.75 0 0 0.75 0 0] CT
0 1 0 RC
10.0 ML
2 LW
N
449.9 124.1 M
449.9 118.9 L
455.1 118.9 L
455.1 124.1 L
cp
S
GR
GS
[0.75 0 0 0.75 0 0] CT
1 GC
N
521.9 111.1 M
521.9 105.9 L
527.1 105.9 L
527.1 111.1 L
cp
f
GR
GS
[0.75 0 0 0.75 0 0] CT
0 1 0 RC
10.0 ML
2 LW
N
521.9 111.1 M
521.9 105.9 L
527.1 105.9 L
527.1 111.1 L
cp
S
GR
GS
[0.75 0 0 0.75 0 0] CT
1 GC
N
593.9 101.1 M
593.9 95.9 L
599.1 95.9 L
599.1 101.1 L
cp
f
GR
GS
[0.75 0 0 0.75 0 0] CT
0 1 0 RC
10.0 ML
2 LW
N
593.9 101.1 M
593.9 95.9 L
599.1 95.9 L
599.1 101.1 L
cp
S
GR
GS
[0.75 0 0 0.75 0 0] CT
1 GC
N
665.9 93.1 M
665.9 87.9 L
671.1 87.9 L
671.1 93.1 L
cp
f
GR
GS
[0.75 0 0 0.75 0 0] CT
0 1 0 RC
10.0 ML
2 LW
N
665.9 93.1 M
665.9 87.9 L
671.1 87.9 L
671.1 93.1 L
cp
S
GR
GS
[0.75 0 0 0.75 0 0] CT
1 GC
N
738.9 85.1 M
738.9 79.9 L
744.1 79.9 L
744.1 85.1 L
cp
f
GR
GS
[0.75 0 0 0.75 0 0] CT
0 1 0 RC
10.0 ML
2 LW
N
738.9 85.1 M
738.9 79.9 L
744.1 79.9 L
744.1 85.1 L
cp
S
GR
GS
[0.75 0 0 0.75 0 0] CT
0 0 1 RC
1 LJ
2 LW
N
91 421 M
163.222 250.203 L
235.444 170.961 L
307.667 130.503 L
379.889 105.686 L
452.111 88.832 L
524.333 76.752 L
596.556 67.911 L
668.778 60.818 L
741 55.258 L
S
GR
GS
[0.75 0 0 0.75 0 0] CT
1 GC
N
87.057 420.5 M
93.722 416.652 L
93.722 424.348 L
cp
f
GR
GS
[0.75 0 0 0.75 0 0] CT
0 0 1 RC
10.0 ML
2 LW
N
87.057 420.5 M
93.722 416.652 L
93.722 424.348 L
cp
S
GR
GS
[0.75 0 0 0.75 0 0] CT
1 GC
N
159.057 250.5 M
165.722 246.652 L
165.722 254.348 L
cp
f
GR
GS
[0.75 0 0 0.75 0 0] CT
0 0 1 RC
10.0 ML
2 LW
N
159.057 250.5 M
165.722 246.652 L
165.722 254.348 L
cp
S
GR
GS
[0.75 0 0 0.75 0 0] CT
1 GC
N
231.057 170.5 M
237.722 166.652 L
237.722 174.348 L
cp
f
GR
GS
[0.75 0 0 0.75 0 0] CT
0 0 1 RC
10.0 ML
2 LW
N
231.057 170.5 M
237.722 166.652 L
237.722 174.348 L
cp
S
GR
GS
[0.75 0 0 0.75 0 0] CT
1 GC
N
303.057 130.5 M
309.722 126.652 L
309.722 134.348 L
cp
f
GR
GS
[0.75 0 0 0.75 0 0] CT
0 0 1 RC
10.0 ML
2 LW
N
303.057 130.5 M
309.722 126.652 L
309.722 134.348 L
cp
S
GR
GS
[0.75 0 0 0.75 0 0] CT
1 GC
N
375.057 105.5 M
381.722 101.652 L
381.722 109.348 L
cp
f
GR
GS
[0.75 0 0 0.75 0 0] CT
0 0 1 RC
10.0 ML
2 LW
N
375.057 105.5 M
381.722 101.652 L
381.722 109.348 L
cp
S
GR
GS
[0.75 0 0 0.75 0 0] CT
1 GC
N
448.057 88.5 M
454.722 84.652 L
454.722 92.348 L
cp
f
GR
GS
[0.75 0 0 0.75 0 0] CT
0 0 1 RC
10.0 ML
2 LW
N
448.057 88.5 M
454.722 84.652 L
454.722 92.348 L
cp
S
GR
GS
[0.75 0 0 0.75 0 0] CT
1 GC
N
520.057 76.5 M
526.722 72.652 L
526.722 80.348 L
cp
f
GR
GS
[0.75 0 0 0.75 0 0] CT
0 0 1 RC
10.0 ML
2 LW
N
520.057 76.5 M
526.722 72.652 L
526.722 80.348 L
cp
S
GR
GS
[0.75 0 0 0.75 0 0] CT
1 GC
N
592.057 67.5 M
598.722 63.652 L
598.722 71.348 L
cp
f
GR
GS
[0.75 0 0 0.75 0 0] CT
0 0 1 RC
10.0 ML
2 LW
N
592.057 67.5 M
598.722 63.652 L
598.722 71.348 L
cp
S
GR
GS
[0.75 0 0 0.75 0 0] CT
1 GC
N
664.057 60.5 M
670.722 56.652 L
670.722 64.348 L
cp
f
GR
GS
[0.75 0 0 0.75 0 0] CT
0 0 1 RC
10.0 ML
2 LW
N
664.057 60.5 M
670.722 56.652 L
670.722 64.348 L
cp
S
GR
GS
[0.75 0 0 0.75 0 0] CT
1 GC
N
737.057 55.5 M
743.722 51.652 L
743.722 59.348 L
cp
f
GR
GS
[0.75 0 0 0.75 0 0] CT
0 0 1 RC
10.0 ML
2 LW
N
737.057 55.5 M
743.722 51.652 L
743.722 59.348 L
cp
S
GR
GS
[0.75 0 0 0.75 0 0] CT
1 0 1 RC
1 LJ
2 LW
N
91 421 M
163.222 278.577 L
235.444 201.406 L
307.667 160.49 L
379.889 134.732 L
452.111 117.518 L
524.333 104.585 L
596.556 93.79 L
668.778 85.483 L
741 78.652 L
S
GR
GS
[0.75 0 0 0.75 0 0] CT
1 0 1 RC
1 LJ
2 LW
N
88 420.5 M
95 420.5 L
S
GR
GS
[0.75 0 0 0.75 0 0] CT
1 0 1 RC
1 LJ
2 LW
N
91.5 424 M
91.5 417 L
S
GR
GS
[0.75 0 0 0.75 0 0] CT
1 0 1 RC
1 LJ
2 LW
N
160 278.5 M
167 278.5 L
S
GR
GS
[0.75 0 0 0.75 0 0] CT
1 0 1 RC
1 LJ
2 LW
N
163.5 282 M
163.5 275 L
S
GR
GS
[0.75 0 0 0.75 0 0] CT
1 0 1 RC
1 LJ
2 LW
N
232 201.5 M
239 201.5 L
S
GR
GS
[0.75 0 0 0.75 0 0] CT
1 0 1 RC
1 LJ
2 LW
N
235.5 205 M
235.5 198 L
S
GR
GS
[0.75 0 0 0.75 0 0] CT
1 0 1 RC
1 LJ
2 LW
N
304 160.5 M
311 160.5 L
S
GR
GS
[0.75 0 0 0.75 0 0] CT
1 0 1 RC
1 LJ
2 LW
N
307.5 164 M
307.5 157 L
S
GR
GS
[0.75 0 0 0.75 0 0] CT
1 0 1 RC
1 LJ
2 LW
N
376 134.5 M
383 134.5 L
S
GR
GS
[0.75 0 0 0.75 0 0] CT
1 0 1 RC
1 LJ
2 LW
N
379.5 138 M
379.5 131 L
S
GR
GS
[0.75 0 0 0.75 0 0] CT
1 0 1 RC
1 LJ
2 LW
N
449 117.5 M
456 117.5 L
S
GR
GS
[0.75 0 0 0.75 0 0] CT
1 0 1 RC
1 LJ
2 LW
N
452.5 121 M
452.5 114 L
S
GR
GS
[0.75 0 0 0.75 0 0] CT
1 0 1 RC
1 LJ
2 LW
N
521 104.5 M
528 104.5 L
S
GR
GS
[0.75 0 0 0.75 0 0] CT
1 0 1 RC
1 LJ
2 LW
N
524.5 108 M
524.5 101 L
S
GR
GS
[0.75 0 0 0.75 0 0] CT
1 0 1 RC
1 LJ
2 LW
N
593 93.5 M
600 93.5 L
S
GR
GS
[0.75 0 0 0.75 0 0] CT
1 0 1 RC
1 LJ
2 LW
N
596.5 97 M
596.5 90 L
S
GR
GS
[0.75 0 0 0.75 0 0] CT
1 0 1 RC
1 LJ
2 LW
N
665 85.5 M
672 85.5 L
S
GR
GS
[0.75 0 0 0.75 0 0] CT
1 0 1 RC
1 LJ
2 LW
N
668.5 89 M
668.5 82 L
S
GR
GS
[0.75 0 0 0.75 0 0] CT
1 0 1 RC
1 LJ
2 LW
N
738 78.5 M
745 78.5 L
S
GR
GS
[0.75 0 0 0.75 0 0] CT
1 0 1 RC
1 LJ
2 LW
N
741.5 82 M
741.5 75 L
S
GR
GS
[0.75 0 0 0.75 0 0] CT
1 0 0 RC
1 LJ
2 LW
N
91 421 M
163.222 325.666 L
235.444 255.09 L
307.667 211.603 L
379.889 181.074 L
452.111 160.685 L
524.333 144.198 L
596.556 132.061 L
668.778 121.143 L
741 112.471 L
S
GR
GS
[0.75 0 0 0.75 0 0] CT
1 GC
N
88.9 423.1 M
88.9 417.9 L
94.1 417.9 L
94.1 423.1 L
cp
f
GR
GS
[0.75 0 0 0.75 0 0] CT
1 0 0 RC
10.0 ML
2 LW
N
88.9 423.1 M
88.9 417.9 L
94.1 417.9 L
94.1 423.1 L
cp
S
GR
GS
[0.75 0 0 0.75 0 0] CT
1 GC
N
160.9 328.1 M
160.9 322.9 L
166.1 322.9 L
166.1 328.1 L
cp
f
GR
GS
[0.75 0 0 0.75 0 0] CT
1 0 0 RC
10.0 ML
2 LW
N
160.9 328.1 M
160.9 322.9 L
166.1 322.9 L
166.1 328.1 L
cp
S
GR
GS
[0.75 0 0 0.75 0 0] CT
1 GC
N
232.9 258.1 M
232.9 252.9 L
238.1 252.9 L
238.1 258.1 L
cp
f
GR
GS
[0.75 0 0 0.75 0 0] CT
1 0 0 RC
10.0 ML
2 LW
N
232.9 258.1 M
232.9 252.9 L
238.1 252.9 L
238.1 258.1 L
cp
S
GR
GS
[0.75 0 0 0.75 0 0] CT
1 GC
N
304.9 214.1 M
304.9 208.9 L
310.1 208.9 L
310.1 214.1 L
cp
f
GR
GS
[0.75 0 0 0.75 0 0] CT
1 0 0 RC
10.0 ML
2 LW
N
304.9 214.1 M
304.9 208.9 L
310.1 208.9 L
310.1 214.1 L
cp
S
GR
GS
[0.75 0 0 0.75 0 0] CT
1 GC
N
376.9 184.1 M
376.9 178.9 L
382.1 178.9 L
382.1 184.1 L
cp
f
GR
GS
[0.75 0 0 0.75 0 0] CT
1 0 0 RC
10.0 ML
2 LW
N
376.9 184.1 M
376.9 178.9 L
382.1 178.9 L
382.1 184.1 L
cp
S
GR
GS
[0.75 0 0 0.75 0 0] CT
1 GC
N
449.9 163.1 M
449.9 157.9 L
455.1 157.9 L
455.1 163.1 L
cp
f
GR
GS
[0.75 0 0 0.75 0 0] CT
1 0 0 RC
10.0 ML
2 LW
N
449.9 163.1 M
449.9 157.9 L
455.1 157.9 L
455.1 163.1 L
cp
S
GR
GS
[0.75 0 0 0.75 0 0] CT
1 GC
N
521.9 147.1 M
521.9 141.9 L
527.1 141.9 L
527.1 147.1 L
cp
f
GR
GS
[0.75 0 0 0.75 0 0] CT
1 0 0 RC
10.0 ML
2 LW
N
521.9 147.1 M
521.9 141.9 L
527.1 141.9 L
527.1 147.1 L
cp
S
GR
GS
[0.75 0 0 0.75 0 0] CT
1 GC
N
593.9 135.1 M
593.9 129.9 L
599.1 129.9 L
599.1 135.1 L
cp
f
GR
GS
[0.75 0 0 0.75 0 0] CT
1 0 0 RC
10.0 ML
2 LW
N
593.9 135.1 M
593.9 129.9 L
599.1 129.9 L
599.1 135.1 L
cp
S
GR
GS
[0.75 0 0 0.75 0 0] CT
1 GC
N
665.9 124.1 M
665.9 118.9 L
671.1 118.9 L
671.1 124.1 L
cp
f
GR
GS
[0.75 0 0 0.75 0 0] CT
1 0 0 RC
10.0 ML
2 LW
N
665.9 124.1 M
665.9 118.9 L
671.1 118.9 L
671.1 124.1 L
cp
S
GR
GS
[0.75 0 0 0.75 0 0] CT
1 GC
N
738.9 115.1 M
738.9 109.9 L
744.1 109.9 L
744.1 115.1 L
cp
f
GR
GS
[0.75 0 0 0.75 0 0] CT
1 0 0 RC
10.0 ML
2 LW
N
738.9 115.1 M
738.9 109.9 L
744.1 109.9 L
744.1 115.1 L
cp
S
GR
GS
[0.75 0 0 0.75 0 0] CT
1 LJ
2 LW
N
91 421 M
163.222 333.133 L
235.444 261.358 L
307.667 217.788 L
379.889 188.268 L
452.111 167.023 L
524.333 150.065 L
596.556 136.452 L
668.778 125.919 L
741 117.136 L
S
GR
GS
[0.75 0 0 0.75 0 0] CT
1 GC
N
94.833 420.5 M
93.857 418.143 L
91.5 417.167 L
89.143 418.143 L
88.167 420.5 L
89.143 422.857 L
91.5 423.833 L
93.857 422.857 L
94.833 420.5 L
cp
f
GR
GS
[0.75 0 0 0.75 0 0] CT
1 LJ
2 LW
N
94.833 420.5 M
94.197 418.541 L
92.53 417.33 L
90.47 417.33 L
88.803 418.541 L
88.167 420.5 L
88.803 422.459 L
90.47 423.67 L
92.53 423.67 L
94.197 422.459 L
cp
S
GR
GS
[0.75 0 0 0.75 0 0] CT
1 GC
N
166.833 333.5 M
165.857 331.143 L
163.5 330.167 L
161.143 331.143 L
160.167 333.5 L
161.143 335.857 L
163.5 336.833 L
165.857 335.857 L
166.833 333.5 L
cp
f
GR
GS
[0.75 0 0 0.75 0 0] CT
1 LJ
2 LW
N
166.833 333.5 M
166.197 331.541 L
164.53 330.33 L
162.47 330.33 L
160.803 331.541 L
160.167 333.5 L
160.803 335.459 L
162.47 336.67 L
164.53 336.67 L
166.197 335.459 L
cp
S
GR
GS
[0.75 0 0 0.75 0 0] CT
1 GC
N
238.833 261.5 M
237.857 259.143 L
235.5 258.167 L
233.143 259.143 L
232.167 261.5 L
233.143 263.857 L
235.5 264.833 L
237.857 263.857 L
238.833 261.5 L
cp
f
GR
GS
[0.75 0 0 0.75 0 0] CT
1 LJ
2 LW
N
238.833 261.5 M
238.197 259.541 L
236.53 258.33 L
234.47 258.33 L
232.803 259.541 L
232.167 261.5 L
232.803 263.459 L
234.47 264.67 L
236.53 264.67 L
238.197 263.459 L
cp
S
GR
GS
[0.75 0 0 0.75 0 0] CT
1 GC
N
310.833 217.5 M
309.857 215.143 L
307.5 214.167 L
305.143 215.143 L
304.167 217.5 L
305.143 219.857 L
307.5 220.833 L
309.857 219.857 L
310.833 217.5 L
cp
f
GR
GS
[0.75 0 0 0.75 0 0] CT
1 LJ
2 LW
N
310.833 217.5 M
310.197 215.541 L
308.53 214.33 L
306.47 214.33 L
304.803 215.541 L
304.167 217.5 L
304.803 219.459 L
306.47 220.67 L
308.53 220.67 L
310.197 219.459 L
cp
S
GR
GS
[0.75 0 0 0.75 0 0] CT
1 GC
N
382.833 188.5 M
381.857 186.143 L
379.5 185.167 L
377.143 186.143 L
376.167 188.5 L
377.143 190.857 L
379.5 191.833 L
381.857 190.857 L
382.833 188.5 L
cp
f
GR
GS
[0.75 0 0 0.75 0 0] CT
1 LJ
2 LW
N
382.833 188.5 M
382.197 186.541 L
380.53 185.33 L
378.47 185.33 L
376.803 186.541 L
376.167 188.5 L
376.803 190.459 L
378.47 191.67 L
380.53 191.67 L
382.197 190.459 L
cp
S
GR
GS
[0.75 0 0 0.75 0 0] CT
1 GC
N
455.833 167.5 M
454.857 165.143 L
452.5 164.167 L
450.143 165.143 L
449.167 167.5 L
450.143 169.857 L
452.5 170.833 L
454.857 169.857 L
455.833 167.5 L
cp
f
GR
GS
[0.75 0 0 0.75 0 0] CT
1 LJ
2 LW
N
455.833 167.5 M
455.197 165.541 L
453.53 164.33 L
451.47 164.33 L
449.803 165.541 L
449.167 167.5 L
449.803 169.459 L
451.47 170.67 L
453.53 170.67 L
455.197 169.459 L
cp
S
GR
GS
[0.75 0 0 0.75 0 0] CT
1 GC
N
527.833 150.5 M
526.857 148.143 L
524.5 147.167 L
522.143 148.143 L
521.167 150.5 L
522.143 152.857 L
524.5 153.833 L
526.857 152.857 L
527.833 150.5 L
cp
f
GR
GS
[0.75 0 0 0.75 0 0] CT
1 LJ
2 LW
N
527.833 150.5 M
527.197 148.541 L
525.53 147.33 L
523.47 147.33 L
521.803 148.541 L
521.167 150.5 L
521.803 152.459 L
523.47 153.67 L
525.53 153.67 L
527.197 152.459 L
cp
S
GR
GS
[0.75 0 0 0.75 0 0] CT
1 GC
N
599.833 136.5 M
598.857 134.143 L
596.5 133.167 L
594.143 134.143 L
593.167 136.5 L
594.143 138.857 L
596.5 139.833 L
598.857 138.857 L
599.833 136.5 L
cp
f
GR
GS
[0.75 0 0 0.75 0 0] CT
1 LJ
2 LW
N
599.833 136.5 M
599.197 134.541 L
597.53 133.33 L
595.47 133.33 L
593.803 134.541 L
593.167 136.5 L
593.803 138.459 L
595.47 139.67 L
597.53 139.67 L
599.197 138.459 L
cp
S
GR
GS
[0.75 0 0 0.75 0 0] CT
1 GC
N
671.833 125.5 M
670.857 123.143 L
668.5 122.167 L
666.143 123.143 L
665.167 125.5 L
666.143 127.857 L
668.5 128.833 L
670.857 127.857 L
671.833 125.5 L
cp
f
GR
GS
[0.75 0 0 0.75 0 0] CT
1 LJ
2 LW
N
671.833 125.5 M
671.197 123.541 L
669.53 122.33 L
667.47 122.33 L
665.803 123.541 L
665.167 125.5 L
665.803 127.459 L
667.47 128.67 L
669.53 128.67 L
671.197 127.459 L
cp
S
GR
GS
[0.75 0 0 0.75 0 0] CT
1 GC
N
744.833 117.5 M
743.857 115.143 L
741.5 114.167 L
739.143 115.143 L
738.167 117.5 L
739.143 119.857 L
741.5 120.833 L
743.857 119.857 L
744.833 117.5 L
cp
f
GR
GS
[0.75 0 0 0.75 0 0] CT
1 LJ
2 LW
N
744.833 117.5 M
744.197 115.541 L
742.53 114.33 L
740.47 114.33 L
738.803 115.541 L
738.167 117.5 L
738.803 119.459 L
740.47 120.67 L
742.53 120.67 L
744.197 119.459 L
cp
S
GR
GS
[0.75 0 0 0.75 0 0] CT
1 GC
N
622 408 M
622 139 L
728 139 L
728 408 L
cp
f
GR
GS
[0.75 0 0 0.75 494.25 116.625] CT
/Times 24 F
GS
[1 0 0 1 0 0] CT
0 8.5 moveto 
1 -1 scale
(LBP) t 
GR
GR
GS
[0.75 0 0 0.75 0 0] CT
1 0.6 0.784 RC
1 LJ
2 LW
N
626 155.5 M
656 155.5 L
S
GR
GS
[0.75 0 0 0.75 0 0] CT
1 GC
N
639.278 151.652 M
645.943 155.5 L
639.278 159.348 L
cp
f
GR
GS
[0.75 0 0 0.75 0 0] CT
1 0.6 0.784 RC
10.0 ML
2 LW
N
639.278 151.652 M
645.943 155.5 L
639.278 159.348 L
cp
S
GR
GS
[0.75 0 0 0.75 494.25 138.75] CT
/Times 24 F
GS
[1 0 0 1 0 0] CT
0 8.5 moveto 
1 -1 scale
(LTP) t 
GR
GR
GS
[0.75 0 0 0.75 0 0] CT
0.6 0.2 0 RC
1 LJ
2 LW
N
626 185 M
656 185 L
S
GR
GS
[0.75 0 0 0.75 0 0] CT
1 GC
N
637.057 184.5 M
643.722 180.652 L
643.722 188.348 L
cp
f
GR
GS
[0.75 0 0 0.75 0 0] CT
0.6 0.2 0 RC
10.0 ML
2 LW
N
637.057 184.5 M
643.722 180.652 L
643.722 188.348 L
cp
S
GR
GS
[0.75 0 0 0.75 494.25 160.875] CT
/Times 24 F
GS
[1 0 0 1 0 0] CT
0 8.5 moveto 
1 -1 scale
(LDP) t 
GR
GR
GS
[0.75 0 0 0.75 0 0] CT
0.929 0.694 0.125 RC
1 LJ
2 LW
N
626 214.5 M
656 214.5 L
S
GR
GS
[0.75 0 0 0.75 0 0] CT
1 GC
N
638.33 213.47 M
640.716 213.47 L
641.5 211.167 L
642.284 213.47 L
644.67 213.47 L
642.768 214.912 L
643.459 217.197 L
641.5 215.833 L
639.541 217.197 L
640.232 214.912 L
638.33 213.47 L
cp
f
GR
GS
[0.75 0 0 0.75 0 0] CT
0.929 0.694 0.125 RC
10.0 ML
2 LW
N
638.33 213.47 M
640.716 213.47 L
641.5 211.167 L
642.284 213.47 L
644.67 213.47 L
642.768 214.912 L
643.459 217.197 L
641.5 215.833 L
639.541 217.197 L
640.232 214.912 L
cp
S
GR
GS
[0.75 0 0 0.75 494.25 183] CT
/Times 24 F
GS
[1 0 0 1 0 0] CT
0 8.5 moveto 
1 -1 scale
(LDN) t 
GR
GR
GS
[0.75 0 0 0.75 0 0] CT
0 1 1 RC
1 LJ
2 LW
N
626 244 M
656 244 L
S
GR
GS
[0.75 0 0 0.75 0 0] CT
1 GC
N
641.5 247.943 M
644.833 243.5 L
641.5 239.057 L
638.167 243.5 L
cp
f
GR
GS
[0.75 0 0 0.75 0 0] CT
0 1 1 RC
10.0 ML
2 LW
N
641.5 247.943 M
644.833 243.5 L
641.5 239.057 L
638.167 243.5 L
cp
S
GR
GS
[0.75 0 0 0.75 494.25 205.125] CT
/Times 24 F
GS
[1 0 0 1 0 0] CT
0 8.5 moveto 
1 -1 scale
(LVP) t 
GR
GR
GS
[0.75 0 0 0.75 0 0] CT
0 1 0 RC
1 LJ
2 LW
N
626 273.5 M
656 273.5 L
S
GR
GS
[0.75 0 0 0.75 0 0] CT
1 GC
N
638.9 276.1 M
638.9 270.9 L
644.1 270.9 L
644.1 276.1 L
cp
f
GR
GS
[0.75 0 0 0.75 0 0] CT
0 1 0 RC
10.0 ML
2 LW
N
638.9 276.1 M
638.9 270.9 L
644.1 270.9 L
644.1 276.1 L
cp
S
GR
GS
[0.75 0 0 0.75 494.25 227.25] CT
/Times 24 F
GS
[1 0 0 1 0 0] CT
0 8.5 moveto 
1 -1 scale
(LDGP) t 
GR
GR
GS
[0.75 0 0 0.75 0 0] CT
0 0 1 RC
1 LJ
2 LW
N
626 303 M
656 303 L
S
GR
GS
[0.75 0 0 0.75 0 0] CT
1 GC
N
637.057 302.5 M
643.722 298.652 L
643.722 306.348 L
cp
f
GR
GS
[0.75 0 0 0.75 0 0] CT
0 0 1 RC
10.0 ML
2 LW
N
637.057 302.5 M
643.722 298.652 L
643.722 306.348 L
cp
S
GR
GS
[0.75 0 0 0.75 494.25 249.375] CT
/Times 24 F
GS
[1 0 0 1 0 0] CT
0 8.5 moveto 
1 -1 scale
(DCP) t 
GR
GR
GS
[0.75 0 0 0.75 0 0] CT
1 0 1 RC
1 LJ
2 LW
N
626 332.5 M
656 332.5 L
S
GR
GS
[0.75 0 0 0.75 0 0] CT
1 0 1 RC
1 LJ
2 LW
N
638 332.5 M
645 332.5 L
S
GR
GS
[0.75 0 0 0.75 0 0] CT
1 0 1 RC
1 LJ
2 LW
N
641.5 336 M
641.5 329 L
S
GR
GS
[0.75 0 0 0.75 494.25 271.5] CT
/Times 24 F
GS
[1 0 0 1 0 0] CT
0 8.5 moveto 
1 -1 scale
(LGHP) t 
GR
GR
GS
[0.75 0 0 0.75 0 0] CT
1 0 0 RC
1 LJ
2 LW
N
626 362 M
656 362 L
S
GR
GS
[0.75 0 0 0.75 0 0] CT
1 GC
N
638.9 365.1 M
638.9 359.9 L
644.1 359.9 L
644.1 365.1 L
cp
f
GR
GS
[0.75 0 0 0.75 0 0] CT
1 0 0 RC
10.0 ML
2 LW
N
638.9 365.1 M
638.9 359.9 L
644.1 359.9 L
644.1 365.1 L
cp
S
GR
GS
[0.75 0 0 0.75 494.25 293.625] CT
/Times 24 F
GS
[1 0 0 1 0 0] CT
0 8.5 moveto 
1 -1 scale
(LDRP) t 
GR
GR
GS
[0.75 0 0 0.75 0 0] CT
1 LJ
2 LW
N
626 391.5 M
656 391.5 L
S
GR
GS
[0.75 0 0 0.75 0 0] CT
1 GC
N
644.833 391.5 M
643.857 389.143 L
641.5 388.167 L
639.143 389.143 L
638.167 391.5 L
639.143 393.857 L
641.5 394.833 L
643.857 393.857 L
644.833 391.5 L
cp
f
GR
GS
[0.75 0 0 0.75 0 0] CT
1 LJ
2 LW
N
644.833 391.5 M
644.197 389.541 L
642.53 388.33 L
640.47 388.33 L
638.803 389.541 L
638.167 391.5 L
638.803 393.459 L
640.47 394.67 L
642.53 394.67 L
644.197 393.459 L
cp
S
GR
GS
[0.75 0 0 0.75 0 0] CT
0.149 GC
10.0 ML
0.667 LW
N
622 408 M
622 139 L
728 139 L
728 408 L
cp
S
GR
%%Trailer
%%Pages: 1
%%EOF
