%!PS-Adobe-3.0 EPSF-3.0
%%Creator: (MATLAB, The Mathworks, Inc. Version 9.0.0.341360 \(R2016a\). Operating System: Linux)
%%Title: (/home/shivram/main/Work/1. Research/1. Ongoing/5. LDRP Face/2. Exp/1. Results/LFW20/lfw-f.eps)
%%CreationDate: 2017-08-16T15:32:49
%%Pages: (atend)
%%BoundingBox: 0 0 573 384
%%LanguageLevel: 3
%%EndComments
%%BeginProlog
%%BeginResource: procset (Apache XML Graphics Std ProcSet) 1.2 0
%%Version: 1.2 0
%%Copyright: (Copyright 2001-2003,2010 The Apache Software Foundation. License terms: http://www.apache.org/licenses/LICENSE-2.0)
/bd{bind def}bind def
/ld{load def}bd
/GR/grestore ld
/M/moveto ld
/LJ/setlinejoin ld
/C/curveto ld
/f/fill ld
/LW/setlinewidth ld
/GC/setgray ld
/t/show ld
/N/newpath ld
/CT/concat ld
/cp/closepath ld
/S/stroke ld
/L/lineto ld
/CC/setcmykcolor ld
/A/ashow ld
/GS/gsave ld
/RC/setrgbcolor ld
/RM/rmoveto ld
/ML/setmiterlimit ld
/re {4 2 roll M
1 index 0 rlineto
0 exch rlineto
neg 0 rlineto
cp } bd
/_ctm matrix def
/_tm matrix def
/BT { _ctm currentmatrix pop matrix _tm copy pop 0 0 moveto } bd
/ET { _ctm setmatrix } bd
/iTm { _ctm setmatrix _tm concat } bd
/Tm { _tm astore pop iTm 0 0 moveto } bd
/ux 0.0 def
/uy 0.0 def
/F {
  /Tp exch def
  /Tf exch def
  Tf findfont Tp scalefont setfont
  /cf Tf def  /cs Tp def
} bd
/ULS {currentpoint /uy exch def /ux exch def} bd
/ULE {
  /Tcx currentpoint pop def
  gsave
  newpath
  cf findfont cs scalefont dup
  /FontMatrix get 0 get /Ts exch def /FontInfo get dup
  /UnderlinePosition get Ts mul /To exch def
  /UnderlineThickness get Ts mul /Tt exch def
  ux uy To add moveto  Tcx uy To add lineto
  Tt setlinewidth stroke
  grestore
} bd
/OLE {
  /Tcx currentpoint pop def
  gsave
  newpath
  cf findfont cs scalefont dup
  /FontMatrix get 0 get /Ts exch def /FontInfo get dup
  /UnderlinePosition get Ts mul /To exch def
  /UnderlineThickness get Ts mul /Tt exch def
  ux uy To add cs add moveto Tcx uy To add cs add lineto
  Tt setlinewidth stroke
  grestore
} bd
/SOE {
  /Tcx currentpoint pop def
  gsave
  newpath
  cf findfont cs scalefont dup
  /FontMatrix get 0 get /Ts exch def /FontInfo get dup
  /UnderlinePosition get Ts mul /To exch def
  /UnderlineThickness get Ts mul /Tt exch def
  ux uy To add cs 10 mul 26 idiv add moveto Tcx uy To add cs 10 mul 26 idiv add lineto
  Tt setlinewidth stroke
  grestore
} bd
/QT {
/Y22 exch store
/X22 exch store
/Y21 exch store
/X21 exch store
currentpoint
/Y21 load 2 mul add 3 div exch
/X21 load 2 mul add 3 div exch
/X21 load 2 mul /X22 load add 3 div
/Y21 load 2 mul /Y22 load add 3 div
/X22 load /Y22 load curveto
} bd
/SSPD {
dup length /d exch dict def
{
/v exch def
/k exch def
currentpagedevice k known {
/cpdv currentpagedevice k get def
v cpdv ne {
/upd false def
/nullv v type /nulltype eq def
/nullcpdv cpdv type /nulltype eq def
nullv nullcpdv or
{
/upd true def
} {
/sametype v type cpdv type eq def
sametype {
v type /arraytype eq {
/vlen v length def
/cpdvlen cpdv length def
vlen cpdvlen eq {
0 1 vlen 1 sub {
/i exch def
/obj v i get def
/cpdobj cpdv i get def
obj cpdobj ne {
/upd true def
exit
} if
} for
} {
/upd true def
} ifelse
} {
v type /dicttype eq {
v {
/dv exch def
/dk exch def
/cpddv cpdv dk get def
dv cpddv ne {
/upd true def
exit
} if
} forall
} {
/upd true def
} ifelse
} ifelse
} if
} ifelse
upd true eq {
d k v put
} if
} if
} if
} forall
d length 0 gt {
d setpagedevice
} if
} bd
%%EndResource
%%BeginResource: procset (Apache XML Graphics EPS ProcSet) 1.0 0
%%Version: 1.0 0
%%Copyright: (Copyright 2002-2003 The Apache Software Foundation. License terms: http://www.apache.org/licenses/LICENSE-2.0)
/BeginEPSF { %def
/b4_Inc_state save def         % Save state for cleanup
/dict_count countdictstack def % Count objects on dict stack
/op_count count 1 sub def      % Count objects on operand stack
userdict begin                 % Push userdict on dict stack
/showpage { } def              % Redefine showpage, { } = null proc
0 setgray 0 setlinecap         % Prepare graphics state
1 setlinewidth 0 setlinejoin
10 setmiterlimit [ ] 0 setdash newpath
/languagelevel where           % If level not equal to 1 then
{pop languagelevel             % set strokeadjust and
1 ne                           % overprint to their defaults.
{false setstrokeadjust false setoverprint
} if
} if
} bd
/EndEPSF { %def
count op_count sub {pop} repeat            % Clean up stacks
countdictstack dict_count sub {end} repeat
b4_Inc_state restore
} bd
%%EndResource
%FOPBeginFontDict
%%IncludeResource: font Courier-Bold
%%IncludeResource: font Helvetica
%%IncludeResource: font Courier-BoldOblique
%%IncludeResource: font Courier-Oblique
%%IncludeResource: font Times-Roman
%%IncludeResource: font Helvetica-BoldOblique
%%IncludeResource: font Helvetica-Bold
%%IncludeResource: font Helvetica-Oblique
%%IncludeResource: font Times-BoldItalic
%%IncludeResource: font Courier
%%IncludeResource: font Times-Italic
%%IncludeResource: font Times-Bold
%%IncludeResource: font Symbol
%%IncludeResource: font ZapfDingbats
%FOPEndFontDict
%%BeginResource: encoding WinAnsiEncoding
/WinAnsiEncoding [
/.notdef /.notdef /.notdef /.notdef /.notdef
/.notdef /.notdef /.notdef /.notdef /.notdef
/.notdef /.notdef /.notdef /.notdef /.notdef
/.notdef /.notdef /.notdef /.notdef /.notdef
/.notdef /.notdef /.notdef /.notdef /.notdef
/.notdef /.notdef /.notdef /.notdef /.notdef
/.notdef /.notdef /space /exclam /quotedbl
/numbersign /dollar /percent /ampersand /quotesingle
/parenleft /parenright /asterisk /plus /comma
/hyphen /period /slash /zero /one
/two /three /four /five /six
/seven /eight /nine /colon /semicolon
/less /equal /greater /question /at
/A /B /C /D /E
/F /G /H /I /J
/K /L /M /N /O
/P /Q /R /S /T
/U /V /W /X /Y
/Z /bracketleft /backslash /bracketright /asciicircum
/underscore /quoteleft /a /b /c
/d /e /f /g /h
/i /j /k /l /m
/n /o /p /q /r
/s /t /u /v /w
/x /y /z /braceleft /bar
/braceright /asciitilde /bullet /Euro /bullet
/quotesinglbase /florin /quotedblbase /ellipsis /dagger
/daggerdbl /circumflex /perthousand /Scaron /guilsinglleft
/OE /bullet /Zcaron /bullet /bullet
/quoteleft /quoteright /quotedblleft /quotedblright /bullet
/endash /emdash /asciitilde /trademark /scaron
/guilsinglright /oe /bullet /zcaron /Ydieresis
/space /exclamdown /cent /sterling /currency
/yen /brokenbar /section /dieresis /copyright
/ordfeminine /guillemotleft /logicalnot /sfthyphen /registered
/macron /degree /plusminus /twosuperior /threesuperior
/acute /mu /paragraph /middot /cedilla
/onesuperior /ordmasculine /guillemotright /onequarter /onehalf
/threequarters /questiondown /Agrave /Aacute /Acircumflex
/Atilde /Adieresis /Aring /AE /Ccedilla
/Egrave /Eacute /Ecircumflex /Edieresis /Igrave
/Iacute /Icircumflex /Idieresis /Eth /Ntilde
/Ograve /Oacute /Ocircumflex /Otilde /Odieresis
/multiply /Oslash /Ugrave /Uacute /Ucircumflex
/Udieresis /Yacute /Thorn /germandbls /agrave
/aacute /acircumflex /atilde /adieresis /aring
/ae /ccedilla /egrave /eacute /ecircumflex
/edieresis /igrave /iacute /icircumflex /idieresis
/eth /ntilde /ograve /oacute /ocircumflex
/otilde /odieresis /divide /oslash /ugrave
/uacute /ucircumflex /udieresis /yacute /thorn
/ydieresis
] def
%%EndResource
%FOPBeginFontReencode
/Courier-Bold findfont
dup length dict begin
  {1 index /FID ne {def} {pop pop} ifelse} forall
  /Encoding WinAnsiEncoding def
  currentdict
end
/Courier-Bold exch definefont pop
/Helvetica findfont
dup length dict begin
  {1 index /FID ne {def} {pop pop} ifelse} forall
  /Encoding WinAnsiEncoding def
  currentdict
end
/Helvetica exch definefont pop
/Courier-BoldOblique findfont
dup length dict begin
  {1 index /FID ne {def} {pop pop} ifelse} forall
  /Encoding WinAnsiEncoding def
  currentdict
end
/Courier-BoldOblique exch definefont pop
/Courier-Oblique findfont
dup length dict begin
  {1 index /FID ne {def} {pop pop} ifelse} forall
  /Encoding WinAnsiEncoding def
  currentdict
end
/Courier-Oblique exch definefont pop
/Times-Roman findfont
dup length dict begin
  {1 index /FID ne {def} {pop pop} ifelse} forall
  /Encoding WinAnsiEncoding def
  currentdict
end
/Times-Roman exch definefont pop
/Helvetica-BoldOblique findfont
dup length dict begin
  {1 index /FID ne {def} {pop pop} ifelse} forall
  /Encoding WinAnsiEncoding def
  currentdict
end
/Helvetica-BoldOblique exch definefont pop
/Helvetica-Bold findfont
dup length dict begin
  {1 index /FID ne {def} {pop pop} ifelse} forall
  /Encoding WinAnsiEncoding def
  currentdict
end
/Helvetica-Bold exch definefont pop
/Helvetica-Oblique findfont
dup length dict begin
  {1 index /FID ne {def} {pop pop} ifelse} forall
  /Encoding WinAnsiEncoding def
  currentdict
end
/Helvetica-Oblique exch definefont pop
/Times-BoldItalic findfont
dup length dict begin
  {1 index /FID ne {def} {pop pop} ifelse} forall
  /Encoding WinAnsiEncoding def
  currentdict
end
/Times-BoldItalic exch definefont pop
/Courier findfont
dup length dict begin
  {1 index /FID ne {def} {pop pop} ifelse} forall
  /Encoding WinAnsiEncoding def
  currentdict
end
/Courier exch definefont pop
/Times-Italic findfont
dup length dict begin
  {1 index /FID ne {def} {pop pop} ifelse} forall
  /Encoding WinAnsiEncoding def
  currentdict
end
/Times-Italic exch definefont pop
/Times-Bold findfont
dup length dict begin
  {1 index /FID ne {def} {pop pop} ifelse} forall
  /Encoding WinAnsiEncoding def
  currentdict
end
/Times-Bold exch definefont pop
%FOPEndFontReencode
%%EndProlog
%%Page: 1 1
%%PageBoundingBox: 0 0 573 384
%%BeginPageSetup
[1 0 0 -1 0 384] CT
%%EndPageSetup
GS
[0.75 0 0 0.75 0 0] CT
1 GC
N
0 0 764 512 re
f
GR
GS
[0.75 0 0 0.75 0 0] CT
1 GC
N
0 0 764 512 re
f
GR
GS
[0.75 0 0 0.75 0 0] CT
1 GC
N
90 421 M
742 421 L
742 51 L
90 51 L
cp
f
GR
GS
[0.75 0 0 0.75 0 0] CT
0.149 GC
2 setlinecap
1 LJ
0.667 LW
N
90 421 M
742 421 L
S
GR
GS
[0.75 0 0 0.75 0 0] CT
0.149 GC
2 setlinecap
1 LJ
0.667 LW
N
90 51 M
742 51 L
S
GR
GS
[0.75 0 0 0.75 0 0] CT
0.149 GC
2 setlinecap
1 LJ
0.667 LW
N
90 421 M
90 414.48 L
S
GR
GS
[0.75 0 0 0.75 0 0] CT
0.149 GC
2 setlinecap
1 LJ
0.667 LW
N
162.444 421 M
162.444 414.48 L
S
GR
GS
[0.75 0 0 0.75 0 0] CT
0.149 GC
2 setlinecap
1 LJ
0.667 LW
N
234.889 421 M
234.889 414.48 L
S
GR
GS
[0.75 0 0 0.75 0 0] CT
0.149 GC
2 setlinecap
1 LJ
0.667 LW
N
307.333 421 M
307.333 414.48 L
S
GR
GS
[0.75 0 0 0.75 0 0] CT
0.149 GC
2 setlinecap
1 LJ
0.667 LW
N
379.778 421 M
379.778 414.48 L
S
GR
GS
[0.75 0 0 0.75 0 0] CT
0.149 GC
2 setlinecap
1 LJ
0.667 LW
N
452.222 421 M
452.222 414.48 L
S
GR
GS
[0.75 0 0 0.75 0 0] CT
0.149 GC
2 setlinecap
1 LJ
0.667 LW
N
524.667 421 M
524.667 414.48 L
S
GR
GS
[0.75 0 0 0.75 0 0] CT
0.149 GC
2 setlinecap
1 LJ
0.667 LW
N
597.111 421 M
597.111 414.48 L
S
GR
GS
[0.75 0 0 0.75 0 0] CT
0.149 GC
2 setlinecap
1 LJ
0.667 LW
N
669.556 421 M
669.556 414.48 L
S
GR
GS
[0.75 0 0 0.75 0 0] CT
0.149 GC
2 setlinecap
1 LJ
0.667 LW
N
742 421 M
742 414.48 L
S
GR
GS
[0.75 0 0 0.75 0 0] CT
0.149 GC
2 setlinecap
1 LJ
0.667 LW
N
90 51 M
90 57.52 L
S
GR
GS
[0.75 0 0 0.75 0 0] CT
0.149 GC
2 setlinecap
1 LJ
0.667 LW
N
162.444 51 M
162.444 57.52 L
S
GR
GS
[0.75 0 0 0.75 0 0] CT
0.149 GC
2 setlinecap
1 LJ
0.667 LW
N
234.889 51 M
234.889 57.52 L
S
GR
GS
[0.75 0 0 0.75 0 0] CT
0.149 GC
2 setlinecap
1 LJ
0.667 LW
N
307.333 51 M
307.333 57.52 L
S
GR
GS
[0.75 0 0 0.75 0 0] CT
0.149 GC
2 setlinecap
1 LJ
0.667 LW
N
379.778 51 M
379.778 57.52 L
S
GR
GS
[0.75 0 0 0.75 0 0] CT
0.149 GC
2 setlinecap
1 LJ
0.667 LW
N
452.222 51 M
452.222 57.52 L
S
GR
GS
[0.75 0 0 0.75 0 0] CT
0.149 GC
2 setlinecap
1 LJ
0.667 LW
N
524.667 51 M
524.667 57.52 L
S
GR
GS
[0.75 0 0 0.75 0 0] CT
0.149 GC
2 setlinecap
1 LJ
0.667 LW
N
597.111 51 M
597.111 57.52 L
S
GR
GS
[0.75 0 0 0.75 0 0] CT
0.149 GC
2 setlinecap
1 LJ
0.667 LW
N
669.556 51 M
669.556 57.52 L
S
GR
GS
[0.75 0 0 0.75 0 0] CT
0.149 GC
2 setlinecap
1 LJ
0.667 LW
N
742 51 M
742 57.52 L
S
GR
GS
[0.75 0 0 0.75 67.5 322.54999] CT
0.149 GC
/Times 32 F
GS
[1 0 0 1 0 0] CT
-10.5 30 moveto 
1 -1 scale
(1) t 
GR
GR
GS
[0.75 0 0 0.75 121.83333 322.54999] CT
0.149 GC
/Times 32 F
GS
[1 0 0 1 0 0] CT
-10.5 30 moveto 
1 -1 scale
(2) t 
GR
GR
GS
[0.75 0 0 0.75 176.16666 322.54999] CT
0.149 GC
/Times 32 F
GS
[1 0 0 1 0 0] CT
-10.5 30 moveto 
1 -1 scale
(3) t 
GR
GR
GS
[0.75 0 0 0.75 230.50001 322.54999] CT
0.149 GC
/Times 32 F
GS
[1 0 0 1 0 0] CT
-10.5 30 moveto 
1 -1 scale
(4) t 
GR
GR
GS
[0.75 0 0 0.75 284.83333 322.54999] CT
0.149 GC
/Times 32 F
GS
[1 0 0 1 0 0] CT
-10.5 30 moveto 
1 -1 scale
(5) t 
GR
GR
GS
[0.75 0 0 0.75 339.16667 322.54999] CT
0.149 GC
/Times 32 F
GS
[1 0 0 1 0 0] CT
-10.5 30 moveto 
1 -1 scale
(6) t 
GR
GR
GS
[0.75 0 0 0.75 393.50002 322.54999] CT
0.149 GC
/Times 32 F
GS
[1 0 0 1 0 0] CT
-10.5 30 moveto 
1 -1 scale
(7) t 
GR
GR
GS
[0.75 0 0 0.75 447.83331 322.54999] CT
0.149 GC
/Times 32 F
GS
[1 0 0 1 0 0] CT
-10.5 30 moveto 
1 -1 scale
(8) t 
GR
GR
GS
[0.75 0 0 0.75 502.16666 322.54999] CT
0.149 GC
/Times 32 F
GS
[1 0 0 1 0 0] CT
-10.5 30 moveto 
1 -1 scale
(9) t 
GR
GR
GS
[0.75 0 0 0.75 556.5 322.54999] CT
0.149 GC
/Times 32 F
GS
[1 0 0 1 0 0] CT
-20.5 30 moveto 
1 -1 scale
(10) t 
GR
GR
GS
[0.75 0 0 0.75 312.00023 352.05] CT
0.149 GC
/Times 35.2 F
GS
[1 0 0 1 0 0] CT
-210 33 moveto 
1 -1 scale
(Number of Top Matches) t 
GR
GR
GS
[0.75 0 0 0.75 0 0] CT
0.149 GC
2 setlinecap
1 LJ
0.667 LW
N
90 421 M
90 51 L
S
GR
GS
[0.75 0 0 0.75 0 0] CT
0.149 GC
2 setlinecap
1 LJ
0.667 LW
N
742 421 M
742 51 L
S
GR
GS
[0.75 0 0 0.75 0 0] CT
0.149 GC
2 setlinecap
1 LJ
0.667 LW
N
90 421 M
96.52 421 L
S
GR
GS
[0.75 0 0 0.75 0 0] CT
0.149 GC
2 setlinecap
1 LJ
0.667 LW
N
90 349.846 M
96.52 349.846 L
S
GR
GS
[0.75 0 0 0.75 0 0] CT
0.149 GC
2 setlinecap
1 LJ
0.667 LW
N
90 278.692 M
96.52 278.692 L
S
GR
GS
[0.75 0 0 0.75 0 0] CT
0.149 GC
2 setlinecap
1 LJ
0.667 LW
N
90 207.538 M
96.52 207.538 L
S
GR
GS
[0.75 0 0 0.75 0 0] CT
0.149 GC
2 setlinecap
1 LJ
0.667 LW
N
90 136.385 M
96.52 136.385 L
S
GR
GS
[0.75 0 0 0.75 0 0] CT
0.149 GC
2 setlinecap
1 LJ
0.667 LW
N
90 65.231 M
96.52 65.231 L
S
GR
GS
[0.75 0 0 0.75 0 0] CT
0.149 GC
2 setlinecap
1 LJ
0.667 LW
N
742 421 M
735.48 421 L
S
GR
GS
[0.75 0 0 0.75 0 0] CT
0.149 GC
2 setlinecap
1 LJ
0.667 LW
N
742 349.846 M
735.48 349.846 L
S
GR
GS
[0.75 0 0 0.75 0 0] CT
0.149 GC
2 setlinecap
1 LJ
0.667 LW
N
742 278.692 M
735.48 278.692 L
S
GR
GS
[0.75 0 0 0.75 0 0] CT
0.149 GC
2 setlinecap
1 LJ
0.667 LW
N
742 207.538 M
735.48 207.538 L
S
GR
GS
[0.75 0 0 0.75 0 0] CT
0.149 GC
2 setlinecap
1 LJ
0.667 LW
N
742 136.385 M
735.48 136.385 L
S
GR
GS
[0.75 0 0 0.75 0 0] CT
0.149 GC
2 setlinecap
1 LJ
0.667 LW
N
742 65.231 M
735.48 65.231 L
S
GR
GS
[0.75 0 0 0.75 60.7 315.75] CT
0.149 GC
/Times 32 F
GS
[1 0 0 1 0 0] CT
-21 11 moveto 
1 -1 scale
(6) t 
GR
GR
GS
[0.75 0 0 0.75 60.7 262.38462] CT
0.149 GC
/Times 32 F
GS
[1 0 0 1 0 0] CT
-21 11 moveto 
1 -1 scale
(7) t 
GR
GR
GS
[0.75 0 0 0.75 60.7 209.01924] CT
0.149 GC
/Times 32 F
GS
[1 0 0 1 0 0] CT
-21 11 moveto 
1 -1 scale
(8) t 
GR
GR
GS
[0.75 0 0 0.75 60.7 155.65385] CT
0.149 GC
/Times 32 F
GS
[1 0 0 1 0 0] CT
-21 11 moveto 
1 -1 scale
(9) t 
GR
GR
GS
[0.75 0 0 0.75 60.7 102.28846] CT
0.149 GC
/Times 32 F
GS
[1 0 0 1 0 0] CT
-41 11 moveto 
1 -1 scale
(10) t 
GR
GR
GS
[0.75 0 0 0.75 60.7 48.92307] CT
0.149 GC
/Times 32 F
GS
[1 0 0 1 0 0] CT
-41 11 moveto 
1 -1 scale
(11) t 
GR
GR
GS
[0 -0.75 0.75 0 26.95 176.99987] CT
0.149 GC
/Times 35.2 F
GS
[1 0 0 1 0 0] CT
-102 -9 moveto 
1 -1 scale
(F-Score \(%\)) t 
GR
GR
GS
[0.75 0 0 0.75 312.00032 33.29998] CT
/Times 35.2 F
GS
[1 0 0 1 0 0] CT
-126.5 -9 moveto 
1 -1 scale
(LFW Database) t 
GR
GR
GS
[0.75 0 0 0.75 0 0] CT
1 0.6 0.784 RC
1 LJ
2 LW
N
90 410.045 M
162.444 391.041 L
234.889 377.077 L
307.333 370.56 L
379.778 362.313 L
452.222 356.455 L
524.667 354.34 L
597.111 351.591 L
669.556 351.104 L
742 351.984 L
S
GR
GS
[0.75 0 0 0.75 0 0] CT
1 GC
N
88.278 406.652 M
94.943 410.5 L
88.278 414.348 L
cp
f
GR
GS
[0.75 0 0 0.75 0 0] CT
1 0.6 0.784 RC
10.0 ML
2 LW
N
88.278 406.652 M
94.943 410.5 L
88.278 414.348 L
cp
S
GR
GS
[0.75 0 0 0.75 0 0] CT
1 GC
N
160.278 387.652 M
166.943 391.5 L
160.278 395.348 L
cp
f
GR
GS
[0.75 0 0 0.75 0 0] CT
1 0.6 0.784 RC
10.0 ML
2 LW
N
160.278 387.652 M
166.943 391.5 L
160.278 395.348 L
cp
S
GR
GS
[0.75 0 0 0.75 0 0] CT
1 GC
N
232.278 373.652 M
238.943 377.5 L
232.278 381.348 L
cp
f
GR
GS
[0.75 0 0 0.75 0 0] CT
1 0.6 0.784 RC
10.0 ML
2 LW
N
232.278 373.652 M
238.943 377.5 L
232.278 381.348 L
cp
S
GR
GS
[0.75 0 0 0.75 0 0] CT
1 GC
N
305.278 366.652 M
311.943 370.5 L
305.278 374.348 L
cp
f
GR
GS
[0.75 0 0 0.75 0 0] CT
1 0.6 0.784 RC
10.0 ML
2 LW
N
305.278 366.652 M
311.943 370.5 L
305.278 374.348 L
cp
S
GR
GS
[0.75 0 0 0.75 0 0] CT
1 GC
N
377.278 358.652 M
383.943 362.5 L
377.278 366.348 L
cp
f
GR
GS
[0.75 0 0 0.75 0 0] CT
1 0.6 0.784 RC
10.0 ML
2 LW
N
377.278 358.652 M
383.943 362.5 L
377.278 366.348 L
cp
S
GR
GS
[0.75 0 0 0.75 0 0] CT
1 GC
N
450.278 352.652 M
456.943 356.5 L
450.278 360.348 L
cp
f
GR
GS
[0.75 0 0 0.75 0 0] CT
1 0.6 0.784 RC
10.0 ML
2 LW
N
450.278 352.652 M
456.943 356.5 L
450.278 360.348 L
cp
S
GR
GS
[0.75 0 0 0.75 0 0] CT
1 GC
N
522.278 350.652 M
528.943 354.5 L
522.278 358.348 L
cp
f
GR
GS
[0.75 0 0 0.75 0 0] CT
1 0.6 0.784 RC
10.0 ML
2 LW
N
522.278 350.652 M
528.943 354.5 L
522.278 358.348 L
cp
S
GR
GS
[0.75 0 0 0.75 0 0] CT
1 GC
N
595.278 347.652 M
601.943 351.5 L
595.278 355.348 L
cp
f
GR
GS
[0.75 0 0 0.75 0 0] CT
1 0.6 0.784 RC
10.0 ML
2 LW
N
595.278 347.652 M
601.943 351.5 L
595.278 355.348 L
cp
S
GR
GS
[0.75 0 0 0.75 0 0] CT
1 GC
N
667.278 347.652 M
673.943 351.5 L
667.278 355.348 L
cp
f
GR
GS
[0.75 0 0 0.75 0 0] CT
1 0.6 0.784 RC
10.0 ML
2 LW
N
667.278 347.652 M
673.943 351.5 L
667.278 355.348 L
cp
S
GR
GS
[0.75 0 0 0.75 0 0] CT
1 GC
N
740.278 347.652 M
746.943 351.5 L
740.278 355.348 L
cp
f
GR
GS
[0.75 0 0 0.75 0 0] CT
1 0.6 0.784 RC
10.0 ML
2 LW
N
740.278 347.652 M
746.943 351.5 L
740.278 355.348 L
cp
S
GR
GS
[0.75 0 0 0.75 0 0] CT
0.6 0.2 0 RC
1 LJ
2 LW
N
90 410.045 M
162.444 385.424 L
234.889 377.346 L
307.333 366.827 L
379.778 361.635 L
452.222 360.557 L
524.667 356.222 L
597.111 354.658 L
669.556 353.078 L
742 351.448 L
S
GR
GS
[0.75 0 0 0.75 0 0] CT
1 GC
N
86.057 410.5 M
92.722 406.652 L
92.722 414.348 L
cp
f
GR
GS
[0.75 0 0 0.75 0 0] CT
0.6 0.2 0 RC
10.0 ML
2 LW
N
86.057 410.5 M
92.722 406.652 L
92.722 414.348 L
cp
S
GR
GS
[0.75 0 0 0.75 0 0] CT
1 GC
N
158.057 385.5 M
164.722 381.652 L
164.722 389.348 L
cp
f
GR
GS
[0.75 0 0 0.75 0 0] CT
0.6 0.2 0 RC
10.0 ML
2 LW
N
158.057 385.5 M
164.722 381.652 L
164.722 389.348 L
cp
S
GR
GS
[0.75 0 0 0.75 0 0] CT
1 GC
N
230.057 377.5 M
236.722 373.652 L
236.722 381.348 L
cp
f
GR
GS
[0.75 0 0 0.75 0 0] CT
0.6 0.2 0 RC
10.0 ML
2 LW
N
230.057 377.5 M
236.722 373.652 L
236.722 381.348 L
cp
S
GR
GS
[0.75 0 0 0.75 0 0] CT
1 GC
N
303.057 366.5 M
309.722 362.652 L
309.722 370.348 L
cp
f
GR
GS
[0.75 0 0 0.75 0 0] CT
0.6 0.2 0 RC
10.0 ML
2 LW
N
303.057 366.5 M
309.722 362.652 L
309.722 370.348 L
cp
S
GR
GS
[0.75 0 0 0.75 0 0] CT
1 GC
N
375.057 361.5 M
381.722 357.652 L
381.722 365.348 L
cp
f
GR
GS
[0.75 0 0 0.75 0 0] CT
0.6 0.2 0 RC
10.0 ML
2 LW
N
375.057 361.5 M
381.722 357.652 L
381.722 365.348 L
cp
S
GR
GS
[0.75 0 0 0.75 0 0] CT
1 GC
N
448.057 360.5 M
454.722 356.652 L
454.722 364.348 L
cp
f
GR
GS
[0.75 0 0 0.75 0 0] CT
0.6 0.2 0 RC
10.0 ML
2 LW
N
448.057 360.5 M
454.722 356.652 L
454.722 364.348 L
cp
S
GR
GS
[0.75 0 0 0.75 0 0] CT
1 GC
N
520.057 356.5 M
526.722 352.652 L
526.722 360.348 L
cp
f
GR
GS
[0.75 0 0 0.75 0 0] CT
0.6 0.2 0 RC
10.0 ML
2 LW
N
520.057 356.5 M
526.722 352.652 L
526.722 360.348 L
cp
S
GR
GS
[0.75 0 0 0.75 0 0] CT
1 GC
N
593.057 354.5 M
599.722 350.652 L
599.722 358.348 L
cp
f
GR
GS
[0.75 0 0 0.75 0 0] CT
0.6 0.2 0 RC
10.0 ML
2 LW
N
593.057 354.5 M
599.722 350.652 L
599.722 358.348 L
cp
S
GR
GS
[0.75 0 0 0.75 0 0] CT
1 GC
N
665.057 353.5 M
671.722 349.652 L
671.722 357.348 L
cp
f
GR
GS
[0.75 0 0 0.75 0 0] CT
0.6 0.2 0 RC
10.0 ML
2 LW
N
665.057 353.5 M
671.722 349.652 L
671.722 357.348 L
cp
S
GR
GS
[0.75 0 0 0.75 0 0] CT
1 GC
N
738.057 351.5 M
744.722 347.652 L
744.722 355.348 L
cp
f
GR
GS
[0.75 0 0 0.75 0 0] CT
0.6 0.2 0 RC
10.0 ML
2 LW
N
738.057 351.5 M
744.722 347.652 L
744.722 355.348 L
cp
S
GR
GS
[0.75 0 0 0.75 0 0] CT
0.929 0.694 0.125 RC
1 LJ
2 LW
N
90 410.045 M
162.444 392.266 L
234.889 382.14 L
307.333 376.105 L
379.778 371.136 L
452.222 368.953 L
524.667 367.093 L
597.111 366.801 L
669.556 367.598 L
742 367.244 L
S
GR
GS
[0.75 0 0 0.75 0 0] CT
1 GC
N
87.33 409.47 M
89.716 409.47 L
90.5 407.167 L
91.284 409.47 L
93.67 409.47 L
91.768 410.912 L
92.459 413.197 L
90.5 411.833 L
88.541 413.197 L
89.232 410.912 L
87.33 409.47 L
cp
f
GR
GS
[0.75 0 0 0.75 0 0] CT
0.929 0.694 0.125 RC
10.0 ML
2 LW
N
87.33 409.47 M
89.716 409.47 L
90.5 407.167 L
91.284 409.47 L
93.67 409.47 L
91.768 410.912 L
92.459 413.197 L
90.5 411.833 L
88.541 413.197 L
89.232 410.912 L
cp
S
GR
GS
[0.75 0 0 0.75 0 0] CT
1 GC
N
159.33 391.47 M
161.716 391.47 L
162.5 389.167 L
163.284 391.47 L
165.67 391.47 L
163.768 392.912 L
164.459 395.197 L
162.5 393.833 L
160.541 395.197 L
161.232 392.912 L
159.33 391.47 L
cp
f
GR
GS
[0.75 0 0 0.75 0 0] CT
0.929 0.694 0.125 RC
10.0 ML
2 LW
N
159.33 391.47 M
161.716 391.47 L
162.5 389.167 L
163.284 391.47 L
165.67 391.47 L
163.768 392.912 L
164.459 395.197 L
162.5 393.833 L
160.541 395.197 L
161.232 392.912 L
cp
S
GR
GS
[0.75 0 0 0.75 0 0] CT
1 GC
N
231.33 381.47 M
233.716 381.47 L
234.5 379.167 L
235.284 381.47 L
237.67 381.47 L
235.768 382.912 L
236.459 385.197 L
234.5 383.833 L
232.541 385.197 L
233.232 382.912 L
231.33 381.47 L
cp
f
GR
GS
[0.75 0 0 0.75 0 0] CT
0.929 0.694 0.125 RC
10.0 ML
2 LW
N
231.33 381.47 M
233.716 381.47 L
234.5 379.167 L
235.284 381.47 L
237.67 381.47 L
235.768 382.912 L
236.459 385.197 L
234.5 383.833 L
232.541 385.197 L
233.232 382.912 L
cp
S
GR
GS
[0.75 0 0 0.75 0 0] CT
1 GC
N
304.33 375.47 M
306.716 375.47 L
307.5 373.167 L
308.284 375.47 L
310.67 375.47 L
308.768 376.912 L
309.459 379.197 L
307.5 377.833 L
305.541 379.197 L
306.232 376.912 L
304.33 375.47 L
cp
f
GR
GS
[0.75 0 0 0.75 0 0] CT
0.929 0.694 0.125 RC
10.0 ML
2 LW
N
304.33 375.47 M
306.716 375.47 L
307.5 373.167 L
308.284 375.47 L
310.67 375.47 L
308.768 376.912 L
309.459 379.197 L
307.5 377.833 L
305.541 379.197 L
306.232 376.912 L
cp
S
GR
GS
[0.75 0 0 0.75 0 0] CT
1 GC
N
376.33 370.47 M
378.716 370.47 L
379.5 368.167 L
380.284 370.47 L
382.67 370.47 L
380.768 371.912 L
381.459 374.197 L
379.5 372.833 L
377.541 374.197 L
378.232 371.912 L
376.33 370.47 L
cp
f
GR
GS
[0.75 0 0 0.75 0 0] CT
0.929 0.694 0.125 RC
10.0 ML
2 LW
N
376.33 370.47 M
378.716 370.47 L
379.5 368.167 L
380.284 370.47 L
382.67 370.47 L
380.768 371.912 L
381.459 374.197 L
379.5 372.833 L
377.541 374.197 L
378.232 371.912 L
cp
S
GR
GS
[0.75 0 0 0.75 0 0] CT
1 GC
N
449.33 367.47 M
451.716 367.47 L
452.5 365.167 L
453.284 367.47 L
455.67 367.47 L
453.768 368.912 L
454.459 371.197 L
452.5 369.833 L
450.541 371.197 L
451.232 368.912 L
449.33 367.47 L
cp
f
GR
GS
[0.75 0 0 0.75 0 0] CT
0.929 0.694 0.125 RC
10.0 ML
2 LW
N
449.33 367.47 M
451.716 367.47 L
452.5 365.167 L
453.284 367.47 L
455.67 367.47 L
453.768 368.912 L
454.459 371.197 L
452.5 369.833 L
450.541 371.197 L
451.232 368.912 L
cp
S
GR
GS
[0.75 0 0 0.75 0 0] CT
1 GC
N
521.33 366.47 M
523.716 366.47 L
524.5 364.167 L
525.284 366.47 L
527.67 366.47 L
525.768 367.912 L
526.459 370.197 L
524.5 368.833 L
522.541 370.197 L
523.232 367.912 L
521.33 366.47 L
cp
f
GR
GS
[0.75 0 0 0.75 0 0] CT
0.929 0.694 0.125 RC
10.0 ML
2 LW
N
521.33 366.47 M
523.716 366.47 L
524.5 364.167 L
525.284 366.47 L
527.67 366.47 L
525.768 367.912 L
526.459 370.197 L
524.5 368.833 L
522.541 370.197 L
523.232 367.912 L
cp
S
GR
GS
[0.75 0 0 0.75 0 0] CT
1 GC
N
594.33 365.47 M
596.716 365.47 L
597.5 363.167 L
598.284 365.47 L
600.67 365.47 L
598.768 366.912 L
599.459 369.197 L
597.5 367.833 L
595.541 369.197 L
596.232 366.912 L
594.33 365.47 L
cp
f
GR
GS
[0.75 0 0 0.75 0 0] CT
0.929 0.694 0.125 RC
10.0 ML
2 LW
N
594.33 365.47 M
596.716 365.47 L
597.5 363.167 L
598.284 365.47 L
600.67 365.47 L
598.768 366.912 L
599.459 369.197 L
597.5 367.833 L
595.541 369.197 L
596.232 366.912 L
cp
S
GR
GS
[0.75 0 0 0.75 0 0] CT
1 GC
N
666.33 366.47 M
668.716 366.47 L
669.5 364.167 L
670.284 366.47 L
672.67 366.47 L
670.768 367.912 L
671.459 370.197 L
669.5 368.833 L
667.541 370.197 L
668.232 367.912 L
666.33 366.47 L
cp
f
GR
GS
[0.75 0 0 0.75 0 0] CT
0.929 0.694 0.125 RC
10.0 ML
2 LW
N
666.33 366.47 M
668.716 366.47 L
669.5 364.167 L
670.284 366.47 L
672.67 366.47 L
670.768 367.912 L
671.459 370.197 L
669.5 368.833 L
667.541 370.197 L
668.232 367.912 L
cp
S
GR
GS
[0.75 0 0 0.75 0 0] CT
1 GC
N
739.33 366.47 M
741.716 366.47 L
742.5 364.167 L
743.284 366.47 L
745.67 366.47 L
743.768 367.912 L
744.459 370.197 L
742.5 368.833 L
740.541 370.197 L
741.232 367.912 L
739.33 366.47 L
cp
f
GR
GS
[0.75 0 0 0.75 0 0] CT
0.929 0.694 0.125 RC
10.0 ML
2 LW
N
739.33 366.47 M
741.716 366.47 L
742.5 364.167 L
743.284 366.47 L
745.67 366.47 L
743.768 367.912 L
744.459 370.197 L
742.5 368.833 L
740.541 370.197 L
741.232 367.912 L
cp
S
GR
GS
[0.75 0 0 0.75 0 0] CT
0 1 1 RC
1 LJ
2 LW
N
90 410.045 M
162.444 395.791 L
234.889 390.481 L
307.333 387.017 L
379.778 384.035 L
452.222 382.55 L
524.667 383.12 L
597.111 382.675 L
669.556 380.303 L
742 381.634 L
S
GR
GS
[0.75 0 0 0.75 0 0] CT
1 GC
N
90.5 414.943 M
93.833 410.5 L
90.5 406.057 L
87.167 410.5 L
cp
f
GR
GS
[0.75 0 0 0.75 0 0] CT
0 1 1 RC
10.0 ML
2 LW
N
90.5 414.943 M
93.833 410.5 L
90.5 406.057 L
87.167 410.5 L
cp
S
GR
GS
[0.75 0 0 0.75 0 0] CT
1 GC
N
162.5 399.943 M
165.833 395.5 L
162.5 391.057 L
159.167 395.5 L
cp
f
GR
GS
[0.75 0 0 0.75 0 0] CT
0 1 1 RC
10.0 ML
2 LW
N
162.5 399.943 M
165.833 395.5 L
162.5 391.057 L
159.167 395.5 L
cp
S
GR
GS
[0.75 0 0 0.75 0 0] CT
1 GC
N
234.5 394.943 M
237.833 390.5 L
234.5 386.057 L
231.167 390.5 L
cp
f
GR
GS
[0.75 0 0 0.75 0 0] CT
0 1 1 RC
10.0 ML
2 LW
N
234.5 394.943 M
237.833 390.5 L
234.5 386.057 L
231.167 390.5 L
cp
S
GR
GS
[0.75 0 0 0.75 0 0] CT
1 GC
N
307.5 391.943 M
310.833 387.5 L
307.5 383.057 L
304.167 387.5 L
cp
f
GR
GS
[0.75 0 0 0.75 0 0] CT
0 1 1 RC
10.0 ML
2 LW
N
307.5 391.943 M
310.833 387.5 L
307.5 383.057 L
304.167 387.5 L
cp
S
GR
GS
[0.75 0 0 0.75 0 0] CT
1 GC
N
379.5 388.943 M
382.833 384.5 L
379.5 380.057 L
376.167 384.5 L
cp
f
GR
GS
[0.75 0 0 0.75 0 0] CT
0 1 1 RC
10.0 ML
2 LW
N
379.5 388.943 M
382.833 384.5 L
379.5 380.057 L
376.167 384.5 L
cp
S
GR
GS
[0.75 0 0 0.75 0 0] CT
1 GC
N
452.5 386.943 M
455.833 382.5 L
452.5 378.057 L
449.167 382.5 L
cp
f
GR
GS
[0.75 0 0 0.75 0 0] CT
0 1 1 RC
10.0 ML
2 LW
N
452.5 386.943 M
455.833 382.5 L
452.5 378.057 L
449.167 382.5 L
cp
S
GR
GS
[0.75 0 0 0.75 0 0] CT
1 GC
N
524.5 387.943 M
527.833 383.5 L
524.5 379.057 L
521.167 383.5 L
cp
f
GR
GS
[0.75 0 0 0.75 0 0] CT
0 1 1 RC
10.0 ML
2 LW
N
524.5 387.943 M
527.833 383.5 L
524.5 379.057 L
521.167 383.5 L
cp
S
GR
GS
[0.75 0 0 0.75 0 0] CT
1 GC
N
597.5 386.943 M
600.833 382.5 L
597.5 378.057 L
594.167 382.5 L
cp
f
GR
GS
[0.75 0 0 0.75 0 0] CT
0 1 1 RC
10.0 ML
2 LW
N
597.5 386.943 M
600.833 382.5 L
597.5 378.057 L
594.167 382.5 L
cp
S
GR
GS
[0.75 0 0 0.75 0 0] CT
1 GC
N
669.5 384.943 M
672.833 380.5 L
669.5 376.057 L
666.167 380.5 L
cp
f
GR
GS
[0.75 0 0 0.75 0 0] CT
0 1 1 RC
10.0 ML
2 LW
N
669.5 384.943 M
672.833 380.5 L
669.5 376.057 L
666.167 380.5 L
cp
S
GR
GS
[0.75 0 0 0.75 0 0] CT
1 GC
N
742.5 385.943 M
745.833 381.5 L
742.5 377.057 L
739.167 381.5 L
cp
f
GR
GS
[0.75 0 0 0.75 0 0] CT
0 1 1 RC
10.0 ML
2 LW
N
742.5 385.943 M
745.833 381.5 L
742.5 377.057 L
739.167 381.5 L
cp
S
GR
GS
[0.75 0 0 0.75 0 0] CT
0 1 0 RC
1 LJ
2 LW
N
90 410.045 M
162.444 354.193 L
234.889 321.907 L
307.333 298.655 L
379.778 288.996 L
452.222 279.268 L
524.667 267.8 L
597.111 258.853 L
669.556 251.009 L
742 249.024 L
S
GR
GS
[0.75 0 0 0.75 0 0] CT
1 GC
N
87.9 413.1 M
87.9 407.9 L
93.1 407.9 L
93.1 413.1 L
cp
f
GR
GS
[0.75 0 0 0.75 0 0] CT
0 1 0 RC
10.0 ML
2 LW
N
87.9 413.1 M
87.9 407.9 L
93.1 407.9 L
93.1 413.1 L
cp
S
GR
GS
[0.75 0 0 0.75 0 0] CT
1 GC
N
159.9 357.1 M
159.9 351.9 L
165.1 351.9 L
165.1 357.1 L
cp
f
GR
GS
[0.75 0 0 0.75 0 0] CT
0 1 0 RC
10.0 ML
2 LW
N
159.9 357.1 M
159.9 351.9 L
165.1 351.9 L
165.1 357.1 L
cp
S
GR
GS
[0.75 0 0 0.75 0 0] CT
1 GC
N
231.9 324.1 M
231.9 318.9 L
237.1 318.9 L
237.1 324.1 L
cp
f
GR
GS
[0.75 0 0 0.75 0 0] CT
0 1 0 RC
10.0 ML
2 LW
N
231.9 324.1 M
231.9 318.9 L
237.1 318.9 L
237.1 324.1 L
cp
S
GR
GS
[0.75 0 0 0.75 0 0] CT
1 GC
N
304.9 301.1 M
304.9 295.9 L
310.1 295.9 L
310.1 301.1 L
cp
f
GR
GS
[0.75 0 0 0.75 0 0] CT
0 1 0 RC
10.0 ML
2 LW
N
304.9 301.1 M
304.9 295.9 L
310.1 295.9 L
310.1 301.1 L
cp
S
GR
GS
[0.75 0 0 0.75 0 0] CT
1 GC
N
376.9 291.1 M
376.9 285.9 L
382.1 285.9 L
382.1 291.1 L
cp
f
GR
GS
[0.75 0 0 0.75 0 0] CT
0 1 0 RC
10.0 ML
2 LW
N
376.9 291.1 M
376.9 285.9 L
382.1 285.9 L
382.1 291.1 L
cp
S
GR
GS
[0.75 0 0 0.75 0 0] CT
1 GC
N
449.9 282.1 M
449.9 276.9 L
455.1 276.9 L
455.1 282.1 L
cp
f
GR
GS
[0.75 0 0 0.75 0 0] CT
0 1 0 RC
10.0 ML
2 LW
N
449.9 282.1 M
449.9 276.9 L
455.1 276.9 L
455.1 282.1 L
cp
S
GR
GS
[0.75 0 0 0.75 0 0] CT
1 GC
N
521.9 270.1 M
521.9 264.9 L
527.1 264.9 L
527.1 270.1 L
cp
f
GR
GS
[0.75 0 0 0.75 0 0] CT
0 1 0 RC
10.0 ML
2 LW
N
521.9 270.1 M
521.9 264.9 L
527.1 264.9 L
527.1 270.1 L
cp
S
GR
GS
[0.75 0 0 0.75 0 0] CT
1 GC
N
594.9 261.1 M
594.9 255.9 L
600.1 255.9 L
600.1 261.1 L
cp
f
GR
GS
[0.75 0 0 0.75 0 0] CT
0 1 0 RC
10.0 ML
2 LW
N
594.9 261.1 M
594.9 255.9 L
600.1 255.9 L
600.1 261.1 L
cp
S
GR
GS
[0.75 0 0 0.75 0 0] CT
1 GC
N
666.9 254.1 M
666.9 248.9 L
672.1 248.9 L
672.1 254.1 L
cp
f
GR
GS
[0.75 0 0 0.75 0 0] CT
0 1 0 RC
10.0 ML
2 LW
N
666.9 254.1 M
666.9 248.9 L
672.1 248.9 L
672.1 254.1 L
cp
S
GR
GS
[0.75 0 0 0.75 0 0] CT
1 GC
N
739.9 252.1 M
739.9 246.9 L
745.1 246.9 L
745.1 252.1 L
cp
f
GR
GS
[0.75 0 0 0.75 0 0] CT
0 1 0 RC
10.0 ML
2 LW
N
739.9 252.1 M
739.9 246.9 L
745.1 246.9 L
745.1 252.1 L
cp
S
GR
GS
[0.75 0 0 0.75 0 0] CT
0 0 1 RC
1 LJ
2 LW
N
90 410.045 M
162.444 401.243 L
234.889 397.768 L
307.333 395.896 L
379.778 397.896 L
452.222 400.258 L
524.667 402.999 L
597.111 402.9 L
669.556 404.919 L
742 405.692 L
S
GR
GS
[0.75 0 0 0.75 0 0] CT
1 GC
N
86.057 410.5 M
92.722 406.652 L
92.722 414.348 L
cp
f
GR
GS
[0.75 0 0 0.75 0 0] CT
0 0 1 RC
10.0 ML
2 LW
N
86.057 410.5 M
92.722 406.652 L
92.722 414.348 L
cp
S
GR
GS
[0.75 0 0 0.75 0 0] CT
1 GC
N
158.057 401.5 M
164.722 397.652 L
164.722 405.348 L
cp
f
GR
GS
[0.75 0 0 0.75 0 0] CT
0 0 1 RC
10.0 ML
2 LW
N
158.057 401.5 M
164.722 397.652 L
164.722 405.348 L
cp
S
GR
GS
[0.75 0 0 0.75 0 0] CT
1 GC
N
230.057 397.5 M
236.722 393.652 L
236.722 401.348 L
cp
f
GR
GS
[0.75 0 0 0.75 0 0] CT
0 0 1 RC
10.0 ML
2 LW
N
230.057 397.5 M
236.722 393.652 L
236.722 401.348 L
cp
S
GR
GS
[0.75 0 0 0.75 0 0] CT
1 GC
N
303.057 395.5 M
309.722 391.652 L
309.722 399.348 L
cp
f
GR
GS
[0.75 0 0 0.75 0 0] CT
0 0 1 RC
10.0 ML
2 LW
N
303.057 395.5 M
309.722 391.652 L
309.722 399.348 L
cp
S
GR
GS
[0.75 0 0 0.75 0 0] CT
1 GC
N
375.057 397.5 M
381.722 393.652 L
381.722 401.348 L
cp
f
GR
GS
[0.75 0 0 0.75 0 0] CT
0 0 1 RC
10.0 ML
2 LW
N
375.057 397.5 M
381.722 393.652 L
381.722 401.348 L
cp
S
GR
GS
[0.75 0 0 0.75 0 0] CT
1 GC
N
448.057 400.5 M
454.722 396.652 L
454.722 404.348 L
cp
f
GR
GS
[0.75 0 0 0.75 0 0] CT
0 0 1 RC
10.0 ML
2 LW
N
448.057 400.5 M
454.722 396.652 L
454.722 404.348 L
cp
S
GR
GS
[0.75 0 0 0.75 0 0] CT
1 GC
N
520.057 402.5 M
526.722 398.652 L
526.722 406.348 L
cp
f
GR
GS
[0.75 0 0 0.75 0 0] CT
0 0 1 RC
10.0 ML
2 LW
N
520.057 402.5 M
526.722 398.652 L
526.722 406.348 L
cp
S
GR
GS
[0.75 0 0 0.75 0 0] CT
1 GC
N
593.057 402.5 M
599.722 398.652 L
599.722 406.348 L
cp
f
GR
GS
[0.75 0 0 0.75 0 0] CT
0 0 1 RC
10.0 ML
2 LW
N
593.057 402.5 M
599.722 398.652 L
599.722 406.348 L
cp
S
GR
GS
[0.75 0 0 0.75 0 0] CT
1 GC
N
665.057 404.5 M
671.722 400.652 L
671.722 408.348 L
cp
f
GR
GS
[0.75 0 0 0.75 0 0] CT
0 0 1 RC
10.0 ML
2 LW
N
665.057 404.5 M
671.722 400.652 L
671.722 408.348 L
cp
S
GR
GS
[0.75 0 0 0.75 0 0] CT
1 GC
N
738.057 405.5 M
744.722 401.652 L
744.722 409.348 L
cp
f
GR
GS
[0.75 0 0 0.75 0 0] CT
0 0 1 RC
10.0 ML
2 LW
N
738.057 405.5 M
744.722 401.652 L
744.722 409.348 L
cp
S
GR
GS
[0.75 0 0 0.75 0 0] CT
1 0 1 RC
1 LJ
2 LW
N
90 410.045 M
162.444 361.05 L
234.889 336.519 L
307.333 319.632 L
379.778 306.112 L
452.222 294.771 L
524.667 285.439 L
597.111 282.655 L
669.556 279.185 L
742 276.738 L
S
GR
GS
[0.75 0 0 0.75 0 0] CT
1 0 1 RC
1 LJ
2 LW
N
87 410.5 M
94 410.5 L
S
GR
GS
[0.75 0 0 0.75 0 0] CT
1 0 1 RC
1 LJ
2 LW
N
90.5 414 M
90.5 407 L
S
GR
GS
[0.75 0 0 0.75 0 0] CT
1 0 1 RC
1 LJ
2 LW
N
159 361.5 M
166 361.5 L
S
GR
GS
[0.75 0 0 0.75 0 0] CT
1 0 1 RC
1 LJ
2 LW
N
162.5 365 M
162.5 358 L
S
GR
GS
[0.75 0 0 0.75 0 0] CT
1 0 1 RC
1 LJ
2 LW
N
231 336.5 M
238 336.5 L
S
GR
GS
[0.75 0 0 0.75 0 0] CT
1 0 1 RC
1 LJ
2 LW
N
234.5 340 M
234.5 333 L
S
GR
GS
[0.75 0 0 0.75 0 0] CT
1 0 1 RC
1 LJ
2 LW
N
304 319.5 M
311 319.5 L
S
GR
GS
[0.75 0 0 0.75 0 0] CT
1 0 1 RC
1 LJ
2 LW
N
307.5 323 M
307.5 316 L
S
GR
GS
[0.75 0 0 0.75 0 0] CT
1 0 1 RC
1 LJ
2 LW
N
376 306.5 M
383 306.5 L
S
GR
GS
[0.75 0 0 0.75 0 0] CT
1 0 1 RC
1 LJ
2 LW
N
379.5 310 M
379.5 303 L
S
GR
GS
[0.75 0 0 0.75 0 0] CT
1 0 1 RC
1 LJ
2 LW
N
449 294.5 M
456 294.5 L
S
GR
GS
[0.75 0 0 0.75 0 0] CT
1 0 1 RC
1 LJ
2 LW
N
452.5 298 M
452.5 291 L
S
GR
GS
[0.75 0 0 0.75 0 0] CT
1 0 1 RC
1 LJ
2 LW
N
521 285.5 M
528 285.5 L
S
GR
GS
[0.75 0 0 0.75 0 0] CT
1 0 1 RC
1 LJ
2 LW
N
524.5 289 M
524.5 282 L
S
GR
GS
[0.75 0 0 0.75 0 0] CT
1 0 1 RC
1 LJ
2 LW
N
594 282.5 M
601 282.5 L
S
GR
GS
[0.75 0 0 0.75 0 0] CT
1 0 1 RC
1 LJ
2 LW
N
597.5 286 M
597.5 279 L
S
GR
GS
[0.75 0 0 0.75 0 0] CT
1 0 1 RC
1 LJ
2 LW
N
666 279.5 M
673 279.5 L
S
GR
GS
[0.75 0 0 0.75 0 0] CT
1 0 1 RC
1 LJ
2 LW
N
669.5 283 M
669.5 276 L
S
GR
GS
[0.75 0 0 0.75 0 0] CT
1 0 1 RC
1 LJ
2 LW
N
739 276.5 M
746 276.5 L
S
GR
GS
[0.75 0 0 0.75 0 0] CT
1 0 1 RC
1 LJ
2 LW
N
742.5 280 M
742.5 273 L
S
GR
GS
[0.75 0 0 0.75 0 0] CT
1 0 0 RC
1 LJ
2 LW
N
90 410.045 M
162.444 278.468 L
234.889 205.564 L
307.333 163.44 L
379.778 141.126 L
452.222 115.747 L
524.667 101.981 L
597.111 86.087 L
669.556 79.813 L
742 72.529 L
S
GR
GS
[0.75 0 0 0.75 0 0] CT
1 GC
N
87.9 413.1 M
87.9 407.9 L
93.1 407.9 L
93.1 413.1 L
cp
f
GR
GS
[0.75 0 0 0.75 0 0] CT
1 0 0 RC
10.0 ML
2 LW
N
87.9 413.1 M
87.9 407.9 L
93.1 407.9 L
93.1 413.1 L
cp
S
GR
GS
[0.75 0 0 0.75 0 0] CT
1 GC
N
159.9 281.1 M
159.9 275.9 L
165.1 275.9 L
165.1 281.1 L
cp
f
GR
GS
[0.75 0 0 0.75 0 0] CT
1 0 0 RC
10.0 ML
2 LW
N
159.9 281.1 M
159.9 275.9 L
165.1 275.9 L
165.1 281.1 L
cp
S
GR
GS
[0.75 0 0 0.75 0 0] CT
1 GC
N
231.9 208.1 M
231.9 202.9 L
237.1 202.9 L
237.1 208.1 L
cp
f
GR
GS
[0.75 0 0 0.75 0 0] CT
1 0 0 RC
10.0 ML
2 LW
N
231.9 208.1 M
231.9 202.9 L
237.1 202.9 L
237.1 208.1 L
cp
S
GR
GS
[0.75 0 0 0.75 0 0] CT
1 GC
N
304.9 166.1 M
304.9 160.9 L
310.1 160.9 L
310.1 166.1 L
cp
f
GR
GS
[0.75 0 0 0.75 0 0] CT
1 0 0 RC
10.0 ML
2 LW
N
304.9 166.1 M
304.9 160.9 L
310.1 160.9 L
310.1 166.1 L
cp
S
GR
GS
[0.75 0 0 0.75 0 0] CT
1 GC
N
376.9 144.1 M
376.9 138.9 L
382.1 138.9 L
382.1 144.1 L
cp
f
GR
GS
[0.75 0 0 0.75 0 0] CT
1 0 0 RC
10.0 ML
2 LW
N
376.9 144.1 M
376.9 138.9 L
382.1 138.9 L
382.1 144.1 L
cp
S
GR
GS
[0.75 0 0 0.75 0 0] CT
1 GC
N
449.9 118.1 M
449.9 112.9 L
455.1 112.9 L
455.1 118.1 L
cp
f
GR
GS
[0.75 0 0 0.75 0 0] CT
1 0 0 RC
10.0 ML
2 LW
N
449.9 118.1 M
449.9 112.9 L
455.1 112.9 L
455.1 118.1 L
cp
S
GR
GS
[0.75 0 0 0.75 0 0] CT
1 GC
N
521.9 104.1 M
521.9 98.9 L
527.1 98.9 L
527.1 104.1 L
cp
f
GR
GS
[0.75 0 0 0.75 0 0] CT
1 0 0 RC
10.0 ML
2 LW
N
521.9 104.1 M
521.9 98.9 L
527.1 98.9 L
527.1 104.1 L
cp
S
GR
GS
[0.75 0 0 0.75 0 0] CT
1 GC
N
594.9 89.1 M
594.9 83.9 L
600.1 83.9 L
600.1 89.1 L
cp
f
GR
GS
[0.75 0 0 0.75 0 0] CT
1 0 0 RC
10.0 ML
2 LW
N
594.9 89.1 M
594.9 83.9 L
600.1 83.9 L
600.1 89.1 L
cp
S
GR
GS
[0.75 0 0 0.75 0 0] CT
1 GC
N
666.9 82.1 M
666.9 76.9 L
672.1 76.9 L
672.1 82.1 L
cp
f
GR
GS
[0.75 0 0 0.75 0 0] CT
1 0 0 RC
10.0 ML
2 LW
N
666.9 82.1 M
666.9 76.9 L
672.1 76.9 L
672.1 82.1 L
cp
S
GR
GS
[0.75 0 0 0.75 0 0] CT
1 GC
N
739.9 75.1 M
739.9 69.9 L
745.1 69.9 L
745.1 75.1 L
cp
f
GR
GS
[0.75 0 0 0.75 0 0] CT
1 0 0 RC
10.0 ML
2 LW
N
739.9 75.1 M
739.9 69.9 L
745.1 69.9 L
745.1 75.1 L
cp
S
GR
GS
[0.75 0 0 0.75 0 0] CT
1 LJ
2 LW
N
90 410.045 M
162.444 265.374 L
234.889 190.314 L
307.333 143.569 L
379.778 113.077 L
452.222 91.046 L
524.667 78.295 L
597.111 70.542 L
669.556 59.621 L
742 52.034 L
S
GR
GS
[0.75 0 0 0.75 0 0] CT
1 GC
N
93.833 410.5 M
92.857 408.143 L
90.5 407.167 L
88.143 408.143 L
87.167 410.5 L
88.143 412.857 L
90.5 413.833 L
92.857 412.857 L
93.833 410.5 L
cp
f
GR
GS
[0.75 0 0 0.75 0 0] CT
1 LJ
2 LW
N
93.833 410.5 M
93.197 408.541 L
91.53 407.33 L
89.47 407.33 L
87.803 408.541 L
87.167 410.5 L
87.803 412.459 L
89.47 413.67 L
91.53 413.67 L
93.197 412.459 L
cp
S
GR
GS
[0.75 0 0 0.75 0 0] CT
1 GC
N
165.833 265.5 M
164.857 263.143 L
162.5 262.167 L
160.143 263.143 L
159.167 265.5 L
160.143 267.857 L
162.5 268.833 L
164.857 267.857 L
165.833 265.5 L
cp
f
GR
GS
[0.75 0 0 0.75 0 0] CT
1 LJ
2 LW
N
165.833 265.5 M
165.197 263.541 L
163.53 262.33 L
161.47 262.33 L
159.803 263.541 L
159.167 265.5 L
159.803 267.459 L
161.47 268.67 L
163.53 268.67 L
165.197 267.459 L
cp
S
GR
GS
[0.75 0 0 0.75 0 0] CT
1 GC
N
237.833 190.5 M
236.857 188.143 L
234.5 187.167 L
232.143 188.143 L
231.167 190.5 L
232.143 192.857 L
234.5 193.833 L
236.857 192.857 L
237.833 190.5 L
cp
f
GR
GS
[0.75 0 0 0.75 0 0] CT
1 LJ
2 LW
N
237.833 190.5 M
237.197 188.541 L
235.53 187.33 L
233.47 187.33 L
231.803 188.541 L
231.167 190.5 L
231.803 192.459 L
233.47 193.67 L
235.53 193.67 L
237.197 192.459 L
cp
S
GR
GS
[0.75 0 0 0.75 0 0] CT
1 GC
N
310.833 143.5 M
309.857 141.143 L
307.5 140.167 L
305.143 141.143 L
304.167 143.5 L
305.143 145.857 L
307.5 146.833 L
309.857 145.857 L
310.833 143.5 L
cp
f
GR
GS
[0.75 0 0 0.75 0 0] CT
1 LJ
2 LW
N
310.833 143.5 M
310.197 141.541 L
308.53 140.33 L
306.47 140.33 L
304.803 141.541 L
304.167 143.5 L
304.803 145.459 L
306.47 146.67 L
308.53 146.67 L
310.197 145.459 L
cp
S
GR
GS
[0.75 0 0 0.75 0 0] CT
1 GC
N
382.833 113.5 M
381.857 111.143 L
379.5 110.167 L
377.143 111.143 L
376.167 113.5 L
377.143 115.857 L
379.5 116.833 L
381.857 115.857 L
382.833 113.5 L
cp
f
GR
GS
[0.75 0 0 0.75 0 0] CT
1 LJ
2 LW
N
382.833 113.5 M
382.197 111.541 L
380.53 110.33 L
378.47 110.33 L
376.803 111.541 L
376.167 113.5 L
376.803 115.459 L
378.47 116.67 L
380.53 116.67 L
382.197 115.459 L
cp
S
GR
GS
[0.75 0 0 0.75 0 0] CT
1 GC
N
455.833 91.5 M
454.857 89.143 L
452.5 88.167 L
450.143 89.143 L
449.167 91.5 L
450.143 93.857 L
452.5 94.833 L
454.857 93.857 L
455.833 91.5 L
cp
f
GR
GS
[0.75 0 0 0.75 0 0] CT
1 LJ
2 LW
N
455.833 91.5 M
455.197 89.541 L
453.53 88.33 L
451.47 88.33 L
449.803 89.541 L
449.167 91.5 L
449.803 93.459 L
451.47 94.67 L
453.53 94.67 L
455.197 93.459 L
cp
S
GR
GS
[0.75 0 0 0.75 0 0] CT
1 GC
N
527.833 78.5 M
526.857 76.143 L
524.5 75.167 L
522.143 76.143 L
521.167 78.5 L
522.143 80.857 L
524.5 81.833 L
526.857 80.857 L
527.833 78.5 L
cp
f
GR
GS
[0.75 0 0 0.75 0 0] CT
1 LJ
2 LW
N
527.833 78.5 M
527.197 76.541 L
525.53 75.33 L
523.47 75.33 L
521.803 76.541 L
521.167 78.5 L
521.803 80.459 L
523.47 81.67 L
525.53 81.67 L
527.197 80.459 L
cp
S
GR
GS
[0.75 0 0 0.75 0 0] CT
1 GC
N
600.833 70.5 M
599.857 68.143 L
597.5 67.167 L
595.143 68.143 L
594.167 70.5 L
595.143 72.857 L
597.5 73.833 L
599.857 72.857 L
600.833 70.5 L
cp
f
GR
GS
[0.75 0 0 0.75 0 0] CT
1 LJ
2 LW
N
600.833 70.5 M
600.197 68.541 L
598.53 67.33 L
596.47 67.33 L
594.803 68.541 L
594.167 70.5 L
594.803 72.459 L
596.47 73.67 L
598.53 73.67 L
600.197 72.459 L
cp
S
GR
GS
[0.75 0 0 0.75 0 0] CT
1 GC
N
672.833 59.5 M
671.857 57.143 L
669.5 56.167 L
667.143 57.143 L
666.167 59.5 L
667.143 61.857 L
669.5 62.833 L
671.857 61.857 L
672.833 59.5 L
cp
f
GR
GS
[0.75 0 0 0.75 0 0] CT
1 LJ
2 LW
N
672.833 59.5 M
672.197 57.541 L
670.53 56.33 L
668.47 56.33 L
666.803 57.541 L
666.167 59.5 L
666.803 61.459 L
668.47 62.67 L
670.53 62.67 L
672.197 61.459 L
cp
S
GR
GS
[0.75 0 0 0.75 0 0] CT
1 GC
N
745.833 52.5 M
744.857 50.143 L
742.5 49.167 L
740.143 50.143 L
739.167 52.5 L
740.143 54.857 L
742.5 55.833 L
744.857 54.857 L
745.833 52.5 L
cp
f
GR
GS
[0.75 0 0 0.75 0 0] CT
1 LJ
2 LW
N
745.833 52.5 M
745.197 50.541 L
743.53 49.33 L
741.47 49.33 L
739.803 50.541 L
739.167 52.5 L
739.803 54.459 L
741.47 55.67 L
743.53 55.67 L
745.197 54.459 L
cp
S
GR
GS
[0.75 0 0 0.75 0 0] CT
1 GC
N
623 408 M
623 139 L
729 139 L
729 408 L
cp
f
GR
GS
[0.75 0 0 0.75 495 116.625] CT
/Times 24 F
GS
[1 0 0 1 0 0] CT
0 8.5 moveto 
1 -1 scale
(LBP) t 
GR
GR
GS
[0.75 0 0 0.75 0 0] CT
1 0.6 0.784 RC
1 LJ
2 LW
N
627 155.5 M
657 155.5 L
S
GR
GS
[0.75 0 0 0.75 0 0] CT
1 GC
N
640.278 151.652 M
646.943 155.5 L
640.278 159.348 L
cp
f
GR
GS
[0.75 0 0 0.75 0 0] CT
1 0.6 0.784 RC
10.0 ML
2 LW
N
640.278 151.652 M
646.943 155.5 L
640.278 159.348 L
cp
S
GR
GS
[0.75 0 0 0.75 495 138.75] CT
/Times 24 F
GS
[1 0 0 1 0 0] CT
0 8.5 moveto 
1 -1 scale
(LTP) t 
GR
GR
GS
[0.75 0 0 0.75 0 0] CT
0.6 0.2 0 RC
1 LJ
2 LW
N
627 185 M
657 185 L
S
GR
GS
[0.75 0 0 0.75 0 0] CT
1 GC
N
638.057 184.5 M
644.722 180.652 L
644.722 188.348 L
cp
f
GR
GS
[0.75 0 0 0.75 0 0] CT
0.6 0.2 0 RC
10.0 ML
2 LW
N
638.057 184.5 M
644.722 180.652 L
644.722 188.348 L
cp
S
GR
GS
[0.75 0 0 0.75 495 160.875] CT
/Times 24 F
GS
[1 0 0 1 0 0] CT
0 8.5 moveto 
1 -1 scale
(LDP) t 
GR
GR
GS
[0.75 0 0 0.75 0 0] CT
0.929 0.694 0.125 RC
1 LJ
2 LW
N
627 214.5 M
657 214.5 L
S
GR
GS
[0.75 0 0 0.75 0 0] CT
1 GC
N
639.33 213.47 M
641.716 213.47 L
642.5 211.167 L
643.284 213.47 L
645.67 213.47 L
643.768 214.912 L
644.459 217.197 L
642.5 215.833 L
640.541 217.197 L
641.232 214.912 L
639.33 213.47 L
cp
f
GR
GS
[0.75 0 0 0.75 0 0] CT
0.929 0.694 0.125 RC
10.0 ML
2 LW
N
639.33 213.47 M
641.716 213.47 L
642.5 211.167 L
643.284 213.47 L
645.67 213.47 L
643.768 214.912 L
644.459 217.197 L
642.5 215.833 L
640.541 217.197 L
641.232 214.912 L
cp
S
GR
GS
[0.75 0 0 0.75 495 183] CT
/Times 24 F
GS
[1 0 0 1 0 0] CT
0 8.5 moveto 
1 -1 scale
(LDN) t 
GR
GR
GS
[0.75 0 0 0.75 0 0] CT
0 1 1 RC
1 LJ
2 LW
N
627 244 M
657 244 L
S
GR
GS
[0.75 0 0 0.75 0 0] CT
1 GC
N
642.5 247.943 M
645.833 243.5 L
642.5 239.057 L
639.167 243.5 L
cp
f
GR
GS
[0.75 0 0 0.75 0 0] CT
0 1 1 RC
10.0 ML
2 LW
N
642.5 247.943 M
645.833 243.5 L
642.5 239.057 L
639.167 243.5 L
cp
S
GR
GS
[0.75 0 0 0.75 495 205.125] CT
/Times 24 F
GS
[1 0 0 1 0 0] CT
0 8.5 moveto 
1 -1 scale
(LVP) t 
GR
GR
GS
[0.75 0 0 0.75 0 0] CT
0 1 0 RC
1 LJ
2 LW
N
627 273.5 M
657 273.5 L
S
GR
GS
[0.75 0 0 0.75 0 0] CT
1 GC
N
639.9 276.1 M
639.9 270.9 L
645.1 270.9 L
645.1 276.1 L
cp
f
GR
GS
[0.75 0 0 0.75 0 0] CT
0 1 0 RC
10.0 ML
2 LW
N
639.9 276.1 M
639.9 270.9 L
645.1 270.9 L
645.1 276.1 L
cp
S
GR
GS
[0.75 0 0 0.75 495 227.25] CT
/Times 24 F
GS
[1 0 0 1 0 0] CT
0 8.5 moveto 
1 -1 scale
(LDGP) t 
GR
GR
GS
[0.75 0 0 0.75 0 0] CT
0 0 1 RC
1 LJ
2 LW
N
627 303 M
657 303 L
S
GR
GS
[0.75 0 0 0.75 0 0] CT
1 GC
N
638.057 302.5 M
644.722 298.652 L
644.722 306.348 L
cp
f
GR
GS
[0.75 0 0 0.75 0 0] CT
0 0 1 RC
10.0 ML
2 LW
N
638.057 302.5 M
644.722 298.652 L
644.722 306.348 L
cp
S
GR
GS
[0.75 0 0 0.75 495 249.375] CT
/Times 24 F
GS
[1 0 0 1 0 0] CT
0 8.5 moveto 
1 -1 scale
(DCP) t 
GR
GR
GS
[0.75 0 0 0.75 0 0] CT
1 0 1 RC
1 LJ
2 LW
N
627 332.5 M
657 332.5 L
S
GR
GS
[0.75 0 0 0.75 0 0] CT
1 0 1 RC
1 LJ
2 LW
N
639 332.5 M
646 332.5 L
S
GR
GS
[0.75 0 0 0.75 0 0] CT
1 0 1 RC
1 LJ
2 LW
N
642.5 336 M
642.5 329 L
S
GR
GS
[0.75 0 0 0.75 495 271.5] CT
/Times 24 F
GS
[1 0 0 1 0 0] CT
0 8.5 moveto 
1 -1 scale
(LGHP) t 
GR
GR
GS
[0.75 0 0 0.75 0 0] CT
1 0 0 RC
1 LJ
2 LW
N
627 362 M
657 362 L
S
GR
GS
[0.75 0 0 0.75 0 0] CT
1 GC
N
639.9 365.1 M
639.9 359.9 L
645.1 359.9 L
645.1 365.1 L
cp
f
GR
GS
[0.75 0 0 0.75 0 0] CT
1 0 0 RC
10.0 ML
2 LW
N
639.9 365.1 M
639.9 359.9 L
645.1 359.9 L
645.1 365.1 L
cp
S
GR
GS
[0.75 0 0 0.75 495 293.625] CT
/Times 24 F
GS
[1 0 0 1 0 0] CT
0 8.5 moveto 
1 -1 scale
(LDRP) t 
GR
GR
GS
[0.75 0 0 0.75 0 0] CT
1 LJ
2 LW
N
627 391.5 M
657 391.5 L
S
GR
GS
[0.75 0 0 0.75 0 0] CT
1 GC
N
645.833 391.5 M
644.857 389.143 L
642.5 388.167 L
640.143 389.143 L
639.167 391.5 L
640.143 393.857 L
642.5 394.833 L
644.857 393.857 L
645.833 391.5 L
cp
f
GR
GS
[0.75 0 0 0.75 0 0] CT
1 LJ
2 LW
N
645.833 391.5 M
645.197 389.541 L
643.53 388.33 L
641.47 388.33 L
639.803 389.541 L
639.167 391.5 L
639.803 393.459 L
641.47 394.67 L
643.53 394.67 L
645.197 393.459 L
cp
S
GR
GS
[0.75 0 0 0.75 0 0] CT
0.149 GC
10.0 ML
0.667 LW
N
623 408 M
623 139 L
729 139 L
729 408 L
cp
S
GR
%%Trailer
%%Pages: 1
%%EOF
