%!PS-Adobe-3.0 EPSF-3.0
%%Creator: (MATLAB, The Mathworks, Inc. Version 9.0.0.341360 \(R2016a\). Operating System: Linux)
%%Title: (/home/shivram/main/Work/1. Research/1. Ongoing/5. LDRP Face/2. Exp/1. Results/PaSC/PaSC-ANMRR.eps)
%%CreationDate: 2017-08-16T15:31:21
%%Pages: (atend)
%%BoundingBox: 0 0 573 384
%%LanguageLevel: 3
%%EndComments
%%BeginProlog
%%BeginResource: procset (Apache XML Graphics Std ProcSet) 1.2 0
%%Version: 1.2 0
%%Copyright: (Copyright 2001-2003,2010 The Apache Software Foundation. License terms: http://www.apache.org/licenses/LICENSE-2.0)
/bd{bind def}bind def
/ld{load def}bd
/GR/grestore ld
/M/moveto ld
/LJ/setlinejoin ld
/C/curveto ld
/f/fill ld
/LW/setlinewidth ld
/GC/setgray ld
/t/show ld
/N/newpath ld
/CT/concat ld
/cp/closepath ld
/S/stroke ld
/L/lineto ld
/CC/setcmykcolor ld
/A/ashow ld
/GS/gsave ld
/RC/setrgbcolor ld
/RM/rmoveto ld
/ML/setmiterlimit ld
/re {4 2 roll M
1 index 0 rlineto
0 exch rlineto
neg 0 rlineto
cp } bd
/_ctm matrix def
/_tm matrix def
/BT { _ctm currentmatrix pop matrix _tm copy pop 0 0 moveto } bd
/ET { _ctm setmatrix } bd
/iTm { _ctm setmatrix _tm concat } bd
/Tm { _tm astore pop iTm 0 0 moveto } bd
/ux 0.0 def
/uy 0.0 def
/F {
  /Tp exch def
  /Tf exch def
  Tf findfont Tp scalefont setfont
  /cf Tf def  /cs Tp def
} bd
/ULS {currentpoint /uy exch def /ux exch def} bd
/ULE {
  /Tcx currentpoint pop def
  gsave
  newpath
  cf findfont cs scalefont dup
  /FontMatrix get 0 get /Ts exch def /FontInfo get dup
  /UnderlinePosition get Ts mul /To exch def
  /UnderlineThickness get Ts mul /Tt exch def
  ux uy To add moveto  Tcx uy To add lineto
  Tt setlinewidth stroke
  grestore
} bd
/OLE {
  /Tcx currentpoint pop def
  gsave
  newpath
  cf findfont cs scalefont dup
  /FontMatrix get 0 get /Ts exch def /FontInfo get dup
  /UnderlinePosition get Ts mul /To exch def
  /UnderlineThickness get Ts mul /Tt exch def
  ux uy To add cs add moveto Tcx uy To add cs add lineto
  Tt setlinewidth stroke
  grestore
} bd
/SOE {
  /Tcx currentpoint pop def
  gsave
  newpath
  cf findfont cs scalefont dup
  /FontMatrix get 0 get /Ts exch def /FontInfo get dup
  /UnderlinePosition get Ts mul /To exch def
  /UnderlineThickness get Ts mul /Tt exch def
  ux uy To add cs 10 mul 26 idiv add moveto Tcx uy To add cs 10 mul 26 idiv add lineto
  Tt setlinewidth stroke
  grestore
} bd
/QT {
/Y22 exch store
/X22 exch store
/Y21 exch store
/X21 exch store
currentpoint
/Y21 load 2 mul add 3 div exch
/X21 load 2 mul add 3 div exch
/X21 load 2 mul /X22 load add 3 div
/Y21 load 2 mul /Y22 load add 3 div
/X22 load /Y22 load curveto
} bd
/SSPD {
dup length /d exch dict def
{
/v exch def
/k exch def
currentpagedevice k known {
/cpdv currentpagedevice k get def
v cpdv ne {
/upd false def
/nullv v type /nulltype eq def
/nullcpdv cpdv type /nulltype eq def
nullv nullcpdv or
{
/upd true def
} {
/sametype v type cpdv type eq def
sametype {
v type /arraytype eq {
/vlen v length def
/cpdvlen cpdv length def
vlen cpdvlen eq {
0 1 vlen 1 sub {
/i exch def
/obj v i get def
/cpdobj cpdv i get def
obj cpdobj ne {
/upd true def
exit
} if
} for
} {
/upd true def
} ifelse
} {
v type /dicttype eq {
v {
/dv exch def
/dk exch def
/cpddv cpdv dk get def
dv cpddv ne {
/upd true def
exit
} if
} forall
} {
/upd true def
} ifelse
} ifelse
} if
} ifelse
upd true eq {
d k v put
} if
} if
} if
} forall
d length 0 gt {
d setpagedevice
} if
} bd
%%EndResource
%%BeginResource: procset (Apache XML Graphics EPS ProcSet) 1.0 0
%%Version: 1.0 0
%%Copyright: (Copyright 2002-2003 The Apache Software Foundation. License terms: http://www.apache.org/licenses/LICENSE-2.0)
/BeginEPSF { %def
/b4_Inc_state save def         % Save state for cleanup
/dict_count countdictstack def % Count objects on dict stack
/op_count count 1 sub def      % Count objects on operand stack
userdict begin                 % Push userdict on dict stack
/showpage { } def              % Redefine showpage, { } = null proc
0 setgray 0 setlinecap         % Prepare graphics state
1 setlinewidth 0 setlinejoin
10 setmiterlimit [ ] 0 setdash newpath
/languagelevel where           % If level not equal to 1 then
{pop languagelevel             % set strokeadjust and
1 ne                           % overprint to their defaults.
{false setstrokeadjust false setoverprint
} if
} if
} bd
/EndEPSF { %def
count op_count sub {pop} repeat            % Clean up stacks
countdictstack dict_count sub {end} repeat
b4_Inc_state restore
} bd
%%EndResource
%FOPBeginFontDict
%%IncludeResource: font Courier-Bold
%%IncludeResource: font Helvetica
%%IncludeResource: font Courier-BoldOblique
%%IncludeResource: font Courier-Oblique
%%IncludeResource: font Times-Roman
%%IncludeResource: font Helvetica-BoldOblique
%%IncludeResource: font Helvetica-Bold
%%IncludeResource: font Helvetica-Oblique
%%IncludeResource: font Times-BoldItalic
%%IncludeResource: font Courier
%%IncludeResource: font Times-Italic
%%IncludeResource: font Times-Bold
%%IncludeResource: font Symbol
%%IncludeResource: font ZapfDingbats
%FOPEndFontDict
%%BeginResource: encoding WinAnsiEncoding
/WinAnsiEncoding [
/.notdef /.notdef /.notdef /.notdef /.notdef
/.notdef /.notdef /.notdef /.notdef /.notdef
/.notdef /.notdef /.notdef /.notdef /.notdef
/.notdef /.notdef /.notdef /.notdef /.notdef
/.notdef /.notdef /.notdef /.notdef /.notdef
/.notdef /.notdef /.notdef /.notdef /.notdef
/.notdef /.notdef /space /exclam /quotedbl
/numbersign /dollar /percent /ampersand /quotesingle
/parenleft /parenright /asterisk /plus /comma
/hyphen /period /slash /zero /one
/two /three /four /five /six
/seven /eight /nine /colon /semicolon
/less /equal /greater /question /at
/A /B /C /D /E
/F /G /H /I /J
/K /L /M /N /O
/P /Q /R /S /T
/U /V /W /X /Y
/Z /bracketleft /backslash /bracketright /asciicircum
/underscore /quoteleft /a /b /c
/d /e /f /g /h
/i /j /k /l /m
/n /o /p /q /r
/s /t /u /v /w
/x /y /z /braceleft /bar
/braceright /asciitilde /bullet /Euro /bullet
/quotesinglbase /florin /quotedblbase /ellipsis /dagger
/daggerdbl /circumflex /perthousand /Scaron /guilsinglleft
/OE /bullet /Zcaron /bullet /bullet
/quoteleft /quoteright /quotedblleft /quotedblright /bullet
/endash /emdash /asciitilde /trademark /scaron
/guilsinglright /oe /bullet /zcaron /Ydieresis
/space /exclamdown /cent /sterling /currency
/yen /brokenbar /section /dieresis /copyright
/ordfeminine /guillemotleft /logicalnot /sfthyphen /registered
/macron /degree /plusminus /twosuperior /threesuperior
/acute /mu /paragraph /middot /cedilla
/onesuperior /ordmasculine /guillemotright /onequarter /onehalf
/threequarters /questiondown /Agrave /Aacute /Acircumflex
/Atilde /Adieresis /Aring /AE /Ccedilla
/Egrave /Eacute /Ecircumflex /Edieresis /Igrave
/Iacute /Icircumflex /Idieresis /Eth /Ntilde
/Ograve /Oacute /Ocircumflex /Otilde /Odieresis
/multiply /Oslash /Ugrave /Uacute /Ucircumflex
/Udieresis /Yacute /Thorn /germandbls /agrave
/aacute /acircumflex /atilde /adieresis /aring
/ae /ccedilla /egrave /eacute /ecircumflex
/edieresis /igrave /iacute /icircumflex /idieresis
/eth /ntilde /ograve /oacute /ocircumflex
/otilde /odieresis /divide /oslash /ugrave
/uacute /ucircumflex /udieresis /yacute /thorn
/ydieresis
] def
%%EndResource
%FOPBeginFontReencode
/Courier-Bold findfont
dup length dict begin
  {1 index /FID ne {def} {pop pop} ifelse} forall
  /Encoding WinAnsiEncoding def
  currentdict
end
/Courier-Bold exch definefont pop
/Helvetica findfont
dup length dict begin
  {1 index /FID ne {def} {pop pop} ifelse} forall
  /Encoding WinAnsiEncoding def
  currentdict
end
/Helvetica exch definefont pop
/Courier-BoldOblique findfont
dup length dict begin
  {1 index /FID ne {def} {pop pop} ifelse} forall
  /Encoding WinAnsiEncoding def
  currentdict
end
/Courier-BoldOblique exch definefont pop
/Courier-Oblique findfont
dup length dict begin
  {1 index /FID ne {def} {pop pop} ifelse} forall
  /Encoding WinAnsiEncoding def
  currentdict
end
/Courier-Oblique exch definefont pop
/Times-Roman findfont
dup length dict begin
  {1 index /FID ne {def} {pop pop} ifelse} forall
  /Encoding WinAnsiEncoding def
  currentdict
end
/Times-Roman exch definefont pop
/Helvetica-BoldOblique findfont
dup length dict begin
  {1 index /FID ne {def} {pop pop} ifelse} forall
  /Encoding WinAnsiEncoding def
  currentdict
end
/Helvetica-BoldOblique exch definefont pop
/Helvetica-Bold findfont
dup length dict begin
  {1 index /FID ne {def} {pop pop} ifelse} forall
  /Encoding WinAnsiEncoding def
  currentdict
end
/Helvetica-Bold exch definefont pop
/Helvetica-Oblique findfont
dup length dict begin
  {1 index /FID ne {def} {pop pop} ifelse} forall
  /Encoding WinAnsiEncoding def
  currentdict
end
/Helvetica-Oblique exch definefont pop
/Times-BoldItalic findfont
dup length dict begin
  {1 index /FID ne {def} {pop pop} ifelse} forall
  /Encoding WinAnsiEncoding def
  currentdict
end
/Times-BoldItalic exch definefont pop
/Courier findfont
dup length dict begin
  {1 index /FID ne {def} {pop pop} ifelse} forall
  /Encoding WinAnsiEncoding def
  currentdict
end
/Courier exch definefont pop
/Times-Italic findfont
dup length dict begin
  {1 index /FID ne {def} {pop pop} ifelse} forall
  /Encoding WinAnsiEncoding def
  currentdict
end
/Times-Italic exch definefont pop
/Times-Bold findfont
dup length dict begin
  {1 index /FID ne {def} {pop pop} ifelse} forall
  /Encoding WinAnsiEncoding def
  currentdict
end
/Times-Bold exch definefont pop
%FOPEndFontReencode
%%EndProlog
%%Page: 1 1
%%PageBoundingBox: 0 0 573 384
%%BeginPageSetup
[1 0 0 -1 0 384] CT
%%EndPageSetup
GS
[0.75 0 0 0.75 0 0] CT
1 GC
N
0 0 764 512 re
f
GR
GS
[0.75 0 0 0.75 0 0] CT
1 GC
N
0 0 764 512 re
f
GR
GS
[0.75 0 0 0.75 0 0] CT
1 GC
N
91 421 M
745 421 L
745 51 L
91 51 L
cp
f
GR
GS
[0.75 0 0 0.75 0 0] CT
0.149 GC
2 setlinecap
1 LJ
0.667 LW
N
91 421 M
745 421 L
S
GR
GS
[0.75 0 0 0.75 0 0] CT
0.149 GC
2 setlinecap
1 LJ
0.667 LW
N
91 51 M
745 51 L
S
GR
GS
[0.75 0 0 0.75 0 0] CT
0.149 GC
2 setlinecap
1 LJ
0.667 LW
N
91 421 M
91 414.46 L
S
GR
GS
[0.75 0 0 0.75 0 0] CT
0.149 GC
2 setlinecap
1 LJ
0.667 LW
N
163.667 421 M
163.667 414.46 L
S
GR
GS
[0.75 0 0 0.75 0 0] CT
0.149 GC
2 setlinecap
1 LJ
0.667 LW
N
236.333 421 M
236.333 414.46 L
S
GR
GS
[0.75 0 0 0.75 0 0] CT
0.149 GC
2 setlinecap
1 LJ
0.667 LW
N
309 421 M
309 414.46 L
S
GR
GS
[0.75 0 0 0.75 0 0] CT
0.149 GC
2 setlinecap
1 LJ
0.667 LW
N
381.667 421 M
381.667 414.46 L
S
GR
GS
[0.75 0 0 0.75 0 0] CT
0.149 GC
2 setlinecap
1 LJ
0.667 LW
N
454.333 421 M
454.333 414.46 L
S
GR
GS
[0.75 0 0 0.75 0 0] CT
0.149 GC
2 setlinecap
1 LJ
0.667 LW
N
527 421 M
527 414.46 L
S
GR
GS
[0.75 0 0 0.75 0 0] CT
0.149 GC
2 setlinecap
1 LJ
0.667 LW
N
599.667 421 M
599.667 414.46 L
S
GR
GS
[0.75 0 0 0.75 0 0] CT
0.149 GC
2 setlinecap
1 LJ
0.667 LW
N
672.333 421 M
672.333 414.46 L
S
GR
GS
[0.75 0 0 0.75 0 0] CT
0.149 GC
2 setlinecap
1 LJ
0.667 LW
N
745 421 M
745 414.46 L
S
GR
GS
[0.75 0 0 0.75 0 0] CT
0.149 GC
2 setlinecap
1 LJ
0.667 LW
N
91 51 M
91 57.54 L
S
GR
GS
[0.75 0 0 0.75 0 0] CT
0.149 GC
2 setlinecap
1 LJ
0.667 LW
N
163.667 51 M
163.667 57.54 L
S
GR
GS
[0.75 0 0 0.75 0 0] CT
0.149 GC
2 setlinecap
1 LJ
0.667 LW
N
236.333 51 M
236.333 57.54 L
S
GR
GS
[0.75 0 0 0.75 0 0] CT
0.149 GC
2 setlinecap
1 LJ
0.667 LW
N
309 51 M
309 57.54 L
S
GR
GS
[0.75 0 0 0.75 0 0] CT
0.149 GC
2 setlinecap
1 LJ
0.667 LW
N
381.667 51 M
381.667 57.54 L
S
GR
GS
[0.75 0 0 0.75 0 0] CT
0.149 GC
2 setlinecap
1 LJ
0.667 LW
N
454.333 51 M
454.333 57.54 L
S
GR
GS
[0.75 0 0 0.75 0 0] CT
0.149 GC
2 setlinecap
1 LJ
0.667 LW
N
527 51 M
527 57.54 L
S
GR
GS
[0.75 0 0 0.75 0 0] CT
0.149 GC
2 setlinecap
1 LJ
0.667 LW
N
599.667 51 M
599.667 57.54 L
S
GR
GS
[0.75 0 0 0.75 0 0] CT
0.149 GC
2 setlinecap
1 LJ
0.667 LW
N
672.333 51 M
672.333 57.54 L
S
GR
GS
[0.75 0 0 0.75 0 0] CT
0.149 GC
2 setlinecap
1 LJ
0.667 LW
N
745 51 M
745 57.54 L
S
GR
GS
[0.75 0 0 0.75 68.25 322.55001] CT
0.149 GC
/Times 32 F
GS
[1 0 0 1 0 0] CT
-10.5 30 moveto 
1 -1 scale
(1) t 
GR
GR
GS
[0.75 0 0 0.75 122.75 322.55001] CT
0.149 GC
/Times 32 F
GS
[1 0 0 1 0 0] CT
-10.5 30 moveto 
1 -1 scale
(2) t 
GR
GR
GS
[0.75 0 0 0.75 177.25 322.55001] CT
0.149 GC
/Times 32 F
GS
[1 0 0 1 0 0] CT
-10.5 30 moveto 
1 -1 scale
(3) t 
GR
GR
GS
[0.75 0 0 0.75 231.75 322.55001] CT
0.149 GC
/Times 32 F
GS
[1 0 0 1 0 0] CT
-10.5 30 moveto 
1 -1 scale
(4) t 
GR
GR
GS
[0.75 0 0 0.75 286.24999 322.55001] CT
0.149 GC
/Times 32 F
GS
[1 0 0 1 0 0] CT
-10.5 30 moveto 
1 -1 scale
(5) t 
GR
GR
GS
[0.75 0 0 0.75 340.75001 322.55001] CT
0.149 GC
/Times 32 F
GS
[1 0 0 1 0 0] CT
-10.5 30 moveto 
1 -1 scale
(6) t 
GR
GR
GS
[0.75 0 0 0.75 395.25 322.55001] CT
0.149 GC
/Times 32 F
GS
[1 0 0 1 0 0] CT
-10.5 30 moveto 
1 -1 scale
(7) t 
GR
GR
GS
[0.75 0 0 0.75 449.75002 322.55001] CT
0.149 GC
/Times 32 F
GS
[1 0 0 1 0 0] CT
-10.5 30 moveto 
1 -1 scale
(8) t 
GR
GR
GS
[0.75 0 0 0.75 504.24998 322.55001] CT
0.149 GC
/Times 32 F
GS
[1 0 0 1 0 0] CT
-10.5 30 moveto 
1 -1 scale
(9) t 
GR
GR
GS
[0.75 0 0 0.75 558.75 322.55001] CT
0.149 GC
/Times 32 F
GS
[1 0 0 1 0 0] CT
-20.5 30 moveto 
1 -1 scale
(10) t 
GR
GR
GS
[0.75 0 0 0.75 313.50023 352.05] CT
0.149 GC
/Times 35.2 F
GS
[1 0 0 1 0 0] CT
-210 33 moveto 
1 -1 scale
(Number of Top Matches) t 
GR
GR
GS
[0.75 0 0 0.75 0 0] CT
0.149 GC
2 setlinecap
1 LJ
0.667 LW
N
91 421 M
91 51 L
S
GR
GS
[0.75 0 0 0.75 0 0] CT
0.149 GC
2 setlinecap
1 LJ
0.667 LW
N
745 421 M
745 51 L
S
GR
GS
[0.75 0 0 0.75 0 0] CT
0.149 GC
2 setlinecap
1 LJ
0.667 LW
N
91 421 M
97.54 421 L
S
GR
GS
[0.75 0 0 0.75 0 0] CT
0.149 GC
2 setlinecap
1 LJ
0.667 LW
N
91 334.953 M
97.54 334.953 L
S
GR
GS
[0.75 0 0 0.75 0 0] CT
0.149 GC
2 setlinecap
1 LJ
0.667 LW
N
91 248.907 M
97.54 248.907 L
S
GR
GS
[0.75 0 0 0.75 0 0] CT
0.149 GC
2 setlinecap
1 LJ
0.667 LW
N
91 162.86 M
97.54 162.86 L
S
GR
GS
[0.75 0 0 0.75 0 0] CT
0.149 GC
2 setlinecap
1 LJ
0.667 LW
N
91 76.814 M
97.54 76.814 L
S
GR
GS
[0.75 0 0 0.75 0 0] CT
0.149 GC
2 setlinecap
1 LJ
0.667 LW
N
745 421 M
738.46 421 L
S
GR
GS
[0.75 0 0 0.75 0 0] CT
0.149 GC
2 setlinecap
1 LJ
0.667 LW
N
745 334.953 M
738.46 334.953 L
S
GR
GS
[0.75 0 0 0.75 0 0] CT
0.149 GC
2 setlinecap
1 LJ
0.667 LW
N
745 248.907 M
738.46 248.907 L
S
GR
GS
[0.75 0 0 0.75 0 0] CT
0.149 GC
2 setlinecap
1 LJ
0.667 LW
N
745 162.86 M
738.46 162.86 L
S
GR
GS
[0.75 0 0 0.75 0 0] CT
0.149 GC
2 setlinecap
1 LJ
0.667 LW
N
745 76.814 M
738.46 76.814 L
S
GR
GS
[0.75 0 0 0.75 61.45 315.75] CT
0.149 GC
/Times 32 F
GS
[1 0 0 1 0 0] CT
-21 11 moveto 
1 -1 scale
(0) t 
GR
GR
GS
[0.75 0 0 0.75 61.45 251.21512] CT
0.149 GC
/Times 32 F
GS
[1 0 0 1 0 0] CT
-41 11 moveto 
1 -1 scale
(20) t 
GR
GR
GS
[0.75 0 0 0.75 61.45 186.68024] CT
0.149 GC
/Times 32 F
GS
[1 0 0 1 0 0] CT
-41 11 moveto 
1 -1 scale
(40) t 
GR
GR
GS
[0.75 0 0 0.75 61.45 122.14534] CT
0.149 GC
/Times 32 F
GS
[1 0 0 1 0 0] CT
-41 11 moveto 
1 -1 scale
(60) t 
GR
GR
GS
[0.75 0 0 0.75 61.45 57.61047] CT
0.149 GC
/Times 32 F
GS
[1 0 0 1 0 0] CT
-41 11 moveto 
1 -1 scale
(80) t 
GR
GR
GS
[0 -0.75 0.75 0 27.7 176.99986] CT
0.149 GC
/Times 35.2 F
GS
[1 0 0 1 0 0] CT
-100.5 -9 moveto 
1 -1 scale
(ANMRR \(%\)) t 
GR
GR
GS
[0.75 0 0 0.75 313.50032 33.29999] CT
/Times 35.2 F
GS
[1 0 0 1 0 0] CT
-134 -9 moveto 
1 -1 scale
(PaSC Database) t 
GR
GR
GS
[0.75 0 0 0.75 0 0] CT
1 0.6 0.784 RC
1 LJ
2 LW
N
91 421 M
163.667 299.185 L
236.333 208.35 L
309 160.762 L
381.667 131.445 L
454.333 111.61 L
527 96.949 L
599.667 85.553 L
672.333 76.683 L
745 69.535 L
S
GR
GS
[0.75 0 0 0.75 0 0] CT
1 GC
N
89.278 416.652 M
95.943 420.5 L
89.278 424.348 L
cp
f
GR
GS
[0.75 0 0 0.75 0 0] CT
1 0.6 0.784 RC
10.0 ML
2 LW
N
89.278 416.652 M
95.943 420.5 L
89.278 424.348 L
cp
S
GR
GS
[0.75 0 0 0.75 0 0] CT
1 GC
N
161.278 295.652 M
167.943 299.5 L
161.278 303.348 L
cp
f
GR
GS
[0.75 0 0 0.75 0 0] CT
1 0.6 0.784 RC
10.0 ML
2 LW
N
161.278 295.652 M
167.943 299.5 L
161.278 303.348 L
cp
S
GR
GS
[0.75 0 0 0.75 0 0] CT
1 GC
N
234.278 204.652 M
240.943 208.5 L
234.278 212.348 L
cp
f
GR
GS
[0.75 0 0 0.75 0 0] CT
1 0.6 0.784 RC
10.0 ML
2 LW
N
234.278 204.652 M
240.943 208.5 L
234.278 212.348 L
cp
S
GR
GS
[0.75 0 0 0.75 0 0] CT
1 GC
N
306.278 156.652 M
312.943 160.5 L
306.278 164.348 L
cp
f
GR
GS
[0.75 0 0 0.75 0 0] CT
1 0.6 0.784 RC
10.0 ML
2 LW
N
306.278 156.652 M
312.943 160.5 L
306.278 164.348 L
cp
S
GR
GS
[0.75 0 0 0.75 0 0] CT
1 GC
N
379.278 127.652 M
385.943 131.5 L
379.278 135.348 L
cp
f
GR
GS
[0.75 0 0 0.75 0 0] CT
1 0.6 0.784 RC
10.0 ML
2 LW
N
379.278 127.652 M
385.943 131.5 L
379.278 135.348 L
cp
S
GR
GS
[0.75 0 0 0.75 0 0] CT
1 GC
N
452.278 107.652 M
458.943 111.5 L
452.278 115.348 L
cp
f
GR
GS
[0.75 0 0 0.75 0 0] CT
1 0.6 0.784 RC
10.0 ML
2 LW
N
452.278 107.652 M
458.943 111.5 L
452.278 115.348 L
cp
S
GR
GS
[0.75 0 0 0.75 0 0] CT
1 GC
N
525.278 92.652 M
531.943 96.5 L
525.278 100.348 L
cp
f
GR
GS
[0.75 0 0 0.75 0 0] CT
1 0.6 0.784 RC
10.0 ML
2 LW
N
525.278 92.652 M
531.943 96.5 L
525.278 100.348 L
cp
S
GR
GS
[0.75 0 0 0.75 0 0] CT
1 GC
N
597.278 81.652 M
603.943 85.5 L
597.278 89.348 L
cp
f
GR
GS
[0.75 0 0 0.75 0 0] CT
1 0.6 0.784 RC
10.0 ML
2 LW
N
597.278 81.652 M
603.943 85.5 L
597.278 89.348 L
cp
S
GR
GS
[0.75 0 0 0.75 0 0] CT
1 GC
N
670.278 72.652 M
676.943 76.5 L
670.278 80.348 L
cp
f
GR
GS
[0.75 0 0 0.75 0 0] CT
1 0.6 0.784 RC
10.0 ML
2 LW
N
670.278 72.652 M
676.943 76.5 L
670.278 80.348 L
cp
S
GR
GS
[0.75 0 0 0.75 0 0] CT
1 GC
N
743.278 65.652 M
749.943 69.5 L
743.278 73.348 L
cp
f
GR
GS
[0.75 0 0 0.75 0 0] CT
1 0.6 0.784 RC
10.0 ML
2 LW
N
743.278 65.652 M
749.943 69.5 L
743.278 73.348 L
cp
S
GR
GS
[0.75 0 0 0.75 0 0] CT
0.6 0.2 0 RC
1 LJ
2 LW
N
91 421 M
163.667 296.517 L
236.333 206.681 L
309 159.779 L
381.667 130.897 L
454.333 111.041 L
527 96.486 L
599.667 85.598 L
672.333 76.854 L
745 69.848 L
S
GR
GS
[0.75 0 0 0.75 0 0] CT
1 GC
N
87.057 420.5 M
93.722 416.652 L
93.722 424.348 L
cp
f
GR
GS
[0.75 0 0 0.75 0 0] CT
0.6 0.2 0 RC
10.0 ML
2 LW
N
87.057 420.5 M
93.722 416.652 L
93.722 424.348 L
cp
S
GR
GS
[0.75 0 0 0.75 0 0] CT
1 GC
N
159.057 296.5 M
165.722 292.652 L
165.722 300.348 L
cp
f
GR
GS
[0.75 0 0 0.75 0 0] CT
0.6 0.2 0 RC
10.0 ML
2 LW
N
159.057 296.5 M
165.722 292.652 L
165.722 300.348 L
cp
S
GR
GS
[0.75 0 0 0.75 0 0] CT
1 GC
N
232.057 206.5 M
238.722 202.652 L
238.722 210.348 L
cp
f
GR
GS
[0.75 0 0 0.75 0 0] CT
0.6 0.2 0 RC
10.0 ML
2 LW
N
232.057 206.5 M
238.722 202.652 L
238.722 210.348 L
cp
S
GR
GS
[0.75 0 0 0.75 0 0] CT
1 GC
N
304.057 159.5 M
310.722 155.652 L
310.722 163.348 L
cp
f
GR
GS
[0.75 0 0 0.75 0 0] CT
0.6 0.2 0 RC
10.0 ML
2 LW
N
304.057 159.5 M
310.722 155.652 L
310.722 163.348 L
cp
S
GR
GS
[0.75 0 0 0.75 0 0] CT
1 GC
N
377.057 130.5 M
383.722 126.652 L
383.722 134.348 L
cp
f
GR
GS
[0.75 0 0 0.75 0 0] CT
0.6 0.2 0 RC
10.0 ML
2 LW
N
377.057 130.5 M
383.722 126.652 L
383.722 134.348 L
cp
S
GR
GS
[0.75 0 0 0.75 0 0] CT
1 GC
N
450.057 111.5 M
456.722 107.652 L
456.722 115.348 L
cp
f
GR
GS
[0.75 0 0 0.75 0 0] CT
0.6 0.2 0 RC
10.0 ML
2 LW
N
450.057 111.5 M
456.722 107.652 L
456.722 115.348 L
cp
S
GR
GS
[0.75 0 0 0.75 0 0] CT
1 GC
N
523.057 96.5 M
529.722 92.652 L
529.722 100.348 L
cp
f
GR
GS
[0.75 0 0 0.75 0 0] CT
0.6 0.2 0 RC
10.0 ML
2 LW
N
523.057 96.5 M
529.722 92.652 L
529.722 100.348 L
cp
S
GR
GS
[0.75 0 0 0.75 0 0] CT
1 GC
N
595.057 85.5 M
601.722 81.652 L
601.722 89.348 L
cp
f
GR
GS
[0.75 0 0 0.75 0 0] CT
0.6 0.2 0 RC
10.0 ML
2 LW
N
595.057 85.5 M
601.722 81.652 L
601.722 89.348 L
cp
S
GR
GS
[0.75 0 0 0.75 0 0] CT
1 GC
N
668.057 76.5 M
674.722 72.652 L
674.722 80.348 L
cp
f
GR
GS
[0.75 0 0 0.75 0 0] CT
0.6 0.2 0 RC
10.0 ML
2 LW
N
668.057 76.5 M
674.722 72.652 L
674.722 80.348 L
cp
S
GR
GS
[0.75 0 0 0.75 0 0] CT
1 GC
N
741.057 69.5 M
747.722 65.652 L
747.722 73.348 L
cp
f
GR
GS
[0.75 0 0 0.75 0 0] CT
0.6 0.2 0 RC
10.0 ML
2 LW
N
741.057 69.5 M
747.722 65.652 L
747.722 73.348 L
cp
S
GR
GS
[0.75 0 0 0.75 0 0] CT
0.929 0.694 0.125 RC
1 LJ
2 LW
N
91 421 M
163.667 279.961 L
236.333 188.202 L
309 142.016 L
381.667 113.803 L
454.333 94.7 L
527 81.096 L
599.667 70.785 L
672.333 62.761 L
745 56.183 L
S
GR
GS
[0.75 0 0 0.75 0 0] CT
1 GC
N
88.33 419.47 M
90.716 419.47 L
91.5 417.167 L
92.284 419.47 L
94.67 419.47 L
92.768 420.912 L
93.459 423.197 L
91.5 421.833 L
89.541 423.197 L
90.232 420.912 L
88.33 419.47 L
cp
f
GR
GS
[0.75 0 0 0.75 0 0] CT
0.929 0.694 0.125 RC
10.0 ML
2 LW
N
88.33 419.47 M
90.716 419.47 L
91.5 417.167 L
92.284 419.47 L
94.67 419.47 L
92.768 420.912 L
93.459 423.197 L
91.5 421.833 L
89.541 423.197 L
90.232 420.912 L
cp
S
GR
GS
[0.75 0 0 0.75 0 0] CT
1 GC
N
160.33 278.47 M
162.716 278.47 L
163.5 276.167 L
164.284 278.47 L
166.67 278.47 L
164.768 279.912 L
165.459 282.197 L
163.5 280.833 L
161.541 282.197 L
162.232 279.912 L
160.33 278.47 L
cp
f
GR
GS
[0.75 0 0 0.75 0 0] CT
0.929 0.694 0.125 RC
10.0 ML
2 LW
N
160.33 278.47 M
162.716 278.47 L
163.5 276.167 L
164.284 278.47 L
166.67 278.47 L
164.768 279.912 L
165.459 282.197 L
163.5 280.833 L
161.541 282.197 L
162.232 279.912 L
cp
S
GR
GS
[0.75 0 0 0.75 0 0] CT
1 GC
N
233.33 187.47 M
235.716 187.47 L
236.5 185.167 L
237.284 187.47 L
239.67 187.47 L
237.768 188.912 L
238.459 191.197 L
236.5 189.833 L
234.541 191.197 L
235.232 188.912 L
233.33 187.47 L
cp
f
GR
GS
[0.75 0 0 0.75 0 0] CT
0.929 0.694 0.125 RC
10.0 ML
2 LW
N
233.33 187.47 M
235.716 187.47 L
236.5 185.167 L
237.284 187.47 L
239.67 187.47 L
237.768 188.912 L
238.459 191.197 L
236.5 189.833 L
234.541 191.197 L
235.232 188.912 L
cp
S
GR
GS
[0.75 0 0 0.75 0 0] CT
1 GC
N
305.33 141.47 M
307.716 141.47 L
308.5 139.167 L
309.284 141.47 L
311.67 141.47 L
309.768 142.912 L
310.459 145.197 L
308.5 143.833 L
306.541 145.197 L
307.232 142.912 L
305.33 141.47 L
cp
f
GR
GS
[0.75 0 0 0.75 0 0] CT
0.929 0.694 0.125 RC
10.0 ML
2 LW
N
305.33 141.47 M
307.716 141.47 L
308.5 139.167 L
309.284 141.47 L
311.67 141.47 L
309.768 142.912 L
310.459 145.197 L
308.5 143.833 L
306.541 145.197 L
307.232 142.912 L
cp
S
GR
GS
[0.75 0 0 0.75 0 0] CT
1 GC
N
378.33 112.47 M
380.716 112.47 L
381.5 110.167 L
382.284 112.47 L
384.67 112.47 L
382.768 113.912 L
383.459 116.197 L
381.5 114.833 L
379.541 116.197 L
380.232 113.912 L
378.33 112.47 L
cp
f
GR
GS
[0.75 0 0 0.75 0 0] CT
0.929 0.694 0.125 RC
10.0 ML
2 LW
N
378.33 112.47 M
380.716 112.47 L
381.5 110.167 L
382.284 112.47 L
384.67 112.47 L
382.768 113.912 L
383.459 116.197 L
381.5 114.833 L
379.541 116.197 L
380.232 113.912 L
cp
S
GR
GS
[0.75 0 0 0.75 0 0] CT
1 GC
N
451.33 93.47 M
453.716 93.47 L
454.5 91.167 L
455.284 93.47 L
457.67 93.47 L
455.768 94.912 L
456.459 97.197 L
454.5 95.833 L
452.541 97.197 L
453.232 94.912 L
451.33 93.47 L
cp
f
GR
GS
[0.75 0 0 0.75 0 0] CT
0.929 0.694 0.125 RC
10.0 ML
2 LW
N
451.33 93.47 M
453.716 93.47 L
454.5 91.167 L
455.284 93.47 L
457.67 93.47 L
455.768 94.912 L
456.459 97.197 L
454.5 95.833 L
452.541 97.197 L
453.232 94.912 L
cp
S
GR
GS
[0.75 0 0 0.75 0 0] CT
1 GC
N
524.33 80.47 M
526.716 80.47 L
527.5 78.167 L
528.284 80.47 L
530.67 80.47 L
528.768 81.912 L
529.459 84.197 L
527.5 82.833 L
525.541 84.197 L
526.232 81.912 L
524.33 80.47 L
cp
f
GR
GS
[0.75 0 0 0.75 0 0] CT
0.929 0.694 0.125 RC
10.0 ML
2 LW
N
524.33 80.47 M
526.716 80.47 L
527.5 78.167 L
528.284 80.47 L
530.67 80.47 L
528.768 81.912 L
529.459 84.197 L
527.5 82.833 L
525.541 84.197 L
526.232 81.912 L
cp
S
GR
GS
[0.75 0 0 0.75 0 0] CT
1 GC
N
596.33 69.47 M
598.716 69.47 L
599.5 67.167 L
600.284 69.47 L
602.67 69.47 L
600.768 70.912 L
601.459 73.197 L
599.5 71.833 L
597.541 73.197 L
598.232 70.912 L
596.33 69.47 L
cp
f
GR
GS
[0.75 0 0 0.75 0 0] CT
0.929 0.694 0.125 RC
10.0 ML
2 LW
N
596.33 69.47 M
598.716 69.47 L
599.5 67.167 L
600.284 69.47 L
602.67 69.47 L
600.768 70.912 L
601.459 73.197 L
599.5 71.833 L
597.541 73.197 L
598.232 70.912 L
cp
S
GR
GS
[0.75 0 0 0.75 0 0] CT
1 GC
N
669.33 61.47 M
671.716 61.47 L
672.5 59.167 L
673.284 61.47 L
675.67 61.47 L
673.768 62.912 L
674.459 65.197 L
672.5 63.833 L
670.541 65.197 L
671.232 62.912 L
669.33 61.47 L
cp
f
GR
GS
[0.75 0 0 0.75 0 0] CT
0.929 0.694 0.125 RC
10.0 ML
2 LW
N
669.33 61.47 M
671.716 61.47 L
672.5 59.167 L
673.284 61.47 L
675.67 61.47 L
673.768 62.912 L
674.459 65.197 L
672.5 63.833 L
670.541 65.197 L
671.232 62.912 L
cp
S
GR
GS
[0.75 0 0 0.75 0 0] CT
1 GC
N
742.33 55.47 M
744.716 55.47 L
745.5 53.167 L
746.284 55.47 L
748.67 55.47 L
746.768 56.912 L
747.459 59.197 L
745.5 57.833 L
743.541 59.197 L
744.232 56.912 L
742.33 55.47 L
cp
f
GR
GS
[0.75 0 0 0.75 0 0] CT
0.929 0.694 0.125 RC
10.0 ML
2 LW
N
742.33 55.47 M
744.716 55.47 L
745.5 53.167 L
746.284 55.47 L
748.67 55.47 L
746.768 56.912 L
747.459 59.197 L
745.5 57.833 L
743.541 59.197 L
744.232 56.912 L
cp
S
GR
GS
[0.75 0 0 0.75 0 0] CT
0 1 1 RC
1 LJ
2 LW
N
91 421 M
163.667 294.741 L
236.333 204.956 L
309 158.521 L
381.667 129.958 L
454.333 110.341 L
527 95.865 L
599.667 84.894 L
672.333 76.076 L
745 68.988 L
S
GR
GS
[0.75 0 0 0.75 0 0] CT
1 GC
N
91.5 424.943 M
94.833 420.5 L
91.5 416.057 L
88.167 420.5 L
cp
f
GR
GS
[0.75 0 0 0.75 0 0] CT
0 1 1 RC
10.0 ML
2 LW
N
91.5 424.943 M
94.833 420.5 L
91.5 416.057 L
88.167 420.5 L
cp
S
GR
GS
[0.75 0 0 0.75 0 0] CT
1 GC
N
163.5 298.943 M
166.833 294.5 L
163.5 290.057 L
160.167 294.5 L
cp
f
GR
GS
[0.75 0 0 0.75 0 0] CT
0 1 1 RC
10.0 ML
2 LW
N
163.5 298.943 M
166.833 294.5 L
163.5 290.057 L
160.167 294.5 L
cp
S
GR
GS
[0.75 0 0 0.75 0 0] CT
1 GC
N
236.5 208.943 M
239.833 204.5 L
236.5 200.057 L
233.167 204.5 L
cp
f
GR
GS
[0.75 0 0 0.75 0 0] CT
0 1 1 RC
10.0 ML
2 LW
N
236.5 208.943 M
239.833 204.5 L
236.5 200.057 L
233.167 204.5 L
cp
S
GR
GS
[0.75 0 0 0.75 0 0] CT
1 GC
N
308.5 162.943 M
311.833 158.5 L
308.5 154.057 L
305.167 158.5 L
cp
f
GR
GS
[0.75 0 0 0.75 0 0] CT
0 1 1 RC
10.0 ML
2 LW
N
308.5 162.943 M
311.833 158.5 L
308.5 154.057 L
305.167 158.5 L
cp
S
GR
GS
[0.75 0 0 0.75 0 0] CT
1 GC
N
381.5 133.943 M
384.833 129.5 L
381.5 125.057 L
378.167 129.5 L
cp
f
GR
GS
[0.75 0 0 0.75 0 0] CT
0 1 1 RC
10.0 ML
2 LW
N
381.5 133.943 M
384.833 129.5 L
381.5 125.057 L
378.167 129.5 L
cp
S
GR
GS
[0.75 0 0 0.75 0 0] CT
1 GC
N
454.5 114.943 M
457.833 110.5 L
454.5 106.057 L
451.167 110.5 L
cp
f
GR
GS
[0.75 0 0 0.75 0 0] CT
0 1 1 RC
10.0 ML
2 LW
N
454.5 114.943 M
457.833 110.5 L
454.5 106.057 L
451.167 110.5 L
cp
S
GR
GS
[0.75 0 0 0.75 0 0] CT
1 GC
N
527.5 99.943 M
530.833 95.5 L
527.5 91.057 L
524.167 95.5 L
cp
f
GR
GS
[0.75 0 0 0.75 0 0] CT
0 1 1 RC
10.0 ML
2 LW
N
527.5 99.943 M
530.833 95.5 L
527.5 91.057 L
524.167 95.5 L
cp
S
GR
GS
[0.75 0 0 0.75 0 0] CT
1 GC
N
599.5 88.943 M
602.833 84.5 L
599.5 80.057 L
596.167 84.5 L
cp
f
GR
GS
[0.75 0 0 0.75 0 0] CT
0 1 1 RC
10.0 ML
2 LW
N
599.5 88.943 M
602.833 84.5 L
599.5 80.057 L
596.167 84.5 L
cp
S
GR
GS
[0.75 0 0 0.75 0 0] CT
1 GC
N
672.5 80.943 M
675.833 76.5 L
672.5 72.057 L
669.167 76.5 L
cp
f
GR
GS
[0.75 0 0 0.75 0 0] CT
0 1 1 RC
10.0 ML
2 LW
N
672.5 80.943 M
675.833 76.5 L
672.5 72.057 L
669.167 76.5 L
cp
S
GR
GS
[0.75 0 0 0.75 0 0] CT
1 GC
N
745.5 72.943 M
748.833 68.5 L
745.5 64.057 L
742.167 68.5 L
cp
f
GR
GS
[0.75 0 0 0.75 0 0] CT
0 1 1 RC
10.0 ML
2 LW
N
745.5 72.943 M
748.833 68.5 L
745.5 64.057 L
742.167 68.5 L
cp
S
GR
GS
[0.75 0 0 0.75 0 0] CT
0 1 0 RC
1 LJ
2 LW
N
91 421 M
163.667 308.2 L
236.333 216.222 L
309 167.088 L
381.667 136.578 L
454.333 115.644 L
527 100.103 L
599.667 88.353 L
672.333 79.17 L
745 71.656 L
S
GR
GS
[0.75 0 0 0.75 0 0] CT
1 GC
N
88.9 423.1 M
88.9 417.9 L
94.1 417.9 L
94.1 423.1 L
cp
f
GR
GS
[0.75 0 0 0.75 0 0] CT
0 1 0 RC
10.0 ML
2 LW
N
88.9 423.1 M
88.9 417.9 L
94.1 417.9 L
94.1 423.1 L
cp
S
GR
GS
[0.75 0 0 0.75 0 0] CT
1 GC
N
160.9 311.1 M
160.9 305.9 L
166.1 305.9 L
166.1 311.1 L
cp
f
GR
GS
[0.75 0 0 0.75 0 0] CT
0 1 0 RC
10.0 ML
2 LW
N
160.9 311.1 M
160.9 305.9 L
166.1 305.9 L
166.1 311.1 L
cp
S
GR
GS
[0.75 0 0 0.75 0 0] CT
1 GC
N
233.9 219.1 M
233.9 213.9 L
239.1 213.9 L
239.1 219.1 L
cp
f
GR
GS
[0.75 0 0 0.75 0 0] CT
0 1 0 RC
10.0 ML
2 LW
N
233.9 219.1 M
233.9 213.9 L
239.1 213.9 L
239.1 219.1 L
cp
S
GR
GS
[0.75 0 0 0.75 0 0] CT
1 GC
N
305.9 170.1 M
305.9 164.9 L
311.1 164.9 L
311.1 170.1 L
cp
f
GR
GS
[0.75 0 0 0.75 0 0] CT
0 1 0 RC
10.0 ML
2 LW
N
305.9 170.1 M
305.9 164.9 L
311.1 164.9 L
311.1 170.1 L
cp
S
GR
GS
[0.75 0 0 0.75 0 0] CT
1 GC
N
378.9 139.1 M
378.9 133.9 L
384.1 133.9 L
384.1 139.1 L
cp
f
GR
GS
[0.75 0 0 0.75 0 0] CT
0 1 0 RC
10.0 ML
2 LW
N
378.9 139.1 M
378.9 133.9 L
384.1 133.9 L
384.1 139.1 L
cp
S
GR
GS
[0.75 0 0 0.75 0 0] CT
1 GC
N
451.9 118.1 M
451.9 112.9 L
457.1 112.9 L
457.1 118.1 L
cp
f
GR
GS
[0.75 0 0 0.75 0 0] CT
0 1 0 RC
10.0 ML
2 LW
N
451.9 118.1 M
451.9 112.9 L
457.1 112.9 L
457.1 118.1 L
cp
S
GR
GS
[0.75 0 0 0.75 0 0] CT
1 GC
N
524.9 103.1 M
524.9 97.9 L
530.1 97.9 L
530.1 103.1 L
cp
f
GR
GS
[0.75 0 0 0.75 0 0] CT
0 1 0 RC
10.0 ML
2 LW
N
524.9 103.1 M
524.9 97.9 L
530.1 97.9 L
530.1 103.1 L
cp
S
GR
GS
[0.75 0 0 0.75 0 0] CT
1 GC
N
596.9 91.1 M
596.9 85.9 L
602.1 85.9 L
602.1 91.1 L
cp
f
GR
GS
[0.75 0 0 0.75 0 0] CT
0 1 0 RC
10.0 ML
2 LW
N
596.9 91.1 M
596.9 85.9 L
602.1 85.9 L
602.1 91.1 L
cp
S
GR
GS
[0.75 0 0 0.75 0 0] CT
1 GC
N
669.9 82.1 M
669.9 76.9 L
675.1 76.9 L
675.1 82.1 L
cp
f
GR
GS
[0.75 0 0 0.75 0 0] CT
0 1 0 RC
10.0 ML
2 LW
N
669.9 82.1 M
669.9 76.9 L
675.1 76.9 L
675.1 82.1 L
cp
S
GR
GS
[0.75 0 0 0.75 0 0] CT
1 GC
N
742.9 74.1 M
742.9 68.9 L
748.1 68.9 L
748.1 74.1 L
cp
f
GR
GS
[0.75 0 0 0.75 0 0] CT
0 1 0 RC
10.0 ML
2 LW
N
742.9 74.1 M
742.9 68.9 L
748.1 68.9 L
748.1 74.1 L
cp
S
GR
GS
[0.75 0 0 0.75 0 0] CT
0 0 1 RC
1 LJ
2 LW
N
91 421 M
163.667 281.389 L
236.333 190.5 L
309 144.327 L
381.667 116.476 L
454.333 97.853 L
527 84.294 L
599.667 73.85 L
672.333 65.749 L
745 59.203 L
S
GR
GS
[0.75 0 0 0.75 0 0] CT
1 GC
N
87.057 420.5 M
93.722 416.652 L
93.722 424.348 L
cp
f
GR
GS
[0.75 0 0 0.75 0 0] CT
0 0 1 RC
10.0 ML
2 LW
N
87.057 420.5 M
93.722 416.652 L
93.722 424.348 L
cp
S
GR
GS
[0.75 0 0 0.75 0 0] CT
1 GC
N
159.057 281.5 M
165.722 277.652 L
165.722 285.348 L
cp
f
GR
GS
[0.75 0 0 0.75 0 0] CT
0 0 1 RC
10.0 ML
2 LW
N
159.057 281.5 M
165.722 277.652 L
165.722 285.348 L
cp
S
GR
GS
[0.75 0 0 0.75 0 0] CT
1 GC
N
232.057 190.5 M
238.722 186.652 L
238.722 194.348 L
cp
f
GR
GS
[0.75 0 0 0.75 0 0] CT
0 0 1 RC
10.0 ML
2 LW
N
232.057 190.5 M
238.722 186.652 L
238.722 194.348 L
cp
S
GR
GS
[0.75 0 0 0.75 0 0] CT
1 GC
N
304.057 144.5 M
310.722 140.652 L
310.722 148.348 L
cp
f
GR
GS
[0.75 0 0 0.75 0 0] CT
0 0 1 RC
10.0 ML
2 LW
N
304.057 144.5 M
310.722 140.652 L
310.722 148.348 L
cp
S
GR
GS
[0.75 0 0 0.75 0 0] CT
1 GC
N
377.057 116.5 M
383.722 112.652 L
383.722 120.348 L
cp
f
GR
GS
[0.75 0 0 0.75 0 0] CT
0 0 1 RC
10.0 ML
2 LW
N
377.057 116.5 M
383.722 112.652 L
383.722 120.348 L
cp
S
GR
GS
[0.75 0 0 0.75 0 0] CT
1 GC
N
450.057 97.5 M
456.722 93.652 L
456.722 101.348 L
cp
f
GR
GS
[0.75 0 0 0.75 0 0] CT
0 0 1 RC
10.0 ML
2 LW
N
450.057 97.5 M
456.722 93.652 L
456.722 101.348 L
cp
S
GR
GS
[0.75 0 0 0.75 0 0] CT
1 GC
N
523.057 84.5 M
529.722 80.652 L
529.722 88.348 L
cp
f
GR
GS
[0.75 0 0 0.75 0 0] CT
0 0 1 RC
10.0 ML
2 LW
N
523.057 84.5 M
529.722 80.652 L
529.722 88.348 L
cp
S
GR
GS
[0.75 0 0 0.75 0 0] CT
1 GC
N
595.057 73.5 M
601.722 69.652 L
601.722 77.348 L
cp
f
GR
GS
[0.75 0 0 0.75 0 0] CT
0 0 1 RC
10.0 ML
2 LW
N
595.057 73.5 M
601.722 69.652 L
601.722 77.348 L
cp
S
GR
GS
[0.75 0 0 0.75 0 0] CT
1 GC
N
668.057 65.5 M
674.722 61.652 L
674.722 69.348 L
cp
f
GR
GS
[0.75 0 0 0.75 0 0] CT
0 0 1 RC
10.0 ML
2 LW
N
668.057 65.5 M
674.722 61.652 L
674.722 69.348 L
cp
S
GR
GS
[0.75 0 0 0.75 0 0] CT
1 GC
N
741.057 59.5 M
747.722 55.652 L
747.722 63.348 L
cp
f
GR
GS
[0.75 0 0 0.75 0 0] CT
0 0 1 RC
10.0 ML
2 LW
N
741.057 59.5 M
747.722 55.652 L
747.722 63.348 L
cp
S
GR
GS
[0.75 0 0 0.75 0 0] CT
1 0 1 RC
1 LJ
2 LW
N
91 421 M
163.667 321.075 L
236.333 231.114 L
309 179.923 L
381.667 147.93 L
454.333 125.695 L
527 109.374 L
599.667 96.98 L
672.333 87.017 L
745 78.987 L
S
GR
GS
[0.75 0 0 0.75 0 0] CT
1 0 1 RC
1 LJ
2 LW
N
88 420.5 M
95 420.5 L
S
GR
GS
[0.75 0 0 0.75 0 0] CT
1 0 1 RC
1 LJ
2 LW
N
91.5 424 M
91.5 417 L
S
GR
GS
[0.75 0 0 0.75 0 0] CT
1 0 1 RC
1 LJ
2 LW
N
160 321.5 M
167 321.5 L
S
GR
GS
[0.75 0 0 0.75 0 0] CT
1 0 1 RC
1 LJ
2 LW
N
163.5 325 M
163.5 318 L
S
GR
GS
[0.75 0 0 0.75 0 0] CT
1 0 1 RC
1 LJ
2 LW
N
233 231.5 M
240 231.5 L
S
GR
GS
[0.75 0 0 0.75 0 0] CT
1 0 1 RC
1 LJ
2 LW
N
236.5 235 M
236.5 228 L
S
GR
GS
[0.75 0 0 0.75 0 0] CT
1 0 1 RC
1 LJ
2 LW
N
305 179.5 M
312 179.5 L
S
GR
GS
[0.75 0 0 0.75 0 0] CT
1 0 1 RC
1 LJ
2 LW
N
308.5 183 M
308.5 176 L
S
GR
GS
[0.75 0 0 0.75 0 0] CT
1 0 1 RC
1 LJ
2 LW
N
378 147.5 M
385 147.5 L
S
GR
GS
[0.75 0 0 0.75 0 0] CT
1 0 1 RC
1 LJ
2 LW
N
381.5 151 M
381.5 144 L
S
GR
GS
[0.75 0 0 0.75 0 0] CT
1 0 1 RC
1 LJ
2 LW
N
451 125.5 M
458 125.5 L
S
GR
GS
[0.75 0 0 0.75 0 0] CT
1 0 1 RC
1 LJ
2 LW
N
454.5 129 M
454.5 122 L
S
GR
GS
[0.75 0 0 0.75 0 0] CT
1 0 1 RC
1 LJ
2 LW
N
524 109.5 M
531 109.5 L
S
GR
GS
[0.75 0 0 0.75 0 0] CT
1 0 1 RC
1 LJ
2 LW
N
527.5 113 M
527.5 106 L
S
GR
GS
[0.75 0 0 0.75 0 0] CT
1 0 1 RC
1 LJ
2 LW
N
596 96.5 M
603 96.5 L
S
GR
GS
[0.75 0 0 0.75 0 0] CT
1 0 1 RC
1 LJ
2 LW
N
599.5 100 M
599.5 93 L
S
GR
GS
[0.75 0 0 0.75 0 0] CT
1 0 1 RC
1 LJ
2 LW
N
669 87.5 M
676 87.5 L
S
GR
GS
[0.75 0 0 0.75 0 0] CT
1 0 1 RC
1 LJ
2 LW
N
672.5 91 M
672.5 84 L
S
GR
GS
[0.75 0 0 0.75 0 0] CT
1 0 1 RC
1 LJ
2 LW
N
742 78.5 M
749 78.5 L
S
GR
GS
[0.75 0 0 0.75 0 0] CT
1 0 1 RC
1 LJ
2 LW
N
745.5 82 M
745.5 75 L
S
GR
GS
[0.75 0 0 0.75 0 0] CT
1 0 0 RC
1 LJ
2 LW
N
91 421 M
163.667 356.648 L
236.333 264.253 L
309 208.539 L
381.667 171.574 L
454.333 145.615 L
527 126.609 L
599.667 112.279 L
672.333 100.629 L
745 91.129 L
S
GR
GS
[0.75 0 0 0.75 0 0] CT
1 GC
N
88.9 423.1 M
88.9 417.9 L
94.1 417.9 L
94.1 423.1 L
cp
f
GR
GS
[0.75 0 0 0.75 0 0] CT
1 0 0 RC
10.0 ML
2 LW
N
88.9 423.1 M
88.9 417.9 L
94.1 417.9 L
94.1 423.1 L
cp
S
GR
GS
[0.75 0 0 0.75 0 0] CT
1 GC
N
160.9 359.1 M
160.9 353.9 L
166.1 353.9 L
166.1 359.1 L
cp
f
GR
GS
[0.75 0 0 0.75 0 0] CT
1 0 0 RC
10.0 ML
2 LW
N
160.9 359.1 M
160.9 353.9 L
166.1 353.9 L
166.1 359.1 L
cp
S
GR
GS
[0.75 0 0 0.75 0 0] CT
1 GC
N
233.9 267.1 M
233.9 261.9 L
239.1 261.9 L
239.1 267.1 L
cp
f
GR
GS
[0.75 0 0 0.75 0 0] CT
1 0 0 RC
10.0 ML
2 LW
N
233.9 267.1 M
233.9 261.9 L
239.1 261.9 L
239.1 267.1 L
cp
S
GR
GS
[0.75 0 0 0.75 0 0] CT
1 GC
N
305.9 211.1 M
305.9 205.9 L
311.1 205.9 L
311.1 211.1 L
cp
f
GR
GS
[0.75 0 0 0.75 0 0] CT
1 0 0 RC
10.0 ML
2 LW
N
305.9 211.1 M
305.9 205.9 L
311.1 205.9 L
311.1 211.1 L
cp
S
GR
GS
[0.75 0 0 0.75 0 0] CT
1 GC
N
378.9 174.1 M
378.9 168.9 L
384.1 168.9 L
384.1 174.1 L
cp
f
GR
GS
[0.75 0 0 0.75 0 0] CT
1 0 0 RC
10.0 ML
2 LW
N
378.9 174.1 M
378.9 168.9 L
384.1 168.9 L
384.1 174.1 L
cp
S
GR
GS
[0.75 0 0 0.75 0 0] CT
1 GC
N
451.9 148.1 M
451.9 142.9 L
457.1 142.9 L
457.1 148.1 L
cp
f
GR
GS
[0.75 0 0 0.75 0 0] CT
1 0 0 RC
10.0 ML
2 LW
N
451.9 148.1 M
451.9 142.9 L
457.1 142.9 L
457.1 148.1 L
cp
S
GR
GS
[0.75 0 0 0.75 0 0] CT
1 GC
N
524.9 129.1 M
524.9 123.9 L
530.1 123.9 L
530.1 129.1 L
cp
f
GR
GS
[0.75 0 0 0.75 0 0] CT
1 0 0 RC
10.0 ML
2 LW
N
524.9 129.1 M
524.9 123.9 L
530.1 123.9 L
530.1 129.1 L
cp
S
GR
GS
[0.75 0 0 0.75 0 0] CT
1 GC
N
596.9 115.1 M
596.9 109.9 L
602.1 109.9 L
602.1 115.1 L
cp
f
GR
GS
[0.75 0 0 0.75 0 0] CT
1 0 0 RC
10.0 ML
2 LW
N
596.9 115.1 M
596.9 109.9 L
602.1 109.9 L
602.1 115.1 L
cp
S
GR
GS
[0.75 0 0 0.75 0 0] CT
1 GC
N
669.9 103.1 M
669.9 97.9 L
675.1 97.9 L
675.1 103.1 L
cp
f
GR
GS
[0.75 0 0 0.75 0 0] CT
1 0 0 RC
10.0 ML
2 LW
N
669.9 103.1 M
669.9 97.9 L
675.1 97.9 L
675.1 103.1 L
cp
S
GR
GS
[0.75 0 0 0.75 0 0] CT
1 GC
N
742.9 94.1 M
742.9 88.9 L
748.1 88.9 L
748.1 94.1 L
cp
f
GR
GS
[0.75 0 0 0.75 0 0] CT
1 0 0 RC
10.0 ML
2 LW
N
742.9 94.1 M
742.9 88.9 L
748.1 88.9 L
748.1 94.1 L
cp
S
GR
GS
[0.75 0 0 0.75 0 0] CT
1 LJ
2 LW
N
91 421 M
163.667 390.463 L
236.333 306.563 L
309 246.674 L
381.667 204.818 L
454.333 175.389 L
527 153.593 L
599.667 136.614 L
672.333 122.991 L
745 111.8 L
S
GR
GS
[0.75 0 0 0.75 0 0] CT
1 GC
N
94.833 420.5 M
93.857 418.143 L
91.5 417.167 L
89.143 418.143 L
88.167 420.5 L
89.143 422.857 L
91.5 423.833 L
93.857 422.857 L
94.833 420.5 L
cp
f
GR
GS
[0.75 0 0 0.75 0 0] CT
1 LJ
2 LW
N
94.833 420.5 M
94.197 418.541 L
92.53 417.33 L
90.47 417.33 L
88.803 418.541 L
88.167 420.5 L
88.803 422.459 L
90.47 423.67 L
92.53 423.67 L
94.197 422.459 L
cp
S
GR
GS
[0.75 0 0 0.75 0 0] CT
1 GC
N
166.833 390.5 M
165.857 388.143 L
163.5 387.167 L
161.143 388.143 L
160.167 390.5 L
161.143 392.857 L
163.5 393.833 L
165.857 392.857 L
166.833 390.5 L
cp
f
GR
GS
[0.75 0 0 0.75 0 0] CT
1 LJ
2 LW
N
166.833 390.5 M
166.197 388.541 L
164.53 387.33 L
162.47 387.33 L
160.803 388.541 L
160.167 390.5 L
160.803 392.459 L
162.47 393.67 L
164.53 393.67 L
166.197 392.459 L
cp
S
GR
GS
[0.75 0 0 0.75 0 0] CT
1 GC
N
239.833 306.5 M
238.857 304.143 L
236.5 303.167 L
234.143 304.143 L
233.167 306.5 L
234.143 308.857 L
236.5 309.833 L
238.857 308.857 L
239.833 306.5 L
cp
f
GR
GS
[0.75 0 0 0.75 0 0] CT
1 LJ
2 LW
N
239.833 306.5 M
239.197 304.541 L
237.53 303.33 L
235.47 303.33 L
233.803 304.541 L
233.167 306.5 L
233.803 308.459 L
235.47 309.67 L
237.53 309.67 L
239.197 308.459 L
cp
S
GR
GS
[0.75 0 0 0.75 0 0] CT
1 GC
N
311.833 246.5 M
310.857 244.143 L
308.5 243.167 L
306.143 244.143 L
305.167 246.5 L
306.143 248.857 L
308.5 249.833 L
310.857 248.857 L
311.833 246.5 L
cp
f
GR
GS
[0.75 0 0 0.75 0 0] CT
1 LJ
2 LW
N
311.833 246.5 M
311.197 244.541 L
309.53 243.33 L
307.47 243.33 L
305.803 244.541 L
305.167 246.5 L
305.803 248.459 L
307.47 249.67 L
309.53 249.67 L
311.197 248.459 L
cp
S
GR
GS
[0.75 0 0 0.75 0 0] CT
1 GC
N
384.833 204.5 M
383.857 202.143 L
381.5 201.167 L
379.143 202.143 L
378.167 204.5 L
379.143 206.857 L
381.5 207.833 L
383.857 206.857 L
384.833 204.5 L
cp
f
GR
GS
[0.75 0 0 0.75 0 0] CT
1 LJ
2 LW
N
384.833 204.5 M
384.197 202.541 L
382.53 201.33 L
380.47 201.33 L
378.803 202.541 L
378.167 204.5 L
378.803 206.459 L
380.47 207.67 L
382.53 207.67 L
384.197 206.459 L
cp
S
GR
GS
[0.75 0 0 0.75 0 0] CT
1 GC
N
457.833 175.5 M
456.857 173.143 L
454.5 172.167 L
452.143 173.143 L
451.167 175.5 L
452.143 177.857 L
454.5 178.833 L
456.857 177.857 L
457.833 175.5 L
cp
f
GR
GS
[0.75 0 0 0.75 0 0] CT
1 LJ
2 LW
N
457.833 175.5 M
457.197 173.541 L
455.53 172.33 L
453.47 172.33 L
451.803 173.541 L
451.167 175.5 L
451.803 177.459 L
453.47 178.67 L
455.53 178.67 L
457.197 177.459 L
cp
S
GR
GS
[0.75 0 0 0.75 0 0] CT
1 GC
N
530.833 153.5 M
529.857 151.143 L
527.5 150.167 L
525.143 151.143 L
524.167 153.5 L
525.143 155.857 L
527.5 156.833 L
529.857 155.857 L
530.833 153.5 L
cp
f
GR
GS
[0.75 0 0 0.75 0 0] CT
1 LJ
2 LW
N
530.833 153.5 M
530.197 151.541 L
528.53 150.33 L
526.47 150.33 L
524.803 151.541 L
524.167 153.5 L
524.803 155.459 L
526.47 156.67 L
528.53 156.67 L
530.197 155.459 L
cp
S
GR
GS
[0.75 0 0 0.75 0 0] CT
1 GC
N
602.833 136.5 M
601.857 134.143 L
599.5 133.167 L
597.143 134.143 L
596.167 136.5 L
597.143 138.857 L
599.5 139.833 L
601.857 138.857 L
602.833 136.5 L
cp
f
GR
GS
[0.75 0 0 0.75 0 0] CT
1 LJ
2 LW
N
602.833 136.5 M
602.197 134.541 L
600.53 133.33 L
598.47 133.33 L
596.803 134.541 L
596.167 136.5 L
596.803 138.459 L
598.47 139.67 L
600.53 139.67 L
602.197 138.459 L
cp
S
GR
GS
[0.75 0 0 0.75 0 0] CT
1 GC
N
675.833 122.5 M
674.857 120.143 L
672.5 119.167 L
670.143 120.143 L
669.167 122.5 L
670.143 124.857 L
672.5 125.833 L
674.857 124.857 L
675.833 122.5 L
cp
f
GR
GS
[0.75 0 0 0.75 0 0] CT
1 LJ
2 LW
N
675.833 122.5 M
675.197 120.541 L
673.53 119.33 L
671.47 119.33 L
669.803 120.541 L
669.167 122.5 L
669.803 124.459 L
671.47 125.67 L
673.53 125.67 L
675.197 124.459 L
cp
S
GR
GS
[0.75 0 0 0.75 0 0] CT
1 GC
N
748.833 111.5 M
747.857 109.143 L
745.5 108.167 L
743.143 109.143 L
742.167 111.5 L
743.143 113.857 L
745.5 114.833 L
747.857 113.857 L
748.833 111.5 L
cp
f
GR
GS
[0.75 0 0 0.75 0 0] CT
1 LJ
2 LW
N
748.833 111.5 M
748.197 109.541 L
746.53 108.33 L
744.47 108.33 L
742.803 109.541 L
742.167 111.5 L
742.803 113.459 L
744.47 114.67 L
746.53 114.67 L
748.197 113.459 L
cp
S
GR
GS
[0.75 0 0 0.75 0 0] CT
1 GC
N
626 408 M
626 139 L
732 139 L
732 408 L
cp
f
GR
GS
[0.75 0 0 0.75 497.25 116.625] CT
/Times 24 F
GS
[1 0 0 1 0 0] CT
0 8.5 moveto 
1 -1 scale
(LBP) t 
GR
GR
GS
[0.75 0 0 0.75 0 0] CT
1 0.6 0.784 RC
1 LJ
2 LW
N
630 155.5 M
660 155.5 L
S
GR
GS
[0.75 0 0 0.75 0 0] CT
1 GC
N
643.278 151.652 M
649.943 155.5 L
643.278 159.348 L
cp
f
GR
GS
[0.75 0 0 0.75 0 0] CT
1 0.6 0.784 RC
10.0 ML
2 LW
N
643.278 151.652 M
649.943 155.5 L
643.278 159.348 L
cp
S
GR
GS
[0.75 0 0 0.75 497.25 138.75] CT
/Times 24 F
GS
[1 0 0 1 0 0] CT
0 8.5 moveto 
1 -1 scale
(LTP) t 
GR
GR
GS
[0.75 0 0 0.75 0 0] CT
0.6 0.2 0 RC
1 LJ
2 LW
N
630 185 M
660 185 L
S
GR
GS
[0.75 0 0 0.75 0 0] CT
1 GC
N
641.057 184.5 M
647.722 180.652 L
647.722 188.348 L
cp
f
GR
GS
[0.75 0 0 0.75 0 0] CT
0.6 0.2 0 RC
10.0 ML
2 LW
N
641.057 184.5 M
647.722 180.652 L
647.722 188.348 L
cp
S
GR
GS
[0.75 0 0 0.75 497.25 160.875] CT
/Times 24 F
GS
[1 0 0 1 0 0] CT
0 8.5 moveto 
1 -1 scale
(LDP) t 
GR
GR
GS
[0.75 0 0 0.75 0 0] CT
0.929 0.694 0.125 RC
1 LJ
2 LW
N
630 214.5 M
660 214.5 L
S
GR
GS
[0.75 0 0 0.75 0 0] CT
1 GC
N
642.33 213.47 M
644.716 213.47 L
645.5 211.167 L
646.284 213.47 L
648.67 213.47 L
646.768 214.912 L
647.459 217.197 L
645.5 215.833 L
643.541 217.197 L
644.232 214.912 L
642.33 213.47 L
cp
f
GR
GS
[0.75 0 0 0.75 0 0] CT
0.929 0.694 0.125 RC
10.0 ML
2 LW
N
642.33 213.47 M
644.716 213.47 L
645.5 211.167 L
646.284 213.47 L
648.67 213.47 L
646.768 214.912 L
647.459 217.197 L
645.5 215.833 L
643.541 217.197 L
644.232 214.912 L
cp
S
GR
GS
[0.75 0 0 0.75 497.25 183] CT
/Times 24 F
GS
[1 0 0 1 0 0] CT
0 8.5 moveto 
1 -1 scale
(LDN) t 
GR
GR
GS
[0.75 0 0 0.75 0 0] CT
0 1 1 RC
1 LJ
2 LW
N
630 244 M
660 244 L
S
GR
GS
[0.75 0 0 0.75 0 0] CT
1 GC
N
645.5 247.943 M
648.833 243.5 L
645.5 239.057 L
642.167 243.5 L
cp
f
GR
GS
[0.75 0 0 0.75 0 0] CT
0 1 1 RC
10.0 ML
2 LW
N
645.5 247.943 M
648.833 243.5 L
645.5 239.057 L
642.167 243.5 L
cp
S
GR
GS
[0.75 0 0 0.75 497.25 205.125] CT
/Times 24 F
GS
[1 0 0 1 0 0] CT
0 8.5 moveto 
1 -1 scale
(LVP) t 
GR
GR
GS
[0.75 0 0 0.75 0 0] CT
0 1 0 RC
1 LJ
2 LW
N
630 273.5 M
660 273.5 L
S
GR
GS
[0.75 0 0 0.75 0 0] CT
1 GC
N
642.9 276.1 M
642.9 270.9 L
648.1 270.9 L
648.1 276.1 L
cp
f
GR
GS
[0.75 0 0 0.75 0 0] CT
0 1 0 RC
10.0 ML
2 LW
N
642.9 276.1 M
642.9 270.9 L
648.1 270.9 L
648.1 276.1 L
cp
S
GR
GS
[0.75 0 0 0.75 497.25 227.25] CT
/Times 24 F
GS
[1 0 0 1 0 0] CT
0 8.5 moveto 
1 -1 scale
(LDGP) t 
GR
GR
GS
[0.75 0 0 0.75 0 0] CT
0 0 1 RC
1 LJ
2 LW
N
630 303 M
660 303 L
S
GR
GS
[0.75 0 0 0.75 0 0] CT
1 GC
N
641.057 302.5 M
647.722 298.652 L
647.722 306.348 L
cp
f
GR
GS
[0.75 0 0 0.75 0 0] CT
0 0 1 RC
10.0 ML
2 LW
N
641.057 302.5 M
647.722 298.652 L
647.722 306.348 L
cp
S
GR
GS
[0.75 0 0 0.75 497.25 249.375] CT
/Times 24 F
GS
[1 0 0 1 0 0] CT
0 8.5 moveto 
1 -1 scale
(DCP) t 
GR
GR
GS
[0.75 0 0 0.75 0 0] CT
1 0 1 RC
1 LJ
2 LW
N
630 332.5 M
660 332.5 L
S
GR
GS
[0.75 0 0 0.75 0 0] CT
1 0 1 RC
1 LJ
2 LW
N
642 332.5 M
649 332.5 L
S
GR
GS
[0.75 0 0 0.75 0 0] CT
1 0 1 RC
1 LJ
2 LW
N
645.5 336 M
645.5 329 L
S
GR
GS
[0.75 0 0 0.75 497.25 271.5] CT
/Times 24 F
GS
[1 0 0 1 0 0] CT
0 8.5 moveto 
1 -1 scale
(LGHP) t 
GR
GR
GS
[0.75 0 0 0.75 0 0] CT
1 0 0 RC
1 LJ
2 LW
N
630 362 M
660 362 L
S
GR
GS
[0.75 0 0 0.75 0 0] CT
1 GC
N
642.9 365.1 M
642.9 359.9 L
648.1 359.9 L
648.1 365.1 L
cp
f
GR
GS
[0.75 0 0 0.75 0 0] CT
1 0 0 RC
10.0 ML
2 LW
N
642.9 365.1 M
642.9 359.9 L
648.1 359.9 L
648.1 365.1 L
cp
S
GR
GS
[0.75 0 0 0.75 497.25 293.625] CT
/Times 24 F
GS
[1 0 0 1 0 0] CT
0 8.5 moveto 
1 -1 scale
(LDRP) t 
GR
GR
GS
[0.75 0 0 0.75 0 0] CT
1 LJ
2 LW
N
630 391.5 M
660 391.5 L
S
GR
GS
[0.75 0 0 0.75 0 0] CT
1 GC
N
648.833 391.5 M
647.857 389.143 L
645.5 388.167 L
643.143 389.143 L
642.167 391.5 L
643.143 393.857 L
645.5 394.833 L
647.857 393.857 L
648.833 391.5 L
cp
f
GR
GS
[0.75 0 0 0.75 0 0] CT
1 LJ
2 LW
N
648.833 391.5 M
648.197 389.541 L
646.53 388.33 L
644.47 388.33 L
642.803 389.541 L
642.167 391.5 L
642.803 393.459 L
644.47 394.67 L
646.53 394.67 L
648.197 393.459 L
cp
S
GR
GS
[0.75 0 0 0.75 0 0] CT
0.149 GC
10.0 ML
0.667 LW
N
626 408 M
626 139 L
732 139 L
732 408 L
cp
S
GR
%%Trailer
%%Pages: 1
%%EOF
