%!PS-Adobe-3.0 EPSF-3.0
%%Creator: (MATLAB, The Mathworks, Inc. Version 9.0.0.341360 \(R2016a\). Operating System: Linux)
%%Title: (/home/shivram/main/Work/1. Research/1. Ongoing/5. LDRP Face/2. Exp/1. Results/PaSC/PaSC-ARR.eps)
%%CreationDate: 2017-08-16T15:30:51
%%Pages: (atend)
%%BoundingBox: 0 0 573 384
%%LanguageLevel: 3
%%EndComments
%%BeginProlog
%%BeginResource: procset (Apache XML Graphics Std ProcSet) 1.2 0
%%Version: 1.2 0
%%Copyright: (Copyright 2001-2003,2010 The Apache Software Foundation. License terms: http://www.apache.org/licenses/LICENSE-2.0)
/bd{bind def}bind def
/ld{load def}bd
/GR/grestore ld
/M/moveto ld
/LJ/setlinejoin ld
/C/curveto ld
/f/fill ld
/LW/setlinewidth ld
/GC/setgray ld
/t/show ld
/N/newpath ld
/CT/concat ld
/cp/closepath ld
/S/stroke ld
/L/lineto ld
/CC/setcmykcolor ld
/A/ashow ld
/GS/gsave ld
/RC/setrgbcolor ld
/RM/rmoveto ld
/ML/setmiterlimit ld
/re {4 2 roll M
1 index 0 rlineto
0 exch rlineto
neg 0 rlineto
cp } bd
/_ctm matrix def
/_tm matrix def
/BT { _ctm currentmatrix pop matrix _tm copy pop 0 0 moveto } bd
/ET { _ctm setmatrix } bd
/iTm { _ctm setmatrix _tm concat } bd
/Tm { _tm astore pop iTm 0 0 moveto } bd
/ux 0.0 def
/uy 0.0 def
/F {
  /Tp exch def
  /Tf exch def
  Tf findfont Tp scalefont setfont
  /cf Tf def  /cs Tp def
} bd
/ULS {currentpoint /uy exch def /ux exch def} bd
/ULE {
  /Tcx currentpoint pop def
  gsave
  newpath
  cf findfont cs scalefont dup
  /FontMatrix get 0 get /Ts exch def /FontInfo get dup
  /UnderlinePosition get Ts mul /To exch def
  /UnderlineThickness get Ts mul /Tt exch def
  ux uy To add moveto  Tcx uy To add lineto
  Tt setlinewidth stroke
  grestore
} bd
/OLE {
  /Tcx currentpoint pop def
  gsave
  newpath
  cf findfont cs scalefont dup
  /FontMatrix get 0 get /Ts exch def /FontInfo get dup
  /UnderlinePosition get Ts mul /To exch def
  /UnderlineThickness get Ts mul /Tt exch def
  ux uy To add cs add moveto Tcx uy To add cs add lineto
  Tt setlinewidth stroke
  grestore
} bd
/SOE {
  /Tcx currentpoint pop def
  gsave
  newpath
  cf findfont cs scalefont dup
  /FontMatrix get 0 get /Ts exch def /FontInfo get dup
  /UnderlinePosition get Ts mul /To exch def
  /UnderlineThickness get Ts mul /Tt exch def
  ux uy To add cs 10 mul 26 idiv add moveto Tcx uy To add cs 10 mul 26 idiv add lineto
  Tt setlinewidth stroke
  grestore
} bd
/QT {
/Y22 exch store
/X22 exch store
/Y21 exch store
/X21 exch store
currentpoint
/Y21 load 2 mul add 3 div exch
/X21 load 2 mul add 3 div exch
/X21 load 2 mul /X22 load add 3 div
/Y21 load 2 mul /Y22 load add 3 div
/X22 load /Y22 load curveto
} bd
/SSPD {
dup length /d exch dict def
{
/v exch def
/k exch def
currentpagedevice k known {
/cpdv currentpagedevice k get def
v cpdv ne {
/upd false def
/nullv v type /nulltype eq def
/nullcpdv cpdv type /nulltype eq def
nullv nullcpdv or
{
/upd true def
} {
/sametype v type cpdv type eq def
sametype {
v type /arraytype eq {
/vlen v length def
/cpdvlen cpdv length def
vlen cpdvlen eq {
0 1 vlen 1 sub {
/i exch def
/obj v i get def
/cpdobj cpdv i get def
obj cpdobj ne {
/upd true def
exit
} if
} for
} {
/upd true def
} ifelse
} {
v type /dicttype eq {
v {
/dv exch def
/dk exch def
/cpddv cpdv dk get def
dv cpddv ne {
/upd true def
exit
} if
} forall
} {
/upd true def
} ifelse
} ifelse
} if
} ifelse
upd true eq {
d k v put
} if
} if
} if
} forall
d length 0 gt {
d setpagedevice
} if
} bd
%%EndResource
%%BeginResource: procset (Apache XML Graphics EPS ProcSet) 1.0 0
%%Version: 1.0 0
%%Copyright: (Copyright 2002-2003 The Apache Software Foundation. License terms: http://www.apache.org/licenses/LICENSE-2.0)
/BeginEPSF { %def
/b4_Inc_state save def         % Save state for cleanup
/dict_count countdictstack def % Count objects on dict stack
/op_count count 1 sub def      % Count objects on operand stack
userdict begin                 % Push userdict on dict stack
/showpage { } def              % Redefine showpage, { } = null proc
0 setgray 0 setlinecap         % Prepare graphics state
1 setlinewidth 0 setlinejoin
10 setmiterlimit [ ] 0 setdash newpath
/languagelevel where           % If level not equal to 1 then
{pop languagelevel             % set strokeadjust and
1 ne                           % overprint to their defaults.
{false setstrokeadjust false setoverprint
} if
} if
} bd
/EndEPSF { %def
count op_count sub {pop} repeat            % Clean up stacks
countdictstack dict_count sub {end} repeat
b4_Inc_state restore
} bd
%%EndResource
%FOPBeginFontDict
%%IncludeResource: font Courier-Bold
%%IncludeResource: font Helvetica
%%IncludeResource: font Courier-BoldOblique
%%IncludeResource: font Courier-Oblique
%%IncludeResource: font Times-Roman
%%IncludeResource: font Helvetica-BoldOblique
%%IncludeResource: font Helvetica-Bold
%%IncludeResource: font Helvetica-Oblique
%%IncludeResource: font Times-BoldItalic
%%IncludeResource: font Courier
%%IncludeResource: font Times-Italic
%%IncludeResource: font Times-Bold
%%IncludeResource: font Symbol
%%IncludeResource: font ZapfDingbats
%FOPEndFontDict
%%BeginResource: encoding WinAnsiEncoding
/WinAnsiEncoding [
/.notdef /.notdef /.notdef /.notdef /.notdef
/.notdef /.notdef /.notdef /.notdef /.notdef
/.notdef /.notdef /.notdef /.notdef /.notdef
/.notdef /.notdef /.notdef /.notdef /.notdef
/.notdef /.notdef /.notdef /.notdef /.notdef
/.notdef /.notdef /.notdef /.notdef /.notdef
/.notdef /.notdef /space /exclam /quotedbl
/numbersign /dollar /percent /ampersand /quotesingle
/parenleft /parenright /asterisk /plus /comma
/hyphen /period /slash /zero /one
/two /three /four /five /six
/seven /eight /nine /colon /semicolon
/less /equal /greater /question /at
/A /B /C /D /E
/F /G /H /I /J
/K /L /M /N /O
/P /Q /R /S /T
/U /V /W /X /Y
/Z /bracketleft /backslash /bracketright /asciicircum
/underscore /quoteleft /a /b /c
/d /e /f /g /h
/i /j /k /l /m
/n /o /p /q /r
/s /t /u /v /w
/x /y /z /braceleft /bar
/braceright /asciitilde /bullet /Euro /bullet
/quotesinglbase /florin /quotedblbase /ellipsis /dagger
/daggerdbl /circumflex /perthousand /Scaron /guilsinglleft
/OE /bullet /Zcaron /bullet /bullet
/quoteleft /quoteright /quotedblleft /quotedblright /bullet
/endash /emdash /asciitilde /trademark /scaron
/guilsinglright /oe /bullet /zcaron /Ydieresis
/space /exclamdown /cent /sterling /currency
/yen /brokenbar /section /dieresis /copyright
/ordfeminine /guillemotleft /logicalnot /sfthyphen /registered
/macron /degree /plusminus /twosuperior /threesuperior
/acute /mu /paragraph /middot /cedilla
/onesuperior /ordmasculine /guillemotright /onequarter /onehalf
/threequarters /questiondown /Agrave /Aacute /Acircumflex
/Atilde /Adieresis /Aring /AE /Ccedilla
/Egrave /Eacute /Ecircumflex /Edieresis /Igrave
/Iacute /Icircumflex /Idieresis /Eth /Ntilde
/Ograve /Oacute /Ocircumflex /Otilde /Odieresis
/multiply /Oslash /Ugrave /Uacute /Ucircumflex
/Udieresis /Yacute /Thorn /germandbls /agrave
/aacute /acircumflex /atilde /adieresis /aring
/ae /ccedilla /egrave /eacute /ecircumflex
/edieresis /igrave /iacute /icircumflex /idieresis
/eth /ntilde /ograve /oacute /ocircumflex
/otilde /odieresis /divide /oslash /ugrave
/uacute /ucircumflex /udieresis /yacute /thorn
/ydieresis
] def
%%EndResource
%FOPBeginFontReencode
/Courier-Bold findfont
dup length dict begin
  {1 index /FID ne {def} {pop pop} ifelse} forall
  /Encoding WinAnsiEncoding def
  currentdict
end
/Courier-Bold exch definefont pop
/Helvetica findfont
dup length dict begin
  {1 index /FID ne {def} {pop pop} ifelse} forall
  /Encoding WinAnsiEncoding def
  currentdict
end
/Helvetica exch definefont pop
/Courier-BoldOblique findfont
dup length dict begin
  {1 index /FID ne {def} {pop pop} ifelse} forall
  /Encoding WinAnsiEncoding def
  currentdict
end
/Courier-BoldOblique exch definefont pop
/Courier-Oblique findfont
dup length dict begin
  {1 index /FID ne {def} {pop pop} ifelse} forall
  /Encoding WinAnsiEncoding def
  currentdict
end
/Courier-Oblique exch definefont pop
/Times-Roman findfont
dup length dict begin
  {1 index /FID ne {def} {pop pop} ifelse} forall
  /Encoding WinAnsiEncoding def
  currentdict
end
/Times-Roman exch definefont pop
/Helvetica-BoldOblique findfont
dup length dict begin
  {1 index /FID ne {def} {pop pop} ifelse} forall
  /Encoding WinAnsiEncoding def
  currentdict
end
/Helvetica-BoldOblique exch definefont pop
/Helvetica-Bold findfont
dup length dict begin
  {1 index /FID ne {def} {pop pop} ifelse} forall
  /Encoding WinAnsiEncoding def
  currentdict
end
/Helvetica-Bold exch definefont pop
/Helvetica-Oblique findfont
dup length dict begin
  {1 index /FID ne {def} {pop pop} ifelse} forall
  /Encoding WinAnsiEncoding def
  currentdict
end
/Helvetica-Oblique exch definefont pop
/Times-BoldItalic findfont
dup length dict begin
  {1 index /FID ne {def} {pop pop} ifelse} forall
  /Encoding WinAnsiEncoding def
  currentdict
end
/Times-BoldItalic exch definefont pop
/Courier findfont
dup length dict begin
  {1 index /FID ne {def} {pop pop} ifelse} forall
  /Encoding WinAnsiEncoding def
  currentdict
end
/Courier exch definefont pop
/Times-Italic findfont
dup length dict begin
  {1 index /FID ne {def} {pop pop} ifelse} forall
  /Encoding WinAnsiEncoding def
  currentdict
end
/Times-Italic exch definefont pop
/Times-Bold findfont
dup length dict begin
  {1 index /FID ne {def} {pop pop} ifelse} forall
  /Encoding WinAnsiEncoding def
  currentdict
end
/Times-Bold exch definefont pop
%FOPEndFontReencode
%%EndProlog
%%Page: 1 1
%%PageBoundingBox: 0 0 573 384
%%BeginPageSetup
[1 0 0 -1 0 384] CT
%%EndPageSetup
GS
[0.75 0 0 0.75 0 0] CT
1 GC
N
0 0 764 512 re
f
GR
GS
[0.75 0 0 0.75 0 0] CT
1 GC
N
0 0 764 512 re
f
GR
GS
[0.75 0 0 0.75 0 0] CT
1 GC
N
71 421 M
743 421 L
743 51 L
71 51 L
cp
f
GR
GS
[0.75 0 0 0.75 0 0] CT
0.149 GC
2 setlinecap
1 LJ
0.667 LW
N
71 421 M
743 421 L
S
GR
GS
[0.75 0 0 0.75 0 0] CT
0.149 GC
2 setlinecap
1 LJ
0.667 LW
N
71 51 M
743 51 L
S
GR
GS
[0.75 0 0 0.75 0 0] CT
0.149 GC
2 setlinecap
1 LJ
0.667 LW
N
71 421 M
71 414.28 L
S
GR
GS
[0.75 0 0 0.75 0 0] CT
0.149 GC
2 setlinecap
1 LJ
0.667 LW
N
145.667 421 M
145.667 414.28 L
S
GR
GS
[0.75 0 0 0.75 0 0] CT
0.149 GC
2 setlinecap
1 LJ
0.667 LW
N
220.333 421 M
220.333 414.28 L
S
GR
GS
[0.75 0 0 0.75 0 0] CT
0.149 GC
2 setlinecap
1 LJ
0.667 LW
N
295 421 M
295 414.28 L
S
GR
GS
[0.75 0 0 0.75 0 0] CT
0.149 GC
2 setlinecap
1 LJ
0.667 LW
N
369.667 421 M
369.667 414.28 L
S
GR
GS
[0.75 0 0 0.75 0 0] CT
0.149 GC
2 setlinecap
1 LJ
0.667 LW
N
444.333 421 M
444.333 414.28 L
S
GR
GS
[0.75 0 0 0.75 0 0] CT
0.149 GC
2 setlinecap
1 LJ
0.667 LW
N
519 421 M
519 414.28 L
S
GR
GS
[0.75 0 0 0.75 0 0] CT
0.149 GC
2 setlinecap
1 LJ
0.667 LW
N
593.667 421 M
593.667 414.28 L
S
GR
GS
[0.75 0 0 0.75 0 0] CT
0.149 GC
2 setlinecap
1 LJ
0.667 LW
N
668.333 421 M
668.333 414.28 L
S
GR
GS
[0.75 0 0 0.75 0 0] CT
0.149 GC
2 setlinecap
1 LJ
0.667 LW
N
743 421 M
743 414.28 L
S
GR
GS
[0.75 0 0 0.75 0 0] CT
0.149 GC
2 setlinecap
1 LJ
0.667 LW
N
71 51 M
71 57.72 L
S
GR
GS
[0.75 0 0 0.75 0 0] CT
0.149 GC
2 setlinecap
1 LJ
0.667 LW
N
145.667 51 M
145.667 57.72 L
S
GR
GS
[0.75 0 0 0.75 0 0] CT
0.149 GC
2 setlinecap
1 LJ
0.667 LW
N
220.333 51 M
220.333 57.72 L
S
GR
GS
[0.75 0 0 0.75 0 0] CT
0.149 GC
2 setlinecap
1 LJ
0.667 LW
N
295 51 M
295 57.72 L
S
GR
GS
[0.75 0 0 0.75 0 0] CT
0.149 GC
2 setlinecap
1 LJ
0.667 LW
N
369.667 51 M
369.667 57.72 L
S
GR
GS
[0.75 0 0 0.75 0 0] CT
0.149 GC
2 setlinecap
1 LJ
0.667 LW
N
444.333 51 M
444.333 57.72 L
S
GR
GS
[0.75 0 0 0.75 0 0] CT
0.149 GC
2 setlinecap
1 LJ
0.667 LW
N
519 51 M
519 57.72 L
S
GR
GS
[0.75 0 0 0.75 0 0] CT
0.149 GC
2 setlinecap
1 LJ
0.667 LW
N
593.667 51 M
593.667 57.72 L
S
GR
GS
[0.75 0 0 0.75 0 0] CT
0.149 GC
2 setlinecap
1 LJ
0.667 LW
N
668.333 51 M
668.333 57.72 L
S
GR
GS
[0.75 0 0 0.75 0 0] CT
0.149 GC
2 setlinecap
1 LJ
0.667 LW
N
743 51 M
743 57.72 L
S
GR
GS
[0.75 0 0 0.75 53.25 322.55001] CT
0.149 GC
/Times 32 F
GS
[1 0 0 1 0 0] CT
-10.5 30 moveto 
1 -1 scale
(1) t 
GR
GR
GS
[0.75 0 0 0.75 109.25 322.55001] CT
0.149 GC
/Times 32 F
GS
[1 0 0 1 0 0] CT
-10.5 30 moveto 
1 -1 scale
(2) t 
GR
GR
GS
[0.75 0 0 0.75 165.25 322.55001] CT
0.149 GC
/Times 32 F
GS
[1 0 0 1 0 0] CT
-10.5 30 moveto 
1 -1 scale
(3) t 
GR
GR
GS
[0.75 0 0 0.75 221.25 322.55001] CT
0.149 GC
/Times 32 F
GS
[1 0 0 1 0 0] CT
-10.5 30 moveto 
1 -1 scale
(4) t 
GR
GR
GS
[0.75 0 0 0.75 277.24999 322.55001] CT
0.149 GC
/Times 32 F
GS
[1 0 0 1 0 0] CT
-10.5 30 moveto 
1 -1 scale
(5) t 
GR
GR
GS
[0.75 0 0 0.75 333.25001 322.55001] CT
0.149 GC
/Times 32 F
GS
[1 0 0 1 0 0] CT
-10.5 30 moveto 
1 -1 scale
(6) t 
GR
GR
GS
[0.75 0 0 0.75 389.25 322.55001] CT
0.149 GC
/Times 32 F
GS
[1 0 0 1 0 0] CT
-10.5 30 moveto 
1 -1 scale
(7) t 
GR
GR
GS
[0.75 0 0 0.75 445.25002 322.55001] CT
0.149 GC
/Times 32 F
GS
[1 0 0 1 0 0] CT
-10.5 30 moveto 
1 -1 scale
(8) t 
GR
GR
GS
[0.75 0 0 0.75 501.24998 322.55001] CT
0.149 GC
/Times 32 F
GS
[1 0 0 1 0 0] CT
-10.5 30 moveto 
1 -1 scale
(9) t 
GR
GR
GS
[0.75 0 0 0.75 557.25 322.55001] CT
0.149 GC
/Times 32 F
GS
[1 0 0 1 0 0] CT
-20.5 30 moveto 
1 -1 scale
(10) t 
GR
GR
GS
[0.75 0 0 0.75 305.25023 352.05] CT
0.149 GC
/Times 35.2 F
GS
[1 0 0 1 0 0] CT
-210 33 moveto 
1 -1 scale
(Number of Top Matches) t 
GR
GR
GS
[0.75 0 0 0.75 0 0] CT
0.149 GC
2 setlinecap
1 LJ
0.667 LW
N
71 421 M
71 51 L
S
GR
GS
[0.75 0 0 0.75 0 0] CT
0.149 GC
2 setlinecap
1 LJ
0.667 LW
N
743 421 M
743 51 L
S
GR
GS
[0.75 0 0 0.75 0 0] CT
0.149 GC
2 setlinecap
1 LJ
0.667 LW
N
71 362.136 M
77.72 362.136 L
S
GR
GS
[0.75 0 0 0.75 0 0] CT
0.149 GC
2 setlinecap
1 LJ
0.667 LW
N
71 278.045 M
77.72 278.045 L
S
GR
GS
[0.75 0 0 0.75 0 0] CT
0.149 GC
2 setlinecap
1 LJ
0.667 LW
N
71 193.955 M
77.72 193.955 L
S
GR
GS
[0.75 0 0 0.75 0 0] CT
0.149 GC
2 setlinecap
1 LJ
0.667 LW
N
71 109.864 M
77.72 109.864 L
S
GR
GS
[0.75 0 0 0.75 0 0] CT
0.149 GC
2 setlinecap
1 LJ
0.667 LW
N
743 362.136 M
736.28 362.136 L
S
GR
GS
[0.75 0 0 0.75 0 0] CT
0.149 GC
2 setlinecap
1 LJ
0.667 LW
N
743 278.045 M
736.28 278.045 L
S
GR
GS
[0.75 0 0 0.75 0 0] CT
0.149 GC
2 setlinecap
1 LJ
0.667 LW
N
743 193.955 M
736.28 193.955 L
S
GR
GS
[0.75 0 0 0.75 0 0] CT
0.149 GC
2 setlinecap
1 LJ
0.667 LW
N
743 109.864 M
736.28 109.864 L
S
GR
GS
[0.75 0 0 0.75 46.45 271.60226] CT
0.149 GC
/Times 32 F
GS
[1 0 0 1 0 0] CT
-21 11 moveto 
1 -1 scale
(4) t 
GR
GR
GS
[0.75 0 0 0.75 46.45 208.53408] CT
0.149 GC
/Times 32 F
GS
[1 0 0 1 0 0] CT
-21 11 moveto 
1 -1 scale
(5) t 
GR
GR
GS
[0.75 0 0 0.75 46.45 145.46591] CT
0.149 GC
/Times 32 F
GS
[1 0 0 1 0 0] CT
-21 11 moveto 
1 -1 scale
(6) t 
GR
GR
GS
[0.75 0 0 0.75 46.45 82.39773] CT
0.149 GC
/Times 32 F
GS
[1 0 0 1 0 0] CT
-21 11 moveto 
1 -1 scale
(7) t 
GR
GR
GS
[0 -0.75 0.75 0 27.7 176.99987] CT
0.149 GC
/Times 35.2 F
GS
[1 0 0 1 0 0] CT
-72.5 -9 moveto 
1 -1 scale
(ARR \(%\)) t 
GR
GR
GS
[0.75 0 0 0.75 305.2503 33.30002] CT
/Times 35.2 F
GS
[1 0 0 1 0 0] CT
-134 -9 moveto 
1 -1 scale
(PaSC Database) t 
GR
GR
GS
[0.75 0 0 0.75 0 0] CT
1 0.6 0.784 RC
1 LJ
2 LW
N
71 413.737 M
145.667 381.728 L
220.333 362.91 L
295 348.356 L
369.667 335.625 L
444.333 323.632 L
519 313.242 L
593.667 304.47 L
668.333 295.749 L
743 287.15 L
S
GR
GS
[0.75 0 0 0.75 0 0] CT
1 GC
N
69.278 409.652 M
75.943 413.5 L
69.278 417.348 L
cp
f
GR
GS
[0.75 0 0 0.75 0 0] CT
1 0.6 0.784 RC
10.0 ML
2 LW
N
69.278 409.652 M
75.943 413.5 L
69.278 417.348 L
cp
S
GR
GS
[0.75 0 0 0.75 0 0] CT
1 GC
N
143.278 377.652 M
149.943 381.5 L
143.278 385.348 L
cp
f
GR
GS
[0.75 0 0 0.75 0 0] CT
1 0.6 0.784 RC
10.0 ML
2 LW
N
143.278 377.652 M
149.943 381.5 L
143.278 385.348 L
cp
S
GR
GS
[0.75 0 0 0.75 0 0] CT
1 GC
N
218.278 358.652 M
224.943 362.5 L
218.278 366.348 L
cp
f
GR
GS
[0.75 0 0 0.75 0 0] CT
1 0.6 0.784 RC
10.0 ML
2 LW
N
218.278 358.652 M
224.943 362.5 L
218.278 366.348 L
cp
S
GR
GS
[0.75 0 0 0.75 0 0] CT
1 GC
N
292.278 344.652 M
298.943 348.5 L
292.278 352.348 L
cp
f
GR
GS
[0.75 0 0 0.75 0 0] CT
1 0.6 0.784 RC
10.0 ML
2 LW
N
292.278 344.652 M
298.943 348.5 L
292.278 352.348 L
cp
S
GR
GS
[0.75 0 0 0.75 0 0] CT
1 GC
N
367.278 331.652 M
373.943 335.5 L
367.278 339.348 L
cp
f
GR
GS
[0.75 0 0 0.75 0 0] CT
1 0.6 0.784 RC
10.0 ML
2 LW
N
367.278 331.652 M
373.943 335.5 L
367.278 339.348 L
cp
S
GR
GS
[0.75 0 0 0.75 0 0] CT
1 GC
N
442.278 319.652 M
448.943 323.5 L
442.278 327.348 L
cp
f
GR
GS
[0.75 0 0 0.75 0 0] CT
1 0.6 0.784 RC
10.0 ML
2 LW
N
442.278 319.652 M
448.943 323.5 L
442.278 327.348 L
cp
S
GR
GS
[0.75 0 0 0.75 0 0] CT
1 GC
N
517.278 309.652 M
523.943 313.5 L
517.278 317.348 L
cp
f
GR
GS
[0.75 0 0 0.75 0 0] CT
1 0.6 0.784 RC
10.0 ML
2 LW
N
517.278 309.652 M
523.943 313.5 L
517.278 317.348 L
cp
S
GR
GS
[0.75 0 0 0.75 0 0] CT
1 GC
N
591.278 300.652 M
597.943 304.5 L
591.278 308.348 L
cp
f
GR
GS
[0.75 0 0 0.75 0 0] CT
1 0.6 0.784 RC
10.0 ML
2 LW
N
591.278 300.652 M
597.943 304.5 L
591.278 308.348 L
cp
S
GR
GS
[0.75 0 0 0.75 0 0] CT
1 GC
N
666.278 291.652 M
672.943 295.5 L
666.278 299.348 L
cp
f
GR
GS
[0.75 0 0 0.75 0 0] CT
1 0.6 0.784 RC
10.0 ML
2 LW
N
666.278 291.652 M
672.943 295.5 L
666.278 299.348 L
cp
S
GR
GS
[0.75 0 0 0.75 0 0] CT
1 GC
N
741.278 283.652 M
747.943 287.5 L
741.278 291.348 L
cp
f
GR
GS
[0.75 0 0 0.75 0 0] CT
1 0.6 0.784 RC
10.0 ML
2 LW
N
741.278 283.652 M
747.943 287.5 L
741.278 291.348 L
cp
S
GR
GS
[0.75 0 0 0.75 0 0] CT
0.6 0.2 0 RC
1 LJ
2 LW
N
71 413.737 M
145.667 384.383 L
220.333 365.31 L
295 350.029 L
369.667 336.547 L
444.333 324.902 L
519 314.651 L
593.667 303.992 L
668.333 294.575 L
743 285.012 L
S
GR
GS
[0.75 0 0 0.75 0 0] CT
1 GC
N
67.057 413.5 M
73.722 409.652 L
73.722 417.348 L
cp
f
GR
GS
[0.75 0 0 0.75 0 0] CT
0.6 0.2 0 RC
10.0 ML
2 LW
N
67.057 413.5 M
73.722 409.652 L
73.722 417.348 L
cp
S
GR
GS
[0.75 0 0 0.75 0 0] CT
1 GC
N
141.057 384.5 M
147.722 380.652 L
147.722 388.348 L
cp
f
GR
GS
[0.75 0 0 0.75 0 0] CT
0.6 0.2 0 RC
10.0 ML
2 LW
N
141.057 384.5 M
147.722 380.652 L
147.722 388.348 L
cp
S
GR
GS
[0.75 0 0 0.75 0 0] CT
1 GC
N
216.057 365.5 M
222.722 361.652 L
222.722 369.348 L
cp
f
GR
GS
[0.75 0 0 0.75 0 0] CT
0.6 0.2 0 RC
10.0 ML
2 LW
N
216.057 365.5 M
222.722 361.652 L
222.722 369.348 L
cp
S
GR
GS
[0.75 0 0 0.75 0 0] CT
1 GC
N
290.057 350.5 M
296.722 346.652 L
296.722 354.348 L
cp
f
GR
GS
[0.75 0 0 0.75 0 0] CT
0.6 0.2 0 RC
10.0 ML
2 LW
N
290.057 350.5 M
296.722 346.652 L
296.722 354.348 L
cp
S
GR
GS
[0.75 0 0 0.75 0 0] CT
1 GC
N
365.057 336.5 M
371.722 332.652 L
371.722 340.348 L
cp
f
GR
GS
[0.75 0 0 0.75 0 0] CT
0.6 0.2 0 RC
10.0 ML
2 LW
N
365.057 336.5 M
371.722 332.652 L
371.722 340.348 L
cp
S
GR
GS
[0.75 0 0 0.75 0 0] CT
1 GC
N
440.057 324.5 M
446.722 320.652 L
446.722 328.348 L
cp
f
GR
GS
[0.75 0 0 0.75 0 0] CT
0.6 0.2 0 RC
10.0 ML
2 LW
N
440.057 324.5 M
446.722 320.652 L
446.722 328.348 L
cp
S
GR
GS
[0.75 0 0 0.75 0 0] CT
1 GC
N
515.057 314.5 M
521.722 310.652 L
521.722 318.348 L
cp
f
GR
GS
[0.75 0 0 0.75 0 0] CT
0.6 0.2 0 RC
10.0 ML
2 LW
N
515.057 314.5 M
521.722 310.652 L
521.722 318.348 L
cp
S
GR
GS
[0.75 0 0 0.75 0 0] CT
1 GC
N
589.057 303.5 M
595.722 299.652 L
595.722 307.348 L
cp
f
GR
GS
[0.75 0 0 0.75 0 0] CT
0.6 0.2 0 RC
10.0 ML
2 LW
N
589.057 303.5 M
595.722 299.652 L
595.722 307.348 L
cp
S
GR
GS
[0.75 0 0 0.75 0 0] CT
1 GC
N
664.057 294.5 M
670.722 290.652 L
670.722 298.348 L
cp
f
GR
GS
[0.75 0 0 0.75 0 0] CT
0.6 0.2 0 RC
10.0 ML
2 LW
N
664.057 294.5 M
670.722 290.652 L
670.722 298.348 L
cp
S
GR
GS
[0.75 0 0 0.75 0 0] CT
1 GC
N
739.057 285.5 M
745.722 281.652 L
745.722 289.348 L
cp
f
GR
GS
[0.75 0 0 0.75 0 0] CT
0.6 0.2 0 RC
10.0 ML
2 LW
N
739.057 285.5 M
745.722 281.652 L
745.722 289.348 L
cp
S
GR
GS
[0.75 0 0 0.75 0 0] CT
0.929 0.694 0.125 RC
1 LJ
2 LW
N
71 413.737 M
145.667 401.68 L
220.333 394.273 L
295 387.507 L
369.667 381.912 L
444.333 377.191 L
519 372.197 L
593.667 367.732 L
668.333 363.059 L
743 359.403 L
S
GR
GS
[0.75 0 0 0.75 0 0] CT
1 GC
N
68.33 412.47 M
70.716 412.47 L
71.5 410.167 L
72.284 412.47 L
74.67 412.47 L
72.768 413.912 L
73.459 416.197 L
71.5 414.833 L
69.541 416.197 L
70.232 413.912 L
68.33 412.47 L
cp
f
GR
GS
[0.75 0 0 0.75 0 0] CT
0.929 0.694 0.125 RC
10.0 ML
2 LW
N
68.33 412.47 M
70.716 412.47 L
71.5 410.167 L
72.284 412.47 L
74.67 412.47 L
72.768 413.912 L
73.459 416.197 L
71.5 414.833 L
69.541 416.197 L
70.232 413.912 L
cp
S
GR
GS
[0.75 0 0 0.75 0 0] CT
1 GC
N
142.33 400.47 M
144.716 400.47 L
145.5 398.167 L
146.284 400.47 L
148.67 400.47 L
146.768 401.912 L
147.459 404.197 L
145.5 402.833 L
143.541 404.197 L
144.232 401.912 L
142.33 400.47 L
cp
f
GR
GS
[0.75 0 0 0.75 0 0] CT
0.929 0.694 0.125 RC
10.0 ML
2 LW
N
142.33 400.47 M
144.716 400.47 L
145.5 398.167 L
146.284 400.47 L
148.67 400.47 L
146.768 401.912 L
147.459 404.197 L
145.5 402.833 L
143.541 404.197 L
144.232 401.912 L
cp
S
GR
GS
[0.75 0 0 0.75 0 0] CT
1 GC
N
217.33 393.47 M
219.716 393.47 L
220.5 391.167 L
221.284 393.47 L
223.67 393.47 L
221.768 394.912 L
222.459 397.197 L
220.5 395.833 L
218.541 397.197 L
219.232 394.912 L
217.33 393.47 L
cp
f
GR
GS
[0.75 0 0 0.75 0 0] CT
0.929 0.694 0.125 RC
10.0 ML
2 LW
N
217.33 393.47 M
219.716 393.47 L
220.5 391.167 L
221.284 393.47 L
223.67 393.47 L
221.768 394.912 L
222.459 397.197 L
220.5 395.833 L
218.541 397.197 L
219.232 394.912 L
cp
S
GR
GS
[0.75 0 0 0.75 0 0] CT
1 GC
N
291.33 386.47 M
293.716 386.47 L
294.5 384.167 L
295.284 386.47 L
297.67 386.47 L
295.768 387.912 L
296.459 390.197 L
294.5 388.833 L
292.541 390.197 L
293.232 387.912 L
291.33 386.47 L
cp
f
GR
GS
[0.75 0 0 0.75 0 0] CT
0.929 0.694 0.125 RC
10.0 ML
2 LW
N
291.33 386.47 M
293.716 386.47 L
294.5 384.167 L
295.284 386.47 L
297.67 386.47 L
295.768 387.912 L
296.459 390.197 L
294.5 388.833 L
292.541 390.197 L
293.232 387.912 L
cp
S
GR
GS
[0.75 0 0 0.75 0 0] CT
1 GC
N
366.33 380.47 M
368.716 380.47 L
369.5 378.167 L
370.284 380.47 L
372.67 380.47 L
370.768 381.912 L
371.459 384.197 L
369.5 382.833 L
367.541 384.197 L
368.232 381.912 L
366.33 380.47 L
cp
f
GR
GS
[0.75 0 0 0.75 0 0] CT
0.929 0.694 0.125 RC
10.0 ML
2 LW
N
366.33 380.47 M
368.716 380.47 L
369.5 378.167 L
370.284 380.47 L
372.67 380.47 L
370.768 381.912 L
371.459 384.197 L
369.5 382.833 L
367.541 384.197 L
368.232 381.912 L
cp
S
GR
GS
[0.75 0 0 0.75 0 0] CT
1 GC
N
441.33 376.47 M
443.716 376.47 L
444.5 374.167 L
445.284 376.47 L
447.67 376.47 L
445.768 377.912 L
446.459 380.197 L
444.5 378.833 L
442.541 380.197 L
443.232 377.912 L
441.33 376.47 L
cp
f
GR
GS
[0.75 0 0 0.75 0 0] CT
0.929 0.694 0.125 RC
10.0 ML
2 LW
N
441.33 376.47 M
443.716 376.47 L
444.5 374.167 L
445.284 376.47 L
447.67 376.47 L
445.768 377.912 L
446.459 380.197 L
444.5 378.833 L
442.541 380.197 L
443.232 377.912 L
cp
S
GR
GS
[0.75 0 0 0.75 0 0] CT
1 GC
N
516.33 371.47 M
518.716 371.47 L
519.5 369.167 L
520.284 371.47 L
522.67 371.47 L
520.768 372.912 L
521.459 375.197 L
519.5 373.833 L
517.541 375.197 L
518.232 372.912 L
516.33 371.47 L
cp
f
GR
GS
[0.75 0 0 0.75 0 0] CT
0.929 0.694 0.125 RC
10.0 ML
2 LW
N
516.33 371.47 M
518.716 371.47 L
519.5 369.167 L
520.284 371.47 L
522.67 371.47 L
520.768 372.912 L
521.459 375.197 L
519.5 373.833 L
517.541 375.197 L
518.232 372.912 L
cp
S
GR
GS
[0.75 0 0 0.75 0 0] CT
1 GC
N
590.33 366.47 M
592.716 366.47 L
593.5 364.167 L
594.284 366.47 L
596.67 366.47 L
594.768 367.912 L
595.459 370.197 L
593.5 368.833 L
591.541 370.197 L
592.232 367.912 L
590.33 366.47 L
cp
f
GR
GS
[0.75 0 0 0.75 0 0] CT
0.929 0.694 0.125 RC
10.0 ML
2 LW
N
590.33 366.47 M
592.716 366.47 L
593.5 364.167 L
594.284 366.47 L
596.67 366.47 L
594.768 367.912 L
595.459 370.197 L
593.5 368.833 L
591.541 370.197 L
592.232 367.912 L
cp
S
GR
GS
[0.75 0 0 0.75 0 0] CT
1 GC
N
665.33 362.47 M
667.716 362.47 L
668.5 360.167 L
669.284 362.47 L
671.67 362.47 L
669.768 363.912 L
670.459 366.197 L
668.5 364.833 L
666.541 366.197 L
667.232 363.912 L
665.33 362.47 L
cp
f
GR
GS
[0.75 0 0 0.75 0 0] CT
0.929 0.694 0.125 RC
10.0 ML
2 LW
N
665.33 362.47 M
667.716 362.47 L
668.5 360.167 L
669.284 362.47 L
671.67 362.47 L
669.768 363.912 L
670.459 366.197 L
668.5 364.833 L
666.541 366.197 L
667.232 363.912 L
cp
S
GR
GS
[0.75 0 0 0.75 0 0] CT
1 GC
N
740.33 358.47 M
742.716 358.47 L
743.5 356.167 L
744.284 358.47 L
746.67 358.47 L
744.768 359.912 L
745.459 362.197 L
743.5 360.833 L
741.541 362.197 L
742.232 359.912 L
740.33 358.47 L
cp
f
GR
GS
[0.75 0 0 0.75 0 0] CT
0.929 0.694 0.125 RC
10.0 ML
2 LW
N
740.33 358.47 M
742.716 358.47 L
743.5 356.167 L
744.284 358.47 L
746.67 358.47 L
744.768 359.912 L
745.459 362.197 L
743.5 360.833 L
741.541 362.197 L
742.232 359.912 L
cp
S
GR
GS
[0.75 0 0 0.75 0 0] CT
0 1 1 RC
1 LJ
2 LW
N
71 413.737 M
145.667 386.361 L
220.333 368.092 L
295 352.922 L
369.667 339.297 L
444.333 327.322 L
519 316.902 L
593.667 306.923 L
668.333 298.259 L
743 289.67 L
S
GR
GS
[0.75 0 0 0.75 0 0] CT
1 GC
N
71.5 417.943 M
74.833 413.5 L
71.5 409.057 L
68.167 413.5 L
cp
f
GR
GS
[0.75 0 0 0.75 0 0] CT
0 1 1 RC
10.0 ML
2 LW
N
71.5 417.943 M
74.833 413.5 L
71.5 409.057 L
68.167 413.5 L
cp
S
GR
GS
[0.75 0 0 0.75 0 0] CT
1 GC
N
145.5 390.943 M
148.833 386.5 L
145.5 382.057 L
142.167 386.5 L
cp
f
GR
GS
[0.75 0 0 0.75 0 0] CT
0 1 1 RC
10.0 ML
2 LW
N
145.5 390.943 M
148.833 386.5 L
145.5 382.057 L
142.167 386.5 L
cp
S
GR
GS
[0.75 0 0 0.75 0 0] CT
1 GC
N
220.5 372.943 M
223.833 368.5 L
220.5 364.057 L
217.167 368.5 L
cp
f
GR
GS
[0.75 0 0 0.75 0 0] CT
0 1 1 RC
10.0 ML
2 LW
N
220.5 372.943 M
223.833 368.5 L
220.5 364.057 L
217.167 368.5 L
cp
S
GR
GS
[0.75 0 0 0.75 0 0] CT
1 GC
N
294.5 356.943 M
297.833 352.5 L
294.5 348.057 L
291.167 352.5 L
cp
f
GR
GS
[0.75 0 0 0.75 0 0] CT
0 1 1 RC
10.0 ML
2 LW
N
294.5 356.943 M
297.833 352.5 L
294.5 348.057 L
291.167 352.5 L
cp
S
GR
GS
[0.75 0 0 0.75 0 0] CT
1 GC
N
369.5 343.943 M
372.833 339.5 L
369.5 335.057 L
366.167 339.5 L
cp
f
GR
GS
[0.75 0 0 0.75 0 0] CT
0 1 1 RC
10.0 ML
2 LW
N
369.5 343.943 M
372.833 339.5 L
369.5 335.057 L
366.167 339.5 L
cp
S
GR
GS
[0.75 0 0 0.75 0 0] CT
1 GC
N
444.5 331.943 M
447.833 327.5 L
444.5 323.057 L
441.167 327.5 L
cp
f
GR
GS
[0.75 0 0 0.75 0 0] CT
0 1 1 RC
10.0 ML
2 LW
N
444.5 331.943 M
447.833 327.5 L
444.5 323.057 L
441.167 327.5 L
cp
S
GR
GS
[0.75 0 0 0.75 0 0] CT
1 GC
N
519.5 320.943 M
522.833 316.5 L
519.5 312.057 L
516.167 316.5 L
cp
f
GR
GS
[0.75 0 0 0.75 0 0] CT
0 1 1 RC
10.0 ML
2 LW
N
519.5 320.943 M
522.833 316.5 L
519.5 312.057 L
516.167 316.5 L
cp
S
GR
GS
[0.75 0 0 0.75 0 0] CT
1 GC
N
593.5 310.943 M
596.833 306.5 L
593.5 302.057 L
590.167 306.5 L
cp
f
GR
GS
[0.75 0 0 0.75 0 0] CT
0 1 1 RC
10.0 ML
2 LW
N
593.5 310.943 M
596.833 306.5 L
593.5 302.057 L
590.167 306.5 L
cp
S
GR
GS
[0.75 0 0 0.75 0 0] CT
1 GC
N
668.5 302.943 M
671.833 298.5 L
668.5 294.057 L
665.167 298.5 L
cp
f
GR
GS
[0.75 0 0 0.75 0 0] CT
0 1 1 RC
10.0 ML
2 LW
N
668.5 302.943 M
671.833 298.5 L
668.5 294.057 L
665.167 298.5 L
cp
S
GR
GS
[0.75 0 0 0.75 0 0] CT
1 GC
N
743.5 293.943 M
746.833 289.5 L
743.5 285.057 L
740.167 289.5 L
cp
f
GR
GS
[0.75 0 0 0.75 0 0] CT
0 1 1 RC
10.0 ML
2 LW
N
743.5 293.943 M
746.833 289.5 L
743.5 285.057 L
740.167 289.5 L
cp
S
GR
GS
[0.75 0 0 0.75 0 0] CT
0 1 0 RC
1 LJ
2 LW
N
71 413.737 M
145.667 371.947 L
220.333 349.925 L
295 334.375 L
369.667 321.389 L
444.333 310.142 L
519 301.052 L
593.667 292.263 L
668.333 283.577 L
743 275.788 L
S
GR
GS
[0.75 0 0 0.75 0 0] CT
1 GC
N
68.9 416.1 M
68.9 410.9 L
74.1 410.9 L
74.1 416.1 L
cp
f
GR
GS
[0.75 0 0 0.75 0 0] CT
0 1 0 RC
10.0 ML
2 LW
N
68.9 416.1 M
68.9 410.9 L
74.1 410.9 L
74.1 416.1 L
cp
S
GR
GS
[0.75 0 0 0.75 0 0] CT
1 GC
N
142.9 374.1 M
142.9 368.9 L
148.1 368.9 L
148.1 374.1 L
cp
f
GR
GS
[0.75 0 0 0.75 0 0] CT
0 1 0 RC
10.0 ML
2 LW
N
142.9 374.1 M
142.9 368.9 L
148.1 368.9 L
148.1 374.1 L
cp
S
GR
GS
[0.75 0 0 0.75 0 0] CT
1 GC
N
217.9 352.1 M
217.9 346.9 L
223.1 346.9 L
223.1 352.1 L
cp
f
GR
GS
[0.75 0 0 0.75 0 0] CT
0 1 0 RC
10.0 ML
2 LW
N
217.9 352.1 M
217.9 346.9 L
223.1 346.9 L
223.1 352.1 L
cp
S
GR
GS
[0.75 0 0 0.75 0 0] CT
1 GC
N
291.9 337.1 M
291.9 331.9 L
297.1 331.9 L
297.1 337.1 L
cp
f
GR
GS
[0.75 0 0 0.75 0 0] CT
0 1 0 RC
10.0 ML
2 LW
N
291.9 337.1 M
291.9 331.9 L
297.1 331.9 L
297.1 337.1 L
cp
S
GR
GS
[0.75 0 0 0.75 0 0] CT
1 GC
N
366.9 324.1 M
366.9 318.9 L
372.1 318.9 L
372.1 324.1 L
cp
f
GR
GS
[0.75 0 0 0.75 0 0] CT
0 1 0 RC
10.0 ML
2 LW
N
366.9 324.1 M
366.9 318.9 L
372.1 318.9 L
372.1 324.1 L
cp
S
GR
GS
[0.75 0 0 0.75 0 0] CT
1 GC
N
441.9 313.1 M
441.9 307.9 L
447.1 307.9 L
447.1 313.1 L
cp
f
GR
GS
[0.75 0 0 0.75 0 0] CT
0 1 0 RC
10.0 ML
2 LW
N
441.9 313.1 M
441.9 307.9 L
447.1 307.9 L
447.1 313.1 L
cp
S
GR
GS
[0.75 0 0 0.75 0 0] CT
1 GC
N
516.9 304.1 M
516.9 298.9 L
522.1 298.9 L
522.1 304.1 L
cp
f
GR
GS
[0.75 0 0 0.75 0 0] CT
0 1 0 RC
10.0 ML
2 LW
N
516.9 304.1 M
516.9 298.9 L
522.1 298.9 L
522.1 304.1 L
cp
S
GR
GS
[0.75 0 0 0.75 0 0] CT
1 GC
N
590.9 295.1 M
590.9 289.9 L
596.1 289.9 L
596.1 295.1 L
cp
f
GR
GS
[0.75 0 0 0.75 0 0] CT
0 1 0 RC
10.0 ML
2 LW
N
590.9 295.1 M
590.9 289.9 L
596.1 289.9 L
596.1 295.1 L
cp
S
GR
GS
[0.75 0 0 0.75 0 0] CT
1 GC
N
665.9 286.1 M
665.9 280.9 L
671.1 280.9 L
671.1 286.1 L
cp
f
GR
GS
[0.75 0 0 0.75 0 0] CT
0 1 0 RC
10.0 ML
2 LW
N
665.9 286.1 M
665.9 280.9 L
671.1 280.9 L
671.1 286.1 L
cp
S
GR
GS
[0.75 0 0 0.75 0 0] CT
1 GC
N
740.9 278.1 M
740.9 272.9 L
746.1 272.9 L
746.1 278.1 L
cp
f
GR
GS
[0.75 0 0 0.75 0 0] CT
0 1 0 RC
10.0 ML
2 LW
N
740.9 278.1 M
740.9 272.9 L
746.1 272.9 L
746.1 278.1 L
cp
S
GR
GS
[0.75 0 0 0.75 0 0] CT
0 0 1 RC
1 LJ
2 LW
N
71 413.737 M
145.667 400.086 L
220.333 390.571 L
295 382.565 L
369.667 374.669 L
444.333 366.891 L
519 359.99 L
593.667 354.329 L
668.333 348.448 L
743 342.83 L
S
GR
GS
[0.75 0 0 0.75 0 0] CT
1 GC
N
67.057 413.5 M
73.722 409.652 L
73.722 417.348 L
cp
f
GR
GS
[0.75 0 0 0.75 0 0] CT
0 0 1 RC
10.0 ML
2 LW
N
67.057 413.5 M
73.722 409.652 L
73.722 417.348 L
cp
S
GR
GS
[0.75 0 0 0.75 0 0] CT
1 GC
N
141.057 400.5 M
147.722 396.652 L
147.722 404.348 L
cp
f
GR
GS
[0.75 0 0 0.75 0 0] CT
0 0 1 RC
10.0 ML
2 LW
N
141.057 400.5 M
147.722 396.652 L
147.722 404.348 L
cp
S
GR
GS
[0.75 0 0 0.75 0 0] CT
1 GC
N
216.057 390.5 M
222.722 386.652 L
222.722 394.348 L
cp
f
GR
GS
[0.75 0 0 0.75 0 0] CT
0 0 1 RC
10.0 ML
2 LW
N
216.057 390.5 M
222.722 386.652 L
222.722 394.348 L
cp
S
GR
GS
[0.75 0 0 0.75 0 0] CT
1 GC
N
290.057 382.5 M
296.722 378.652 L
296.722 386.348 L
cp
f
GR
GS
[0.75 0 0 0.75 0 0] CT
0 0 1 RC
10.0 ML
2 LW
N
290.057 382.5 M
296.722 378.652 L
296.722 386.348 L
cp
S
GR
GS
[0.75 0 0 0.75 0 0] CT
1 GC
N
365.057 374.5 M
371.722 370.652 L
371.722 378.348 L
cp
f
GR
GS
[0.75 0 0 0.75 0 0] CT
0 0 1 RC
10.0 ML
2 LW
N
365.057 374.5 M
371.722 370.652 L
371.722 378.348 L
cp
S
GR
GS
[0.75 0 0 0.75 0 0] CT
1 GC
N
440.057 366.5 M
446.722 362.652 L
446.722 370.348 L
cp
f
GR
GS
[0.75 0 0 0.75 0 0] CT
0 0 1 RC
10.0 ML
2 LW
N
440.057 366.5 M
446.722 362.652 L
446.722 370.348 L
cp
S
GR
GS
[0.75 0 0 0.75 0 0] CT
1 GC
N
515.057 359.5 M
521.722 355.652 L
521.722 363.348 L
cp
f
GR
GS
[0.75 0 0 0.75 0 0] CT
0 0 1 RC
10.0 ML
2 LW
N
515.057 359.5 M
521.722 355.652 L
521.722 363.348 L
cp
S
GR
GS
[0.75 0 0 0.75 0 0] CT
1 GC
N
589.057 354.5 M
595.722 350.652 L
595.722 358.348 L
cp
f
GR
GS
[0.75 0 0 0.75 0 0] CT
0 0 1 RC
10.0 ML
2 LW
N
589.057 354.5 M
595.722 350.652 L
595.722 358.348 L
cp
S
GR
GS
[0.75 0 0 0.75 0 0] CT
1 GC
N
664.057 348.5 M
670.722 344.652 L
670.722 352.348 L
cp
f
GR
GS
[0.75 0 0 0.75 0 0] CT
0 0 1 RC
10.0 ML
2 LW
N
664.057 348.5 M
670.722 344.652 L
670.722 352.348 L
cp
S
GR
GS
[0.75 0 0 0.75 0 0] CT
1 GC
N
739.057 342.5 M
745.722 338.652 L
745.722 346.348 L
cp
f
GR
GS
[0.75 0 0 0.75 0 0] CT
0 0 1 RC
10.0 ML
2 LW
N
739.057 342.5 M
745.722 338.652 L
745.722 346.348 L
cp
S
GR
GS
[0.75 0 0 0.75 0 0] CT
1 0 1 RC
1 LJ
2 LW
N
71 413.737 M
145.667 358.629 L
220.333 326.419 L
295 307.169 L
369.667 291.192 L
444.333 278.075 L
519 266.33 L
593.667 255.11 L
668.333 245.543 L
743 236.053 L
S
GR
GS
[0.75 0 0 0.75 0 0] CT
1 0 1 RC
1 LJ
2 LW
N
68 413.5 M
75 413.5 L
S
GR
GS
[0.75 0 0 0.75 0 0] CT
1 0 1 RC
1 LJ
2 LW
N
71.5 417 M
71.5 410 L
S
GR
GS
[0.75 0 0 0.75 0 0] CT
1 0 1 RC
1 LJ
2 LW
N
142 358.5 M
149 358.5 L
S
GR
GS
[0.75 0 0 0.75 0 0] CT
1 0 1 RC
1 LJ
2 LW
N
145.5 362 M
145.5 355 L
S
GR
GS
[0.75 0 0 0.75 0 0] CT
1 0 1 RC
1 LJ
2 LW
N
217 326.5 M
224 326.5 L
S
GR
GS
[0.75 0 0 0.75 0 0] CT
1 0 1 RC
1 LJ
2 LW
N
220.5 330 M
220.5 323 L
S
GR
GS
[0.75 0 0 0.75 0 0] CT
1 0 1 RC
1 LJ
2 LW
N
291 307.5 M
298 307.5 L
S
GR
GS
[0.75 0 0 0.75 0 0] CT
1 0 1 RC
1 LJ
2 LW
N
294.5 311 M
294.5 304 L
S
GR
GS
[0.75 0 0 0.75 0 0] CT
1 0 1 RC
1 LJ
2 LW
N
366 291.5 M
373 291.5 L
S
GR
GS
[0.75 0 0 0.75 0 0] CT
1 0 1 RC
1 LJ
2 LW
N
369.5 295 M
369.5 288 L
S
GR
GS
[0.75 0 0 0.75 0 0] CT
1 0 1 RC
1 LJ
2 LW
N
441 278.5 M
448 278.5 L
S
GR
GS
[0.75 0 0 0.75 0 0] CT
1 0 1 RC
1 LJ
2 LW
N
444.5 282 M
444.5 275 L
S
GR
GS
[0.75 0 0 0.75 0 0] CT
1 0 1 RC
1 LJ
2 LW
N
516 266.5 M
523 266.5 L
S
GR
GS
[0.75 0 0 0.75 0 0] CT
1 0 1 RC
1 LJ
2 LW
N
519.5 270 M
519.5 263 L
S
GR
GS
[0.75 0 0 0.75 0 0] CT
1 0 1 RC
1 LJ
2 LW
N
590 255.5 M
597 255.5 L
S
GR
GS
[0.75 0 0 0.75 0 0] CT
1 0 1 RC
1 LJ
2 LW
N
593.5 259 M
593.5 252 L
S
GR
GS
[0.75 0 0 0.75 0 0] CT
1 0 1 RC
1 LJ
2 LW
N
665 245.5 M
672 245.5 L
S
GR
GS
[0.75 0 0 0.75 0 0] CT
1 0 1 RC
1 LJ
2 LW
N
668.5 249 M
668.5 242 L
S
GR
GS
[0.75 0 0 0.75 0 0] CT
1 0 1 RC
1 LJ
2 LW
N
740 236.5 M
747 236.5 L
S
GR
GS
[0.75 0 0 0.75 0 0] CT
1 0 1 RC
1 LJ
2 LW
N
743.5 240 M
743.5 233 L
S
GR
GS
[0.75 0 0 0.75 0 0] CT
1 0 0 RC
1 LJ
2 LW
N
71 413.737 M
145.667 321.16 L
220.333 275.023 L
295 247.896 L
369.667 229.898 L
444.333 216.058 L
519 203.877 L
593.667 191.665 L
668.333 181.957 L
743 173.038 L
S
GR
GS
[0.75 0 0 0.75 0 0] CT
1 GC
N
68.9 416.1 M
68.9 410.9 L
74.1 410.9 L
74.1 416.1 L
cp
f
GR
GS
[0.75 0 0 0.75 0 0] CT
1 0 0 RC
10.0 ML
2 LW
N
68.9 416.1 M
68.9 410.9 L
74.1 410.9 L
74.1 416.1 L
cp
S
GR
GS
[0.75 0 0 0.75 0 0] CT
1 GC
N
142.9 324.1 M
142.9 318.9 L
148.1 318.9 L
148.1 324.1 L
cp
f
GR
GS
[0.75 0 0 0.75 0 0] CT
1 0 0 RC
10.0 ML
2 LW
N
142.9 324.1 M
142.9 318.9 L
148.1 318.9 L
148.1 324.1 L
cp
S
GR
GS
[0.75 0 0 0.75 0 0] CT
1 GC
N
217.9 278.1 M
217.9 272.9 L
223.1 272.9 L
223.1 278.1 L
cp
f
GR
GS
[0.75 0 0 0.75 0 0] CT
1 0 0 RC
10.0 ML
2 LW
N
217.9 278.1 M
217.9 272.9 L
223.1 272.9 L
223.1 278.1 L
cp
S
GR
GS
[0.75 0 0 0.75 0 0] CT
1 GC
N
291.9 250.1 M
291.9 244.9 L
297.1 244.9 L
297.1 250.1 L
cp
f
GR
GS
[0.75 0 0 0.75 0 0] CT
1 0 0 RC
10.0 ML
2 LW
N
291.9 250.1 M
291.9 244.9 L
297.1 244.9 L
297.1 250.1 L
cp
S
GR
GS
[0.75 0 0 0.75 0 0] CT
1 GC
N
366.9 232.1 M
366.9 226.9 L
372.1 226.9 L
372.1 232.1 L
cp
f
GR
GS
[0.75 0 0 0.75 0 0] CT
1 0 0 RC
10.0 ML
2 LW
N
366.9 232.1 M
366.9 226.9 L
372.1 226.9 L
372.1 232.1 L
cp
S
GR
GS
[0.75 0 0 0.75 0 0] CT
1 GC
N
441.9 219.1 M
441.9 213.9 L
447.1 213.9 L
447.1 219.1 L
cp
f
GR
GS
[0.75 0 0 0.75 0 0] CT
1 0 0 RC
10.0 ML
2 LW
N
441.9 219.1 M
441.9 213.9 L
447.1 213.9 L
447.1 219.1 L
cp
S
GR
GS
[0.75 0 0 0.75 0 0] CT
1 GC
N
516.9 206.1 M
516.9 200.9 L
522.1 200.9 L
522.1 206.1 L
cp
f
GR
GS
[0.75 0 0 0.75 0 0] CT
1 0 0 RC
10.0 ML
2 LW
N
516.9 206.1 M
516.9 200.9 L
522.1 200.9 L
522.1 206.1 L
cp
S
GR
GS
[0.75 0 0 0.75 0 0] CT
1 GC
N
590.9 194.1 M
590.9 188.9 L
596.1 188.9 L
596.1 194.1 L
cp
f
GR
GS
[0.75 0 0 0.75 0 0] CT
1 0 0 RC
10.0 ML
2 LW
N
590.9 194.1 M
590.9 188.9 L
596.1 188.9 L
596.1 194.1 L
cp
S
GR
GS
[0.75 0 0 0.75 0 0] CT
1 GC
N
665.9 184.1 M
665.9 178.9 L
671.1 178.9 L
671.1 184.1 L
cp
f
GR
GS
[0.75 0 0 0.75 0 0] CT
1 0 0 RC
10.0 ML
2 LW
N
665.9 184.1 M
665.9 178.9 L
671.1 178.9 L
671.1 184.1 L
cp
S
GR
GS
[0.75 0 0 0.75 0 0] CT
1 GC
N
740.9 176.1 M
740.9 170.9 L
746.1 170.9 L
746.1 176.1 L
cp
f
GR
GS
[0.75 0 0 0.75 0 0] CT
1 0 0 RC
10.0 ML
2 LW
N
740.9 176.1 M
740.9 170.9 L
746.1 170.9 L
746.1 176.1 L
cp
S
GR
GS
[0.75 0 0 0.75 0 0] CT
1 LJ
2 LW
N
71 413.737 M
145.667 278.808 L
220.333 207.237 L
295 165.944 L
369.667 140.148 L
444.333 119.112 L
519 100.804 L
593.667 85.266 L
668.333 71.56 L
743 59.371 L
S
GR
GS
[0.75 0 0 0.75 0 0] CT
1 GC
N
74.833 413.5 M
73.857 411.143 L
71.5 410.167 L
69.143 411.143 L
68.167 413.5 L
69.143 415.857 L
71.5 416.833 L
73.857 415.857 L
74.833 413.5 L
cp
f
GR
GS
[0.75 0 0 0.75 0 0] CT
1 LJ
2 LW
N
74.833 413.5 M
74.197 411.541 L
72.53 410.33 L
70.47 410.33 L
68.803 411.541 L
68.167 413.5 L
68.803 415.459 L
70.47 416.67 L
72.53 416.67 L
74.197 415.459 L
cp
S
GR
GS
[0.75 0 0 0.75 0 0] CT
1 GC
N
148.833 278.5 M
147.857 276.143 L
145.5 275.167 L
143.143 276.143 L
142.167 278.5 L
143.143 280.857 L
145.5 281.833 L
147.857 280.857 L
148.833 278.5 L
cp
f
GR
GS
[0.75 0 0 0.75 0 0] CT
1 LJ
2 LW
N
148.833 278.5 M
148.197 276.541 L
146.53 275.33 L
144.47 275.33 L
142.803 276.541 L
142.167 278.5 L
142.803 280.459 L
144.47 281.67 L
146.53 281.67 L
148.197 280.459 L
cp
S
GR
GS
[0.75 0 0 0.75 0 0] CT
1 GC
N
223.833 207.5 M
222.857 205.143 L
220.5 204.167 L
218.143 205.143 L
217.167 207.5 L
218.143 209.857 L
220.5 210.833 L
222.857 209.857 L
223.833 207.5 L
cp
f
GR
GS
[0.75 0 0 0.75 0 0] CT
1 LJ
2 LW
N
223.833 207.5 M
223.197 205.541 L
221.53 204.33 L
219.47 204.33 L
217.803 205.541 L
217.167 207.5 L
217.803 209.459 L
219.47 210.67 L
221.53 210.67 L
223.197 209.459 L
cp
S
GR
GS
[0.75 0 0 0.75 0 0] CT
1 GC
N
297.833 165.5 M
296.857 163.143 L
294.5 162.167 L
292.143 163.143 L
291.167 165.5 L
292.143 167.857 L
294.5 168.833 L
296.857 167.857 L
297.833 165.5 L
cp
f
GR
GS
[0.75 0 0 0.75 0 0] CT
1 LJ
2 LW
N
297.833 165.5 M
297.197 163.541 L
295.53 162.33 L
293.47 162.33 L
291.803 163.541 L
291.167 165.5 L
291.803 167.459 L
293.47 168.67 L
295.53 168.67 L
297.197 167.459 L
cp
S
GR
GS
[0.75 0 0 0.75 0 0] CT
1 GC
N
372.833 140.5 M
371.857 138.143 L
369.5 137.167 L
367.143 138.143 L
366.167 140.5 L
367.143 142.857 L
369.5 143.833 L
371.857 142.857 L
372.833 140.5 L
cp
f
GR
GS
[0.75 0 0 0.75 0 0] CT
1 LJ
2 LW
N
372.833 140.5 M
372.197 138.541 L
370.53 137.33 L
368.47 137.33 L
366.803 138.541 L
366.167 140.5 L
366.803 142.459 L
368.47 143.67 L
370.53 143.67 L
372.197 142.459 L
cp
S
GR
GS
[0.75 0 0 0.75 0 0] CT
1 GC
N
447.833 119.5 M
446.857 117.143 L
444.5 116.167 L
442.143 117.143 L
441.167 119.5 L
442.143 121.857 L
444.5 122.833 L
446.857 121.857 L
447.833 119.5 L
cp
f
GR
GS
[0.75 0 0 0.75 0 0] CT
1 LJ
2 LW
N
447.833 119.5 M
447.197 117.541 L
445.53 116.33 L
443.47 116.33 L
441.803 117.541 L
441.167 119.5 L
441.803 121.459 L
443.47 122.67 L
445.53 122.67 L
447.197 121.459 L
cp
S
GR
GS
[0.75 0 0 0.75 0 0] CT
1 GC
N
522.833 100.5 M
521.857 98.143 L
519.5 97.167 L
517.143 98.143 L
516.167 100.5 L
517.143 102.857 L
519.5 103.833 L
521.857 102.857 L
522.833 100.5 L
cp
f
GR
GS
[0.75 0 0 0.75 0 0] CT
1 LJ
2 LW
N
522.833 100.5 M
522.197 98.541 L
520.53 97.33 L
518.47 97.33 L
516.803 98.541 L
516.167 100.5 L
516.803 102.459 L
518.47 103.67 L
520.53 103.67 L
522.197 102.459 L
cp
S
GR
GS
[0.75 0 0 0.75 0 0] CT
1 GC
N
596.833 85.5 M
595.857 83.143 L
593.5 82.167 L
591.143 83.143 L
590.167 85.5 L
591.143 87.857 L
593.5 88.833 L
595.857 87.857 L
596.833 85.5 L
cp
f
GR
GS
[0.75 0 0 0.75 0 0] CT
1 LJ
2 LW
N
596.833 85.5 M
596.197 83.541 L
594.53 82.33 L
592.47 82.33 L
590.803 83.541 L
590.167 85.5 L
590.803 87.459 L
592.47 88.67 L
594.53 88.67 L
596.197 87.459 L
cp
S
GR
GS
[0.75 0 0 0.75 0 0] CT
1 GC
N
671.833 71.5 M
670.857 69.143 L
668.5 68.167 L
666.143 69.143 L
665.167 71.5 L
666.143 73.857 L
668.5 74.833 L
670.857 73.857 L
671.833 71.5 L
cp
f
GR
GS
[0.75 0 0 0.75 0 0] CT
1 LJ
2 LW
N
671.833 71.5 M
671.197 69.541 L
669.53 68.33 L
667.47 68.33 L
665.803 69.541 L
665.167 71.5 L
665.803 73.459 L
667.47 74.67 L
669.53 74.67 L
671.197 73.459 L
cp
S
GR
GS
[0.75 0 0 0.75 0 0] CT
1 GC
N
746.833 59.5 M
745.857 57.143 L
743.5 56.167 L
741.143 57.143 L
740.167 59.5 L
741.143 61.857 L
743.5 62.833 L
745.857 61.857 L
746.833 59.5 L
cp
f
GR
GS
[0.75 0 0 0.75 0 0] CT
1 LJ
2 LW
N
746.833 59.5 M
746.197 57.541 L
744.53 56.33 L
742.47 56.33 L
740.803 57.541 L
740.167 59.5 L
740.803 61.459 L
742.47 62.67 L
744.53 62.67 L
746.197 61.459 L
cp
S
GR
GS
[0.75 0 0 0.75 0 0] CT
1 GC
N
624 408 M
624 139 L
730 139 L
730 408 L
cp
f
GR
GS
[0.75 0 0 0.75 495.75 116.625] CT
/Times 24 F
GS
[1 0 0 1 0 0] CT
0 8.5 moveto 
1 -1 scale
(LBP) t 
GR
GR
GS
[0.75 0 0 0.75 0 0] CT
1 0.6 0.784 RC
1 LJ
2 LW
N
628 155.5 M
658 155.5 L
S
GR
GS
[0.75 0 0 0.75 0 0] CT
1 GC
N
641.278 151.652 M
647.943 155.5 L
641.278 159.348 L
cp
f
GR
GS
[0.75 0 0 0.75 0 0] CT
1 0.6 0.784 RC
10.0 ML
2 LW
N
641.278 151.652 M
647.943 155.5 L
641.278 159.348 L
cp
S
GR
GS
[0.75 0 0 0.75 495.75 138.75] CT
/Times 24 F
GS
[1 0 0 1 0 0] CT
0 8.5 moveto 
1 -1 scale
(LTP) t 
GR
GR
GS
[0.75 0 0 0.75 0 0] CT
0.6 0.2 0 RC
1 LJ
2 LW
N
628 185 M
658 185 L
S
GR
GS
[0.75 0 0 0.75 0 0] CT
1 GC
N
639.057 184.5 M
645.722 180.652 L
645.722 188.348 L
cp
f
GR
GS
[0.75 0 0 0.75 0 0] CT
0.6 0.2 0 RC
10.0 ML
2 LW
N
639.057 184.5 M
645.722 180.652 L
645.722 188.348 L
cp
S
GR
GS
[0.75 0 0 0.75 495.75 160.875] CT
/Times 24 F
GS
[1 0 0 1 0 0] CT
0 8.5 moveto 
1 -1 scale
(LDP) t 
GR
GR
GS
[0.75 0 0 0.75 0 0] CT
0.929 0.694 0.125 RC
1 LJ
2 LW
N
628 214.5 M
658 214.5 L
S
GR
GS
[0.75 0 0 0.75 0 0] CT
1 GC
N
640.33 213.47 M
642.716 213.47 L
643.5 211.167 L
644.284 213.47 L
646.67 213.47 L
644.768 214.912 L
645.459 217.197 L
643.5 215.833 L
641.541 217.197 L
642.232 214.912 L
640.33 213.47 L
cp
f
GR
GS
[0.75 0 0 0.75 0 0] CT
0.929 0.694 0.125 RC
10.0 ML
2 LW
N
640.33 213.47 M
642.716 213.47 L
643.5 211.167 L
644.284 213.47 L
646.67 213.47 L
644.768 214.912 L
645.459 217.197 L
643.5 215.833 L
641.541 217.197 L
642.232 214.912 L
cp
S
GR
GS
[0.75 0 0 0.75 495.75 183] CT
/Times 24 F
GS
[1 0 0 1 0 0] CT
0 8.5 moveto 
1 -1 scale
(LDN) t 
GR
GR
GS
[0.75 0 0 0.75 0 0] CT
0 1 1 RC
1 LJ
2 LW
N
628 244 M
658 244 L
S
GR
GS
[0.75 0 0 0.75 0 0] CT
1 GC
N
643.5 247.943 M
646.833 243.5 L
643.5 239.057 L
640.167 243.5 L
cp
f
GR
GS
[0.75 0 0 0.75 0 0] CT
0 1 1 RC
10.0 ML
2 LW
N
643.5 247.943 M
646.833 243.5 L
643.5 239.057 L
640.167 243.5 L
cp
S
GR
GS
[0.75 0 0 0.75 495.75 205.125] CT
/Times 24 F
GS
[1 0 0 1 0 0] CT
0 8.5 moveto 
1 -1 scale
(LVP) t 
GR
GR
GS
[0.75 0 0 0.75 0 0] CT
0 1 0 RC
1 LJ
2 LW
N
628 273.5 M
658 273.5 L
S
GR
GS
[0.75 0 0 0.75 0 0] CT
1 GC
N
640.9 276.1 M
640.9 270.9 L
646.1 270.9 L
646.1 276.1 L
cp
f
GR
GS
[0.75 0 0 0.75 0 0] CT
0 1 0 RC
10.0 ML
2 LW
N
640.9 276.1 M
640.9 270.9 L
646.1 270.9 L
646.1 276.1 L
cp
S
GR
GS
[0.75 0 0 0.75 495.75 227.25] CT
/Times 24 F
GS
[1 0 0 1 0 0] CT
0 8.5 moveto 
1 -1 scale
(LDGP) t 
GR
GR
GS
[0.75 0 0 0.75 0 0] CT
0 0 1 RC
1 LJ
2 LW
N
628 303 M
658 303 L
S
GR
GS
[0.75 0 0 0.75 0 0] CT
1 GC
N
639.057 302.5 M
645.722 298.652 L
645.722 306.348 L
cp
f
GR
GS
[0.75 0 0 0.75 0 0] CT
0 0 1 RC
10.0 ML
2 LW
N
639.057 302.5 M
645.722 298.652 L
645.722 306.348 L
cp
S
GR
GS
[0.75 0 0 0.75 495.75 249.375] CT
/Times 24 F
GS
[1 0 0 1 0 0] CT
0 8.5 moveto 
1 -1 scale
(DCP) t 
GR
GR
GS
[0.75 0 0 0.75 0 0] CT
1 0 1 RC
1 LJ
2 LW
N
628 332.5 M
658 332.5 L
S
GR
GS
[0.75 0 0 0.75 0 0] CT
1 0 1 RC
1 LJ
2 LW
N
640 332.5 M
647 332.5 L
S
GR
GS
[0.75 0 0 0.75 0 0] CT
1 0 1 RC
1 LJ
2 LW
N
643.5 336 M
643.5 329 L
S
GR
GS
[0.75 0 0 0.75 495.75 271.5] CT
/Times 24 F
GS
[1 0 0 1 0 0] CT
0 8.5 moveto 
1 -1 scale
(LGHP) t 
GR
GR
GS
[0.75 0 0 0.75 0 0] CT
1 0 0 RC
1 LJ
2 LW
N
628 362 M
658 362 L
S
GR
GS
[0.75 0 0 0.75 0 0] CT
1 GC
N
640.9 365.1 M
640.9 359.9 L
646.1 359.9 L
646.1 365.1 L
cp
f
GR
GS
[0.75 0 0 0.75 0 0] CT
1 0 0 RC
10.0 ML
2 LW
N
640.9 365.1 M
640.9 359.9 L
646.1 359.9 L
646.1 365.1 L
cp
S
GR
GS
[0.75 0 0 0.75 495.75 293.625] CT
/Times 24 F
GS
[1 0 0 1 0 0] CT
0 8.5 moveto 
1 -1 scale
(LDRP) t 
GR
GR
GS
[0.75 0 0 0.75 0 0] CT
1 LJ
2 LW
N
628 391.5 M
658 391.5 L
S
GR
GS
[0.75 0 0 0.75 0 0] CT
1 GC
N
646.833 391.5 M
645.857 389.143 L
643.5 388.167 L
641.143 389.143 L
640.167 391.5 L
641.143 393.857 L
643.5 394.833 L
645.857 393.857 L
646.833 391.5 L
cp
f
GR
GS
[0.75 0 0 0.75 0 0] CT
1 LJ
2 LW
N
646.833 391.5 M
646.197 389.541 L
644.53 388.33 L
642.47 388.33 L
640.803 389.541 L
640.167 391.5 L
640.803 393.459 L
642.47 394.67 L
644.53 394.67 L
646.197 393.459 L
cp
S
GR
GS
[0.75 0 0 0.75 0 0] CT
0.149 GC
10.0 ML
0.667 LW
N
624 408 M
624 139 L
730 139 L
730 408 L
cp
S
GR
%%Trailer
%%Pages: 1
%%EOF
