%!PS-Adobe-3.0 EPSF-3.0
%%Creator: (MATLAB, The Mathworks, Inc. Version 9.0.0.341360 \(R2016a\). Operating System: Linux)
%%Title: (/home/shivram/main/Work/1. Research/1. Ongoing/5. LDRP Face/2. Exp/1. Results/PaSC/PaSC-ARP.eps)
%%CreationDate: 2017-08-16T15:30:34
%%Pages: (atend)
%%BoundingBox: 0 0 573 384
%%LanguageLevel: 3
%%EndComments
%%BeginProlog
%%BeginResource: procset (Apache XML Graphics Std ProcSet) 1.2 0
%%Version: 1.2 0
%%Copyright: (Copyright 2001-2003,2010 The Apache Software Foundation. License terms: http://www.apache.org/licenses/LICENSE-2.0)
/bd{bind def}bind def
/ld{load def}bd
/GR/grestore ld
/M/moveto ld
/LJ/setlinejoin ld
/C/curveto ld
/f/fill ld
/LW/setlinewidth ld
/GC/setgray ld
/t/show ld
/N/newpath ld
/CT/concat ld
/cp/closepath ld
/S/stroke ld
/L/lineto ld
/CC/setcmykcolor ld
/A/ashow ld
/GS/gsave ld
/RC/setrgbcolor ld
/RM/rmoveto ld
/ML/setmiterlimit ld
/re {4 2 roll M
1 index 0 rlineto
0 exch rlineto
neg 0 rlineto
cp } bd
/_ctm matrix def
/_tm matrix def
/BT { _ctm currentmatrix pop matrix _tm copy pop 0 0 moveto } bd
/ET { _ctm setmatrix } bd
/iTm { _ctm setmatrix _tm concat } bd
/Tm { _tm astore pop iTm 0 0 moveto } bd
/ux 0.0 def
/uy 0.0 def
/F {
  /Tp exch def
  /Tf exch def
  Tf findfont Tp scalefont setfont
  /cf Tf def  /cs Tp def
} bd
/ULS {currentpoint /uy exch def /ux exch def} bd
/ULE {
  /Tcx currentpoint pop def
  gsave
  newpath
  cf findfont cs scalefont dup
  /FontMatrix get 0 get /Ts exch def /FontInfo get dup
  /UnderlinePosition get Ts mul /To exch def
  /UnderlineThickness get Ts mul /Tt exch def
  ux uy To add moveto  Tcx uy To add lineto
  Tt setlinewidth stroke
  grestore
} bd
/OLE {
  /Tcx currentpoint pop def
  gsave
  newpath
  cf findfont cs scalefont dup
  /FontMatrix get 0 get /Ts exch def /FontInfo get dup
  /UnderlinePosition get Ts mul /To exch def
  /UnderlineThickness get Ts mul /Tt exch def
  ux uy To add cs add moveto Tcx uy To add cs add lineto
  Tt setlinewidth stroke
  grestore
} bd
/SOE {
  /Tcx currentpoint pop def
  gsave
  newpath
  cf findfont cs scalefont dup
  /FontMatrix get 0 get /Ts exch def /FontInfo get dup
  /UnderlinePosition get Ts mul /To exch def
  /UnderlineThickness get Ts mul /Tt exch def
  ux uy To add cs 10 mul 26 idiv add moveto Tcx uy To add cs 10 mul 26 idiv add lineto
  Tt setlinewidth stroke
  grestore
} bd
/QT {
/Y22 exch store
/X22 exch store
/Y21 exch store
/X21 exch store
currentpoint
/Y21 load 2 mul add 3 div exch
/X21 load 2 mul add 3 div exch
/X21 load 2 mul /X22 load add 3 div
/Y21 load 2 mul /Y22 load add 3 div
/X22 load /Y22 load curveto
} bd
/SSPD {
dup length /d exch dict def
{
/v exch def
/k exch def
currentpagedevice k known {
/cpdv currentpagedevice k get def
v cpdv ne {
/upd false def
/nullv v type /nulltype eq def
/nullcpdv cpdv type /nulltype eq def
nullv nullcpdv or
{
/upd true def
} {
/sametype v type cpdv type eq def
sametype {
v type /arraytype eq {
/vlen v length def
/cpdvlen cpdv length def
vlen cpdvlen eq {
0 1 vlen 1 sub {
/i exch def
/obj v i get def
/cpdobj cpdv i get def
obj cpdobj ne {
/upd true def
exit
} if
} for
} {
/upd true def
} ifelse
} {
v type /dicttype eq {
v {
/dv exch def
/dk exch def
/cpddv cpdv dk get def
dv cpddv ne {
/upd true def
exit
} if
} forall
} {
/upd true def
} ifelse
} ifelse
} if
} ifelse
upd true eq {
d k v put
} if
} if
} if
} forall
d length 0 gt {
d setpagedevice
} if
} bd
%%EndResource
%%BeginResource: procset (Apache XML Graphics EPS ProcSet) 1.0 0
%%Version: 1.0 0
%%Copyright: (Copyright 2002-2003 The Apache Software Foundation. License terms: http://www.apache.org/licenses/LICENSE-2.0)
/BeginEPSF { %def
/b4_Inc_state save def         % Save state for cleanup
/dict_count countdictstack def % Count objects on dict stack
/op_count count 1 sub def      % Count objects on operand stack
userdict begin                 % Push userdict on dict stack
/showpage { } def              % Redefine showpage, { } = null proc
0 setgray 0 setlinecap         % Prepare graphics state
1 setlinewidth 0 setlinejoin
10 setmiterlimit [ ] 0 setdash newpath
/languagelevel where           % If level not equal to 1 then
{pop languagelevel             % set strokeadjust and
1 ne                           % overprint to their defaults.
{false setstrokeadjust false setoverprint
} if
} if
} bd
/EndEPSF { %def
count op_count sub {pop} repeat            % Clean up stacks
countdictstack dict_count sub {end} repeat
b4_Inc_state restore
} bd
%%EndResource
%FOPBeginFontDict
%%IncludeResource: font Courier-Bold
%%IncludeResource: font Helvetica
%%IncludeResource: font Courier-BoldOblique
%%IncludeResource: font Courier-Oblique
%%IncludeResource: font Times-Roman
%%IncludeResource: font Helvetica-BoldOblique
%%IncludeResource: font Helvetica-Bold
%%IncludeResource: font Helvetica-Oblique
%%IncludeResource: font Times-BoldItalic
%%IncludeResource: font Courier
%%IncludeResource: font Times-Italic
%%IncludeResource: font Times-Bold
%%IncludeResource: font Symbol
%%IncludeResource: font ZapfDingbats
%FOPEndFontDict
%%BeginResource: encoding WinAnsiEncoding
/WinAnsiEncoding [
/.notdef /.notdef /.notdef /.notdef /.notdef
/.notdef /.notdef /.notdef /.notdef /.notdef
/.notdef /.notdef /.notdef /.notdef /.notdef
/.notdef /.notdef /.notdef /.notdef /.notdef
/.notdef /.notdef /.notdef /.notdef /.notdef
/.notdef /.notdef /.notdef /.notdef /.notdef
/.notdef /.notdef /space /exclam /quotedbl
/numbersign /dollar /percent /ampersand /quotesingle
/parenleft /parenright /asterisk /plus /comma
/hyphen /period /slash /zero /one
/two /three /four /five /six
/seven /eight /nine /colon /semicolon
/less /equal /greater /question /at
/A /B /C /D /E
/F /G /H /I /J
/K /L /M /N /O
/P /Q /R /S /T
/U /V /W /X /Y
/Z /bracketleft /backslash /bracketright /asciicircum
/underscore /quoteleft /a /b /c
/d /e /f /g /h
/i /j /k /l /m
/n /o /p /q /r
/s /t /u /v /w
/x /y /z /braceleft /bar
/braceright /asciitilde /bullet /Euro /bullet
/quotesinglbase /florin /quotedblbase /ellipsis /dagger
/daggerdbl /circumflex /perthousand /Scaron /guilsinglleft
/OE /bullet /Zcaron /bullet /bullet
/quoteleft /quoteright /quotedblleft /quotedblright /bullet
/endash /emdash /asciitilde /trademark /scaron
/guilsinglright /oe /bullet /zcaron /Ydieresis
/space /exclamdown /cent /sterling /currency
/yen /brokenbar /section /dieresis /copyright
/ordfeminine /guillemotleft /logicalnot /sfthyphen /registered
/macron /degree /plusminus /twosuperior /threesuperior
/acute /mu /paragraph /middot /cedilla
/onesuperior /ordmasculine /guillemotright /onequarter /onehalf
/threequarters /questiondown /Agrave /Aacute /Acircumflex
/Atilde /Adieresis /Aring /AE /Ccedilla
/Egrave /Eacute /Ecircumflex /Edieresis /Igrave
/Iacute /Icircumflex /Idieresis /Eth /Ntilde
/Ograve /Oacute /Ocircumflex /Otilde /Odieresis
/multiply /Oslash /Ugrave /Uacute /Ucircumflex
/Udieresis /Yacute /Thorn /germandbls /agrave
/aacute /acircumflex /atilde /adieresis /aring
/ae /ccedilla /egrave /eacute /ecircumflex
/edieresis /igrave /iacute /icircumflex /idieresis
/eth /ntilde /ograve /oacute /ocircumflex
/otilde /odieresis /divide /oslash /ugrave
/uacute /ucircumflex /udieresis /yacute /thorn
/ydieresis
] def
%%EndResource
%FOPBeginFontReencode
/Courier-Bold findfont
dup length dict begin
  {1 index /FID ne {def} {pop pop} ifelse} forall
  /Encoding WinAnsiEncoding def
  currentdict
end
/Courier-Bold exch definefont pop
/Helvetica findfont
dup length dict begin
  {1 index /FID ne {def} {pop pop} ifelse} forall
  /Encoding WinAnsiEncoding def
  currentdict
end
/Helvetica exch definefont pop
/Courier-BoldOblique findfont
dup length dict begin
  {1 index /FID ne {def} {pop pop} ifelse} forall
  /Encoding WinAnsiEncoding def
  currentdict
end
/Courier-BoldOblique exch definefont pop
/Courier-Oblique findfont
dup length dict begin
  {1 index /FID ne {def} {pop pop} ifelse} forall
  /Encoding WinAnsiEncoding def
  currentdict
end
/Courier-Oblique exch definefont pop
/Times-Roman findfont
dup length dict begin
  {1 index /FID ne {def} {pop pop} ifelse} forall
  /Encoding WinAnsiEncoding def
  currentdict
end
/Times-Roman exch definefont pop
/Helvetica-BoldOblique findfont
dup length dict begin
  {1 index /FID ne {def} {pop pop} ifelse} forall
  /Encoding WinAnsiEncoding def
  currentdict
end
/Helvetica-BoldOblique exch definefont pop
/Helvetica-Bold findfont
dup length dict begin
  {1 index /FID ne {def} {pop pop} ifelse} forall
  /Encoding WinAnsiEncoding def
  currentdict
end
/Helvetica-Bold exch definefont pop
/Helvetica-Oblique findfont
dup length dict begin
  {1 index /FID ne {def} {pop pop} ifelse} forall
  /Encoding WinAnsiEncoding def
  currentdict
end
/Helvetica-Oblique exch definefont pop
/Times-BoldItalic findfont
dup length dict begin
  {1 index /FID ne {def} {pop pop} ifelse} forall
  /Encoding WinAnsiEncoding def
  currentdict
end
/Times-BoldItalic exch definefont pop
/Courier findfont
dup length dict begin
  {1 index /FID ne {def} {pop pop} ifelse} forall
  /Encoding WinAnsiEncoding def
  currentdict
end
/Courier exch definefont pop
/Times-Italic findfont
dup length dict begin
  {1 index /FID ne {def} {pop pop} ifelse} forall
  /Encoding WinAnsiEncoding def
  currentdict
end
/Times-Italic exch definefont pop
/Times-Bold findfont
dup length dict begin
  {1 index /FID ne {def} {pop pop} ifelse} forall
  /Encoding WinAnsiEncoding def
  currentdict
end
/Times-Bold exch definefont pop
%FOPEndFontReencode
%%EndProlog
%%Page: 1 1
%%PageBoundingBox: 0 0 573 384
%%BeginPageSetup
[1 0 0 -1 0 384] CT
%%EndPageSetup
GS
[0.75 0 0 0.75 0 0] CT
1 GC
N
0 0 764 512 re
f
GR
GS
[0.75 0 0 0.75 0 0] CT
1 GC
N
0 0 764 512 re
f
GR
GS
[0.75 0 0 0.75 0 0] CT
1 GC
N
113 421 M
746 421 L
746 51 L
113 51 L
cp
f
GR
GS
[0.75 0 0 0.75 0 0] CT
0.149 GC
2 setlinecap
1 LJ
0.667 LW
N
113 421 M
746 421 L
S
GR
GS
[0.75 0 0 0.75 0 0] CT
0.149 GC
2 setlinecap
1 LJ
0.667 LW
N
113 51 M
746 51 L
S
GR
GS
[0.75 0 0 0.75 0 0] CT
0.149 GC
2 setlinecap
1 LJ
0.667 LW
N
113 421 M
113 414.67 L
S
GR
GS
[0.75 0 0 0.75 0 0] CT
0.149 GC
2 setlinecap
1 LJ
0.667 LW
N
183.333 421 M
183.333 414.67 L
S
GR
GS
[0.75 0 0 0.75 0 0] CT
0.149 GC
2 setlinecap
1 LJ
0.667 LW
N
253.667 421 M
253.667 414.67 L
S
GR
GS
[0.75 0 0 0.75 0 0] CT
0.149 GC
2 setlinecap
1 LJ
0.667 LW
N
324 421 M
324 414.67 L
S
GR
GS
[0.75 0 0 0.75 0 0] CT
0.149 GC
2 setlinecap
1 LJ
0.667 LW
N
394.333 421 M
394.333 414.67 L
S
GR
GS
[0.75 0 0 0.75 0 0] CT
0.149 GC
2 setlinecap
1 LJ
0.667 LW
N
464.667 421 M
464.667 414.67 L
S
GR
GS
[0.75 0 0 0.75 0 0] CT
0.149 GC
2 setlinecap
1 LJ
0.667 LW
N
535 421 M
535 414.67 L
S
GR
GS
[0.75 0 0 0.75 0 0] CT
0.149 GC
2 setlinecap
1 LJ
0.667 LW
N
605.333 421 M
605.333 414.67 L
S
GR
GS
[0.75 0 0 0.75 0 0] CT
0.149 GC
2 setlinecap
1 LJ
0.667 LW
N
675.667 421 M
675.667 414.67 L
S
GR
GS
[0.75 0 0 0.75 0 0] CT
0.149 GC
2 setlinecap
1 LJ
0.667 LW
N
746 421 M
746 414.67 L
S
GR
GS
[0.75 0 0 0.75 0 0] CT
0.149 GC
2 setlinecap
1 LJ
0.667 LW
N
113 51 M
113 57.33 L
S
GR
GS
[0.75 0 0 0.75 0 0] CT
0.149 GC
2 setlinecap
1 LJ
0.667 LW
N
183.333 51 M
183.333 57.33 L
S
GR
GS
[0.75 0 0 0.75 0 0] CT
0.149 GC
2 setlinecap
1 LJ
0.667 LW
N
253.667 51 M
253.667 57.33 L
S
GR
GS
[0.75 0 0 0.75 0 0] CT
0.149 GC
2 setlinecap
1 LJ
0.667 LW
N
324 51 M
324 57.33 L
S
GR
GS
[0.75 0 0 0.75 0 0] CT
0.149 GC
2 setlinecap
1 LJ
0.667 LW
N
394.333 51 M
394.333 57.33 L
S
GR
GS
[0.75 0 0 0.75 0 0] CT
0.149 GC
2 setlinecap
1 LJ
0.667 LW
N
464.667 51 M
464.667 57.33 L
S
GR
GS
[0.75 0 0 0.75 0 0] CT
0.149 GC
2 setlinecap
1 LJ
0.667 LW
N
535 51 M
535 57.33 L
S
GR
GS
[0.75 0 0 0.75 0 0] CT
0.149 GC
2 setlinecap
1 LJ
0.667 LW
N
605.333 51 M
605.333 57.33 L
S
GR
GS
[0.75 0 0 0.75 0 0] CT
0.149 GC
2 setlinecap
1 LJ
0.667 LW
N
675.667 51 M
675.667 57.33 L
S
GR
GS
[0.75 0 0 0.75 0 0] CT
0.149 GC
2 setlinecap
1 LJ
0.667 LW
N
746 51 M
746 57.33 L
S
GR
GS
[0.75 0 0 0.75 84.75 322.55001] CT
0.149 GC
/Times 32 F
GS
[1 0 0 1 0 0] CT
-10.5 30 moveto 
1 -1 scale
(1) t 
GR
GR
GS
[0.75 0 0 0.75 137.5 322.55001] CT
0.149 GC
/Times 32 F
GS
[1 0 0 1 0 0] CT
-10.5 30 moveto 
1 -1 scale
(2) t 
GR
GR
GS
[0.75 0 0 0.75 190.25 322.55001] CT
0.149 GC
/Times 32 F
GS
[1 0 0 1 0 0] CT
-10.5 30 moveto 
1 -1 scale
(3) t 
GR
GR
GS
[0.75 0 0 0.75 243 322.55001] CT
0.149 GC
/Times 32 F
GS
[1 0 0 1 0 0] CT
-10.5 30 moveto 
1 -1 scale
(4) t 
GR
GR
GS
[0.75 0 0 0.75 295.75001 322.55001] CT
0.149 GC
/Times 32 F
GS
[1 0 0 1 0 0] CT
-10.5 30 moveto 
1 -1 scale
(5) t 
GR
GR
GS
[0.75 0 0 0.75 348.49999 322.55001] CT
0.149 GC
/Times 32 F
GS
[1 0 0 1 0 0] CT
-10.5 30 moveto 
1 -1 scale
(6) t 
GR
GR
GS
[0.75 0 0 0.75 401.25 322.55001] CT
0.149 GC
/Times 32 F
GS
[1 0 0 1 0 0] CT
-10.5 30 moveto 
1 -1 scale
(7) t 
GR
GR
GS
[0.75 0 0 0.75 453.99998 322.55001] CT
0.149 GC
/Times 32 F
GS
[1 0 0 1 0 0] CT
-10.5 30 moveto 
1 -1 scale
(8) t 
GR
GR
GS
[0.75 0 0 0.75 506.75002 322.55001] CT
0.149 GC
/Times 32 F
GS
[1 0 0 1 0 0] CT
-10.5 30 moveto 
1 -1 scale
(9) t 
GR
GR
GS
[0.75 0 0 0.75 559.5 322.55001] CT
0.149 GC
/Times 32 F
GS
[1 0 0 1 0 0] CT
-20.5 30 moveto 
1 -1 scale
(10) t 
GR
GR
GS
[0.75 0 0 0.75 322.12523 352.05] CT
0.149 GC
/Times 35.2 F
GS
[1 0 0 1 0 0] CT
-210 33 moveto 
1 -1 scale
(Number of Top Matches) t 
GR
GR
GS
[0.75 0 0 0.75 0 0] CT
0.149 GC
2 setlinecap
1 LJ
0.667 LW
N
113 421 M
113 51 L
S
GR
GS
[0.75 0 0 0.75 0 0] CT
0.149 GC
2 setlinecap
1 LJ
0.667 LW
N
746 421 M
746 51 L
S
GR
GS
[0.75 0 0 0.75 0 0] CT
0.149 GC
2 setlinecap
1 LJ
0.667 LW
N
113 379.889 M
119.33 379.889 L
S
GR
GS
[0.75 0 0 0.75 0 0] CT
0.149 GC
2 setlinecap
1 LJ
0.667 LW
N
113 297.667 M
119.33 297.667 L
S
GR
GS
[0.75 0 0 0.75 0 0] CT
0.149 GC
2 setlinecap
1 LJ
0.667 LW
N
113 215.444 M
119.33 215.444 L
S
GR
GS
[0.75 0 0 0.75 0 0] CT
0.149 GC
2 setlinecap
1 LJ
0.667 LW
N
113 133.222 M
119.33 133.222 L
S
GR
GS
[0.75 0 0 0.75 0 0] CT
0.149 GC
2 setlinecap
1 LJ
0.667 LW
N
113 51 M
119.33 51 L
S
GR
GS
[0.75 0 0 0.75 0 0] CT
0.149 GC
2 setlinecap
1 LJ
0.667 LW
N
746 379.889 M
739.67 379.889 L
S
GR
GS
[0.75 0 0 0.75 0 0] CT
0.149 GC
2 setlinecap
1 LJ
0.667 LW
N
746 297.667 M
739.67 297.667 L
S
GR
GS
[0.75 0 0 0.75 0 0] CT
0.149 GC
2 setlinecap
1 LJ
0.667 LW
N
746 215.444 M
739.67 215.444 L
S
GR
GS
[0.75 0 0 0.75 0 0] CT
0.149 GC
2 setlinecap
1 LJ
0.667 LW
N
746 133.222 M
739.67 133.222 L
S
GR
GS
[0.75 0 0 0.75 0 0] CT
0.149 GC
2 setlinecap
1 LJ
0.667 LW
N
746 51 M
739.67 51 L
S
GR
GS
[0.75 0 0 0.75 77.95 284.91666] CT
0.149 GC
/Times 32 F
GS
[1 0 0 1 0 0] CT
-41 11 moveto 
1 -1 scale
(20) t 
GR
GR
GS
[0.75 0 0 0.75 77.95 223.24999] CT
0.149 GC
/Times 32 F
GS
[1 0 0 1 0 0] CT
-41 11 moveto 
1 -1 scale
(40) t 
GR
GR
GS
[0.75 0 0 0.75 77.95 161.58333] CT
0.149 GC
/Times 32 F
GS
[1 0 0 1 0 0] CT
-41 11 moveto 
1 -1 scale
(60) t 
GR
GR
GS
[0.75 0 0 0.75 77.95 99.91667] CT
0.149 GC
/Times 32 F
GS
[1 0 0 1 0 0] CT
-41 11 moveto 
1 -1 scale
(80) t 
GR
GR
GS
[0.75 0 0 0.75 77.95 38.25] CT
0.149 GC
/Times 32 F
GS
[1 0 0 1 0 0] CT
-62 11 moveto 
1 -1 scale
(100) t 
GR
GR
GS
[0 -0.75 0.75 0 28.45 176.99987] CT
0.149 GC
/Times 35.2 F
GS
[1 0 0 1 0 0] CT
-71 -9 moveto 
1 -1 scale
(ARP \(%\)) t 
GR
GR
GS
[0.75 0 0 0.75 322.1253 33.29999] CT
/Times 35.2 F
GS
[1 0 0 1 0 0] CT
-134 -9 moveto 
1 -1 scale
(PaSC Database) t 
GR
GR
GS
[0.75 0 0 0.75 0 0] CT
1 0.6 0.784 RC
1 LJ
2 LW
N
113 51 M
183.333 233.39 L
253.667 300.499 L
324 335.619 L
394.333 357.223 L
464.667 371.807 L
535 382.579 L
605.333 390.957 L
675.667 397.457 L
746 402.679 L
S
GR
GS
[0.75 0 0 0.75 0 0] CT
1 GC
N
111.278 46.652 M
117.943 50.5 L
111.278 54.348 L
cp
f
GR
GS
[0.75 0 0 0.75 0 0] CT
1 0.6 0.784 RC
10.0 ML
2 LW
N
111.278 46.652 M
117.943 50.5 L
111.278 54.348 L
cp
S
GR
GS
[0.75 0 0 0.75 0 0] CT
1 GC
N
181.278 229.652 M
187.943 233.5 L
181.278 237.348 L
cp
f
GR
GS
[0.75 0 0 0.75 0 0] CT
1 0.6 0.784 RC
10.0 ML
2 LW
N
181.278 229.652 M
187.943 233.5 L
181.278 237.348 L
cp
S
GR
GS
[0.75 0 0 0.75 0 0] CT
1 GC
N
251.278 296.652 M
257.943 300.5 L
251.278 304.348 L
cp
f
GR
GS
[0.75 0 0 0.75 0 0] CT
1 0.6 0.784 RC
10.0 ML
2 LW
N
251.278 296.652 M
257.943 300.5 L
251.278 304.348 L
cp
S
GR
GS
[0.75 0 0 0.75 0 0] CT
1 GC
N
321.278 331.652 M
327.943 335.5 L
321.278 339.348 L
cp
f
GR
GS
[0.75 0 0 0.75 0 0] CT
1 0.6 0.784 RC
10.0 ML
2 LW
N
321.278 331.652 M
327.943 335.5 L
321.278 339.348 L
cp
S
GR
GS
[0.75 0 0 0.75 0 0] CT
1 GC
N
392.278 353.652 M
398.943 357.5 L
392.278 361.348 L
cp
f
GR
GS
[0.75 0 0 0.75 0 0] CT
1 0.6 0.784 RC
10.0 ML
2 LW
N
392.278 353.652 M
398.943 357.5 L
392.278 361.348 L
cp
S
GR
GS
[0.75 0 0 0.75 0 0] CT
1 GC
N
462.278 367.652 M
468.943 371.5 L
462.278 375.348 L
cp
f
GR
GS
[0.75 0 0 0.75 0 0] CT
1 0.6 0.784 RC
10.0 ML
2 LW
N
462.278 367.652 M
468.943 371.5 L
462.278 375.348 L
cp
S
GR
GS
[0.75 0 0 0.75 0 0] CT
1 GC
N
533.278 378.652 M
539.943 382.5 L
533.278 386.348 L
cp
f
GR
GS
[0.75 0 0 0.75 0 0] CT
1 0.6 0.784 RC
10.0 ML
2 LW
N
533.278 378.652 M
539.943 382.5 L
533.278 386.348 L
cp
S
GR
GS
[0.75 0 0 0.75 0 0] CT
1 GC
N
603.278 386.652 M
609.943 390.5 L
603.278 394.348 L
cp
f
GR
GS
[0.75 0 0 0.75 0 0] CT
1 0.6 0.784 RC
10.0 ML
2 LW
N
603.278 386.652 M
609.943 390.5 L
603.278 394.348 L
cp
S
GR
GS
[0.75 0 0 0.75 0 0] CT
1 GC
N
673.278 393.652 M
679.943 397.5 L
673.278 401.348 L
cp
f
GR
GS
[0.75 0 0 0.75 0 0] CT
1 0.6 0.784 RC
10.0 ML
2 LW
N
673.278 393.652 M
679.943 397.5 L
673.278 401.348 L
cp
S
GR
GS
[0.75 0 0 0.75 0 0] CT
1 GC
N
744.278 398.652 M
750.943 402.5 L
744.278 406.348 L
cp
f
GR
GS
[0.75 0 0 0.75 0 0] CT
1 0.6 0.784 RC
10.0 ML
2 LW
N
744.278 398.652 M
750.943 402.5 L
744.278 406.348 L
cp
S
GR
GS
[0.75 0 0 0.75 0 0] CT
0.6 0.2 0 RC
1 LJ
2 LW
N
113 51 M
183.333 235.38 L
253.667 301.732 L
324 336.328 L
394.333 357.598 L
464.667 372.208 L
535 382.911 L
605.333 390.878 L
675.667 397.277 L
746 402.379 L
S
GR
GS
[0.75 0 0 0.75 0 0] CT
1 GC
N
109.057 50.5 M
115.722 46.652 L
115.722 54.348 L
cp
f
GR
GS
[0.75 0 0 0.75 0 0] CT
0.6 0.2 0 RC
10.0 ML
2 LW
N
109.057 50.5 M
115.722 46.652 L
115.722 54.348 L
cp
S
GR
GS
[0.75 0 0 0.75 0 0] CT
1 GC
N
179.057 235.5 M
185.722 231.652 L
185.722 239.348 L
cp
f
GR
GS
[0.75 0 0 0.75 0 0] CT
0.6 0.2 0 RC
10.0 ML
2 LW
N
179.057 235.5 M
185.722 231.652 L
185.722 239.348 L
cp
S
GR
GS
[0.75 0 0 0.75 0 0] CT
1 GC
N
249.057 301.5 M
255.722 297.652 L
255.722 305.348 L
cp
f
GR
GS
[0.75 0 0 0.75 0 0] CT
0.6 0.2 0 RC
10.0 ML
2 LW
N
249.057 301.5 M
255.722 297.652 L
255.722 305.348 L
cp
S
GR
GS
[0.75 0 0 0.75 0 0] CT
1 GC
N
319.057 336.5 M
325.722 332.652 L
325.722 340.348 L
cp
f
GR
GS
[0.75 0 0 0.75 0 0] CT
0.6 0.2 0 RC
10.0 ML
2 LW
N
319.057 336.5 M
325.722 332.652 L
325.722 340.348 L
cp
S
GR
GS
[0.75 0 0 0.75 0 0] CT
1 GC
N
390.057 357.5 M
396.722 353.652 L
396.722 361.348 L
cp
f
GR
GS
[0.75 0 0 0.75 0 0] CT
0.6 0.2 0 RC
10.0 ML
2 LW
N
390.057 357.5 M
396.722 353.652 L
396.722 361.348 L
cp
S
GR
GS
[0.75 0 0 0.75 0 0] CT
1 GC
N
460.057 372.5 M
466.722 368.652 L
466.722 376.348 L
cp
f
GR
GS
[0.75 0 0 0.75 0 0] CT
0.6 0.2 0 RC
10.0 ML
2 LW
N
460.057 372.5 M
466.722 368.652 L
466.722 376.348 L
cp
S
GR
GS
[0.75 0 0 0.75 0 0] CT
1 GC
N
531.057 382.5 M
537.722 378.652 L
537.722 386.348 L
cp
f
GR
GS
[0.75 0 0 0.75 0 0] CT
0.6 0.2 0 RC
10.0 ML
2 LW
N
531.057 382.5 M
537.722 378.652 L
537.722 386.348 L
cp
S
GR
GS
[0.75 0 0 0.75 0 0] CT
1 GC
N
601.057 390.5 M
607.722 386.652 L
607.722 394.348 L
cp
f
GR
GS
[0.75 0 0 0.75 0 0] CT
0.6 0.2 0 RC
10.0 ML
2 LW
N
601.057 390.5 M
607.722 386.652 L
607.722 394.348 L
cp
S
GR
GS
[0.75 0 0 0.75 0 0] CT
1 GC
N
671.057 397.5 M
677.722 393.652 L
677.722 401.348 L
cp
f
GR
GS
[0.75 0 0 0.75 0 0] CT
0.6 0.2 0 RC
10.0 ML
2 LW
N
671.057 397.5 M
677.722 393.652 L
677.722 401.348 L
cp
S
GR
GS
[0.75 0 0 0.75 0 0] CT
1 GC
N
742.057 402.5 M
748.722 398.652 L
748.722 406.348 L
cp
f
GR
GS
[0.75 0 0 0.75 0 0] CT
0.6 0.2 0 RC
10.0 ML
2 LW
N
742.057 402.5 M
748.722 398.652 L
748.722 406.348 L
cp
S
GR
GS
[0.75 0 0 0.75 0 0] CT
0.929 0.694 0.125 RC
1 LJ
2 LW
N
113 51 M
183.333 247.833 L
253.667 315.709 L
324 349.85 L
394.333 370.691 L
464.667 384.799 L
535 394.826 L
605.333 402.423 L
675.667 408.319 L
746 413.165 L
S
GR
GS
[0.75 0 0 0.75 0 0] CT
1 GC
N
110.33 49.47 M
112.716 49.47 L
113.5 47.167 L
114.284 49.47 L
116.67 49.47 L
114.768 50.912 L
115.459 53.197 L
113.5 51.833 L
111.541 53.197 L
112.232 50.912 L
110.33 49.47 L
cp
f
GR
GS
[0.75 0 0 0.75 0 0] CT
0.929 0.694 0.125 RC
10.0 ML
2 LW
N
110.33 49.47 M
112.716 49.47 L
113.5 47.167 L
114.284 49.47 L
116.67 49.47 L
114.768 50.912 L
115.459 53.197 L
113.5 51.833 L
111.541 53.197 L
112.232 50.912 L
cp
S
GR
GS
[0.75 0 0 0.75 0 0] CT
1 GC
N
180.33 246.47 M
182.716 246.47 L
183.5 244.167 L
184.284 246.47 L
186.67 246.47 L
184.768 247.912 L
185.459 250.197 L
183.5 248.833 L
181.541 250.197 L
182.232 247.912 L
180.33 246.47 L
cp
f
GR
GS
[0.75 0 0 0.75 0 0] CT
0.929 0.694 0.125 RC
10.0 ML
2 LW
N
180.33 246.47 M
182.716 246.47 L
183.5 244.167 L
184.284 246.47 L
186.67 246.47 L
184.768 247.912 L
185.459 250.197 L
183.5 248.833 L
181.541 250.197 L
182.232 247.912 L
cp
S
GR
GS
[0.75 0 0 0.75 0 0] CT
1 GC
N
250.33 314.47 M
252.716 314.47 L
253.5 312.167 L
254.284 314.47 L
256.67 314.47 L
254.768 315.912 L
255.459 318.197 L
253.5 316.833 L
251.541 318.197 L
252.232 315.912 L
250.33 314.47 L
cp
f
GR
GS
[0.75 0 0 0.75 0 0] CT
0.929 0.694 0.125 RC
10.0 ML
2 LW
N
250.33 314.47 M
252.716 314.47 L
253.5 312.167 L
254.284 314.47 L
256.67 314.47 L
254.768 315.912 L
255.459 318.197 L
253.5 316.833 L
251.541 318.197 L
252.232 315.912 L
cp
S
GR
GS
[0.75 0 0 0.75 0 0] CT
1 GC
N
320.33 348.47 M
322.716 348.47 L
323.5 346.167 L
324.284 348.47 L
326.67 348.47 L
324.768 349.912 L
325.459 352.197 L
323.5 350.833 L
321.541 352.197 L
322.232 349.912 L
320.33 348.47 L
cp
f
GR
GS
[0.75 0 0 0.75 0 0] CT
0.929 0.694 0.125 RC
10.0 ML
2 LW
N
320.33 348.47 M
322.716 348.47 L
323.5 346.167 L
324.284 348.47 L
326.67 348.47 L
324.768 349.912 L
325.459 352.197 L
323.5 350.833 L
321.541 352.197 L
322.232 349.912 L
cp
S
GR
GS
[0.75 0 0 0.75 0 0] CT
1 GC
N
391.33 369.47 M
393.716 369.47 L
394.5 367.167 L
395.284 369.47 L
397.67 369.47 L
395.768 370.912 L
396.459 373.197 L
394.5 371.833 L
392.541 373.197 L
393.232 370.912 L
391.33 369.47 L
cp
f
GR
GS
[0.75 0 0 0.75 0 0] CT
0.929 0.694 0.125 RC
10.0 ML
2 LW
N
391.33 369.47 M
393.716 369.47 L
394.5 367.167 L
395.284 369.47 L
397.67 369.47 L
395.768 370.912 L
396.459 373.197 L
394.5 371.833 L
392.541 373.197 L
393.232 370.912 L
cp
S
GR
GS
[0.75 0 0 0.75 0 0] CT
1 GC
N
461.33 383.47 M
463.716 383.47 L
464.5 381.167 L
465.284 383.47 L
467.67 383.47 L
465.768 384.912 L
466.459 387.197 L
464.5 385.833 L
462.541 387.197 L
463.232 384.912 L
461.33 383.47 L
cp
f
GR
GS
[0.75 0 0 0.75 0 0] CT
0.929 0.694 0.125 RC
10.0 ML
2 LW
N
461.33 383.47 M
463.716 383.47 L
464.5 381.167 L
465.284 383.47 L
467.67 383.47 L
465.768 384.912 L
466.459 387.197 L
464.5 385.833 L
462.541 387.197 L
463.232 384.912 L
cp
S
GR
GS
[0.75 0 0 0.75 0 0] CT
1 GC
N
532.33 393.47 M
534.716 393.47 L
535.5 391.167 L
536.284 393.47 L
538.67 393.47 L
536.768 394.912 L
537.459 397.197 L
535.5 395.833 L
533.541 397.197 L
534.232 394.912 L
532.33 393.47 L
cp
f
GR
GS
[0.75 0 0 0.75 0 0] CT
0.929 0.694 0.125 RC
10.0 ML
2 LW
N
532.33 393.47 M
534.716 393.47 L
535.5 391.167 L
536.284 393.47 L
538.67 393.47 L
536.768 394.912 L
537.459 397.197 L
535.5 395.833 L
533.541 397.197 L
534.232 394.912 L
cp
S
GR
GS
[0.75 0 0 0.75 0 0] CT
1 GC
N
602.33 401.47 M
604.716 401.47 L
605.5 399.167 L
606.284 401.47 L
608.67 401.47 L
606.768 402.912 L
607.459 405.197 L
605.5 403.833 L
603.541 405.197 L
604.232 402.912 L
602.33 401.47 L
cp
f
GR
GS
[0.75 0 0 0.75 0 0] CT
0.929 0.694 0.125 RC
10.0 ML
2 LW
N
602.33 401.47 M
604.716 401.47 L
605.5 399.167 L
606.284 401.47 L
608.67 401.47 L
606.768 402.912 L
607.459 405.197 L
605.5 403.833 L
603.541 405.197 L
604.232 402.912 L
cp
S
GR
GS
[0.75 0 0 0.75 0 0] CT
1 GC
N
672.33 407.47 M
674.716 407.47 L
675.5 405.167 L
676.284 407.47 L
678.67 407.47 L
676.768 408.912 L
677.459 411.197 L
675.5 409.833 L
673.541 411.197 L
674.232 408.912 L
672.33 407.47 L
cp
f
GR
GS
[0.75 0 0 0.75 0 0] CT
0.929 0.694 0.125 RC
10.0 ML
2 LW
N
672.33 407.47 M
674.716 407.47 L
675.5 405.167 L
676.284 407.47 L
678.67 407.47 L
676.768 408.912 L
677.459 411.197 L
675.5 409.833 L
673.541 411.197 L
674.232 408.912 L
cp
S
GR
GS
[0.75 0 0 0.75 0 0] CT
1 GC
N
743.33 412.47 M
745.716 412.47 L
746.5 410.167 L
747.284 412.47 L
749.67 412.47 L
747.768 413.912 L
748.459 416.197 L
746.5 414.833 L
744.541 416.197 L
745.232 413.912 L
743.33 412.47 L
cp
f
GR
GS
[0.75 0 0 0.75 0 0] CT
0.929 0.694 0.125 RC
10.0 ML
2 LW
N
743.33 412.47 M
745.716 412.47 L
746.5 410.167 L
747.284 412.47 L
749.67 412.47 L
747.768 413.912 L
748.459 416.197 L
746.5 414.833 L
744.541 416.197 L
745.232 413.912 L
cp
S
GR
GS
[0.75 0 0 0.75 0 0] CT
0 1 1 RC
1 LJ
2 LW
N
113 51 M
183.333 236.73 L
253.667 303.042 L
324 337.295 L
394.333 358.32 L
464.667 372.742 L
535 383.377 L
605.333 391.419 L
675.667 397.885 L
746 403.065 L
S
GR
GS
[0.75 0 0 0.75 0 0] CT
1 GC
N
113.5 54.943 M
116.833 50.5 L
113.5 46.057 L
110.167 50.5 L
cp
f
GR
GS
[0.75 0 0 0.75 0 0] CT
0 1 1 RC
10.0 ML
2 LW
N
113.5 54.943 M
116.833 50.5 L
113.5 46.057 L
110.167 50.5 L
cp
S
GR
GS
[0.75 0 0 0.75 0 0] CT
1 GC
N
183.5 240.943 M
186.833 236.5 L
183.5 232.057 L
180.167 236.5 L
cp
f
GR
GS
[0.75 0 0 0.75 0 0] CT
0 1 1 RC
10.0 ML
2 LW
N
183.5 240.943 M
186.833 236.5 L
183.5 232.057 L
180.167 236.5 L
cp
S
GR
GS
[0.75 0 0 0.75 0 0] CT
1 GC
N
253.5 307.943 M
256.833 303.5 L
253.5 299.057 L
250.167 303.5 L
cp
f
GR
GS
[0.75 0 0 0.75 0 0] CT
0 1 1 RC
10.0 ML
2 LW
N
253.5 307.943 M
256.833 303.5 L
253.5 299.057 L
250.167 303.5 L
cp
S
GR
GS
[0.75 0 0 0.75 0 0] CT
1 GC
N
323.5 341.943 M
326.833 337.5 L
323.5 333.057 L
320.167 337.5 L
cp
f
GR
GS
[0.75 0 0 0.75 0 0] CT
0 1 1 RC
10.0 ML
2 LW
N
323.5 341.943 M
326.833 337.5 L
323.5 333.057 L
320.167 337.5 L
cp
S
GR
GS
[0.75 0 0 0.75 0 0] CT
1 GC
N
394.5 362.943 M
397.833 358.5 L
394.5 354.057 L
391.167 358.5 L
cp
f
GR
GS
[0.75 0 0 0.75 0 0] CT
0 1 1 RC
10.0 ML
2 LW
N
394.5 362.943 M
397.833 358.5 L
394.5 354.057 L
391.167 358.5 L
cp
S
GR
GS
[0.75 0 0 0.75 0 0] CT
1 GC
N
464.5 376.943 M
467.833 372.5 L
464.5 368.057 L
461.167 372.5 L
cp
f
GR
GS
[0.75 0 0 0.75 0 0] CT
0 1 1 RC
10.0 ML
2 LW
N
464.5 376.943 M
467.833 372.5 L
464.5 368.057 L
461.167 372.5 L
cp
S
GR
GS
[0.75 0 0 0.75 0 0] CT
1 GC
N
535.5 387.943 M
538.833 383.5 L
535.5 379.057 L
532.167 383.5 L
cp
f
GR
GS
[0.75 0 0 0.75 0 0] CT
0 1 1 RC
10.0 ML
2 LW
N
535.5 387.943 M
538.833 383.5 L
535.5 379.057 L
532.167 383.5 L
cp
S
GR
GS
[0.75 0 0 0.75 0 0] CT
1 GC
N
605.5 395.943 M
608.833 391.5 L
605.5 387.057 L
602.167 391.5 L
cp
f
GR
GS
[0.75 0 0 0.75 0 0] CT
0 1 1 RC
10.0 ML
2 LW
N
605.5 395.943 M
608.833 391.5 L
605.5 387.057 L
602.167 391.5 L
cp
S
GR
GS
[0.75 0 0 0.75 0 0] CT
1 GC
N
675.5 401.943 M
678.833 397.5 L
675.5 393.057 L
672.167 397.5 L
cp
f
GR
GS
[0.75 0 0 0.75 0 0] CT
0 1 1 RC
10.0 ML
2 LW
N
675.5 401.943 M
678.833 397.5 L
675.5 393.057 L
672.167 397.5 L
cp
S
GR
GS
[0.75 0 0 0.75 0 0] CT
1 GC
N
746.5 407.943 M
749.833 403.5 L
746.5 399.057 L
743.167 403.5 L
cp
f
GR
GS
[0.75 0 0 0.75 0 0] CT
0 1 1 RC
10.0 ML
2 LW
N
746.5 407.943 M
749.833 403.5 L
746.5 399.057 L
743.167 403.5 L
cp
S
GR
GS
[0.75 0 0 0.75 0 0] CT
0 1 0 RC
1 LJ
2 LW
N
113 51 M
183.333 226.555 L
253.667 294.496 L
324 330.786 L
394.333 353.3 L
464.667 368.729 L
535 380.192 L
605.333 388.839 L
675.667 395.577 L
746 401.091 L
S
GR
GS
[0.75 0 0 0.75 0 0] CT
1 GC
N
110.9 53.1 M
110.9 47.9 L
116.1 47.9 L
116.1 53.1 L
cp
f
GR
GS
[0.75 0 0 0.75 0 0] CT
0 1 0 RC
10.0 ML
2 LW
N
110.9 53.1 M
110.9 47.9 L
116.1 47.9 L
116.1 53.1 L
cp
S
GR
GS
[0.75 0 0 0.75 0 0] CT
1 GC
N
180.9 229.1 M
180.9 223.9 L
186.1 223.9 L
186.1 229.1 L
cp
f
GR
GS
[0.75 0 0 0.75 0 0] CT
0 1 0 RC
10.0 ML
2 LW
N
180.9 229.1 M
180.9 223.9 L
186.1 223.9 L
186.1 229.1 L
cp
S
GR
GS
[0.75 0 0 0.75 0 0] CT
1 GC
N
250.9 297.1 M
250.9 291.9 L
256.1 291.9 L
256.1 297.1 L
cp
f
GR
GS
[0.75 0 0 0.75 0 0] CT
0 1 0 RC
10.0 ML
2 LW
N
250.9 297.1 M
250.9 291.9 L
256.1 291.9 L
256.1 297.1 L
cp
S
GR
GS
[0.75 0 0 0.75 0 0] CT
1 GC
N
320.9 333.1 M
320.9 327.9 L
326.1 327.9 L
326.1 333.1 L
cp
f
GR
GS
[0.75 0 0 0.75 0 0] CT
0 1 0 RC
10.0 ML
2 LW
N
320.9 333.1 M
320.9 327.9 L
326.1 327.9 L
326.1 333.1 L
cp
S
GR
GS
[0.75 0 0 0.75 0 0] CT
1 GC
N
391.9 356.1 M
391.9 350.9 L
397.1 350.9 L
397.1 356.1 L
cp
f
GR
GS
[0.75 0 0 0.75 0 0] CT
0 1 0 RC
10.0 ML
2 LW
N
391.9 356.1 M
391.9 350.9 L
397.1 350.9 L
397.1 356.1 L
cp
S
GR
GS
[0.75 0 0 0.75 0 0] CT
1 GC
N
461.9 371.1 M
461.9 365.9 L
467.1 365.9 L
467.1 371.1 L
cp
f
GR
GS
[0.75 0 0 0.75 0 0] CT
0 1 0 RC
10.0 ML
2 LW
N
461.9 371.1 M
461.9 365.9 L
467.1 365.9 L
467.1 371.1 L
cp
S
GR
GS
[0.75 0 0 0.75 0 0] CT
1 GC
N
532.9 383.1 M
532.9 377.9 L
538.1 377.9 L
538.1 383.1 L
cp
f
GR
GS
[0.75 0 0 0.75 0 0] CT
0 1 0 RC
10.0 ML
2 LW
N
532.9 383.1 M
532.9 377.9 L
538.1 377.9 L
538.1 383.1 L
cp
S
GR
GS
[0.75 0 0 0.75 0 0] CT
1 GC
N
602.9 391.1 M
602.9 385.9 L
608.1 385.9 L
608.1 391.1 L
cp
f
GR
GS
[0.75 0 0 0.75 0 0] CT
0 1 0 RC
10.0 ML
2 LW
N
602.9 391.1 M
602.9 385.9 L
608.1 385.9 L
608.1 391.1 L
cp
S
GR
GS
[0.75 0 0 0.75 0 0] CT
1 GC
N
672.9 398.1 M
672.9 392.9 L
678.1 392.9 L
678.1 398.1 L
cp
f
GR
GS
[0.75 0 0 0.75 0 0] CT
0 1 0 RC
10.0 ML
2 LW
N
672.9 398.1 M
672.9 392.9 L
678.1 392.9 L
678.1 398.1 L
cp
S
GR
GS
[0.75 0 0 0.75 0 0] CT
1 GC
N
743.9 404.1 M
743.9 398.9 L
749.1 398.9 L
749.1 404.1 L
cp
f
GR
GS
[0.75 0 0 0.75 0 0] CT
0 1 0 RC
10.0 ML
2 LW
N
743.9 404.1 M
743.9 398.9 L
749.1 398.9 L
749.1 404.1 L
cp
S
GR
GS
[0.75 0 0 0.75 0 0] CT
0 0 1 RC
1 LJ
2 LW
N
113 51 M
183.333 246.745 L
253.667 313.959 L
324 348.081 L
394.333 368.625 L
464.667 382.336 L
535 392.312 L
605.333 400.003 L
675.667 405.951 L
746 410.748 L
S
GR
GS
[0.75 0 0 0.75 0 0] CT
1 GC
N
109.057 50.5 M
115.722 46.652 L
115.722 54.348 L
cp
f
GR
GS
[0.75 0 0 0.75 0 0] CT
0 0 1 RC
10.0 ML
2 LW
N
109.057 50.5 M
115.722 46.652 L
115.722 54.348 L
cp
S
GR
GS
[0.75 0 0 0.75 0 0] CT
1 GC
N
179.057 246.5 M
185.722 242.652 L
185.722 250.348 L
cp
f
GR
GS
[0.75 0 0 0.75 0 0] CT
0 0 1 RC
10.0 ML
2 LW
N
179.057 246.5 M
185.722 242.652 L
185.722 250.348 L
cp
S
GR
GS
[0.75 0 0 0.75 0 0] CT
1 GC
N
249.057 313.5 M
255.722 309.652 L
255.722 317.348 L
cp
f
GR
GS
[0.75 0 0 0.75 0 0] CT
0 0 1 RC
10.0 ML
2 LW
N
249.057 313.5 M
255.722 309.652 L
255.722 317.348 L
cp
S
GR
GS
[0.75 0 0 0.75 0 0] CT
1 GC
N
319.057 348.5 M
325.722 344.652 L
325.722 352.348 L
cp
f
GR
GS
[0.75 0 0 0.75 0 0] CT
0 0 1 RC
10.0 ML
2 LW
N
319.057 348.5 M
325.722 344.652 L
325.722 352.348 L
cp
S
GR
GS
[0.75 0 0 0.75 0 0] CT
1 GC
N
390.057 368.5 M
396.722 364.652 L
396.722 372.348 L
cp
f
GR
GS
[0.75 0 0 0.75 0 0] CT
0 0 1 RC
10.0 ML
2 LW
N
390.057 368.5 M
396.722 364.652 L
396.722 372.348 L
cp
S
GR
GS
[0.75 0 0 0.75 0 0] CT
1 GC
N
460.057 382.5 M
466.722 378.652 L
466.722 386.348 L
cp
f
GR
GS
[0.75 0 0 0.75 0 0] CT
0 0 1 RC
10.0 ML
2 LW
N
460.057 382.5 M
466.722 378.652 L
466.722 386.348 L
cp
S
GR
GS
[0.75 0 0 0.75 0 0] CT
1 GC
N
531.057 392.5 M
537.722 388.652 L
537.722 396.348 L
cp
f
GR
GS
[0.75 0 0 0.75 0 0] CT
0 0 1 RC
10.0 ML
2 LW
N
531.057 392.5 M
537.722 388.652 L
537.722 396.348 L
cp
S
GR
GS
[0.75 0 0 0.75 0 0] CT
1 GC
N
601.057 400.5 M
607.722 396.652 L
607.722 404.348 L
cp
f
GR
GS
[0.75 0 0 0.75 0 0] CT
0 0 1 RC
10.0 ML
2 LW
N
601.057 400.5 M
607.722 396.652 L
607.722 404.348 L
cp
S
GR
GS
[0.75 0 0 0.75 0 0] CT
1 GC
N
671.057 405.5 M
677.722 401.652 L
677.722 409.348 L
cp
f
GR
GS
[0.75 0 0 0.75 0 0] CT
0 0 1 RC
10.0 ML
2 LW
N
671.057 405.5 M
677.722 401.652 L
677.722 409.348 L
cp
S
GR
GS
[0.75 0 0 0.75 0 0] CT
1 GC
N
742.057 410.5 M
748.722 406.652 L
748.722 414.348 L
cp
f
GR
GS
[0.75 0 0 0.75 0 0] CT
0 0 1 RC
10.0 ML
2 LW
N
742.057 410.5 M
748.722 406.652 L
748.722 414.348 L
cp
S
GR
GS
[0.75 0 0 0.75 0 0] CT
1 0 1 RC
1 LJ
2 LW
N
113 51 M
183.333 216.881 L
253.667 283.215 L
324 321.023 L
394.333 344.63 L
464.667 361.034 L
535 373.059 L
605.333 382.169 L
675.667 389.499 L
746 395.388 L
S
GR
GS
[0.75 0 0 0.75 0 0] CT
1 0 1 RC
1 LJ
2 LW
N
110 50.5 M
117 50.5 L
S
GR
GS
[0.75 0 0 0.75 0 0] CT
1 0 1 RC
1 LJ
2 LW
N
113.5 54 M
113.5 47 L
S
GR
GS
[0.75 0 0 0.75 0 0] CT
1 0 1 RC
1 LJ
2 LW
N
180 216.5 M
187 216.5 L
S
GR
GS
[0.75 0 0 0.75 0 0] CT
1 0 1 RC
1 LJ
2 LW
N
183.5 220 M
183.5 213 L
S
GR
GS
[0.75 0 0 0.75 0 0] CT
1 0 1 RC
1 LJ
2 LW
N
250 283.5 M
257 283.5 L
S
GR
GS
[0.75 0 0 0.75 0 0] CT
1 0 1 RC
1 LJ
2 LW
N
253.5 287 M
253.5 280 L
S
GR
GS
[0.75 0 0 0.75 0 0] CT
1 0 1 RC
1 LJ
2 LW
N
320 321.5 M
327 321.5 L
S
GR
GS
[0.75 0 0 0.75 0 0] CT
1 0 1 RC
1 LJ
2 LW
N
323.5 325 M
323.5 318 L
S
GR
GS
[0.75 0 0 0.75 0 0] CT
1 0 1 RC
1 LJ
2 LW
N
391 344.5 M
398 344.5 L
S
GR
GS
[0.75 0 0 0.75 0 0] CT
1 0 1 RC
1 LJ
2 LW
N
394.5 348 M
394.5 341 L
S
GR
GS
[0.75 0 0 0.75 0 0] CT
1 0 1 RC
1 LJ
2 LW
N
461 361.5 M
468 361.5 L
S
GR
GS
[0.75 0 0 0.75 0 0] CT
1 0 1 RC
1 LJ
2 LW
N
464.5 365 M
464.5 358 L
S
GR
GS
[0.75 0 0 0.75 0 0] CT
1 0 1 RC
1 LJ
2 LW
N
532 373.5 M
539 373.5 L
S
GR
GS
[0.75 0 0 0.75 0 0] CT
1 0 1 RC
1 LJ
2 LW
N
535.5 377 M
535.5 370 L
S
GR
GS
[0.75 0 0 0.75 0 0] CT
1 0 1 RC
1 LJ
2 LW
N
602 382.5 M
609 382.5 L
S
GR
GS
[0.75 0 0 0.75 0 0] CT
1 0 1 RC
1 LJ
2 LW
N
605.5 386 M
605.5 379 L
S
GR
GS
[0.75 0 0 0.75 0 0] CT
1 0 1 RC
1 LJ
2 LW
N
672 389.5 M
679 389.5 L
S
GR
GS
[0.75 0 0 0.75 0 0] CT
1 0 1 RC
1 LJ
2 LW
N
675.5 393 M
675.5 386 L
S
GR
GS
[0.75 0 0 0.75 0 0] CT
1 0 1 RC
1 LJ
2 LW
N
743 395.5 M
750 395.5 L
S
GR
GS
[0.75 0 0 0.75 0 0] CT
1 0 1 RC
1 LJ
2 LW
N
746.5 399 M
746.5 392 L
S
GR
GS
[0.75 0 0 0.75 0 0] CT
1 0 0 RC
1 LJ
2 LW
N
113 51 M
183.333 189.688 L
253.667 258.234 L
324 299.379 L
394.333 326.721 L
464.667 345.935 L
535 359.993 L
605.333 370.554 L
675.667 379.163 L
746 386.176 L
S
GR
GS
[0.75 0 0 0.75 0 0] CT
1 GC
N
110.9 53.1 M
110.9 47.9 L
116.1 47.9 L
116.1 53.1 L
cp
f
GR
GS
[0.75 0 0 0.75 0 0] CT
1 0 0 RC
10.0 ML
2 LW
N
110.9 53.1 M
110.9 47.9 L
116.1 47.9 L
116.1 53.1 L
cp
S
GR
GS
[0.75 0 0 0.75 0 0] CT
1 GC
N
180.9 192.1 M
180.9 186.9 L
186.1 186.9 L
186.1 192.1 L
cp
f
GR
GS
[0.75 0 0 0.75 0 0] CT
1 0 0 RC
10.0 ML
2 LW
N
180.9 192.1 M
180.9 186.9 L
186.1 186.9 L
186.1 192.1 L
cp
S
GR
GS
[0.75 0 0 0.75 0 0] CT
1 GC
N
250.9 261.1 M
250.9 255.9 L
256.1 255.9 L
256.1 261.1 L
cp
f
GR
GS
[0.75 0 0 0.75 0 0] CT
1 0 0 RC
10.0 ML
2 LW
N
250.9 261.1 M
250.9 255.9 L
256.1 255.9 L
256.1 261.1 L
cp
S
GR
GS
[0.75 0 0 0.75 0 0] CT
1 GC
N
320.9 302.1 M
320.9 296.9 L
326.1 296.9 L
326.1 302.1 L
cp
f
GR
GS
[0.75 0 0 0.75 0 0] CT
1 0 0 RC
10.0 ML
2 LW
N
320.9 302.1 M
320.9 296.9 L
326.1 296.9 L
326.1 302.1 L
cp
S
GR
GS
[0.75 0 0 0.75 0 0] CT
1 GC
N
391.9 329.1 M
391.9 323.9 L
397.1 323.9 L
397.1 329.1 L
cp
f
GR
GS
[0.75 0 0 0.75 0 0] CT
1 0 0 RC
10.0 ML
2 LW
N
391.9 329.1 M
391.9 323.9 L
397.1 323.9 L
397.1 329.1 L
cp
S
GR
GS
[0.75 0 0 0.75 0 0] CT
1 GC
N
461.9 348.1 M
461.9 342.9 L
467.1 342.9 L
467.1 348.1 L
cp
f
GR
GS
[0.75 0 0 0.75 0 0] CT
1 0 0 RC
10.0 ML
2 LW
N
461.9 348.1 M
461.9 342.9 L
467.1 342.9 L
467.1 348.1 L
cp
S
GR
GS
[0.75 0 0 0.75 0 0] CT
1 GC
N
532.9 362.1 M
532.9 356.9 L
538.1 356.9 L
538.1 362.1 L
cp
f
GR
GS
[0.75 0 0 0.75 0 0] CT
1 0 0 RC
10.0 ML
2 LW
N
532.9 362.1 M
532.9 356.9 L
538.1 356.9 L
538.1 362.1 L
cp
S
GR
GS
[0.75 0 0 0.75 0 0] CT
1 GC
N
602.9 373.1 M
602.9 367.9 L
608.1 367.9 L
608.1 373.1 L
cp
f
GR
GS
[0.75 0 0 0.75 0 0] CT
1 0 0 RC
10.0 ML
2 LW
N
602.9 373.1 M
602.9 367.9 L
608.1 367.9 L
608.1 373.1 L
cp
S
GR
GS
[0.75 0 0 0.75 0 0] CT
1 GC
N
672.9 382.1 M
672.9 376.9 L
678.1 376.9 L
678.1 382.1 L
cp
f
GR
GS
[0.75 0 0 0.75 0 0] CT
1 0 0 RC
10.0 ML
2 LW
N
672.9 382.1 M
672.9 376.9 L
678.1 376.9 L
678.1 382.1 L
cp
S
GR
GS
[0.75 0 0 0.75 0 0] CT
1 GC
N
743.9 389.1 M
743.9 383.9 L
749.1 383.9 L
749.1 389.1 L
cp
f
GR
GS
[0.75 0 0 0.75 0 0] CT
1 0 0 RC
10.0 ML
2 LW
N
743.9 389.1 M
743.9 383.9 L
749.1 383.9 L
749.1 389.1 L
cp
S
GR
GS
[0.75 0 0 0.75 0 0] CT
1 LJ
2 LW
N
113 51 M
183.333 159.431 L
253.667 226.057 L
324 270.28 L
394.333 301.265 L
464.667 323.048 L
535 339.167 L
605.333 351.73 L
675.667 361.808 L
746 370.085 L
S
GR
GS
[0.75 0 0 0.75 0 0] CT
1 GC
N
116.833 50.5 M
115.857 48.143 L
113.5 47.167 L
111.143 48.143 L
110.167 50.5 L
111.143 52.857 L
113.5 53.833 L
115.857 52.857 L
116.833 50.5 L
cp
f
GR
GS
[0.75 0 0 0.75 0 0] CT
1 LJ
2 LW
N
116.833 50.5 M
116.197 48.541 L
114.53 47.33 L
112.47 47.33 L
110.803 48.541 L
110.167 50.5 L
110.803 52.459 L
112.47 53.67 L
114.53 53.67 L
116.197 52.459 L
cp
S
GR
GS
[0.75 0 0 0.75 0 0] CT
1 GC
N
186.833 159.5 M
185.857 157.143 L
183.5 156.167 L
181.143 157.143 L
180.167 159.5 L
181.143 161.857 L
183.5 162.833 L
185.857 161.857 L
186.833 159.5 L
cp
f
GR
GS
[0.75 0 0 0.75 0 0] CT
1 LJ
2 LW
N
186.833 159.5 M
186.197 157.541 L
184.53 156.33 L
182.47 156.33 L
180.803 157.541 L
180.167 159.5 L
180.803 161.459 L
182.47 162.67 L
184.53 162.67 L
186.197 161.459 L
cp
S
GR
GS
[0.75 0 0 0.75 0 0] CT
1 GC
N
256.833 226.5 M
255.857 224.143 L
253.5 223.167 L
251.143 224.143 L
250.167 226.5 L
251.143 228.857 L
253.5 229.833 L
255.857 228.857 L
256.833 226.5 L
cp
f
GR
GS
[0.75 0 0 0.75 0 0] CT
1 LJ
2 LW
N
256.833 226.5 M
256.197 224.541 L
254.53 223.33 L
252.47 223.33 L
250.803 224.541 L
250.167 226.5 L
250.803 228.459 L
252.47 229.67 L
254.53 229.67 L
256.197 228.459 L
cp
S
GR
GS
[0.75 0 0 0.75 0 0] CT
1 GC
N
326.833 270.5 M
325.857 268.143 L
323.5 267.167 L
321.143 268.143 L
320.167 270.5 L
321.143 272.857 L
323.5 273.833 L
325.857 272.857 L
326.833 270.5 L
cp
f
GR
GS
[0.75 0 0 0.75 0 0] CT
1 LJ
2 LW
N
326.833 270.5 M
326.197 268.541 L
324.53 267.33 L
322.47 267.33 L
320.803 268.541 L
320.167 270.5 L
320.803 272.459 L
322.47 273.67 L
324.53 273.67 L
326.197 272.459 L
cp
S
GR
GS
[0.75 0 0 0.75 0 0] CT
1 GC
N
397.833 301.5 M
396.857 299.143 L
394.5 298.167 L
392.143 299.143 L
391.167 301.5 L
392.143 303.857 L
394.5 304.833 L
396.857 303.857 L
397.833 301.5 L
cp
f
GR
GS
[0.75 0 0 0.75 0 0] CT
1 LJ
2 LW
N
397.833 301.5 M
397.197 299.541 L
395.53 298.33 L
393.47 298.33 L
391.803 299.541 L
391.167 301.5 L
391.803 303.459 L
393.47 304.67 L
395.53 304.67 L
397.197 303.459 L
cp
S
GR
GS
[0.75 0 0 0.75 0 0] CT
1 GC
N
467.833 323.5 M
466.857 321.143 L
464.5 320.167 L
462.143 321.143 L
461.167 323.5 L
462.143 325.857 L
464.5 326.833 L
466.857 325.857 L
467.833 323.5 L
cp
f
GR
GS
[0.75 0 0 0.75 0 0] CT
1 LJ
2 LW
N
467.833 323.5 M
467.197 321.541 L
465.53 320.33 L
463.47 320.33 L
461.803 321.541 L
461.167 323.5 L
461.803 325.459 L
463.47 326.67 L
465.53 326.67 L
467.197 325.459 L
cp
S
GR
GS
[0.75 0 0 0.75 0 0] CT
1 GC
N
538.833 339.5 M
537.857 337.143 L
535.5 336.167 L
533.143 337.143 L
532.167 339.5 L
533.143 341.857 L
535.5 342.833 L
537.857 341.857 L
538.833 339.5 L
cp
f
GR
GS
[0.75 0 0 0.75 0 0] CT
1 LJ
2 LW
N
538.833 339.5 M
538.197 337.541 L
536.53 336.33 L
534.47 336.33 L
532.803 337.541 L
532.167 339.5 L
532.803 341.459 L
534.47 342.67 L
536.53 342.67 L
538.197 341.459 L
cp
S
GR
GS
[0.75 0 0 0.75 0 0] CT
1 GC
N
608.833 351.5 M
607.857 349.143 L
605.5 348.167 L
603.143 349.143 L
602.167 351.5 L
603.143 353.857 L
605.5 354.833 L
607.857 353.857 L
608.833 351.5 L
cp
f
GR
GS
[0.75 0 0 0.75 0 0] CT
1 LJ
2 LW
N
608.833 351.5 M
608.197 349.541 L
606.53 348.33 L
604.47 348.33 L
602.803 349.541 L
602.167 351.5 L
602.803 353.459 L
604.47 354.67 L
606.53 354.67 L
608.197 353.459 L
cp
S
GR
GS
[0.75 0 0 0.75 0 0] CT
1 GC
N
678.833 361.5 M
677.857 359.143 L
675.5 358.167 L
673.143 359.143 L
672.167 361.5 L
673.143 363.857 L
675.5 364.833 L
677.857 363.857 L
678.833 361.5 L
cp
f
GR
GS
[0.75 0 0 0.75 0 0] CT
1 LJ
2 LW
N
678.833 361.5 M
678.197 359.541 L
676.53 358.33 L
674.47 358.33 L
672.803 359.541 L
672.167 361.5 L
672.803 363.459 L
674.47 364.67 L
676.53 364.67 L
678.197 363.459 L
cp
S
GR
GS
[0.75 0 0 0.75 0 0] CT
1 GC
N
749.833 370.5 M
748.857 368.143 L
746.5 367.167 L
744.143 368.143 L
743.167 370.5 L
744.143 372.857 L
746.5 373.833 L
748.857 372.857 L
749.833 370.5 L
cp
f
GR
GS
[0.75 0 0 0.75 0 0] CT
1 LJ
2 LW
N
749.833 370.5 M
749.197 368.541 L
747.53 367.33 L
745.47 367.33 L
743.803 368.541 L
743.167 370.5 L
743.803 372.459 L
745.47 373.67 L
747.53 373.67 L
749.197 372.459 L
cp
S
GR
GS
[0.75 0 0 0.75 0 0] CT
1 GC
N
627 333 M
627 64 L
733 64 L
733 333 L
cp
f
GR
GS
[0.75 0 0 0.75 498 60.37501] CT
/Times 24 F
GS
[1 0 0 1 0 0] CT
0 8.5 moveto 
1 -1 scale
(LBP) t 
GR
GR
GS
[0.75 0 0 0.75 0 0] CT
1 0.6 0.784 RC
1 LJ
2 LW
N
631 80.5 M
661 80.5 L
S
GR
GS
[0.75 0 0 0.75 0 0] CT
1 GC
N
644.278 76.652 M
650.943 80.5 L
644.278 84.348 L
cp
f
GR
GS
[0.75 0 0 0.75 0 0] CT
1 0.6 0.784 RC
10.0 ML
2 LW
N
644.278 76.652 M
650.943 80.5 L
644.278 84.348 L
cp
S
GR
GS
[0.75 0 0 0.75 498 82.49999] CT
/Times 24 F
GS
[1 0 0 1 0 0] CT
0 8.5 moveto 
1 -1 scale
(LTP) t 
GR
GR
GS
[0.75 0 0 0.75 0 0] CT
0.6 0.2 0 RC
1 LJ
2 LW
N
631 110 M
661 110 L
S
GR
GS
[0.75 0 0 0.75 0 0] CT
1 GC
N
642.057 109.5 M
648.722 105.652 L
648.722 113.348 L
cp
f
GR
GS
[0.75 0 0 0.75 0 0] CT
0.6 0.2 0 RC
10.0 ML
2 LW
N
642.057 109.5 M
648.722 105.652 L
648.722 113.348 L
cp
S
GR
GS
[0.75 0 0 0.75 498 104.625] CT
/Times 24 F
GS
[1 0 0 1 0 0] CT
0 8.5 moveto 
1 -1 scale
(LDP) t 
GR
GR
GS
[0.75 0 0 0.75 0 0] CT
0.929 0.694 0.125 RC
1 LJ
2 LW
N
631 139.5 M
661 139.5 L
S
GR
GS
[0.75 0 0 0.75 0 0] CT
1 GC
N
643.33 138.47 M
645.716 138.47 L
646.5 136.167 L
647.284 138.47 L
649.67 138.47 L
647.768 139.912 L
648.459 142.197 L
646.5 140.833 L
644.541 142.197 L
645.232 139.912 L
643.33 138.47 L
cp
f
GR
GS
[0.75 0 0 0.75 0 0] CT
0.929 0.694 0.125 RC
10.0 ML
2 LW
N
643.33 138.47 M
645.716 138.47 L
646.5 136.167 L
647.284 138.47 L
649.67 138.47 L
647.768 139.912 L
648.459 142.197 L
646.5 140.833 L
644.541 142.197 L
645.232 139.912 L
cp
S
GR
GS
[0.75 0 0 0.75 498 126.75] CT
/Times 24 F
GS
[1 0 0 1 0 0] CT
0 8.5 moveto 
1 -1 scale
(LDN) t 
GR
GR
GS
[0.75 0 0 0.75 0 0] CT
0 1 1 RC
1 LJ
2 LW
N
631 169 M
661 169 L
S
GR
GS
[0.75 0 0 0.75 0 0] CT
1 GC
N
646.5 172.943 M
649.833 168.5 L
646.5 164.057 L
643.167 168.5 L
cp
f
GR
GS
[0.75 0 0 0.75 0 0] CT
0 1 1 RC
10.0 ML
2 LW
N
646.5 172.943 M
649.833 168.5 L
646.5 164.057 L
643.167 168.5 L
cp
S
GR
GS
[0.75 0 0 0.75 498 148.875] CT
/Times 24 F
GS
[1 0 0 1 0 0] CT
0 8.5 moveto 
1 -1 scale
(LVP) t 
GR
GR
GS
[0.75 0 0 0.75 0 0] CT
0 1 0 RC
1 LJ
2 LW
N
631 198.5 M
661 198.5 L
S
GR
GS
[0.75 0 0 0.75 0 0] CT
1 GC
N
643.9 201.1 M
643.9 195.9 L
649.1 195.9 L
649.1 201.1 L
cp
f
GR
GS
[0.75 0 0 0.75 0 0] CT
0 1 0 RC
10.0 ML
2 LW
N
643.9 201.1 M
643.9 195.9 L
649.1 195.9 L
649.1 201.1 L
cp
S
GR
GS
[0.75 0 0 0.75 498 171] CT
/Times 24 F
GS
[1 0 0 1 0 0] CT
0 8.5 moveto 
1 -1 scale
(LDGP) t 
GR
GR
GS
[0.75 0 0 0.75 0 0] CT
0 0 1 RC
1 LJ
2 LW
N
631 228 M
661 228 L
S
GR
GS
[0.75 0 0 0.75 0 0] CT
1 GC
N
642.057 227.5 M
648.722 223.652 L
648.722 231.348 L
cp
f
GR
GS
[0.75 0 0 0.75 0 0] CT
0 0 1 RC
10.0 ML
2 LW
N
642.057 227.5 M
648.722 223.652 L
648.722 231.348 L
cp
S
GR
GS
[0.75 0 0 0.75 498 193.125] CT
/Times 24 F
GS
[1 0 0 1 0 0] CT
0 8.5 moveto 
1 -1 scale
(DCP) t 
GR
GR
GS
[0.75 0 0 0.75 0 0] CT
1 0 1 RC
1 LJ
2 LW
N
631 257.5 M
661 257.5 L
S
GR
GS
[0.75 0 0 0.75 0 0] CT
1 0 1 RC
1 LJ
2 LW
N
643 257.5 M
650 257.5 L
S
GR
GS
[0.75 0 0 0.75 0 0] CT
1 0 1 RC
1 LJ
2 LW
N
646.5 261 M
646.5 254 L
S
GR
GS
[0.75 0 0 0.75 498 215.25] CT
/Times 24 F
GS
[1 0 0 1 0 0] CT
0 8.5 moveto 
1 -1 scale
(LGHP) t 
GR
GR
GS
[0.75 0 0 0.75 0 0] CT
1 0 0 RC
1 LJ
2 LW
N
631 287 M
661 287 L
S
GR
GS
[0.75 0 0 0.75 0 0] CT
1 GC
N
643.9 290.1 M
643.9 284.9 L
649.1 284.9 L
649.1 290.1 L
cp
f
GR
GS
[0.75 0 0 0.75 0 0] CT
1 0 0 RC
10.0 ML
2 LW
N
643.9 290.1 M
643.9 284.9 L
649.1 284.9 L
649.1 290.1 L
cp
S
GR
GS
[0.75 0 0 0.75 498 237.375] CT
/Times 24 F
GS
[1 0 0 1 0 0] CT
0 8.5 moveto 
1 -1 scale
(LDRP) t 
GR
GR
GS
[0.75 0 0 0.75 0 0] CT
1 LJ
2 LW
N
631 316.5 M
661 316.5 L
S
GR
GS
[0.75 0 0 0.75 0 0] CT
1 GC
N
649.833 316.5 M
648.857 314.143 L
646.5 313.167 L
644.143 314.143 L
643.167 316.5 L
644.143 318.857 L
646.5 319.833 L
648.857 318.857 L
649.833 316.5 L
cp
f
GR
GS
[0.75 0 0 0.75 0 0] CT
1 LJ
2 LW
N
649.833 316.5 M
649.197 314.541 L
647.53 313.33 L
645.47 313.33 L
643.803 314.541 L
643.167 316.5 L
643.803 318.459 L
645.47 319.67 L
647.53 319.67 L
649.197 318.459 L
cp
S
GR
GS
[0.75 0 0 0.75 0 0] CT
0.149 GC
10.0 ML
0.667 LW
N
627 333 M
627 64 L
733 64 L
733 333 L
cp
S
GR
%%Trailer
%%Pages: 1
%%EOF
