%!PS-Adobe-3.0 EPSF-3.0
%%Creator: (MATLAB, The Mathworks, Inc. Version 9.0.0.341360 \(R2016a\). Operating System: Linux)
%%Title: (/home/shivram/main/Work/1. Research/1. Ongoing/5. LDRP Face/2. Exp/1. Results/PaSC/PaSC-F.eps)
%%CreationDate: 2017-08-16T15:31:07
%%Pages: (atend)
%%BoundingBox: 0 0 573 384
%%LanguageLevel: 3
%%EndComments
%%BeginProlog
%%BeginResource: procset (Apache XML Graphics Std ProcSet) 1.2 0
%%Version: 1.2 0
%%Copyright: (Copyright 2001-2003,2010 The Apache Software Foundation. License terms: http://www.apache.org/licenses/LICENSE-2.0)
/bd{bind def}bind def
/ld{load def}bd
/GR/grestore ld
/M/moveto ld
/LJ/setlinejoin ld
/C/curveto ld
/f/fill ld
/LW/setlinewidth ld
/GC/setgray ld
/t/show ld
/N/newpath ld
/CT/concat ld
/cp/closepath ld
/S/stroke ld
/L/lineto ld
/CC/setcmykcolor ld
/A/ashow ld
/GS/gsave ld
/RC/setrgbcolor ld
/RM/rmoveto ld
/ML/setmiterlimit ld
/re {4 2 roll M
1 index 0 rlineto
0 exch rlineto
neg 0 rlineto
cp } bd
/_ctm matrix def
/_tm matrix def
/BT { _ctm currentmatrix pop matrix _tm copy pop 0 0 moveto } bd
/ET { _ctm setmatrix } bd
/iTm { _ctm setmatrix _tm concat } bd
/Tm { _tm astore pop iTm 0 0 moveto } bd
/ux 0.0 def
/uy 0.0 def
/F {
  /Tp exch def
  /Tf exch def
  Tf findfont Tp scalefont setfont
  /cf Tf def  /cs Tp def
} bd
/ULS {currentpoint /uy exch def /ux exch def} bd
/ULE {
  /Tcx currentpoint pop def
  gsave
  newpath
  cf findfont cs scalefont dup
  /FontMatrix get 0 get /Ts exch def /FontInfo get dup
  /UnderlinePosition get Ts mul /To exch def
  /UnderlineThickness get Ts mul /Tt exch def
  ux uy To add moveto  Tcx uy To add lineto
  Tt setlinewidth stroke
  grestore
} bd
/OLE {
  /Tcx currentpoint pop def
  gsave
  newpath
  cf findfont cs scalefont dup
  /FontMatrix get 0 get /Ts exch def /FontInfo get dup
  /UnderlinePosition get Ts mul /To exch def
  /UnderlineThickness get Ts mul /Tt exch def
  ux uy To add cs add moveto Tcx uy To add cs add lineto
  Tt setlinewidth stroke
  grestore
} bd
/SOE {
  /Tcx currentpoint pop def
  gsave
  newpath
  cf findfont cs scalefont dup
  /FontMatrix get 0 get /Ts exch def /FontInfo get dup
  /UnderlinePosition get Ts mul /To exch def
  /UnderlineThickness get Ts mul /Tt exch def
  ux uy To add cs 10 mul 26 idiv add moveto Tcx uy To add cs 10 mul 26 idiv add lineto
  Tt setlinewidth stroke
  grestore
} bd
/QT {
/Y22 exch store
/X22 exch store
/Y21 exch store
/X21 exch store
currentpoint
/Y21 load 2 mul add 3 div exch
/X21 load 2 mul add 3 div exch
/X21 load 2 mul /X22 load add 3 div
/Y21 load 2 mul /Y22 load add 3 div
/X22 load /Y22 load curveto
} bd
/SSPD {
dup length /d exch dict def
{
/v exch def
/k exch def
currentpagedevice k known {
/cpdv currentpagedevice k get def
v cpdv ne {
/upd false def
/nullv v type /nulltype eq def
/nullcpdv cpdv type /nulltype eq def
nullv nullcpdv or
{
/upd true def
} {
/sametype v type cpdv type eq def
sametype {
v type /arraytype eq {
/vlen v length def
/cpdvlen cpdv length def
vlen cpdvlen eq {
0 1 vlen 1 sub {
/i exch def
/obj v i get def
/cpdobj cpdv i get def
obj cpdobj ne {
/upd true def
exit
} if
} for
} {
/upd true def
} ifelse
} {
v type /dicttype eq {
v {
/dv exch def
/dk exch def
/cpddv cpdv dk get def
dv cpddv ne {
/upd true def
exit
} if
} forall
} {
/upd true def
} ifelse
} ifelse
} if
} ifelse
upd true eq {
d k v put
} if
} if
} if
} forall
d length 0 gt {
d setpagedevice
} if
} bd
%%EndResource
%%BeginResource: procset (Apache XML Graphics EPS ProcSet) 1.0 0
%%Version: 1.0 0
%%Copyright: (Copyright 2002-2003 The Apache Software Foundation. License terms: http://www.apache.org/licenses/LICENSE-2.0)
/BeginEPSF { %def
/b4_Inc_state save def         % Save state for cleanup
/dict_count countdictstack def % Count objects on dict stack
/op_count count 1 sub def      % Count objects on operand stack
userdict begin                 % Push userdict on dict stack
/showpage { } def              % Redefine showpage, { } = null proc
0 setgray 0 setlinecap         % Prepare graphics state
1 setlinewidth 0 setlinejoin
10 setmiterlimit [ ] 0 setdash newpath
/languagelevel where           % If level not equal to 1 then
{pop languagelevel             % set strokeadjust and
1 ne                           % overprint to their defaults.
{false setstrokeadjust false setoverprint
} if
} if
} bd
/EndEPSF { %def
count op_count sub {pop} repeat            % Clean up stacks
countdictstack dict_count sub {end} repeat
b4_Inc_state restore
} bd
%%EndResource
%FOPBeginFontDict
%%IncludeResource: font Courier-Bold
%%IncludeResource: font Helvetica
%%IncludeResource: font Courier-BoldOblique
%%IncludeResource: font Courier-Oblique
%%IncludeResource: font Times-Roman
%%IncludeResource: font Helvetica-BoldOblique
%%IncludeResource: font Helvetica-Bold
%%IncludeResource: font Helvetica-Oblique
%%IncludeResource: font Times-BoldItalic
%%IncludeResource: font Courier
%%IncludeResource: font Times-Italic
%%IncludeResource: font Times-Bold
%%IncludeResource: font Symbol
%%IncludeResource: font ZapfDingbats
%FOPEndFontDict
%%BeginResource: encoding WinAnsiEncoding
/WinAnsiEncoding [
/.notdef /.notdef /.notdef /.notdef /.notdef
/.notdef /.notdef /.notdef /.notdef /.notdef
/.notdef /.notdef /.notdef /.notdef /.notdef
/.notdef /.notdef /.notdef /.notdef /.notdef
/.notdef /.notdef /.notdef /.notdef /.notdef
/.notdef /.notdef /.notdef /.notdef /.notdef
/.notdef /.notdef /space /exclam /quotedbl
/numbersign /dollar /percent /ampersand /quotesingle
/parenleft /parenright /asterisk /plus /comma
/hyphen /period /slash /zero /one
/two /three /four /five /six
/seven /eight /nine /colon /semicolon
/less /equal /greater /question /at
/A /B /C /D /E
/F /G /H /I /J
/K /L /M /N /O
/P /Q /R /S /T
/U /V /W /X /Y
/Z /bracketleft /backslash /bracketright /asciicircum
/underscore /quoteleft /a /b /c
/d /e /f /g /h
/i /j /k /l /m
/n /o /p /q /r
/s /t /u /v /w
/x /y /z /braceleft /bar
/braceright /asciitilde /bullet /Euro /bullet
/quotesinglbase /florin /quotedblbase /ellipsis /dagger
/daggerdbl /circumflex /perthousand /Scaron /guilsinglleft
/OE /bullet /Zcaron /bullet /bullet
/quoteleft /quoteright /quotedblleft /quotedblright /bullet
/endash /emdash /asciitilde /trademark /scaron
/guilsinglright /oe /bullet /zcaron /Ydieresis
/space /exclamdown /cent /sterling /currency
/yen /brokenbar /section /dieresis /copyright
/ordfeminine /guillemotleft /logicalnot /sfthyphen /registered
/macron /degree /plusminus /twosuperior /threesuperior
/acute /mu /paragraph /middot /cedilla
/onesuperior /ordmasculine /guillemotright /onequarter /onehalf
/threequarters /questiondown /Agrave /Aacute /Acircumflex
/Atilde /Adieresis /Aring /AE /Ccedilla
/Egrave /Eacute /Ecircumflex /Edieresis /Igrave
/Iacute /Icircumflex /Idieresis /Eth /Ntilde
/Ograve /Oacute /Ocircumflex /Otilde /Odieresis
/multiply /Oslash /Ugrave /Uacute /Ucircumflex
/Udieresis /Yacute /Thorn /germandbls /agrave
/aacute /acircumflex /atilde /adieresis /aring
/ae /ccedilla /egrave /eacute /ecircumflex
/edieresis /igrave /iacute /icircumflex /idieresis
/eth /ntilde /ograve /oacute /ocircumflex
/otilde /odieresis /divide /oslash /ugrave
/uacute /ucircumflex /udieresis /yacute /thorn
/ydieresis
] def
%%EndResource
%FOPBeginFontReencode
/Courier-Bold findfont
dup length dict begin
  {1 index /FID ne {def} {pop pop} ifelse} forall
  /Encoding WinAnsiEncoding def
  currentdict
end
/Courier-Bold exch definefont pop
/Helvetica findfont
dup length dict begin
  {1 index /FID ne {def} {pop pop} ifelse} forall
  /Encoding WinAnsiEncoding def
  currentdict
end
/Helvetica exch definefont pop
/Courier-BoldOblique findfont
dup length dict begin
  {1 index /FID ne {def} {pop pop} ifelse} forall
  /Encoding WinAnsiEncoding def
  currentdict
end
/Courier-BoldOblique exch definefont pop
/Courier-Oblique findfont
dup length dict begin
  {1 index /FID ne {def} {pop pop} ifelse} forall
  /Encoding WinAnsiEncoding def
  currentdict
end
/Courier-Oblique exch definefont pop
/Times-Roman findfont
dup length dict begin
  {1 index /FID ne {def} {pop pop} ifelse} forall
  /Encoding WinAnsiEncoding def
  currentdict
end
/Times-Roman exch definefont pop
/Helvetica-BoldOblique findfont
dup length dict begin
  {1 index /FID ne {def} {pop pop} ifelse} forall
  /Encoding WinAnsiEncoding def
  currentdict
end
/Helvetica-BoldOblique exch definefont pop
/Helvetica-Bold findfont
dup length dict begin
  {1 index /FID ne {def} {pop pop} ifelse} forall
  /Encoding WinAnsiEncoding def
  currentdict
end
/Helvetica-Bold exch definefont pop
/Helvetica-Oblique findfont
dup length dict begin
  {1 index /FID ne {def} {pop pop} ifelse} forall
  /Encoding WinAnsiEncoding def
  currentdict
end
/Helvetica-Oblique exch definefont pop
/Times-BoldItalic findfont
dup length dict begin
  {1 index /FID ne {def} {pop pop} ifelse} forall
  /Encoding WinAnsiEncoding def
  currentdict
end
/Times-BoldItalic exch definefont pop
/Courier findfont
dup length dict begin
  {1 index /FID ne {def} {pop pop} ifelse} forall
  /Encoding WinAnsiEncoding def
  currentdict
end
/Courier exch definefont pop
/Times-Italic findfont
dup length dict begin
  {1 index /FID ne {def} {pop pop} ifelse} forall
  /Encoding WinAnsiEncoding def
  currentdict
end
/Times-Italic exch definefont pop
/Times-Bold findfont
dup length dict begin
  {1 index /FID ne {def} {pop pop} ifelse} forall
  /Encoding WinAnsiEncoding def
  currentdict
end
/Times-Bold exch definefont pop
%FOPEndFontReencode
%%EndProlog
%%Page: 1 1
%%PageBoundingBox: 0 0 573 384
%%BeginPageSetup
[1 0 0 -1 0 384] CT
%%EndPageSetup
GS
[0.75 0 0 0.75 0 0] CT
1 GC
N
0 0 764 512 re
f
GR
GS
[0.75 0 0 0.75 0 0] CT
1 GC
N
0 0 764 512 re
f
GR
GS
[0.75 0 0 0.75 0 0] CT
1 GC
N
90 421 M
746 421 L
746 51 L
90 51 L
cp
f
GR
GS
[0.75 0 0 0.75 0 0] CT
0.149 GC
2 setlinecap
1 LJ
0.667 LW
N
90 421 M
746 421 L
S
GR
GS
[0.75 0 0 0.75 0 0] CT
0.149 GC
2 setlinecap
1 LJ
0.667 LW
N
90 51 M
746 51 L
S
GR
GS
[0.75 0 0 0.75 0 0] CT
0.149 GC
2 setlinecap
1 LJ
0.667 LW
N
90 421 M
90 414.44 L
S
GR
GS
[0.75 0 0 0.75 0 0] CT
0.149 GC
2 setlinecap
1 LJ
0.667 LW
N
162.889 421 M
162.889 414.44 L
S
GR
GS
[0.75 0 0 0.75 0 0] CT
0.149 GC
2 setlinecap
1 LJ
0.667 LW
N
235.778 421 M
235.778 414.44 L
S
GR
GS
[0.75 0 0 0.75 0 0] CT
0.149 GC
2 setlinecap
1 LJ
0.667 LW
N
308.667 421 M
308.667 414.44 L
S
GR
GS
[0.75 0 0 0.75 0 0] CT
0.149 GC
2 setlinecap
1 LJ
0.667 LW
N
381.556 421 M
381.556 414.44 L
S
GR
GS
[0.75 0 0 0.75 0 0] CT
0.149 GC
2 setlinecap
1 LJ
0.667 LW
N
454.444 421 M
454.444 414.44 L
S
GR
GS
[0.75 0 0 0.75 0 0] CT
0.149 GC
2 setlinecap
1 LJ
0.667 LW
N
527.333 421 M
527.333 414.44 L
S
GR
GS
[0.75 0 0 0.75 0 0] CT
0.149 GC
2 setlinecap
1 LJ
0.667 LW
N
600.222 421 M
600.222 414.44 L
S
GR
GS
[0.75 0 0 0.75 0 0] CT
0.149 GC
2 setlinecap
1 LJ
0.667 LW
N
673.111 421 M
673.111 414.44 L
S
GR
GS
[0.75 0 0 0.75 0 0] CT
0.149 GC
2 setlinecap
1 LJ
0.667 LW
N
746 421 M
746 414.44 L
S
GR
GS
[0.75 0 0 0.75 0 0] CT
0.149 GC
2 setlinecap
1 LJ
0.667 LW
N
90 51 M
90 57.56 L
S
GR
GS
[0.75 0 0 0.75 0 0] CT
0.149 GC
2 setlinecap
1 LJ
0.667 LW
N
162.889 51 M
162.889 57.56 L
S
GR
GS
[0.75 0 0 0.75 0 0] CT
0.149 GC
2 setlinecap
1 LJ
0.667 LW
N
235.778 51 M
235.778 57.56 L
S
GR
GS
[0.75 0 0 0.75 0 0] CT
0.149 GC
2 setlinecap
1 LJ
0.667 LW
N
308.667 51 M
308.667 57.56 L
S
GR
GS
[0.75 0 0 0.75 0 0] CT
0.149 GC
2 setlinecap
1 LJ
0.667 LW
N
381.556 51 M
381.556 57.56 L
S
GR
GS
[0.75 0 0 0.75 0 0] CT
0.149 GC
2 setlinecap
1 LJ
0.667 LW
N
454.444 51 M
454.444 57.56 L
S
GR
GS
[0.75 0 0 0.75 0 0] CT
0.149 GC
2 setlinecap
1 LJ
0.667 LW
N
527.333 51 M
527.333 57.56 L
S
GR
GS
[0.75 0 0 0.75 0 0] CT
0.149 GC
2 setlinecap
1 LJ
0.667 LW
N
600.222 51 M
600.222 57.56 L
S
GR
GS
[0.75 0 0 0.75 0 0] CT
0.149 GC
2 setlinecap
1 LJ
0.667 LW
N
673.111 51 M
673.111 57.56 L
S
GR
GS
[0.75 0 0 0.75 0 0] CT
0.149 GC
2 setlinecap
1 LJ
0.667 LW
N
746 51 M
746 57.56 L
S
GR
GS
[0.75 0 0 0.75 67.5 322.54999] CT
0.149 GC
/Times 32 F
GS
[1 0 0 1 0 0] CT
-10.5 30 moveto 
1 -1 scale
(1) t 
GR
GR
GS
[0.75 0 0 0.75 122.16666 322.54999] CT
0.149 GC
/Times 32 F
GS
[1 0 0 1 0 0] CT
-10.5 30 moveto 
1 -1 scale
(2) t 
GR
GR
GS
[0.75 0 0 0.75 176.83333 322.54999] CT
0.149 GC
/Times 32 F
GS
[1 0 0 1 0 0] CT
-10.5 30 moveto 
1 -1 scale
(3) t 
GR
GR
GS
[0.75 0 0 0.75 231.49999 322.54999] CT
0.149 GC
/Times 32 F
GS
[1 0 0 1 0 0] CT
-10.5 30 moveto 
1 -1 scale
(4) t 
GR
GR
GS
[0.75 0 0 0.75 286.16666 322.54999] CT
0.149 GC
/Times 32 F
GS
[1 0 0 1 0 0] CT
-10.5 30 moveto 
1 -1 scale
(5) t 
GR
GR
GS
[0.75 0 0 0.75 340.83334 322.54999] CT
0.149 GC
/Times 32 F
GS
[1 0 0 1 0 0] CT
-10.5 30 moveto 
1 -1 scale
(6) t 
GR
GR
GS
[0.75 0 0 0.75 395.49998 322.54999] CT
0.149 GC
/Times 32 F
GS
[1 0 0 1 0 0] CT
-10.5 30 moveto 
1 -1 scale
(7) t 
GR
GR
GS
[0.75 0 0 0.75 450.16667 322.54999] CT
0.149 GC
/Times 32 F
GS
[1 0 0 1 0 0] CT
-10.5 30 moveto 
1 -1 scale
(8) t 
GR
GR
GS
[0.75 0 0 0.75 504.83331 322.54999] CT
0.149 GC
/Times 32 F
GS
[1 0 0 1 0 0] CT
-10.5 30 moveto 
1 -1 scale
(9) t 
GR
GR
GS
[0.75 0 0 0.75 559.5 322.54999] CT
0.149 GC
/Times 32 F
GS
[1 0 0 1 0 0] CT
-20.5 30 moveto 
1 -1 scale
(10) t 
GR
GR
GS
[0.75 0 0 0.75 313.50023 352.05] CT
0.149 GC
/Times 35.2 F
GS
[1 0 0 1 0 0] CT
-210 33 moveto 
1 -1 scale
(Number of Top Matches) t 
GR
GR
GS
[0.75 0 0 0.75 0 0] CT
0.149 GC
2 setlinecap
1 LJ
0.667 LW
N
90 421 M
90 51 L
S
GR
GS
[0.75 0 0 0.75 0 0] CT
0.149 GC
2 setlinecap
1 LJ
0.667 LW
N
746 421 M
746 51 L
S
GR
GS
[0.75 0 0 0.75 0 0] CT
0.149 GC
2 setlinecap
1 LJ
0.667 LW
N
90 421 M
96.56 421 L
S
GR
GS
[0.75 0 0 0.75 0 0] CT
0.149 GC
2 setlinecap
1 LJ
0.667 LW
N
90 354.929 M
96.56 354.929 L
S
GR
GS
[0.75 0 0 0.75 0 0] CT
0.149 GC
2 setlinecap
1 LJ
0.667 LW
N
90 288.857 M
96.56 288.857 L
S
GR
GS
[0.75 0 0 0.75 0 0] CT
0.149 GC
2 setlinecap
1 LJ
0.667 LW
N
90 222.786 M
96.56 222.786 L
S
GR
GS
[0.75 0 0 0.75 0 0] CT
0.149 GC
2 setlinecap
1 LJ
0.667 LW
N
90 156.714 M
96.56 156.714 L
S
GR
GS
[0.75 0 0 0.75 0 0] CT
0.149 GC
2 setlinecap
1 LJ
0.667 LW
N
90 90.643 M
96.56 90.643 L
S
GR
GS
[0.75 0 0 0.75 0 0] CT
0.149 GC
2 setlinecap
1 LJ
0.667 LW
N
746 421 M
739.44 421 L
S
GR
GS
[0.75 0 0 0.75 0 0] CT
0.149 GC
2 setlinecap
1 LJ
0.667 LW
N
746 354.929 M
739.44 354.929 L
S
GR
GS
[0.75 0 0 0.75 0 0] CT
0.149 GC
2 setlinecap
1 LJ
0.667 LW
N
746 288.857 M
739.44 288.857 L
S
GR
GS
[0.75 0 0 0.75 0 0] CT
0.149 GC
2 setlinecap
1 LJ
0.667 LW
N
746 222.786 M
739.44 222.786 L
S
GR
GS
[0.75 0 0 0.75 0 0] CT
0.149 GC
2 setlinecap
1 LJ
0.667 LW
N
746 156.714 M
739.44 156.714 L
S
GR
GS
[0.75 0 0 0.75 0 0] CT
0.149 GC
2 setlinecap
1 LJ
0.667 LW
N
746 90.643 M
739.44 90.643 L
S
GR
GS
[0.75 0 0 0.75 60.7 315.75] CT
0.149 GC
/Times 32 F
GS
[1 0 0 1 0 0] CT
-21 11 moveto 
1 -1 scale
(6) t 
GR
GR
GS
[0.75 0 0 0.75 60.7 266.19642] CT
0.149 GC
/Times 32 F
GS
[1 0 0 1 0 0] CT
-21 11 moveto 
1 -1 scale
(7) t 
GR
GR
GS
[0.75 0 0 0.75 60.7 216.64286] CT
0.149 GC
/Times 32 F
GS
[1 0 0 1 0 0] CT
-21 11 moveto 
1 -1 scale
(8) t 
GR
GR
GS
[0.75 0 0 0.75 60.7 167.08929] CT
0.149 GC
/Times 32 F
GS
[1 0 0 1 0 0] CT
-21 11 moveto 
1 -1 scale
(9) t 
GR
GR
GS
[0.75 0 0 0.75 60.7 117.53571] CT
0.149 GC
/Times 32 F
GS
[1 0 0 1 0 0] CT
-41 11 moveto 
1 -1 scale
(10) t 
GR
GR
GS
[0.75 0 0 0.75 60.7 67.98215] CT
0.149 GC
/Times 32 F
GS
[1 0 0 1 0 0] CT
-41 11 moveto 
1 -1 scale
(11) t 
GR
GR
GS
[0 -0.75 0.75 0 26.95 176.99985] CT
0.149 GC
/Times 35.2 F
GS
[1 0 0 1 0 0] CT
-102 -9 moveto 
1 -1 scale
(F-Score \(%\)) t 
GR
GR
GS
[0.75 0 0 0.75 313.5003 33.29999] CT
/Times 35.2 F
GS
[1 0 0 1 0 0] CT
-134 -9 moveto 
1 -1 scale
(PaSC Database) t 
GR
GR
GS
[0.75 0 0 0.75 0 0] CT
1 0.6 0.784 RC
1 LJ
2 LW
N
90 384.732 M
162.889 351.477 L
235.778 339.051 L
308.667 333.257 L
381.556 330.237 L
454.444 328.346 L
527.333 328.63 L
600.222 330.905 L
673.111 333.065 L
746 335.268 L
S
GR
GS
[0.75 0 0 0.75 0 0] CT
1 GC
N
88.278 380.652 M
94.943 384.5 L
88.278 388.348 L
cp
f
GR
GS
[0.75 0 0 0.75 0 0] CT
1 0.6 0.784 RC
10.0 ML
2 LW
N
88.278 380.652 M
94.943 384.5 L
88.278 388.348 L
cp
S
GR
GS
[0.75 0 0 0.75 0 0] CT
1 GC
N
160.278 347.652 M
166.943 351.5 L
160.278 355.348 L
cp
f
GR
GS
[0.75 0 0 0.75 0 0] CT
1 0.6 0.784 RC
10.0 ML
2 LW
N
160.278 347.652 M
166.943 351.5 L
160.278 355.348 L
cp
S
GR
GS
[0.75 0 0 0.75 0 0] CT
1 GC
N
233.278 335.652 M
239.943 339.5 L
233.278 343.348 L
cp
f
GR
GS
[0.75 0 0 0.75 0 0] CT
1 0.6 0.784 RC
10.0 ML
2 LW
N
233.278 335.652 M
239.943 339.5 L
233.278 343.348 L
cp
S
GR
GS
[0.75 0 0 0.75 0 0] CT
1 GC
N
306.278 329.652 M
312.943 333.5 L
306.278 337.348 L
cp
f
GR
GS
[0.75 0 0 0.75 0 0] CT
1 0.6 0.784 RC
10.0 ML
2 LW
N
306.278 329.652 M
312.943 333.5 L
306.278 337.348 L
cp
S
GR
GS
[0.75 0 0 0.75 0 0] CT
1 GC
N
379.278 326.652 M
385.943 330.5 L
379.278 334.348 L
cp
f
GR
GS
[0.75 0 0 0.75 0 0] CT
1 0.6 0.784 RC
10.0 ML
2 LW
N
379.278 326.652 M
385.943 330.5 L
379.278 334.348 L
cp
S
GR
GS
[0.75 0 0 0.75 0 0] CT
1 GC
N
452.278 324.652 M
458.943 328.5 L
452.278 332.348 L
cp
f
GR
GS
[0.75 0 0 0.75 0 0] CT
1 0.6 0.784 RC
10.0 ML
2 LW
N
452.278 324.652 M
458.943 328.5 L
452.278 332.348 L
cp
S
GR
GS
[0.75 0 0 0.75 0 0] CT
1 GC
N
525.278 324.652 M
531.943 328.5 L
525.278 332.348 L
cp
f
GR
GS
[0.75 0 0 0.75 0 0] CT
1 0.6 0.784 RC
10.0 ML
2 LW
N
525.278 324.652 M
531.943 328.5 L
525.278 332.348 L
cp
S
GR
GS
[0.75 0 0 0.75 0 0] CT
1 GC
N
598.278 326.652 M
604.943 330.5 L
598.278 334.348 L
cp
f
GR
GS
[0.75 0 0 0.75 0 0] CT
1 0.6 0.784 RC
10.0 ML
2 LW
N
598.278 326.652 M
604.943 330.5 L
598.278 334.348 L
cp
S
GR
GS
[0.75 0 0 0.75 0 0] CT
1 GC
N
671.278 329.652 M
677.943 333.5 L
671.278 337.348 L
cp
f
GR
GS
[0.75 0 0 0.75 0 0] CT
1 0.6 0.784 RC
10.0 ML
2 LW
N
671.278 329.652 M
677.943 333.5 L
671.278 337.348 L
cp
S
GR
GS
[0.75 0 0 0.75 0 0] CT
1 GC
N
744.278 331.652 M
750.943 335.5 L
744.278 339.348 L
cp
f
GR
GS
[0.75 0 0 0.75 0 0] CT
1 0.6 0.784 RC
10.0 ML
2 LW
N
744.278 331.652 M
750.943 335.5 L
744.278 339.348 L
cp
S
GR
GS
[0.75 0 0 0.75 0 0] CT
0.6 0.2 0 RC
1 LJ
2 LW
N
90 384.732 M
162.889 355.393 L
235.778 342.494 L
308.667 335.631 L
381.556 331.573 L
454.444 330.118 L
527.333 330.477 L
600.222 330.322 L
673.111 331.665 L
746 332.777 L
S
GR
GS
[0.75 0 0 0.75 0 0] CT
1 GC
N
86.057 384.5 M
92.722 380.652 L
92.722 388.348 L
cp
f
GR
GS
[0.75 0 0 0.75 0 0] CT
0.6 0.2 0 RC
10.0 ML
2 LW
N
86.057 384.5 M
92.722 380.652 L
92.722 388.348 L
cp
S
GR
GS
[0.75 0 0 0.75 0 0] CT
1 GC
N
158.057 355.5 M
164.722 351.652 L
164.722 359.348 L
cp
f
GR
GS
[0.75 0 0 0.75 0 0] CT
0.6 0.2 0 RC
10.0 ML
2 LW
N
158.057 355.5 M
164.722 351.652 L
164.722 359.348 L
cp
S
GR
GS
[0.75 0 0 0.75 0 0] CT
1 GC
N
231.057 342.5 M
237.722 338.652 L
237.722 346.348 L
cp
f
GR
GS
[0.75 0 0 0.75 0 0] CT
0.6 0.2 0 RC
10.0 ML
2 LW
N
231.057 342.5 M
237.722 338.652 L
237.722 346.348 L
cp
S
GR
GS
[0.75 0 0 0.75 0 0] CT
1 GC
N
304.057 335.5 M
310.722 331.652 L
310.722 339.348 L
cp
f
GR
GS
[0.75 0 0 0.75 0 0] CT
0.6 0.2 0 RC
10.0 ML
2 LW
N
304.057 335.5 M
310.722 331.652 L
310.722 339.348 L
cp
S
GR
GS
[0.75 0 0 0.75 0 0] CT
1 GC
N
377.057 331.5 M
383.722 327.652 L
383.722 335.348 L
cp
f
GR
GS
[0.75 0 0 0.75 0 0] CT
0.6 0.2 0 RC
10.0 ML
2 LW
N
377.057 331.5 M
383.722 327.652 L
383.722 335.348 L
cp
S
GR
GS
[0.75 0 0 0.75 0 0] CT
1 GC
N
450.057 330.5 M
456.722 326.652 L
456.722 334.348 L
cp
f
GR
GS
[0.75 0 0 0.75 0 0] CT
0.6 0.2 0 RC
10.0 ML
2 LW
N
450.057 330.5 M
456.722 326.652 L
456.722 334.348 L
cp
S
GR
GS
[0.75 0 0 0.75 0 0] CT
1 GC
N
523.057 330.5 M
529.722 326.652 L
529.722 334.348 L
cp
f
GR
GS
[0.75 0 0 0.75 0 0] CT
0.6 0.2 0 RC
10.0 ML
2 LW
N
523.057 330.5 M
529.722 326.652 L
529.722 334.348 L
cp
S
GR
GS
[0.75 0 0 0.75 0 0] CT
1 GC
N
596.057 330.5 M
602.722 326.652 L
602.722 334.348 L
cp
f
GR
GS
[0.75 0 0 0.75 0 0] CT
0.6 0.2 0 RC
10.0 ML
2 LW
N
596.057 330.5 M
602.722 326.652 L
602.722 334.348 L
cp
S
GR
GS
[0.75 0 0 0.75 0 0] CT
1 GC
N
669.057 331.5 M
675.722 327.652 L
675.722 335.348 L
cp
f
GR
GS
[0.75 0 0 0.75 0 0] CT
0.6 0.2 0 RC
10.0 ML
2 LW
N
669.057 331.5 M
675.722 327.652 L
675.722 335.348 L
cp
S
GR
GS
[0.75 0 0 0.75 0 0] CT
1 GC
N
742.057 332.5 M
748.722 328.652 L
748.722 336.348 L
cp
f
GR
GS
[0.75 0 0 0.75 0 0] CT
0.6 0.2 0 RC
10.0 ML
2 LW
N
742.057 332.5 M
748.722 328.652 L
748.722 336.348 L
cp
S
GR
GS
[0.75 0 0 0.75 0 0] CT
0.929 0.694 0.125 RC
1 LJ
2 LW
N
90 384.732 M
162.889 380.829 L
235.778 383.79 L
308.667 387.438 L
381.556 392.449 L
454.444 398.321 L
527.333 403.53 L
600.222 409.076 L
673.111 414.131 L
746 420.067 L
S
GR
GS
[0.75 0 0 0.75 0 0] CT
1 GC
N
87.33 383.47 M
89.716 383.47 L
90.5 381.167 L
91.284 383.47 L
93.67 383.47 L
91.768 384.912 L
92.459 387.197 L
90.5 385.833 L
88.541 387.197 L
89.232 384.912 L
87.33 383.47 L
cp
f
GR
GS
[0.75 0 0 0.75 0 0] CT
0.929 0.694 0.125 RC
10.0 ML
2 LW
N
87.33 383.47 M
89.716 383.47 L
90.5 381.167 L
91.284 383.47 L
93.67 383.47 L
91.768 384.912 L
92.459 387.197 L
90.5 385.833 L
88.541 387.197 L
89.232 384.912 L
cp
S
GR
GS
[0.75 0 0 0.75 0 0] CT
1 GC
N
159.33 379.47 M
161.716 379.47 L
162.5 377.167 L
163.284 379.47 L
165.67 379.47 L
163.768 380.912 L
164.459 383.197 L
162.5 381.833 L
160.541 383.197 L
161.232 380.912 L
159.33 379.47 L
cp
f
GR
GS
[0.75 0 0 0.75 0 0] CT
0.929 0.694 0.125 RC
10.0 ML
2 LW
N
159.33 379.47 M
161.716 379.47 L
162.5 377.167 L
163.284 379.47 L
165.67 379.47 L
163.768 380.912 L
164.459 383.197 L
162.5 381.833 L
160.541 383.197 L
161.232 380.912 L
cp
S
GR
GS
[0.75 0 0 0.75 0 0] CT
1 GC
N
232.33 382.47 M
234.716 382.47 L
235.5 380.167 L
236.284 382.47 L
238.67 382.47 L
236.768 383.912 L
237.459 386.197 L
235.5 384.833 L
233.541 386.197 L
234.232 383.912 L
232.33 382.47 L
cp
f
GR
GS
[0.75 0 0 0.75 0 0] CT
0.929 0.694 0.125 RC
10.0 ML
2 LW
N
232.33 382.47 M
234.716 382.47 L
235.5 380.167 L
236.284 382.47 L
238.67 382.47 L
236.768 383.912 L
237.459 386.197 L
235.5 384.833 L
233.541 386.197 L
234.232 383.912 L
cp
S
GR
GS
[0.75 0 0 0.75 0 0] CT
1 GC
N
305.33 386.47 M
307.716 386.47 L
308.5 384.167 L
309.284 386.47 L
311.67 386.47 L
309.768 387.912 L
310.459 390.197 L
308.5 388.833 L
306.541 390.197 L
307.232 387.912 L
305.33 386.47 L
cp
f
GR
GS
[0.75 0 0 0.75 0 0] CT
0.929 0.694 0.125 RC
10.0 ML
2 LW
N
305.33 386.47 M
307.716 386.47 L
308.5 384.167 L
309.284 386.47 L
311.67 386.47 L
309.768 387.912 L
310.459 390.197 L
308.5 388.833 L
306.541 390.197 L
307.232 387.912 L
cp
S
GR
GS
[0.75 0 0 0.75 0 0] CT
1 GC
N
378.33 391.47 M
380.716 391.47 L
381.5 389.167 L
382.284 391.47 L
384.67 391.47 L
382.768 392.912 L
383.459 395.197 L
381.5 393.833 L
379.541 395.197 L
380.232 392.912 L
378.33 391.47 L
cp
f
GR
GS
[0.75 0 0 0.75 0 0] CT
0.929 0.694 0.125 RC
10.0 ML
2 LW
N
378.33 391.47 M
380.716 391.47 L
381.5 389.167 L
382.284 391.47 L
384.67 391.47 L
382.768 392.912 L
383.459 395.197 L
381.5 393.833 L
379.541 395.197 L
380.232 392.912 L
cp
S
GR
GS
[0.75 0 0 0.75 0 0] CT
1 GC
N
451.33 397.47 M
453.716 397.47 L
454.5 395.167 L
455.284 397.47 L
457.67 397.47 L
455.768 398.912 L
456.459 401.197 L
454.5 399.833 L
452.541 401.197 L
453.232 398.912 L
451.33 397.47 L
cp
f
GR
GS
[0.75 0 0 0.75 0 0] CT
0.929 0.694 0.125 RC
10.0 ML
2 LW
N
451.33 397.47 M
453.716 397.47 L
454.5 395.167 L
455.284 397.47 L
457.67 397.47 L
455.768 398.912 L
456.459 401.197 L
454.5 399.833 L
452.541 401.197 L
453.232 398.912 L
cp
S
GR
GS
[0.75 0 0 0.75 0 0] CT
1 GC
N
524.33 402.47 M
526.716 402.47 L
527.5 400.167 L
528.284 402.47 L
530.67 402.47 L
528.768 403.912 L
529.459 406.197 L
527.5 404.833 L
525.541 406.197 L
526.232 403.912 L
524.33 402.47 L
cp
f
GR
GS
[0.75 0 0 0.75 0 0] CT
0.929 0.694 0.125 RC
10.0 ML
2 LW
N
524.33 402.47 M
526.716 402.47 L
527.5 400.167 L
528.284 402.47 L
530.67 402.47 L
528.768 403.912 L
529.459 406.197 L
527.5 404.833 L
525.541 406.197 L
526.232 403.912 L
cp
S
GR
GS
[0.75 0 0 0.75 0 0] CT
1 GC
N
597.33 408.47 M
599.716 408.47 L
600.5 406.167 L
601.284 408.47 L
603.67 408.47 L
601.768 409.912 L
602.459 412.197 L
600.5 410.833 L
598.541 412.197 L
599.232 409.912 L
597.33 408.47 L
cp
f
GR
GS
[0.75 0 0 0.75 0 0] CT
0.929 0.694 0.125 RC
10.0 ML
2 LW
N
597.33 408.47 M
599.716 408.47 L
600.5 406.167 L
601.284 408.47 L
603.67 408.47 L
601.768 409.912 L
602.459 412.197 L
600.5 410.833 L
598.541 412.197 L
599.232 409.912 L
cp
S
GR
GS
[0.75 0 0 0.75 0 0] CT
1 GC
N
670.33 413.47 M
672.716 413.47 L
673.5 411.167 L
674.284 413.47 L
676.67 413.47 L
674.768 414.912 L
675.459 417.197 L
673.5 415.833 L
671.541 417.197 L
672.232 414.912 L
670.33 413.47 L
cp
f
GR
GS
[0.75 0 0 0.75 0 0] CT
0.929 0.694 0.125 RC
10.0 ML
2 LW
N
670.33 413.47 M
672.716 413.47 L
673.5 411.167 L
674.284 413.47 L
676.67 413.47 L
674.768 414.912 L
675.459 417.197 L
673.5 415.833 L
671.541 417.197 L
672.232 414.912 L
cp
S
GR
GS
[0.75 0 0 0.75 0 0] CT
1 GC
N
743.33 419.47 M
745.716 419.47 L
746.5 417.167 L
747.284 419.47 L
749.67 419.47 L
747.768 420.912 L
748.459 423.197 L
746.5 421.833 L
744.541 423.197 L
745.232 420.912 L
743.33 419.47 L
cp
f
GR
GS
[0.75 0 0 0.75 0 0] CT
0.929 0.694 0.125 RC
10.0 ML
2 LW
N
743.33 419.47 M
745.716 419.47 L
746.5 417.167 L
747.284 419.47 L
749.67 419.47 L
747.768 420.912 L
748.459 423.197 L
746.5 421.833 L
744.541 423.197 L
745.232 420.912 L
cp
S
GR
GS
[0.75 0 0 0.75 0 0] CT
0 1 1 RC
1 LJ
2 LW
N
90 384.732 M
162.889 358.289 L
235.778 346.45 L
308.667 339.587 L
381.556 335.2 L
454.444 333.222 L
527.333 333.342 L
600.222 333.978 L
673.111 336.153 L
746 338.292 L
S
GR
GS
[0.75 0 0 0.75 0 0] CT
1 GC
N
90.5 388.943 M
93.833 384.5 L
90.5 380.057 L
87.167 384.5 L
cp
f
GR
GS
[0.75 0 0 0.75 0 0] CT
0 1 1 RC
10.0 ML
2 LW
N
90.5 388.943 M
93.833 384.5 L
90.5 380.057 L
87.167 384.5 L
cp
S
GR
GS
[0.75 0 0 0.75 0 0] CT
1 GC
N
162.5 362.943 M
165.833 358.5 L
162.5 354.057 L
159.167 358.5 L
cp
f
GR
GS
[0.75 0 0 0.75 0 0] CT
0 1 1 RC
10.0 ML
2 LW
N
162.5 362.943 M
165.833 358.5 L
162.5 354.057 L
159.167 358.5 L
cp
S
GR
GS
[0.75 0 0 0.75 0 0] CT
1 GC
N
235.5 350.943 M
238.833 346.5 L
235.5 342.057 L
232.167 346.5 L
cp
f
GR
GS
[0.75 0 0 0.75 0 0] CT
0 1 1 RC
10.0 ML
2 LW
N
235.5 350.943 M
238.833 346.5 L
235.5 342.057 L
232.167 346.5 L
cp
S
GR
GS
[0.75 0 0 0.75 0 0] CT
1 GC
N
308.5 343.943 M
311.833 339.5 L
308.5 335.057 L
305.167 339.5 L
cp
f
GR
GS
[0.75 0 0 0.75 0 0] CT
0 1 1 RC
10.0 ML
2 LW
N
308.5 343.943 M
311.833 339.5 L
308.5 335.057 L
305.167 339.5 L
cp
S
GR
GS
[0.75 0 0 0.75 0 0] CT
1 GC
N
381.5 339.943 M
384.833 335.5 L
381.5 331.057 L
378.167 335.5 L
cp
f
GR
GS
[0.75 0 0 0.75 0 0] CT
0 1 1 RC
10.0 ML
2 LW
N
381.5 339.943 M
384.833 335.5 L
381.5 331.057 L
378.167 335.5 L
cp
S
GR
GS
[0.75 0 0 0.75 0 0] CT
1 GC
N
454.5 337.943 M
457.833 333.5 L
454.5 329.057 L
451.167 333.5 L
cp
f
GR
GS
[0.75 0 0 0.75 0 0] CT
0 1 1 RC
10.0 ML
2 LW
N
454.5 337.943 M
457.833 333.5 L
454.5 329.057 L
451.167 333.5 L
cp
S
GR
GS
[0.75 0 0 0.75 0 0] CT
1 GC
N
527.5 337.943 M
530.833 333.5 L
527.5 329.057 L
524.167 333.5 L
cp
f
GR
GS
[0.75 0 0 0.75 0 0] CT
0 1 1 RC
10.0 ML
2 LW
N
527.5 337.943 M
530.833 333.5 L
527.5 329.057 L
524.167 333.5 L
cp
S
GR
GS
[0.75 0 0 0.75 0 0] CT
1 GC
N
600.5 337.943 M
603.833 333.5 L
600.5 329.057 L
597.167 333.5 L
cp
f
GR
GS
[0.75 0 0 0.75 0 0] CT
0 1 1 RC
10.0 ML
2 LW
N
600.5 337.943 M
603.833 333.5 L
600.5 329.057 L
597.167 333.5 L
cp
S
GR
GS
[0.75 0 0 0.75 0 0] CT
1 GC
N
673.5 340.943 M
676.833 336.5 L
673.5 332.057 L
670.167 336.5 L
cp
f
GR
GS
[0.75 0 0 0.75 0 0] CT
0 1 1 RC
10.0 ML
2 LW
N
673.5 340.943 M
676.833 336.5 L
673.5 332.057 L
670.167 336.5 L
cp
S
GR
GS
[0.75 0 0 0.75 0 0] CT
1 GC
N
746.5 342.943 M
749.833 338.5 L
746.5 334.057 L
743.167 338.5 L
cp
f
GR
GS
[0.75 0 0 0.75 0 0] CT
0 1 1 RC
10.0 ML
2 LW
N
746.5 342.943 M
749.833 338.5 L
746.5 334.057 L
743.167 338.5 L
cp
S
GR
GS
[0.75 0 0 0.75 0 0] CT
0 1 0 RC
1 LJ
2 LW
N
90 384.732 M
162.889 337.126 L
235.778 320.624 L
308.667 314.053 L
381.556 311.302 L
454.444 310.956 L
527.333 313.359 L
600.222 315.985 L
673.111 318.585 L
746 322.082 L
S
GR
GS
[0.75 0 0 0.75 0 0] CT
1 GC
N
87.9 387.1 M
87.9 381.9 L
93.1 381.9 L
93.1 387.1 L
cp
f
GR
GS
[0.75 0 0 0.75 0 0] CT
0 1 0 RC
10.0 ML
2 LW
N
87.9 387.1 M
87.9 381.9 L
93.1 381.9 L
93.1 387.1 L
cp
S
GR
GS
[0.75 0 0 0.75 0 0] CT
1 GC
N
159.9 340.1 M
159.9 334.9 L
165.1 334.9 L
165.1 340.1 L
cp
f
GR
GS
[0.75 0 0 0.75 0 0] CT
0 1 0 RC
10.0 ML
2 LW
N
159.9 340.1 M
159.9 334.9 L
165.1 334.9 L
165.1 340.1 L
cp
S
GR
GS
[0.75 0 0 0.75 0 0] CT
1 GC
N
232.9 323.1 M
232.9 317.9 L
238.1 317.9 L
238.1 323.1 L
cp
f
GR
GS
[0.75 0 0 0.75 0 0] CT
0 1 0 RC
10.0 ML
2 LW
N
232.9 323.1 M
232.9 317.9 L
238.1 317.9 L
238.1 323.1 L
cp
S
GR
GS
[0.75 0 0 0.75 0 0] CT
1 GC
N
305.9 317.1 M
305.9 311.9 L
311.1 311.9 L
311.1 317.1 L
cp
f
GR
GS
[0.75 0 0 0.75 0 0] CT
0 1 0 RC
10.0 ML
2 LW
N
305.9 317.1 M
305.9 311.9 L
311.1 311.9 L
311.1 317.1 L
cp
S
GR
GS
[0.75 0 0 0.75 0 0] CT
1 GC
N
378.9 314.1 M
378.9 308.9 L
384.1 308.9 L
384.1 314.1 L
cp
f
GR
GS
[0.75 0 0 0.75 0 0] CT
0 1 0 RC
10.0 ML
2 LW
N
378.9 314.1 M
378.9 308.9 L
384.1 308.9 L
384.1 314.1 L
cp
S
GR
GS
[0.75 0 0 0.75 0 0] CT
1 GC
N
451.9 313.1 M
451.9 307.9 L
457.1 307.9 L
457.1 313.1 L
cp
f
GR
GS
[0.75 0 0 0.75 0 0] CT
0 1 0 RC
10.0 ML
2 LW
N
451.9 313.1 M
451.9 307.9 L
457.1 307.9 L
457.1 313.1 L
cp
S
GR
GS
[0.75 0 0 0.75 0 0] CT
1 GC
N
524.9 316.1 M
524.9 310.9 L
530.1 310.9 L
530.1 316.1 L
cp
f
GR
GS
[0.75 0 0 0.75 0 0] CT
0 1 0 RC
10.0 ML
2 LW
N
524.9 316.1 M
524.9 310.9 L
530.1 310.9 L
530.1 316.1 L
cp
S
GR
GS
[0.75 0 0 0.75 0 0] CT
1 GC
N
597.9 318.1 M
597.9 312.9 L
603.1 312.9 L
603.1 318.1 L
cp
f
GR
GS
[0.75 0 0 0.75 0 0] CT
0 1 0 RC
10.0 ML
2 LW
N
597.9 318.1 M
597.9 312.9 L
603.1 312.9 L
603.1 318.1 L
cp
S
GR
GS
[0.75 0 0 0.75 0 0] CT
1 GC
N
670.9 321.1 M
670.9 315.9 L
676.1 315.9 L
676.1 321.1 L
cp
f
GR
GS
[0.75 0 0 0.75 0 0] CT
0 1 0 RC
10.0 ML
2 LW
N
670.9 321.1 M
670.9 315.9 L
676.1 315.9 L
676.1 321.1 L
cp
S
GR
GS
[0.75 0 0 0.75 0 0] CT
1 GC
N
743.9 325.1 M
743.9 319.9 L
749.1 319.9 L
749.1 325.1 L
cp
f
GR
GS
[0.75 0 0 0.75 0 0] CT
0 1 0 RC
10.0 ML
2 LW
N
743.9 325.1 M
743.9 319.9 L
749.1 319.9 L
749.1 325.1 L
cp
S
GR
GS
[0.75 0 0 0.75 0 0] CT
0 0 1 RC
1 LJ
2 LW
N
90 384.732 M
162.889 378.493 L
235.778 378.523 L
308.667 380.615 L
381.556 382.757 L
454.444 384.912 L
527.333 388.062 L
600.222 392.539 L
673.111 396.52 L
746 400.597 L
S
GR
GS
[0.75 0 0 0.75 0 0] CT
1 GC
N
86.057 384.5 M
92.722 380.652 L
92.722 388.348 L
cp
f
GR
GS
[0.75 0 0 0.75 0 0] CT
0 0 1 RC
10.0 ML
2 LW
N
86.057 384.5 M
92.722 380.652 L
92.722 388.348 L
cp
S
GR
GS
[0.75 0 0 0.75 0 0] CT
1 GC
N
158.057 378.5 M
164.722 374.652 L
164.722 382.348 L
cp
f
GR
GS
[0.75 0 0 0.75 0 0] CT
0 0 1 RC
10.0 ML
2 LW
N
158.057 378.5 M
164.722 374.652 L
164.722 382.348 L
cp
S
GR
GS
[0.75 0 0 0.75 0 0] CT
1 GC
N
231.057 378.5 M
237.722 374.652 L
237.722 382.348 L
cp
f
GR
GS
[0.75 0 0 0.75 0 0] CT
0 0 1 RC
10.0 ML
2 LW
N
231.057 378.5 M
237.722 374.652 L
237.722 382.348 L
cp
S
GR
GS
[0.75 0 0 0.75 0 0] CT
1 GC
N
304.057 380.5 M
310.722 376.652 L
310.722 384.348 L
cp
f
GR
GS
[0.75 0 0 0.75 0 0] CT
0 0 1 RC
10.0 ML
2 LW
N
304.057 380.5 M
310.722 376.652 L
310.722 384.348 L
cp
S
GR
GS
[0.75 0 0 0.75 0 0] CT
1 GC
N
377.057 382.5 M
383.722 378.652 L
383.722 386.348 L
cp
f
GR
GS
[0.75 0 0 0.75 0 0] CT
0 0 1 RC
10.0 ML
2 LW
N
377.057 382.5 M
383.722 378.652 L
383.722 386.348 L
cp
S
GR
GS
[0.75 0 0 0.75 0 0] CT
1 GC
N
450.057 384.5 M
456.722 380.652 L
456.722 388.348 L
cp
f
GR
GS
[0.75 0 0 0.75 0 0] CT
0 0 1 RC
10.0 ML
2 LW
N
450.057 384.5 M
456.722 380.652 L
456.722 388.348 L
cp
S
GR
GS
[0.75 0 0 0.75 0 0] CT
1 GC
N
523.057 388.5 M
529.722 384.652 L
529.722 392.348 L
cp
f
GR
GS
[0.75 0 0 0.75 0 0] CT
0 0 1 RC
10.0 ML
2 LW
N
523.057 388.5 M
529.722 384.652 L
529.722 392.348 L
cp
S
GR
GS
[0.75 0 0 0.75 0 0] CT
1 GC
N
596.057 392.5 M
602.722 388.652 L
602.722 396.348 L
cp
f
GR
GS
[0.75 0 0 0.75 0 0] CT
0 0 1 RC
10.0 ML
2 LW
N
596.057 392.5 M
602.722 388.652 L
602.722 396.348 L
cp
S
GR
GS
[0.75 0 0 0.75 0 0] CT
1 GC
N
669.057 396.5 M
675.722 392.652 L
675.722 400.348 L
cp
f
GR
GS
[0.75 0 0 0.75 0 0] CT
0 0 1 RC
10.0 ML
2 LW
N
669.057 396.5 M
675.722 392.652 L
675.722 400.348 L
cp
S
GR
GS
[0.75 0 0 0.75 0 0] CT
1 GC
N
742.057 400.5 M
748.722 396.652 L
748.722 404.348 L
cp
f
GR
GS
[0.75 0 0 0.75 0 0] CT
0 0 1 RC
10.0 ML
2 LW
N
742.057 400.5 M
748.722 396.652 L
748.722 404.348 L
cp
S
GR
GS
[0.75 0 0 0.75 0 0] CT
1 0 1 RC
1 LJ
2 LW
N
90 384.732 M
162.889 317.524 L
235.778 287.135 L
308.667 276.473 L
381.556 270.803 L
454.444 269.147 L
527.333 269.355 L
600.222 270.19 L
673.111 272.915 L
746 275.619 L
S
GR
GS
[0.75 0 0 0.75 0 0] CT
1 0 1 RC
1 LJ
2 LW
N
87 384.5 M
94 384.5 L
S
GR
GS
[0.75 0 0 0.75 0 0] CT
1 0 1 RC
1 LJ
2 LW
N
90.5 388 M
90.5 381 L
S
GR
GS
[0.75 0 0 0.75 0 0] CT
1 0 1 RC
1 LJ
2 LW
N
159 317.5 M
166 317.5 L
S
GR
GS
[0.75 0 0 0.75 0 0] CT
1 0 1 RC
1 LJ
2 LW
N
162.5 321 M
162.5 314 L
S
GR
GS
[0.75 0 0 0.75 0 0] CT
1 0 1 RC
1 LJ
2 LW
N
232 287.5 M
239 287.5 L
S
GR
GS
[0.75 0 0 0.75 0 0] CT
1 0 1 RC
1 LJ
2 LW
N
235.5 291 M
235.5 284 L
S
GR
GS
[0.75 0 0 0.75 0 0] CT
1 0 1 RC
1 LJ
2 LW
N
305 276.5 M
312 276.5 L
S
GR
GS
[0.75 0 0 0.75 0 0] CT
1 0 1 RC
1 LJ
2 LW
N
308.5 280 M
308.5 273 L
S
GR
GS
[0.75 0 0 0.75 0 0] CT
1 0 1 RC
1 LJ
2 LW
N
378 270.5 M
385 270.5 L
S
GR
GS
[0.75 0 0 0.75 0 0] CT
1 0 1 RC
1 LJ
2 LW
N
381.5 274 M
381.5 267 L
S
GR
GS
[0.75 0 0 0.75 0 0] CT
1 0 1 RC
1 LJ
2 LW
N
451 269.5 M
458 269.5 L
S
GR
GS
[0.75 0 0 0.75 0 0] CT
1 0 1 RC
1 LJ
2 LW
N
454.5 273 M
454.5 266 L
S
GR
GS
[0.75 0 0 0.75 0 0] CT
1 0 1 RC
1 LJ
2 LW
N
524 269.5 M
531 269.5 L
S
GR
GS
[0.75 0 0 0.75 0 0] CT
1 0 1 RC
1 LJ
2 LW
N
527.5 273 M
527.5 266 L
S
GR
GS
[0.75 0 0 0.75 0 0] CT
1 0 1 RC
1 LJ
2 LW
N
597 270.5 M
604 270.5 L
S
GR
GS
[0.75 0 0 0.75 0 0] CT
1 0 1 RC
1 LJ
2 LW
N
600.5 274 M
600.5 267 L
S
GR
GS
[0.75 0 0 0.75 0 0] CT
1 0 1 RC
1 LJ
2 LW
N
670 272.5 M
677 272.5 L
S
GR
GS
[0.75 0 0 0.75 0 0] CT
1 0 1 RC
1 LJ
2 LW
N
673.5 276 M
673.5 269 L
S
GR
GS
[0.75 0 0 0.75 0 0] CT
1 0 1 RC
1 LJ
2 LW
N
743 275.5 M
750 275.5 L
S
GR
GS
[0.75 0 0 0.75 0 0] CT
1 0 1 RC
1 LJ
2 LW
N
746.5 279 M
746.5 272 L
S
GR
GS
[0.75 0 0 0.75 0 0] CT
1 0 0 RC
1 LJ
2 LW
N
90 384.732 M
162.889 262.39 L
235.778 213.792 L
308.667 194.379 L
381.556 188.345 L
454.444 188.05 L
527.333 189.851 L
600.222 191.552 L
673.111 196.151 L
746 201.47 L
S
GR
GS
[0.75 0 0 0.75 0 0] CT
1 GC
N
87.9 387.1 M
87.9 381.9 L
93.1 381.9 L
93.1 387.1 L
cp
f
GR
GS
[0.75 0 0 0.75 0 0] CT
1 0 0 RC
10.0 ML
2 LW
N
87.9 387.1 M
87.9 381.9 L
93.1 381.9 L
93.1 387.1 L
cp
S
GR
GS
[0.75 0 0 0.75 0 0] CT
1 GC
N
159.9 265.1 M
159.9 259.9 L
165.1 259.9 L
165.1 265.1 L
cp
f
GR
GS
[0.75 0 0 0.75 0 0] CT
1 0 0 RC
10.0 ML
2 LW
N
159.9 265.1 M
159.9 259.9 L
165.1 259.9 L
165.1 265.1 L
cp
S
GR
GS
[0.75 0 0 0.75 0 0] CT
1 GC
N
232.9 216.1 M
232.9 210.9 L
238.1 210.9 L
238.1 216.1 L
cp
f
GR
GS
[0.75 0 0 0.75 0 0] CT
1 0 0 RC
10.0 ML
2 LW
N
232.9 216.1 M
232.9 210.9 L
238.1 210.9 L
238.1 216.1 L
cp
S
GR
GS
[0.75 0 0 0.75 0 0] CT
1 GC
N
305.9 197.1 M
305.9 191.9 L
311.1 191.9 L
311.1 197.1 L
cp
f
GR
GS
[0.75 0 0 0.75 0 0] CT
1 0 0 RC
10.0 ML
2 LW
N
305.9 197.1 M
305.9 191.9 L
311.1 191.9 L
311.1 197.1 L
cp
S
GR
GS
[0.75 0 0 0.75 0 0] CT
1 GC
N
378.9 191.1 M
378.9 185.9 L
384.1 185.9 L
384.1 191.1 L
cp
f
GR
GS
[0.75 0 0 0.75 0 0] CT
1 0 0 RC
10.0 ML
2 LW
N
378.9 191.1 M
378.9 185.9 L
384.1 185.9 L
384.1 191.1 L
cp
S
GR
GS
[0.75 0 0 0.75 0 0] CT
1 GC
N
451.9 191.1 M
451.9 185.9 L
457.1 185.9 L
457.1 191.1 L
cp
f
GR
GS
[0.75 0 0 0.75 0 0] CT
1 0 0 RC
10.0 ML
2 LW
N
451.9 191.1 M
451.9 185.9 L
457.1 185.9 L
457.1 191.1 L
cp
S
GR
GS
[0.75 0 0 0.75 0 0] CT
1 GC
N
524.9 192.1 M
524.9 186.9 L
530.1 186.9 L
530.1 192.1 L
cp
f
GR
GS
[0.75 0 0 0.75 0 0] CT
1 0 0 RC
10.0 ML
2 LW
N
524.9 192.1 M
524.9 186.9 L
530.1 186.9 L
530.1 192.1 L
cp
S
GR
GS
[0.75 0 0 0.75 0 0] CT
1 GC
N
597.9 194.1 M
597.9 188.9 L
603.1 188.9 L
603.1 194.1 L
cp
f
GR
GS
[0.75 0 0 0.75 0 0] CT
1 0 0 RC
10.0 ML
2 LW
N
597.9 194.1 M
597.9 188.9 L
603.1 188.9 L
603.1 194.1 L
cp
S
GR
GS
[0.75 0 0 0.75 0 0] CT
1 GC
N
670.9 199.1 M
670.9 193.9 L
676.1 193.9 L
676.1 199.1 L
cp
f
GR
GS
[0.75 0 0 0.75 0 0] CT
1 0 0 RC
10.0 ML
2 LW
N
670.9 199.1 M
670.9 193.9 L
676.1 193.9 L
676.1 199.1 L
cp
S
GR
GS
[0.75 0 0 0.75 0 0] CT
1 GC
N
743.9 204.1 M
743.9 198.9 L
749.1 198.9 L
749.1 204.1 L
cp
f
GR
GS
[0.75 0 0 0.75 0 0] CT
1 0 0 RC
10.0 ML
2 LW
N
743.9 204.1 M
743.9 198.9 L
749.1 198.9 L
749.1 204.1 L
cp
S
GR
GS
[0.75 0 0 0.75 0 0] CT
1 LJ
2 LW
N
90 384.732 M
162.889 200.143 L
235.778 117.32 L
308.667 81.337 L
381.556 68.245 L
454.444 62.091 L
527.333 59.726 L
600.222 60.858 L
673.111 64.156 L
746 69.039 L
S
GR
GS
[0.75 0 0 0.75 0 0] CT
1 GC
N
93.833 384.5 M
92.857 382.143 L
90.5 381.167 L
88.143 382.143 L
87.167 384.5 L
88.143 386.857 L
90.5 387.833 L
92.857 386.857 L
93.833 384.5 L
cp
f
GR
GS
[0.75 0 0 0.75 0 0] CT
1 LJ
2 LW
N
93.833 384.5 M
93.197 382.541 L
91.53 381.33 L
89.47 381.33 L
87.803 382.541 L
87.167 384.5 L
87.803 386.459 L
89.47 387.67 L
91.53 387.67 L
93.197 386.459 L
cp
S
GR
GS
[0.75 0 0 0.75 0 0] CT
1 GC
N
165.833 200.5 M
164.857 198.143 L
162.5 197.167 L
160.143 198.143 L
159.167 200.5 L
160.143 202.857 L
162.5 203.833 L
164.857 202.857 L
165.833 200.5 L
cp
f
GR
GS
[0.75 0 0 0.75 0 0] CT
1 LJ
2 LW
N
165.833 200.5 M
165.197 198.541 L
163.53 197.33 L
161.47 197.33 L
159.803 198.541 L
159.167 200.5 L
159.803 202.459 L
161.47 203.67 L
163.53 203.67 L
165.197 202.459 L
cp
S
GR
GS
[0.75 0 0 0.75 0 0] CT
1 GC
N
238.833 117.5 M
237.857 115.143 L
235.5 114.167 L
233.143 115.143 L
232.167 117.5 L
233.143 119.857 L
235.5 120.833 L
237.857 119.857 L
238.833 117.5 L
cp
f
GR
GS
[0.75 0 0 0.75 0 0] CT
1 LJ
2 LW
N
238.833 117.5 M
238.197 115.541 L
236.53 114.33 L
234.47 114.33 L
232.803 115.541 L
232.167 117.5 L
232.803 119.459 L
234.47 120.67 L
236.53 120.67 L
238.197 119.459 L
cp
S
GR
GS
[0.75 0 0 0.75 0 0] CT
1 GC
N
311.833 81.5 M
310.857 79.143 L
308.5 78.167 L
306.143 79.143 L
305.167 81.5 L
306.143 83.857 L
308.5 84.833 L
310.857 83.857 L
311.833 81.5 L
cp
f
GR
GS
[0.75 0 0 0.75 0 0] CT
1 LJ
2 LW
N
311.833 81.5 M
311.197 79.541 L
309.53 78.33 L
307.47 78.33 L
305.803 79.541 L
305.167 81.5 L
305.803 83.459 L
307.47 84.67 L
309.53 84.67 L
311.197 83.459 L
cp
S
GR
GS
[0.75 0 0 0.75 0 0] CT
1 GC
N
384.833 68.5 M
383.857 66.143 L
381.5 65.167 L
379.143 66.143 L
378.167 68.5 L
379.143 70.857 L
381.5 71.833 L
383.857 70.857 L
384.833 68.5 L
cp
f
GR
GS
[0.75 0 0 0.75 0 0] CT
1 LJ
2 LW
N
384.833 68.5 M
384.197 66.541 L
382.53 65.33 L
380.47 65.33 L
378.803 66.541 L
378.167 68.5 L
378.803 70.459 L
380.47 71.67 L
382.53 71.67 L
384.197 70.459 L
cp
S
GR
GS
[0.75 0 0 0.75 0 0] CT
1 GC
N
457.833 62.5 M
456.857 60.143 L
454.5 59.167 L
452.143 60.143 L
451.167 62.5 L
452.143 64.857 L
454.5 65.833 L
456.857 64.857 L
457.833 62.5 L
cp
f
GR
GS
[0.75 0 0 0.75 0 0] CT
1 LJ
2 LW
N
457.833 62.5 M
457.197 60.541 L
455.53 59.33 L
453.47 59.33 L
451.803 60.541 L
451.167 62.5 L
451.803 64.459 L
453.47 65.67 L
455.53 65.67 L
457.197 64.459 L
cp
S
GR
GS
[0.75 0 0 0.75 0 0] CT
1 GC
N
530.833 59.5 M
529.857 57.143 L
527.5 56.167 L
525.143 57.143 L
524.167 59.5 L
525.143 61.857 L
527.5 62.833 L
529.857 61.857 L
530.833 59.5 L
cp
f
GR
GS
[0.75 0 0 0.75 0 0] CT
1 LJ
2 LW
N
530.833 59.5 M
530.197 57.541 L
528.53 56.33 L
526.47 56.33 L
524.803 57.541 L
524.167 59.5 L
524.803 61.459 L
526.47 62.67 L
528.53 62.67 L
530.197 61.459 L
cp
S
GR
GS
[0.75 0 0 0.75 0 0] CT
1 GC
N
603.833 60.5 M
602.857 58.143 L
600.5 57.167 L
598.143 58.143 L
597.167 60.5 L
598.143 62.857 L
600.5 63.833 L
602.857 62.857 L
603.833 60.5 L
cp
f
GR
GS
[0.75 0 0 0.75 0 0] CT
1 LJ
2 LW
N
603.833 60.5 M
603.197 58.541 L
601.53 57.33 L
599.47 57.33 L
597.803 58.541 L
597.167 60.5 L
597.803 62.459 L
599.47 63.67 L
601.53 63.67 L
603.197 62.459 L
cp
S
GR
GS
[0.75 0 0 0.75 0 0] CT
1 GC
N
676.833 64.5 M
675.857 62.143 L
673.5 61.167 L
671.143 62.143 L
670.167 64.5 L
671.143 66.857 L
673.5 67.833 L
675.857 66.857 L
676.833 64.5 L
cp
f
GR
GS
[0.75 0 0 0.75 0 0] CT
1 LJ
2 LW
N
676.833 64.5 M
676.197 62.541 L
674.53 61.33 L
672.47 61.33 L
670.803 62.541 L
670.167 64.5 L
670.803 66.459 L
672.47 67.67 L
674.53 67.67 L
676.197 66.459 L
cp
S
GR
GS
[0.75 0 0 0.75 0 0] CT
1 GC
N
749.833 69.5 M
748.857 67.143 L
746.5 66.167 L
744.143 67.143 L
743.167 69.5 L
744.143 71.857 L
746.5 72.833 L
748.857 71.857 L
749.833 69.5 L
cp
f
GR
GS
[0.75 0 0 0.75 0 0] CT
1 LJ
2 LW
N
749.833 69.5 M
749.197 67.541 L
747.53 66.33 L
745.47 66.33 L
743.803 67.541 L
743.167 69.5 L
743.803 71.459 L
745.47 72.67 L
747.53 72.67 L
749.197 71.459 L
cp
S
GR
GS
[0.75 0 0 0.75 0 0] CT
1 GC
N
627 408 M
627 139 L
733 139 L
733 408 L
cp
f
GR
GS
[0.75 0 0 0.75 498 116.625] CT
/Times 24 F
GS
[1 0 0 1 0 0] CT
0 8.5 moveto 
1 -1 scale
(LBP) t 
GR
GR
GS
[0.75 0 0 0.75 0 0] CT
1 0.6 0.784 RC
1 LJ
2 LW
N
631 155.5 M
661 155.5 L
S
GR
GS
[0.75 0 0 0.75 0 0] CT
1 GC
N
644.278 151.652 M
650.943 155.5 L
644.278 159.348 L
cp
f
GR
GS
[0.75 0 0 0.75 0 0] CT
1 0.6 0.784 RC
10.0 ML
2 LW
N
644.278 151.652 M
650.943 155.5 L
644.278 159.348 L
cp
S
GR
GS
[0.75 0 0 0.75 498 138.75] CT
/Times 24 F
GS
[1 0 0 1 0 0] CT
0 8.5 moveto 
1 -1 scale
(LTP) t 
GR
GR
GS
[0.75 0 0 0.75 0 0] CT
0.6 0.2 0 RC
1 LJ
2 LW
N
631 185 M
661 185 L
S
GR
GS
[0.75 0 0 0.75 0 0] CT
1 GC
N
642.057 184.5 M
648.722 180.652 L
648.722 188.348 L
cp
f
GR
GS
[0.75 0 0 0.75 0 0] CT
0.6 0.2 0 RC
10.0 ML
2 LW
N
642.057 184.5 M
648.722 180.652 L
648.722 188.348 L
cp
S
GR
GS
[0.75 0 0 0.75 498 160.875] CT
/Times 24 F
GS
[1 0 0 1 0 0] CT
0 8.5 moveto 
1 -1 scale
(LDP) t 
GR
GR
GS
[0.75 0 0 0.75 0 0] CT
0.929 0.694 0.125 RC
1 LJ
2 LW
N
631 214.5 M
661 214.5 L
S
GR
GS
[0.75 0 0 0.75 0 0] CT
1 GC
N
643.33 213.47 M
645.716 213.47 L
646.5 211.167 L
647.284 213.47 L
649.67 213.47 L
647.768 214.912 L
648.459 217.197 L
646.5 215.833 L
644.541 217.197 L
645.232 214.912 L
643.33 213.47 L
cp
f
GR
GS
[0.75 0 0 0.75 0 0] CT
0.929 0.694 0.125 RC
10.0 ML
2 LW
N
643.33 213.47 M
645.716 213.47 L
646.5 211.167 L
647.284 213.47 L
649.67 213.47 L
647.768 214.912 L
648.459 217.197 L
646.5 215.833 L
644.541 217.197 L
645.232 214.912 L
cp
S
GR
GS
[0.75 0 0 0.75 498 183] CT
/Times 24 F
GS
[1 0 0 1 0 0] CT
0 8.5 moveto 
1 -1 scale
(LDN) t 
GR
GR
GS
[0.75 0 0 0.75 0 0] CT
0 1 1 RC
1 LJ
2 LW
N
631 244 M
661 244 L
S
GR
GS
[0.75 0 0 0.75 0 0] CT
1 GC
N
646.5 247.943 M
649.833 243.5 L
646.5 239.057 L
643.167 243.5 L
cp
f
GR
GS
[0.75 0 0 0.75 0 0] CT
0 1 1 RC
10.0 ML
2 LW
N
646.5 247.943 M
649.833 243.5 L
646.5 239.057 L
643.167 243.5 L
cp
S
GR
GS
[0.75 0 0 0.75 498 205.125] CT
/Times 24 F
GS
[1 0 0 1 0 0] CT
0 8.5 moveto 
1 -1 scale
(LVP) t 
GR
GR
GS
[0.75 0 0 0.75 0 0] CT
0 1 0 RC
1 LJ
2 LW
N
631 273.5 M
661 273.5 L
S
GR
GS
[0.75 0 0 0.75 0 0] CT
1 GC
N
643.9 276.1 M
643.9 270.9 L
649.1 270.9 L
649.1 276.1 L
cp
f
GR
GS
[0.75 0 0 0.75 0 0] CT
0 1 0 RC
10.0 ML
2 LW
N
643.9 276.1 M
643.9 270.9 L
649.1 270.9 L
649.1 276.1 L
cp
S
GR
GS
[0.75 0 0 0.75 498 227.25] CT
/Times 24 F
GS
[1 0 0 1 0 0] CT
0 8.5 moveto 
1 -1 scale
(LDGP) t 
GR
GR
GS
[0.75 0 0 0.75 0 0] CT
0 0 1 RC
1 LJ
2 LW
N
631 303 M
661 303 L
S
GR
GS
[0.75 0 0 0.75 0 0] CT
1 GC
N
642.057 302.5 M
648.722 298.652 L
648.722 306.348 L
cp
f
GR
GS
[0.75 0 0 0.75 0 0] CT
0 0 1 RC
10.0 ML
2 LW
N
642.057 302.5 M
648.722 298.652 L
648.722 306.348 L
cp
S
GR
GS
[0.75 0 0 0.75 498 249.375] CT
/Times 24 F
GS
[1 0 0 1 0 0] CT
0 8.5 moveto 
1 -1 scale
(DCP) t 
GR
GR
GS
[0.75 0 0 0.75 0 0] CT
1 0 1 RC
1 LJ
2 LW
N
631 332.5 M
661 332.5 L
S
GR
GS
[0.75 0 0 0.75 0 0] CT
1 0 1 RC
1 LJ
2 LW
N
643 332.5 M
650 332.5 L
S
GR
GS
[0.75 0 0 0.75 0 0] CT
1 0 1 RC
1 LJ
2 LW
N
646.5 336 M
646.5 329 L
S
GR
GS
[0.75 0 0 0.75 498 271.5] CT
/Times 24 F
GS
[1 0 0 1 0 0] CT
0 8.5 moveto 
1 -1 scale
(LGHP) t 
GR
GR
GS
[0.75 0 0 0.75 0 0] CT
1 0 0 RC
1 LJ
2 LW
N
631 362 M
661 362 L
S
GR
GS
[0.75 0 0 0.75 0 0] CT
1 GC
N
643.9 365.1 M
643.9 359.9 L
649.1 359.9 L
649.1 365.1 L
cp
f
GR
GS
[0.75 0 0 0.75 0 0] CT
1 0 0 RC
10.0 ML
2 LW
N
643.9 365.1 M
643.9 359.9 L
649.1 359.9 L
649.1 365.1 L
cp
S
GR
GS
[0.75 0 0 0.75 498 293.625] CT
/Times 24 F
GS
[1 0 0 1 0 0] CT
0 8.5 moveto 
1 -1 scale
(LDRP) t 
GR
GR
GS
[0.75 0 0 0.75 0 0] CT
1 LJ
2 LW
N
631 391.5 M
661 391.5 L
S
GR
GS
[0.75 0 0 0.75 0 0] CT
1 GC
N
649.833 391.5 M
648.857 389.143 L
646.5 388.167 L
644.143 389.143 L
643.167 391.5 L
644.143 393.857 L
646.5 394.833 L
648.857 393.857 L
649.833 391.5 L
cp
f
GR
GS
[0.75 0 0 0.75 0 0] CT
1 LJ
2 LW
N
649.833 391.5 M
649.197 389.541 L
647.53 388.33 L
645.47 388.33 L
643.803 389.541 L
643.167 391.5 L
643.803 393.459 L
645.47 394.67 L
647.53 394.67 L
649.197 393.459 L
cp
S
GR
GS
[0.75 0 0 0.75 0 0] CT
0.149 GC
10.0 ML
0.667 LW
N
627 408 M
627 139 L
733 139 L
733 408 L
cp
S
GR
%%Trailer
%%Pages: 1
%%EOF
