%!PS-Adobe-3.0 EPSF-3.0
%%Creator: (MATLAB, The Mathworks, Inc. Version 9.0.0.341360 \(R2016a\). Operating System: Linux)
%%Title: (/home/shivram/main/Work/1. Research/1. Ongoing/5. LDRP Face/2. Exp/1. Results/PubFigDev/pubfig-f.eps)
%%CreationDate: 2017-08-16T15:35:22
%%Pages: (atend)
%%BoundingBox: 0 0 573 384
%%LanguageLevel: 3
%%EndComments
%%BeginProlog
%%BeginResource: procset (Apache XML Graphics Std ProcSet) 1.2 0
%%Version: 1.2 0
%%Copyright: (Copyright 2001-2003,2010 The Apache Software Foundation. License terms: http://www.apache.org/licenses/LICENSE-2.0)
/bd{bind def}bind def
/ld{load def}bd
/GR/grestore ld
/M/moveto ld
/LJ/setlinejoin ld
/C/curveto ld
/f/fill ld
/LW/setlinewidth ld
/GC/setgray ld
/t/show ld
/N/newpath ld
/CT/concat ld
/cp/closepath ld
/S/stroke ld
/L/lineto ld
/CC/setcmykcolor ld
/A/ashow ld
/GS/gsave ld
/RC/setrgbcolor ld
/RM/rmoveto ld
/ML/setmiterlimit ld
/re {4 2 roll M
1 index 0 rlineto
0 exch rlineto
neg 0 rlineto
cp } bd
/_ctm matrix def
/_tm matrix def
/BT { _ctm currentmatrix pop matrix _tm copy pop 0 0 moveto } bd
/ET { _ctm setmatrix } bd
/iTm { _ctm setmatrix _tm concat } bd
/Tm { _tm astore pop iTm 0 0 moveto } bd
/ux 0.0 def
/uy 0.0 def
/F {
  /Tp exch def
  /Tf exch def
  Tf findfont Tp scalefont setfont
  /cf Tf def  /cs Tp def
} bd
/ULS {currentpoint /uy exch def /ux exch def} bd
/ULE {
  /Tcx currentpoint pop def
  gsave
  newpath
  cf findfont cs scalefont dup
  /FontMatrix get 0 get /Ts exch def /FontInfo get dup
  /UnderlinePosition get Ts mul /To exch def
  /UnderlineThickness get Ts mul /Tt exch def
  ux uy To add moveto  Tcx uy To add lineto
  Tt setlinewidth stroke
  grestore
} bd
/OLE {
  /Tcx currentpoint pop def
  gsave
  newpath
  cf findfont cs scalefont dup
  /FontMatrix get 0 get /Ts exch def /FontInfo get dup
  /UnderlinePosition get Ts mul /To exch def
  /UnderlineThickness get Ts mul /Tt exch def
  ux uy To add cs add moveto Tcx uy To add cs add lineto
  Tt setlinewidth stroke
  grestore
} bd
/SOE {
  /Tcx currentpoint pop def
  gsave
  newpath
  cf findfont cs scalefont dup
  /FontMatrix get 0 get /Ts exch def /FontInfo get dup
  /UnderlinePosition get Ts mul /To exch def
  /UnderlineThickness get Ts mul /Tt exch def
  ux uy To add cs 10 mul 26 idiv add moveto Tcx uy To add cs 10 mul 26 idiv add lineto
  Tt setlinewidth stroke
  grestore
} bd
/QT {
/Y22 exch store
/X22 exch store
/Y21 exch store
/X21 exch store
currentpoint
/Y21 load 2 mul add 3 div exch
/X21 load 2 mul add 3 div exch
/X21 load 2 mul /X22 load add 3 div
/Y21 load 2 mul /Y22 load add 3 div
/X22 load /Y22 load curveto
} bd
/SSPD {
dup length /d exch dict def
{
/v exch def
/k exch def
currentpagedevice k known {
/cpdv currentpagedevice k get def
v cpdv ne {
/upd false def
/nullv v type /nulltype eq def
/nullcpdv cpdv type /nulltype eq def
nullv nullcpdv or
{
/upd true def
} {
/sametype v type cpdv type eq def
sametype {
v type /arraytype eq {
/vlen v length def
/cpdvlen cpdv length def
vlen cpdvlen eq {
0 1 vlen 1 sub {
/i exch def
/obj v i get def
/cpdobj cpdv i get def
obj cpdobj ne {
/upd true def
exit
} if
} for
} {
/upd true def
} ifelse
} {
v type /dicttype eq {
v {
/dv exch def
/dk exch def
/cpddv cpdv dk get def
dv cpddv ne {
/upd true def
exit
} if
} forall
} {
/upd true def
} ifelse
} ifelse
} if
} ifelse
upd true eq {
d k v put
} if
} if
} if
} forall
d length 0 gt {
d setpagedevice
} if
} bd
%%EndResource
%%BeginResource: procset (Apache XML Graphics EPS ProcSet) 1.0 0
%%Version: 1.0 0
%%Copyright: (Copyright 2002-2003 The Apache Software Foundation. License terms: http://www.apache.org/licenses/LICENSE-2.0)
/BeginEPSF { %def
/b4_Inc_state save def         % Save state for cleanup
/dict_count countdictstack def % Count objects on dict stack
/op_count count 1 sub def      % Count objects on operand stack
userdict begin                 % Push userdict on dict stack
/showpage { } def              % Redefine showpage, { } = null proc
0 setgray 0 setlinecap         % Prepare graphics state
1 setlinewidth 0 setlinejoin
10 setmiterlimit [ ] 0 setdash newpath
/languagelevel where           % If level not equal to 1 then
{pop languagelevel             % set strokeadjust and
1 ne                           % overprint to their defaults.
{false setstrokeadjust false setoverprint
} if
} if
} bd
/EndEPSF { %def
count op_count sub {pop} repeat            % Clean up stacks
countdictstack dict_count sub {end} repeat
b4_Inc_state restore
} bd
%%EndResource
%FOPBeginFontDict
%%IncludeResource: font Courier-Bold
%%IncludeResource: font Helvetica
%%IncludeResource: font Courier-BoldOblique
%%IncludeResource: font Courier-Oblique
%%IncludeResource: font Times-Roman
%%IncludeResource: font Helvetica-BoldOblique
%%IncludeResource: font Helvetica-Bold
%%IncludeResource: font Helvetica-Oblique
%%IncludeResource: font Times-BoldItalic
%%IncludeResource: font Courier
%%IncludeResource: font Times-Italic
%%IncludeResource: font Times-Bold
%%IncludeResource: font Symbol
%%IncludeResource: font ZapfDingbats
%FOPEndFontDict
%%BeginResource: encoding WinAnsiEncoding
/WinAnsiEncoding [
/.notdef /.notdef /.notdef /.notdef /.notdef
/.notdef /.notdef /.notdef /.notdef /.notdef
/.notdef /.notdef /.notdef /.notdef /.notdef
/.notdef /.notdef /.notdef /.notdef /.notdef
/.notdef /.notdef /.notdef /.notdef /.notdef
/.notdef /.notdef /.notdef /.notdef /.notdef
/.notdef /.notdef /space /exclam /quotedbl
/numbersign /dollar /percent /ampersand /quotesingle
/parenleft /parenright /asterisk /plus /comma
/hyphen /period /slash /zero /one
/two /three /four /five /six
/seven /eight /nine /colon /semicolon
/less /equal /greater /question /at
/A /B /C /D /E
/F /G /H /I /J
/K /L /M /N /O
/P /Q /R /S /T
/U /V /W /X /Y
/Z /bracketleft /backslash /bracketright /asciicircum
/underscore /quoteleft /a /b /c
/d /e /f /g /h
/i /j /k /l /m
/n /o /p /q /r
/s /t /u /v /w
/x /y /z /braceleft /bar
/braceright /asciitilde /bullet /Euro /bullet
/quotesinglbase /florin /quotedblbase /ellipsis /dagger
/daggerdbl /circumflex /perthousand /Scaron /guilsinglleft
/OE /bullet /Zcaron /bullet /bullet
/quoteleft /quoteright /quotedblleft /quotedblright /bullet
/endash /emdash /asciitilde /trademark /scaron
/guilsinglright /oe /bullet /zcaron /Ydieresis
/space /exclamdown /cent /sterling /currency
/yen /brokenbar /section /dieresis /copyright
/ordfeminine /guillemotleft /logicalnot /sfthyphen /registered
/macron /degree /plusminus /twosuperior /threesuperior
/acute /mu /paragraph /middot /cedilla
/onesuperior /ordmasculine /guillemotright /onequarter /onehalf
/threequarters /questiondown /Agrave /Aacute /Acircumflex
/Atilde /Adieresis /Aring /AE /Ccedilla
/Egrave /Eacute /Ecircumflex /Edieresis /Igrave
/Iacute /Icircumflex /Idieresis /Eth /Ntilde
/Ograve /Oacute /Ocircumflex /Otilde /Odieresis
/multiply /Oslash /Ugrave /Uacute /Ucircumflex
/Udieresis /Yacute /Thorn /germandbls /agrave
/aacute /acircumflex /atilde /adieresis /aring
/ae /ccedilla /egrave /eacute /ecircumflex
/edieresis /igrave /iacute /icircumflex /idieresis
/eth /ntilde /ograve /oacute /ocircumflex
/otilde /odieresis /divide /oslash /ugrave
/uacute /ucircumflex /udieresis /yacute /thorn
/ydieresis
] def
%%EndResource
%FOPBeginFontReencode
/Courier-Bold findfont
dup length dict begin
  {1 index /FID ne {def} {pop pop} ifelse} forall
  /Encoding WinAnsiEncoding def
  currentdict
end
/Courier-Bold exch definefont pop
/Helvetica findfont
dup length dict begin
  {1 index /FID ne {def} {pop pop} ifelse} forall
  /Encoding WinAnsiEncoding def
  currentdict
end
/Helvetica exch definefont pop
/Courier-BoldOblique findfont
dup length dict begin
  {1 index /FID ne {def} {pop pop} ifelse} forall
  /Encoding WinAnsiEncoding def
  currentdict
end
/Courier-BoldOblique exch definefont pop
/Courier-Oblique findfont
dup length dict begin
  {1 index /FID ne {def} {pop pop} ifelse} forall
  /Encoding WinAnsiEncoding def
  currentdict
end
/Courier-Oblique exch definefont pop
/Times-Roman findfont
dup length dict begin
  {1 index /FID ne {def} {pop pop} ifelse} forall
  /Encoding WinAnsiEncoding def
  currentdict
end
/Times-Roman exch definefont pop
/Helvetica-BoldOblique findfont
dup length dict begin
  {1 index /FID ne {def} {pop pop} ifelse} forall
  /Encoding WinAnsiEncoding def
  currentdict
end
/Helvetica-BoldOblique exch definefont pop
/Helvetica-Bold findfont
dup length dict begin
  {1 index /FID ne {def} {pop pop} ifelse} forall
  /Encoding WinAnsiEncoding def
  currentdict
end
/Helvetica-Bold exch definefont pop
/Helvetica-Oblique findfont
dup length dict begin
  {1 index /FID ne {def} {pop pop} ifelse} forall
  /Encoding WinAnsiEncoding def
  currentdict
end
/Helvetica-Oblique exch definefont pop
/Times-BoldItalic findfont
dup length dict begin
  {1 index /FID ne {def} {pop pop} ifelse} forall
  /Encoding WinAnsiEncoding def
  currentdict
end
/Times-BoldItalic exch definefont pop
/Courier findfont
dup length dict begin
  {1 index /FID ne {def} {pop pop} ifelse} forall
  /Encoding WinAnsiEncoding def
  currentdict
end
/Courier exch definefont pop
/Times-Italic findfont
dup length dict begin
  {1 index /FID ne {def} {pop pop} ifelse} forall
  /Encoding WinAnsiEncoding def
  currentdict
end
/Times-Italic exch definefont pop
/Times-Bold findfont
dup length dict begin
  {1 index /FID ne {def} {pop pop} ifelse} forall
  /Encoding WinAnsiEncoding def
  currentdict
end
/Times-Bold exch definefont pop
%FOPEndFontReencode
%%EndProlog
%%Page: 1 1
%%PageBoundingBox: 0 0 573 384
%%BeginPageSetup
[1 0 0 -1 0 384] CT
%%EndPageSetup
GS
[0.75 0 0 0.75 0 0] CT
1 GC
N
0 0 764 512 re
f
GR
GS
[0.75 0 0 0.75 0 0] CT
1 GC
N
0 0 764 512 re
f
GR
GS
[0.75 0 0 0.75 0 0] CT
1 GC
N
55 442 M
750 442 L
750 39 L
55 39 L
cp
f
GR
GS
[0.75 0 0 0.75 0 0] CT
0.149 GC
2 setlinecap
1 LJ
0.667 LW
N
55 442 M
750 442 L
S
GR
GS
[0.75 0 0 0.75 0 0] CT
0.149 GC
2 setlinecap
1 LJ
0.667 LW
N
55 39 M
750 39 L
S
GR
GS
[0.75 0 0 0.75 0 0] CT
0.149 GC
2 setlinecap
1 LJ
0.667 LW
N
55 442 M
55 435.05 L
S
GR
GS
[0.75 0 0 0.75 0 0] CT
0.149 GC
2 setlinecap
1 LJ
0.667 LW
N
132.222 442 M
132.222 435.05 L
S
GR
GS
[0.75 0 0 0.75 0 0] CT
0.149 GC
2 setlinecap
1 LJ
0.667 LW
N
209.444 442 M
209.444 435.05 L
S
GR
GS
[0.75 0 0 0.75 0 0] CT
0.149 GC
2 setlinecap
1 LJ
0.667 LW
N
286.667 442 M
286.667 435.05 L
S
GR
GS
[0.75 0 0 0.75 0 0] CT
0.149 GC
2 setlinecap
1 LJ
0.667 LW
N
363.889 442 M
363.889 435.05 L
S
GR
GS
[0.75 0 0 0.75 0 0] CT
0.149 GC
2 setlinecap
1 LJ
0.667 LW
N
441.111 442 M
441.111 435.05 L
S
GR
GS
[0.75 0 0 0.75 0 0] CT
0.149 GC
2 setlinecap
1 LJ
0.667 LW
N
518.333 442 M
518.333 435.05 L
S
GR
GS
[0.75 0 0 0.75 0 0] CT
0.149 GC
2 setlinecap
1 LJ
0.667 LW
N
595.556 442 M
595.556 435.05 L
S
GR
GS
[0.75 0 0 0.75 0 0] CT
0.149 GC
2 setlinecap
1 LJ
0.667 LW
N
672.778 442 M
672.778 435.05 L
S
GR
GS
[0.75 0 0 0.75 0 0] CT
0.149 GC
2 setlinecap
1 LJ
0.667 LW
N
750 442 M
750 435.05 L
S
GR
GS
[0.75 0 0 0.75 0 0] CT
0.149 GC
2 setlinecap
1 LJ
0.667 LW
N
55 39 M
55 45.95 L
S
GR
GS
[0.75 0 0 0.75 0 0] CT
0.149 GC
2 setlinecap
1 LJ
0.667 LW
N
132.222 39 M
132.222 45.95 L
S
GR
GS
[0.75 0 0 0.75 0 0] CT
0.149 GC
2 setlinecap
1 LJ
0.667 LW
N
209.444 39 M
209.444 45.95 L
S
GR
GS
[0.75 0 0 0.75 0 0] CT
0.149 GC
2 setlinecap
1 LJ
0.667 LW
N
286.667 39 M
286.667 45.95 L
S
GR
GS
[0.75 0 0 0.75 0 0] CT
0.149 GC
2 setlinecap
1 LJ
0.667 LW
N
363.889 39 M
363.889 45.95 L
S
GR
GS
[0.75 0 0 0.75 0 0] CT
0.149 GC
2 setlinecap
1 LJ
0.667 LW
N
441.111 39 M
441.111 45.95 L
S
GR
GS
[0.75 0 0 0.75 0 0] CT
0.149 GC
2 setlinecap
1 LJ
0.667 LW
N
518.333 39 M
518.333 45.95 L
S
GR
GS
[0.75 0 0 0.75 0 0] CT
0.149 GC
2 setlinecap
1 LJ
0.667 LW
N
595.556 39 M
595.556 45.95 L
S
GR
GS
[0.75 0 0 0.75 0 0] CT
0.149 GC
2 setlinecap
1 LJ
0.667 LW
N
672.778 39 M
672.778 45.95 L
S
GR
GS
[0.75 0 0 0.75 0 0] CT
0.149 GC
2 setlinecap
1 LJ
0.667 LW
N
750 39 M
750 45.95 L
S
GR
GS
[0.75 0 0 0.75 41.25 337.10001] CT
0.149 GC
/Times 24 F
GS
[1 0 0 1 0 0] CT
-8 23 moveto 
1 -1 scale
(1) t 
GR
GR
GS
[0.75 0 0 0.75 99.16667 337.10001] CT
0.149 GC
/Times 24 F
GS
[1 0 0 1 0 0] CT
-8 23 moveto 
1 -1 scale
(2) t 
GR
GR
GS
[0.75 0 0 0.75 157.08333 337.10001] CT
0.149 GC
/Times 24 F
GS
[1 0 0 1 0 0] CT
-8 23 moveto 
1 -1 scale
(3) t 
GR
GR
GS
[0.75 0 0 0.75 214.99999 337.10001] CT
0.149 GC
/Times 24 F
GS
[1 0 0 1 0 0] CT
-8 23 moveto 
1 -1 scale
(4) t 
GR
GR
GS
[0.75 0 0 0.75 272.91666 337.10001] CT
0.149 GC
/Times 24 F
GS
[1 0 0 1 0 0] CT
-8 23 moveto 
1 -1 scale
(5) t 
GR
GR
GS
[0.75 0 0 0.75 330.83334 337.10001] CT
0.149 GC
/Times 24 F
GS
[1 0 0 1 0 0] CT
-8 23 moveto 
1 -1 scale
(6) t 
GR
GR
GS
[0.75 0 0 0.75 388.74998 337.10001] CT
0.149 GC
/Times 24 F
GS
[1 0 0 1 0 0] CT
-8 23 moveto 
1 -1 scale
(7) t 
GR
GR
GS
[0.75 0 0 0.75 446.66666 337.10001] CT
0.149 GC
/Times 24 F
GS
[1 0 0 1 0 0] CT
-8 23 moveto 
1 -1 scale
(8) t 
GR
GR
GS
[0.75 0 0 0.75 504.58333 337.10001] CT
0.149 GC
/Times 24 F
GS
[1 0 0 1 0 0] CT
-8 23 moveto 
1 -1 scale
(9) t 
GR
GR
GS
[0.75 0 0 0.75 562.5 337.10001] CT
0.149 GC
/Times 24 F
GS
[1 0 0 1 0 0] CT
-15.5 23 moveto 
1 -1 scale
(10) t 
GR
GR
GS
[0.75 0 0 0.75 301.87525 359.85001] CT
0.149 GC
/Times 26.4 F
GS
[1 0 0 1 0 0] CT
-156 25 moveto 
1 -1 scale
(Number of Top Matches) t 
GR
GR
GS
[0.75 0 0 0.75 0 0] CT
0.149 GC
2 setlinecap
1 LJ
0.667 LW
N
55 442 M
55 39 L
S
GR
GS
[0.75 0 0 0.75 0 0] CT
0.149 GC
2 setlinecap
1 LJ
0.667 LW
N
750 442 M
750 39 L
S
GR
GS
[0.75 0 0 0.75 0 0] CT
0.149 GC
2 setlinecap
1 LJ
0.667 LW
N
55 406.178 M
61.95 406.178 L
S
GR
GS
[0.75 0 0 0.75 0 0] CT
0.149 GC
2 setlinecap
1 LJ
0.667 LW
N
55 316.622 M
61.95 316.622 L
S
GR
GS
[0.75 0 0 0.75 0 0] CT
0.149 GC
2 setlinecap
1 LJ
0.667 LW
N
55 227.067 M
61.95 227.067 L
S
GR
GS
[0.75 0 0 0.75 0 0] CT
0.149 GC
2 setlinecap
1 LJ
0.667 LW
N
55 137.511 M
61.95 137.511 L
S
GR
GS
[0.75 0 0 0.75 0 0] CT
0.149 GC
2 setlinecap
1 LJ
0.667 LW
N
55 47.956 M
61.95 47.956 L
S
GR
GS
[0.75 0 0 0.75 0 0] CT
0.149 GC
2 setlinecap
1 LJ
0.667 LW
N
55 39 M
61.95 39 L
S
GR
GS
[0.75 0 0 0.75 0 0] CT
0.149 GC
2 setlinecap
1 LJ
0.667 LW
N
750 406.178 M
743.05 406.178 L
S
GR
GS
[0.75 0 0 0.75 0 0] CT
0.149 GC
2 setlinecap
1 LJ
0.667 LW
N
750 316.622 M
743.05 316.622 L
S
GR
GS
[0.75 0 0 0.75 0 0] CT
0.149 GC
2 setlinecap
1 LJ
0.667 LW
N
750 227.067 M
743.05 227.067 L
S
GR
GS
[0.75 0 0 0.75 0 0] CT
0.149 GC
2 setlinecap
1 LJ
0.667 LW
N
750 137.511 M
743.05 137.511 L
S
GR
GS
[0.75 0 0 0.75 0 0] CT
0.149 GC
2 setlinecap
1 LJ
0.667 LW
N
750 47.956 M
743.05 47.956 L
S
GR
GS
[0.75 0 0 0.75 0 0] CT
0.149 GC
2 setlinecap
1 LJ
0.667 LW
N
750 39 M
743.05 39 L
S
GR
GS
[0.75 0 0 0.75 35.65 304.63332] CT
0.149 GC
/Times 24 F
GS
[1 0 0 1 0 0] CT
-16 8.5 moveto 
1 -1 scale
(4) t 
GR
GR
GS
[0.75 0 0 0.75 35.65 237.46667] CT
0.149 GC
/Times 24 F
GS
[1 0 0 1 0 0] CT
-16 8.5 moveto 
1 -1 scale
(5) t 
GR
GR
GS
[0.75 0 0 0.75 35.65 170.3] CT
0.149 GC
/Times 24 F
GS
[1 0 0 1 0 0] CT
-16 8.5 moveto 
1 -1 scale
(6) t 
GR
GR
GS
[0.75 0 0 0.75 35.65 103.13333] CT
0.149 GC
/Times 24 F
GS
[1 0 0 1 0 0] CT
-16 8.5 moveto 
1 -1 scale
(7) t 
GR
GR
GS
[0.75 0 0 0.75 35.65 35.96667] CT
0.149 GC
/Times 24 F
GS
[1 0 0 1 0 0] CT
-16 8.5 moveto 
1 -1 scale
(8) t 
GR
GR
GS
[0 -0.75 0.75 0 20.65 180.37485] CT
0.149 GC
/Times 26.4 F
GS
[1 0 0 1 0 0] CT
-75.5 -7 moveto 
1 -1 scale
(F-Score \(%\)) t 
GR
GR
GS
[0.75 0 0 0.75 301.87527 25.53747] CT
/Times-Bold 26.4 F
GS
[1 0 0 1 0 0] CT
-124.5 -7 moveto 
1 -1 scale
(PubFig Database) t 
GR
GR
GS
[0.75 0 0 0.75 0 0] CT
1 0.6 0.784 RC
1 LJ
2 LW
N
55 440.567 M
132.222 377.852 L
209.444 345.147 L
286.667 324.155 L
363.889 306.237 L
441.111 288.231 L
518.333 282.317 L
595.556 275.899 L
672.778 272.022 L
750 267.58 L
S
GR
GS
[0.75 0 0 0.75 0 0] CT
1 GC
N
53.278 436.652 M
59.943 440.5 L
53.278 444.348 L
cp
f
GR
GS
[0.75 0 0 0.75 0 0] CT
1 0.6 0.784 RC
10.0 ML
2 LW
N
53.278 436.652 M
59.943 440.5 L
53.278 444.348 L
cp
S
GR
GS
[0.75 0 0 0.75 0 0] CT
1 GC
N
130.278 373.652 M
136.943 377.5 L
130.278 381.348 L
cp
f
GR
GS
[0.75 0 0 0.75 0 0] CT
1 0.6 0.784 RC
10.0 ML
2 LW
N
130.278 373.652 M
136.943 377.5 L
130.278 381.348 L
cp
S
GR
GS
[0.75 0 0 0.75 0 0] CT
1 GC
N
207.278 341.652 M
213.943 345.5 L
207.278 349.348 L
cp
f
GR
GS
[0.75 0 0 0.75 0 0] CT
1 0.6 0.784 RC
10.0 ML
2 LW
N
207.278 341.652 M
213.943 345.5 L
207.278 349.348 L
cp
S
GR
GS
[0.75 0 0 0.75 0 0] CT
1 GC
N
284.278 320.652 M
290.943 324.5 L
284.278 328.348 L
cp
f
GR
GS
[0.75 0 0 0.75 0 0] CT
1 0.6 0.784 RC
10.0 ML
2 LW
N
284.278 320.652 M
290.943 324.5 L
284.278 328.348 L
cp
S
GR
GS
[0.75 0 0 0.75 0 0] CT
1 GC
N
361.278 302.652 M
367.943 306.5 L
361.278 310.348 L
cp
f
GR
GS
[0.75 0 0 0.75 0 0] CT
1 0.6 0.784 RC
10.0 ML
2 LW
N
361.278 302.652 M
367.943 306.5 L
361.278 310.348 L
cp
S
GR
GS
[0.75 0 0 0.75 0 0] CT
1 GC
N
439.278 284.652 M
445.943 288.5 L
439.278 292.348 L
cp
f
GR
GS
[0.75 0 0 0.75 0 0] CT
1 0.6 0.784 RC
10.0 ML
2 LW
N
439.278 284.652 M
445.943 288.5 L
439.278 292.348 L
cp
S
GR
GS
[0.75 0 0 0.75 0 0] CT
1 GC
N
516.278 278.652 M
522.943 282.5 L
516.278 286.348 L
cp
f
GR
GS
[0.75 0 0 0.75 0 0] CT
1 0.6 0.784 RC
10.0 ML
2 LW
N
516.278 278.652 M
522.943 282.5 L
516.278 286.348 L
cp
S
GR
GS
[0.75 0 0 0.75 0 0] CT
1 GC
N
593.278 271.652 M
599.943 275.5 L
593.278 279.348 L
cp
f
GR
GS
[0.75 0 0 0.75 0 0] CT
1 0.6 0.784 RC
10.0 ML
2 LW
N
593.278 271.652 M
599.943 275.5 L
593.278 279.348 L
cp
S
GR
GS
[0.75 0 0 0.75 0 0] CT
1 GC
N
670.278 268.652 M
676.943 272.5 L
670.278 276.348 L
cp
f
GR
GS
[0.75 0 0 0.75 0 0] CT
1 0.6 0.784 RC
10.0 ML
2 LW
N
670.278 268.652 M
676.943 272.5 L
670.278 276.348 L
cp
S
GR
GS
[0.75 0 0 0.75 0 0] CT
1 GC
N
748.278 263.652 M
754.943 267.5 L
748.278 271.348 L
cp
f
GR
GS
[0.75 0 0 0.75 0 0] CT
1 0.6 0.784 RC
10.0 ML
2 LW
N
748.278 263.652 M
754.943 267.5 L
748.278 271.348 L
cp
S
GR
GS
[0.75 0 0 0.75 0 0] CT
0.6 0.2 0 RC
1 LJ
2 LW
N
55 440.567 M
132.222 379.621 L
209.444 342.883 L
286.667 322.473 L
363.889 305.502 L
441.111 289.166 L
518.333 283.56 L
595.556 278.44 L
672.778 273.842 L
750 270.393 L
S
GR
GS
[0.75 0 0 0.75 0 0] CT
1 GC
N
51.057 440.5 M
57.722 436.652 L
57.722 444.348 L
cp
f
GR
GS
[0.75 0 0 0.75 0 0] CT
0.6 0.2 0 RC
10.0 ML
2 LW
N
51.057 440.5 M
57.722 436.652 L
57.722 444.348 L
cp
S
GR
GS
[0.75 0 0 0.75 0 0] CT
1 GC
N
128.057 379.5 M
134.722 375.652 L
134.722 383.348 L
cp
f
GR
GS
[0.75 0 0 0.75 0 0] CT
0.6 0.2 0 RC
10.0 ML
2 LW
N
128.057 379.5 M
134.722 375.652 L
134.722 383.348 L
cp
S
GR
GS
[0.75 0 0 0.75 0 0] CT
1 GC
N
205.057 342.5 M
211.722 338.652 L
211.722 346.348 L
cp
f
GR
GS
[0.75 0 0 0.75 0 0] CT
0.6 0.2 0 RC
10.0 ML
2 LW
N
205.057 342.5 M
211.722 338.652 L
211.722 346.348 L
cp
S
GR
GS
[0.75 0 0 0.75 0 0] CT
1 GC
N
282.057 322.5 M
288.722 318.652 L
288.722 326.348 L
cp
f
GR
GS
[0.75 0 0 0.75 0 0] CT
0.6 0.2 0 RC
10.0 ML
2 LW
N
282.057 322.5 M
288.722 318.652 L
288.722 326.348 L
cp
S
GR
GS
[0.75 0 0 0.75 0 0] CT
1 GC
N
359.057 305.5 M
365.722 301.652 L
365.722 309.348 L
cp
f
GR
GS
[0.75 0 0 0.75 0 0] CT
0.6 0.2 0 RC
10.0 ML
2 LW
N
359.057 305.5 M
365.722 301.652 L
365.722 309.348 L
cp
S
GR
GS
[0.75 0 0 0.75 0 0] CT
1 GC
N
437.057 289.5 M
443.722 285.652 L
443.722 293.348 L
cp
f
GR
GS
[0.75 0 0 0.75 0 0] CT
0.6 0.2 0 RC
10.0 ML
2 LW
N
437.057 289.5 M
443.722 285.652 L
443.722 293.348 L
cp
S
GR
GS
[0.75 0 0 0.75 0 0] CT
1 GC
N
514.057 283.5 M
520.722 279.652 L
520.722 287.348 L
cp
f
GR
GS
[0.75 0 0 0.75 0 0] CT
0.6 0.2 0 RC
10.0 ML
2 LW
N
514.057 283.5 M
520.722 279.652 L
520.722 287.348 L
cp
S
GR
GS
[0.75 0 0 0.75 0 0] CT
1 GC
N
591.057 278.5 M
597.722 274.652 L
597.722 282.348 L
cp
f
GR
GS
[0.75 0 0 0.75 0 0] CT
0.6 0.2 0 RC
10.0 ML
2 LW
N
591.057 278.5 M
597.722 274.652 L
597.722 282.348 L
cp
S
GR
GS
[0.75 0 0 0.75 0 0] CT
1 GC
N
668.057 273.5 M
674.722 269.652 L
674.722 277.348 L
cp
f
GR
GS
[0.75 0 0 0.75 0 0] CT
0.6 0.2 0 RC
10.0 ML
2 LW
N
668.057 273.5 M
674.722 269.652 L
674.722 277.348 L
cp
S
GR
GS
[0.75 0 0 0.75 0 0] CT
1 GC
N
746.057 270.5 M
752.722 266.652 L
752.722 274.348 L
cp
f
GR
GS
[0.75 0 0 0.75 0 0] CT
0.6 0.2 0 RC
10.0 ML
2 LW
N
746.057 270.5 M
752.722 266.652 L
752.722 274.348 L
cp
S
GR
GS
[0.75 0 0 0.75 0 0] CT
0.929 0.694 0.125 RC
1 LJ
2 LW
N
55 440.567 M
132.222 397.778 L
209.444 371.594 L
286.667 352.625 L
363.889 335.696 L
441.111 319.529 L
518.333 314.071 L
595.556 309.68 L
672.778 305.56 L
750 304.947 L
S
GR
GS
[0.75 0 0 0.75 0 0] CT
1 GC
N
52.33 439.47 M
54.716 439.47 L
55.5 437.167 L
56.284 439.47 L
58.67 439.47 L
56.768 440.912 L
57.459 443.197 L
55.5 441.833 L
53.541 443.197 L
54.232 440.912 L
52.33 439.47 L
cp
f
GR
GS
[0.75 0 0 0.75 0 0] CT
0.929 0.694 0.125 RC
10.0 ML
2 LW
N
52.33 439.47 M
54.716 439.47 L
55.5 437.167 L
56.284 439.47 L
58.67 439.47 L
56.768 440.912 L
57.459 443.197 L
55.5 441.833 L
53.541 443.197 L
54.232 440.912 L
cp
S
GR
GS
[0.75 0 0 0.75 0 0] CT
1 GC
N
129.33 396.47 M
131.716 396.47 L
132.5 394.167 L
133.284 396.47 L
135.67 396.47 L
133.768 397.912 L
134.459 400.197 L
132.5 398.833 L
130.541 400.197 L
131.232 397.912 L
129.33 396.47 L
cp
f
GR
GS
[0.75 0 0 0.75 0 0] CT
0.929 0.694 0.125 RC
10.0 ML
2 LW
N
129.33 396.47 M
131.716 396.47 L
132.5 394.167 L
133.284 396.47 L
135.67 396.47 L
133.768 397.912 L
134.459 400.197 L
132.5 398.833 L
130.541 400.197 L
131.232 397.912 L
cp
S
GR
GS
[0.75 0 0 0.75 0 0] CT
1 GC
N
206.33 370.47 M
208.716 370.47 L
209.5 368.167 L
210.284 370.47 L
212.67 370.47 L
210.768 371.912 L
211.459 374.197 L
209.5 372.833 L
207.541 374.197 L
208.232 371.912 L
206.33 370.47 L
cp
f
GR
GS
[0.75 0 0 0.75 0 0] CT
0.929 0.694 0.125 RC
10.0 ML
2 LW
N
206.33 370.47 M
208.716 370.47 L
209.5 368.167 L
210.284 370.47 L
212.67 370.47 L
210.768 371.912 L
211.459 374.197 L
209.5 372.833 L
207.541 374.197 L
208.232 371.912 L
cp
S
GR
GS
[0.75 0 0 0.75 0 0] CT
1 GC
N
283.33 351.47 M
285.716 351.47 L
286.5 349.167 L
287.284 351.47 L
289.67 351.47 L
287.768 352.912 L
288.459 355.197 L
286.5 353.833 L
284.541 355.197 L
285.232 352.912 L
283.33 351.47 L
cp
f
GR
GS
[0.75 0 0 0.75 0 0] CT
0.929 0.694 0.125 RC
10.0 ML
2 LW
N
283.33 351.47 M
285.716 351.47 L
286.5 349.167 L
287.284 351.47 L
289.67 351.47 L
287.768 352.912 L
288.459 355.197 L
286.5 353.833 L
284.541 355.197 L
285.232 352.912 L
cp
S
GR
GS
[0.75 0 0 0.75 0 0] CT
1 GC
N
360.33 334.47 M
362.716 334.47 L
363.5 332.167 L
364.284 334.47 L
366.67 334.47 L
364.768 335.912 L
365.459 338.197 L
363.5 336.833 L
361.541 338.197 L
362.232 335.912 L
360.33 334.47 L
cp
f
GR
GS
[0.75 0 0 0.75 0 0] CT
0.929 0.694 0.125 RC
10.0 ML
2 LW
N
360.33 334.47 M
362.716 334.47 L
363.5 332.167 L
364.284 334.47 L
366.67 334.47 L
364.768 335.912 L
365.459 338.197 L
363.5 336.833 L
361.541 338.197 L
362.232 335.912 L
cp
S
GR
GS
[0.75 0 0 0.75 0 0] CT
1 GC
N
438.33 318.47 M
440.716 318.47 L
441.5 316.167 L
442.284 318.47 L
444.67 318.47 L
442.768 319.912 L
443.459 322.197 L
441.5 320.833 L
439.541 322.197 L
440.232 319.912 L
438.33 318.47 L
cp
f
GR
GS
[0.75 0 0 0.75 0 0] CT
0.929 0.694 0.125 RC
10.0 ML
2 LW
N
438.33 318.47 M
440.716 318.47 L
441.5 316.167 L
442.284 318.47 L
444.67 318.47 L
442.768 319.912 L
443.459 322.197 L
441.5 320.833 L
439.541 322.197 L
440.232 319.912 L
cp
S
GR
GS
[0.75 0 0 0.75 0 0] CT
1 GC
N
515.33 313.47 M
517.716 313.47 L
518.5 311.167 L
519.284 313.47 L
521.67 313.47 L
519.768 314.912 L
520.459 317.197 L
518.5 315.833 L
516.541 317.197 L
517.232 314.912 L
515.33 313.47 L
cp
f
GR
GS
[0.75 0 0 0.75 0 0] CT
0.929 0.694 0.125 RC
10.0 ML
2 LW
N
515.33 313.47 M
517.716 313.47 L
518.5 311.167 L
519.284 313.47 L
521.67 313.47 L
519.768 314.912 L
520.459 317.197 L
518.5 315.833 L
516.541 317.197 L
517.232 314.912 L
cp
S
GR
GS
[0.75 0 0 0.75 0 0] CT
1 GC
N
592.33 308.47 M
594.716 308.47 L
595.5 306.167 L
596.284 308.47 L
598.67 308.47 L
596.768 309.912 L
597.459 312.197 L
595.5 310.833 L
593.541 312.197 L
594.232 309.912 L
592.33 308.47 L
cp
f
GR
GS
[0.75 0 0 0.75 0 0] CT
0.929 0.694 0.125 RC
10.0 ML
2 LW
N
592.33 308.47 M
594.716 308.47 L
595.5 306.167 L
596.284 308.47 L
598.67 308.47 L
596.768 309.912 L
597.459 312.197 L
595.5 310.833 L
593.541 312.197 L
594.232 309.912 L
cp
S
GR
GS
[0.75 0 0 0.75 0 0] CT
1 GC
N
669.33 304.47 M
671.716 304.47 L
672.5 302.167 L
673.284 304.47 L
675.67 304.47 L
673.768 305.912 L
674.459 308.197 L
672.5 306.833 L
670.541 308.197 L
671.232 305.912 L
669.33 304.47 L
cp
f
GR
GS
[0.75 0 0 0.75 0 0] CT
0.929 0.694 0.125 RC
10.0 ML
2 LW
N
669.33 304.47 M
671.716 304.47 L
672.5 302.167 L
673.284 304.47 L
675.67 304.47 L
673.768 305.912 L
674.459 308.197 L
672.5 306.833 L
670.541 308.197 L
671.232 305.912 L
cp
S
GR
GS
[0.75 0 0 0.75 0 0] CT
1 GC
N
747.33 303.47 M
749.716 303.47 L
750.5 301.167 L
751.284 303.47 L
753.67 303.47 L
751.768 304.912 L
752.459 307.197 L
750.5 305.833 L
748.541 307.197 L
749.232 304.912 L
747.33 303.47 L
cp
f
GR
GS
[0.75 0 0 0.75 0 0] CT
0.929 0.694 0.125 RC
10.0 ML
2 LW
N
747.33 303.47 M
749.716 303.47 L
750.5 301.167 L
751.284 303.47 L
753.67 303.47 L
751.768 304.912 L
752.459 307.197 L
750.5 305.833 L
748.541 307.197 L
749.232 304.912 L
cp
S
GR
GS
[0.75 0 0 0.75 0 0] CT
0 1 1 RC
1 LJ
2 LW
N
55 440.567 M
132.222 386.852 L
209.444 359.203 L
286.667 341.27 L
363.889 323.476 L
441.111 312.319 L
518.333 309.294 L
595.556 308.227 L
672.778 306.421 L
750 306.269 L
S
GR
GS
[0.75 0 0 0.75 0 0] CT
1 GC
N
55.5 444.943 M
58.833 440.5 L
55.5 436.057 L
52.167 440.5 L
cp
f
GR
GS
[0.75 0 0 0.75 0 0] CT
0 1 1 RC
10.0 ML
2 LW
N
55.5 444.943 M
58.833 440.5 L
55.5 436.057 L
52.167 440.5 L
cp
S
GR
GS
[0.75 0 0 0.75 0 0] CT
1 GC
N
132.5 390.943 M
135.833 386.5 L
132.5 382.057 L
129.167 386.5 L
cp
f
GR
GS
[0.75 0 0 0.75 0 0] CT
0 1 1 RC
10.0 ML
2 LW
N
132.5 390.943 M
135.833 386.5 L
132.5 382.057 L
129.167 386.5 L
cp
S
GR
GS
[0.75 0 0 0.75 0 0] CT
1 GC
N
209.5 363.943 M
212.833 359.5 L
209.5 355.057 L
206.167 359.5 L
cp
f
GR
GS
[0.75 0 0 0.75 0 0] CT
0 1 1 RC
10.0 ML
2 LW
N
209.5 363.943 M
212.833 359.5 L
209.5 355.057 L
206.167 359.5 L
cp
S
GR
GS
[0.75 0 0 0.75 0 0] CT
1 GC
N
286.5 345.943 M
289.833 341.5 L
286.5 337.057 L
283.167 341.5 L
cp
f
GR
GS
[0.75 0 0 0.75 0 0] CT
0 1 1 RC
10.0 ML
2 LW
N
286.5 345.943 M
289.833 341.5 L
286.5 337.057 L
283.167 341.5 L
cp
S
GR
GS
[0.75 0 0 0.75 0 0] CT
1 GC
N
363.5 327.943 M
366.833 323.5 L
363.5 319.057 L
360.167 323.5 L
cp
f
GR
GS
[0.75 0 0 0.75 0 0] CT
0 1 1 RC
10.0 ML
2 LW
N
363.5 327.943 M
366.833 323.5 L
363.5 319.057 L
360.167 323.5 L
cp
S
GR
GS
[0.75 0 0 0.75 0 0] CT
1 GC
N
441.5 316.943 M
444.833 312.5 L
441.5 308.057 L
438.167 312.5 L
cp
f
GR
GS
[0.75 0 0 0.75 0 0] CT
0 1 1 RC
10.0 ML
2 LW
N
441.5 316.943 M
444.833 312.5 L
441.5 308.057 L
438.167 312.5 L
cp
S
GR
GS
[0.75 0 0 0.75 0 0] CT
1 GC
N
518.5 313.943 M
521.833 309.5 L
518.5 305.057 L
515.167 309.5 L
cp
f
GR
GS
[0.75 0 0 0.75 0 0] CT
0 1 1 RC
10.0 ML
2 LW
N
518.5 313.943 M
521.833 309.5 L
518.5 305.057 L
515.167 309.5 L
cp
S
GR
GS
[0.75 0 0 0.75 0 0] CT
1 GC
N
595.5 312.943 M
598.833 308.5 L
595.5 304.057 L
592.167 308.5 L
cp
f
GR
GS
[0.75 0 0 0.75 0 0] CT
0 1 1 RC
10.0 ML
2 LW
N
595.5 312.943 M
598.833 308.5 L
595.5 304.057 L
592.167 308.5 L
cp
S
GR
GS
[0.75 0 0 0.75 0 0] CT
1 GC
N
672.5 310.943 M
675.833 306.5 L
672.5 302.057 L
669.167 306.5 L
cp
f
GR
GS
[0.75 0 0 0.75 0 0] CT
0 1 1 RC
10.0 ML
2 LW
N
672.5 310.943 M
675.833 306.5 L
672.5 302.057 L
669.167 306.5 L
cp
S
GR
GS
[0.75 0 0 0.75 0 0] CT
1 GC
N
750.5 310.943 M
753.833 306.5 L
750.5 302.057 L
747.167 306.5 L
cp
f
GR
GS
[0.75 0 0 0.75 0 0] CT
0 1 1 RC
10.0 ML
2 LW
N
750.5 310.943 M
753.833 306.5 L
750.5 302.057 L
747.167 306.5 L
cp
S
GR
GS
[0.75 0 0 0.75 0 0] CT
0 1 0 RC
1 LJ
2 LW
N
55 440.567 M
132.222 359.533 L
209.444 314.634 L
286.667 283.827 L
363.889 256.51 L
441.111 238.13 L
518.333 226.209 L
595.556 219.432 L
672.778 214.104 L
750 203.864 L
S
GR
GS
[0.75 0 0 0.75 0 0] CT
1 GC
N
52.9 443.1 M
52.9 437.9 L
58.1 437.9 L
58.1 443.1 L
cp
f
GR
GS
[0.75 0 0 0.75 0 0] CT
0 1 0 RC
10.0 ML
2 LW
N
52.9 443.1 M
52.9 437.9 L
58.1 437.9 L
58.1 443.1 L
cp
S
GR
GS
[0.75 0 0 0.75 0 0] CT
1 GC
N
129.9 362.1 M
129.9 356.9 L
135.1 356.9 L
135.1 362.1 L
cp
f
GR
GS
[0.75 0 0 0.75 0 0] CT
0 1 0 RC
10.0 ML
2 LW
N
129.9 362.1 M
129.9 356.9 L
135.1 356.9 L
135.1 362.1 L
cp
S
GR
GS
[0.75 0 0 0.75 0 0] CT
1 GC
N
206.9 317.1 M
206.9 311.9 L
212.1 311.9 L
212.1 317.1 L
cp
f
GR
GS
[0.75 0 0 0.75 0 0] CT
0 1 0 RC
10.0 ML
2 LW
N
206.9 317.1 M
206.9 311.9 L
212.1 311.9 L
212.1 317.1 L
cp
S
GR
GS
[0.75 0 0 0.75 0 0] CT
1 GC
N
283.9 286.1 M
283.9 280.9 L
289.1 280.9 L
289.1 286.1 L
cp
f
GR
GS
[0.75 0 0 0.75 0 0] CT
0 1 0 RC
10.0 ML
2 LW
N
283.9 286.1 M
283.9 280.9 L
289.1 280.9 L
289.1 286.1 L
cp
S
GR
GS
[0.75 0 0 0.75 0 0] CT
1 GC
N
360.9 259.1 M
360.9 253.9 L
366.1 253.9 L
366.1 259.1 L
cp
f
GR
GS
[0.75 0 0 0.75 0 0] CT
0 1 0 RC
10.0 ML
2 LW
N
360.9 259.1 M
360.9 253.9 L
366.1 253.9 L
366.1 259.1 L
cp
S
GR
GS
[0.75 0 0 0.75 0 0] CT
1 GC
N
438.9 241.1 M
438.9 235.9 L
444.1 235.9 L
444.1 241.1 L
cp
f
GR
GS
[0.75 0 0 0.75 0 0] CT
0 1 0 RC
10.0 ML
2 LW
N
438.9 241.1 M
438.9 235.9 L
444.1 235.9 L
444.1 241.1 L
cp
S
GR
GS
[0.75 0 0 0.75 0 0] CT
1 GC
N
515.9 229.1 M
515.9 223.9 L
521.1 223.9 L
521.1 229.1 L
cp
f
GR
GS
[0.75 0 0 0.75 0 0] CT
0 1 0 RC
10.0 ML
2 LW
N
515.9 229.1 M
515.9 223.9 L
521.1 223.9 L
521.1 229.1 L
cp
S
GR
GS
[0.75 0 0 0.75 0 0] CT
1 GC
N
592.9 222.1 M
592.9 216.9 L
598.1 216.9 L
598.1 222.1 L
cp
f
GR
GS
[0.75 0 0 0.75 0 0] CT
0 1 0 RC
10.0 ML
2 LW
N
592.9 222.1 M
592.9 216.9 L
598.1 216.9 L
598.1 222.1 L
cp
S
GR
GS
[0.75 0 0 0.75 0 0] CT
1 GC
N
669.9 217.1 M
669.9 211.9 L
675.1 211.9 L
675.1 217.1 L
cp
f
GR
GS
[0.75 0 0 0.75 0 0] CT
0 1 0 RC
10.0 ML
2 LW
N
669.9 217.1 M
669.9 211.9 L
675.1 211.9 L
675.1 217.1 L
cp
S
GR
GS
[0.75 0 0 0.75 0 0] CT
1 GC
N
747.9 206.1 M
747.9 200.9 L
753.1 200.9 L
753.1 206.1 L
cp
f
GR
GS
[0.75 0 0 0.75 0 0] CT
0 1 0 RC
10.0 ML
2 LW
N
747.9 206.1 M
747.9 200.9 L
753.1 200.9 L
753.1 206.1 L
cp
S
GR
GS
[0.75 0 0 0.75 0 0] CT
0 0 1 RC
1 LJ
2 LW
N
55 440.567 M
132.222 401.794 L
209.444 383.7 L
286.667 370.761 L
363.889 360.32 L
441.111 351.005 L
518.333 349.424 L
595.556 348.252 L
672.778 346.898 L
750 345.375 L
S
GR
GS
[0.75 0 0 0.75 0 0] CT
1 GC
N
51.057 440.5 M
57.722 436.652 L
57.722 444.348 L
cp
f
GR
GS
[0.75 0 0 0.75 0 0] CT
0 0 1 RC
10.0 ML
2 LW
N
51.057 440.5 M
57.722 436.652 L
57.722 444.348 L
cp
S
GR
GS
[0.75 0 0 0.75 0 0] CT
1 GC
N
128.057 401.5 M
134.722 397.652 L
134.722 405.348 L
cp
f
GR
GS
[0.75 0 0 0.75 0 0] CT
0 0 1 RC
10.0 ML
2 LW
N
128.057 401.5 M
134.722 397.652 L
134.722 405.348 L
cp
S
GR
GS
[0.75 0 0 0.75 0 0] CT
1 GC
N
205.057 383.5 M
211.722 379.652 L
211.722 387.348 L
cp
f
GR
GS
[0.75 0 0 0.75 0 0] CT
0 0 1 RC
10.0 ML
2 LW
N
205.057 383.5 M
211.722 379.652 L
211.722 387.348 L
cp
S
GR
GS
[0.75 0 0 0.75 0 0] CT
1 GC
N
282.057 370.5 M
288.722 366.652 L
288.722 374.348 L
cp
f
GR
GS
[0.75 0 0 0.75 0 0] CT
0 0 1 RC
10.0 ML
2 LW
N
282.057 370.5 M
288.722 366.652 L
288.722 374.348 L
cp
S
GR
GS
[0.75 0 0 0.75 0 0] CT
1 GC
N
359.057 360.5 M
365.722 356.652 L
365.722 364.348 L
cp
f
GR
GS
[0.75 0 0 0.75 0 0] CT
0 0 1 RC
10.0 ML
2 LW
N
359.057 360.5 M
365.722 356.652 L
365.722 364.348 L
cp
S
GR
GS
[0.75 0 0 0.75 0 0] CT
1 GC
N
437.057 351.5 M
443.722 347.652 L
443.722 355.348 L
cp
f
GR
GS
[0.75 0 0 0.75 0 0] CT
0 0 1 RC
10.0 ML
2 LW
N
437.057 351.5 M
443.722 347.652 L
443.722 355.348 L
cp
S
GR
GS
[0.75 0 0 0.75 0 0] CT
1 GC
N
514.057 349.5 M
520.722 345.652 L
520.722 353.348 L
cp
f
GR
GS
[0.75 0 0 0.75 0 0] CT
0 0 1 RC
10.0 ML
2 LW
N
514.057 349.5 M
520.722 345.652 L
520.722 353.348 L
cp
S
GR
GS
[0.75 0 0 0.75 0 0] CT
1 GC
N
591.057 348.5 M
597.722 344.652 L
597.722 352.348 L
cp
f
GR
GS
[0.75 0 0 0.75 0 0] CT
0 0 1 RC
10.0 ML
2 LW
N
591.057 348.5 M
597.722 344.652 L
597.722 352.348 L
cp
S
GR
GS
[0.75 0 0 0.75 0 0] CT
1 GC
N
668.057 346.5 M
674.722 342.652 L
674.722 350.348 L
cp
f
GR
GS
[0.75 0 0 0.75 0 0] CT
0 0 1 RC
10.0 ML
2 LW
N
668.057 346.5 M
674.722 342.652 L
674.722 350.348 L
cp
S
GR
GS
[0.75 0 0 0.75 0 0] CT
1 GC
N
746.057 345.5 M
752.722 341.652 L
752.722 349.348 L
cp
f
GR
GS
[0.75 0 0 0.75 0 0] CT
0 0 1 RC
10.0 ML
2 LW
N
746.057 345.5 M
752.722 341.652 L
752.722 349.348 L
cp
S
GR
GS
[0.75 0 0 0.75 0 0] CT
1 0 1 RC
1 LJ
2 LW
N
55 440.567 M
132.222 344.682 L
209.444 296.629 L
286.667 266.211 L
363.889 241.625 L
441.111 219.256 L
518.333 209.487 L
595.556 200.336 L
672.778 192.281 L
750 185.934 L
S
GR
GS
[0.75 0 0 0.75 0 0] CT
1 0 1 RC
1 LJ
2 LW
N
52 440.5 M
59 440.5 L
S
GR
GS
[0.75 0 0 0.75 0 0] CT
1 0 1 RC
1 LJ
2 LW
N
55.5 444 M
55.5 437 L
S
GR
GS
[0.75 0 0 0.75 0 0] CT
1 0 1 RC
1 LJ
2 LW
N
129 344.5 M
136 344.5 L
S
GR
GS
[0.75 0 0 0.75 0 0] CT
1 0 1 RC
1 LJ
2 LW
N
132.5 348 M
132.5 341 L
S
GR
GS
[0.75 0 0 0.75 0 0] CT
1 0 1 RC
1 LJ
2 LW
N
206 296.5 M
213 296.5 L
S
GR
GS
[0.75 0 0 0.75 0 0] CT
1 0 1 RC
1 LJ
2 LW
N
209.5 300 M
209.5 293 L
S
GR
GS
[0.75 0 0 0.75 0 0] CT
1 0 1 RC
1 LJ
2 LW
N
283 266.5 M
290 266.5 L
S
GR
GS
[0.75 0 0 0.75 0 0] CT
1 0 1 RC
1 LJ
2 LW
N
286.5 270 M
286.5 263 L
S
GR
GS
[0.75 0 0 0.75 0 0] CT
1 0 1 RC
1 LJ
2 LW
N
360 241.5 M
367 241.5 L
S
GR
GS
[0.75 0 0 0.75 0 0] CT
1 0 1 RC
1 LJ
2 LW
N
363.5 245 M
363.5 238 L
S
GR
GS
[0.75 0 0 0.75 0 0] CT
1 0 1 RC
1 LJ
2 LW
N
438 219.5 M
445 219.5 L
S
GR
GS
[0.75 0 0 0.75 0 0] CT
1 0 1 RC
1 LJ
2 LW
N
441.5 223 M
441.5 216 L
S
GR
GS
[0.75 0 0 0.75 0 0] CT
1 0 1 RC
1 LJ
2 LW
N
515 209.5 M
522 209.5 L
S
GR
GS
[0.75 0 0 0.75 0 0] CT
1 0 1 RC
1 LJ
2 LW
N
518.5 213 M
518.5 206 L
S
GR
GS
[0.75 0 0 0.75 0 0] CT
1 0 1 RC
1 LJ
2 LW
N
592 200.5 M
599 200.5 L
S
GR
GS
[0.75 0 0 0.75 0 0] CT
1 0 1 RC
1 LJ
2 LW
N
595.5 204 M
595.5 197 L
S
GR
GS
[0.75 0 0 0.75 0 0] CT
1 0 1 RC
1 LJ
2 LW
N
669 192.5 M
676 192.5 L
S
GR
GS
[0.75 0 0 0.75 0 0] CT
1 0 1 RC
1 LJ
2 LW
N
672.5 196 M
672.5 189 L
S
GR
GS
[0.75 0 0 0.75 0 0] CT
1 0 1 RC
1 LJ
2 LW
N
747 185.5 M
754 185.5 L
S
GR
GS
[0.75 0 0 0.75 0 0] CT
1 0 1 RC
1 LJ
2 LW
N
750.5 189 M
750.5 182 L
S
GR
GS
[0.75 0 0 0.75 0 0] CT
1 0 0 RC
1 LJ
2 LW
N
55 440.567 M
132.222 318.505 L
209.444 240.222 L
286.667 190.018 L
363.889 150.61 L
441.111 114.598 L
518.333 94.803 L
595.556 78.015 L
672.778 63.207 L
750 49.963 L
S
GR
GS
[0.75 0 0 0.75 0 0] CT
1 GC
N
52.9 443.1 M
52.9 437.9 L
58.1 437.9 L
58.1 443.1 L
cp
f
GR
GS
[0.75 0 0 0.75 0 0] CT
1 0 0 RC
10.0 ML
2 LW
N
52.9 443.1 M
52.9 437.9 L
58.1 437.9 L
58.1 443.1 L
cp
S
GR
GS
[0.75 0 0 0.75 0 0] CT
1 GC
N
129.9 321.1 M
129.9 315.9 L
135.1 315.9 L
135.1 321.1 L
cp
f
GR
GS
[0.75 0 0 0.75 0 0] CT
1 0 0 RC
10.0 ML
2 LW
N
129.9 321.1 M
129.9 315.9 L
135.1 315.9 L
135.1 321.1 L
cp
S
GR
GS
[0.75 0 0 0.75 0 0] CT
1 GC
N
206.9 243.1 M
206.9 237.9 L
212.1 237.9 L
212.1 243.1 L
cp
f
GR
GS
[0.75 0 0 0.75 0 0] CT
1 0 0 RC
10.0 ML
2 LW
N
206.9 243.1 M
206.9 237.9 L
212.1 237.9 L
212.1 243.1 L
cp
S
GR
GS
[0.75 0 0 0.75 0 0] CT
1 GC
N
283.9 193.1 M
283.9 187.9 L
289.1 187.9 L
289.1 193.1 L
cp
f
GR
GS
[0.75 0 0 0.75 0 0] CT
1 0 0 RC
10.0 ML
2 LW
N
283.9 193.1 M
283.9 187.9 L
289.1 187.9 L
289.1 193.1 L
cp
S
GR
GS
[0.75 0 0 0.75 0 0] CT
1 GC
N
360.9 153.1 M
360.9 147.9 L
366.1 147.9 L
366.1 153.1 L
cp
f
GR
GS
[0.75 0 0 0.75 0 0] CT
1 0 0 RC
10.0 ML
2 LW
N
360.9 153.1 M
360.9 147.9 L
366.1 147.9 L
366.1 153.1 L
cp
S
GR
GS
[0.75 0 0 0.75 0 0] CT
1 GC
N
438.9 117.1 M
438.9 111.9 L
444.1 111.9 L
444.1 117.1 L
cp
f
GR
GS
[0.75 0 0 0.75 0 0] CT
1 0 0 RC
10.0 ML
2 LW
N
438.9 117.1 M
438.9 111.9 L
444.1 111.9 L
444.1 117.1 L
cp
S
GR
GS
[0.75 0 0 0.75 0 0] CT
1 GC
N
515.9 97.1 M
515.9 91.9 L
521.1 91.9 L
521.1 97.1 L
cp
f
GR
GS
[0.75 0 0 0.75 0 0] CT
1 0 0 RC
10.0 ML
2 LW
N
515.9 97.1 M
515.9 91.9 L
521.1 91.9 L
521.1 97.1 L
cp
S
GR
GS
[0.75 0 0 0.75 0 0] CT
1 GC
N
592.9 81.1 M
592.9 75.9 L
598.1 75.9 L
598.1 81.1 L
cp
f
GR
GS
[0.75 0 0 0.75 0 0] CT
1 0 0 RC
10.0 ML
2 LW
N
592.9 81.1 M
592.9 75.9 L
598.1 75.9 L
598.1 81.1 L
cp
S
GR
GS
[0.75 0 0 0.75 0 0] CT
1 GC
N
669.9 66.1 M
669.9 60.9 L
675.1 60.9 L
675.1 66.1 L
cp
f
GR
GS
[0.75 0 0 0.75 0 0] CT
1 0 0 RC
10.0 ML
2 LW
N
669.9 66.1 M
669.9 60.9 L
675.1 60.9 L
675.1 66.1 L
cp
S
GR
GS
[0.75 0 0 0.75 0 0] CT
1 GC
N
747.9 52.1 M
747.9 46.9 L
753.1 46.9 L
753.1 52.1 L
cp
f
GR
GS
[0.75 0 0 0.75 0 0] CT
1 0 0 RC
10.0 ML
2 LW
N
747.9 52.1 M
747.9 46.9 L
753.1 46.9 L
753.1 52.1 L
cp
S
GR
GS
[0.75 0 0 0.75 0 0] CT
1 LJ
2 LW
N
55 440.567 M
132.222 308.477 L
209.444 235.117 L
286.667 182.583 L
363.889 139.416 L
441.111 108.747 L
518.333 89.575 L
595.556 72.919 L
672.778 59.144 L
750 46.377 L
S
GR
GS
[0.75 0 0 0.75 0 0] CT
1 GC
N
58.833 440.5 M
57.857 438.143 L
55.5 437.167 L
53.143 438.143 L
52.167 440.5 L
53.143 442.857 L
55.5 443.833 L
57.857 442.857 L
58.833 440.5 L
cp
f
GR
GS
[0.75 0 0 0.75 0 0] CT
1 LJ
2 LW
N
58.833 440.5 M
58.197 438.541 L
56.53 437.33 L
54.47 437.33 L
52.803 438.541 L
52.167 440.5 L
52.803 442.459 L
54.47 443.67 L
56.53 443.67 L
58.197 442.459 L
cp
S
GR
GS
[0.75 0 0 0.75 0 0] CT
1 GC
N
135.833 308.5 M
134.857 306.143 L
132.5 305.167 L
130.143 306.143 L
129.167 308.5 L
130.143 310.857 L
132.5 311.833 L
134.857 310.857 L
135.833 308.5 L
cp
f
GR
GS
[0.75 0 0 0.75 0 0] CT
1 LJ
2 LW
N
135.833 308.5 M
135.197 306.541 L
133.53 305.33 L
131.47 305.33 L
129.803 306.541 L
129.167 308.5 L
129.803 310.459 L
131.47 311.67 L
133.53 311.67 L
135.197 310.459 L
cp
S
GR
GS
[0.75 0 0 0.75 0 0] CT
1 GC
N
212.833 235.5 M
211.857 233.143 L
209.5 232.167 L
207.143 233.143 L
206.167 235.5 L
207.143 237.857 L
209.5 238.833 L
211.857 237.857 L
212.833 235.5 L
cp
f
GR
GS
[0.75 0 0 0.75 0 0] CT
1 LJ
2 LW
N
212.833 235.5 M
212.197 233.541 L
210.53 232.33 L
208.47 232.33 L
206.803 233.541 L
206.167 235.5 L
206.803 237.459 L
208.47 238.67 L
210.53 238.67 L
212.197 237.459 L
cp
S
GR
GS
[0.75 0 0 0.75 0 0] CT
1 GC
N
289.833 182.5 M
288.857 180.143 L
286.5 179.167 L
284.143 180.143 L
283.167 182.5 L
284.143 184.857 L
286.5 185.833 L
288.857 184.857 L
289.833 182.5 L
cp
f
GR
GS
[0.75 0 0 0.75 0 0] CT
1 LJ
2 LW
N
289.833 182.5 M
289.197 180.541 L
287.53 179.33 L
285.47 179.33 L
283.803 180.541 L
283.167 182.5 L
283.803 184.459 L
285.47 185.67 L
287.53 185.67 L
289.197 184.459 L
cp
S
GR
GS
[0.75 0 0 0.75 0 0] CT
1 GC
N
366.833 139.5 M
365.857 137.143 L
363.5 136.167 L
361.143 137.143 L
360.167 139.5 L
361.143 141.857 L
363.5 142.833 L
365.857 141.857 L
366.833 139.5 L
cp
f
GR
GS
[0.75 0 0 0.75 0 0] CT
1 LJ
2 LW
N
366.833 139.5 M
366.197 137.541 L
364.53 136.33 L
362.47 136.33 L
360.803 137.541 L
360.167 139.5 L
360.803 141.459 L
362.47 142.67 L
364.53 142.67 L
366.197 141.459 L
cp
S
GR
GS
[0.75 0 0 0.75 0 0] CT
1 GC
N
444.833 108.5 M
443.857 106.143 L
441.5 105.167 L
439.143 106.143 L
438.167 108.5 L
439.143 110.857 L
441.5 111.833 L
443.857 110.857 L
444.833 108.5 L
cp
f
GR
GS
[0.75 0 0 0.75 0 0] CT
1 LJ
2 LW
N
444.833 108.5 M
444.197 106.541 L
442.53 105.33 L
440.47 105.33 L
438.803 106.541 L
438.167 108.5 L
438.803 110.459 L
440.47 111.67 L
442.53 111.67 L
444.197 110.459 L
cp
S
GR
GS
[0.75 0 0 0.75 0 0] CT
1 GC
N
521.833 89.5 M
520.857 87.143 L
518.5 86.167 L
516.143 87.143 L
515.167 89.5 L
516.143 91.857 L
518.5 92.833 L
520.857 91.857 L
521.833 89.5 L
cp
f
GR
GS
[0.75 0 0 0.75 0 0] CT
1 LJ
2 LW
N
521.833 89.5 M
521.197 87.541 L
519.53 86.33 L
517.47 86.33 L
515.803 87.541 L
515.167 89.5 L
515.803 91.459 L
517.47 92.67 L
519.53 92.67 L
521.197 91.459 L
cp
S
GR
GS
[0.75 0 0 0.75 0 0] CT
1 GC
N
598.833 72.5 M
597.857 70.143 L
595.5 69.167 L
593.143 70.143 L
592.167 72.5 L
593.143 74.857 L
595.5 75.833 L
597.857 74.857 L
598.833 72.5 L
cp
f
GR
GS
[0.75 0 0 0.75 0 0] CT
1 LJ
2 LW
N
598.833 72.5 M
598.197 70.541 L
596.53 69.33 L
594.47 69.33 L
592.803 70.541 L
592.167 72.5 L
592.803 74.459 L
594.47 75.67 L
596.53 75.67 L
598.197 74.459 L
cp
S
GR
GS
[0.75 0 0 0.75 0 0] CT
1 GC
N
675.833 59.5 M
674.857 57.143 L
672.5 56.167 L
670.143 57.143 L
669.167 59.5 L
670.143 61.857 L
672.5 62.833 L
674.857 61.857 L
675.833 59.5 L
cp
f
GR
GS
[0.75 0 0 0.75 0 0] CT
1 LJ
2 LW
N
675.833 59.5 M
675.197 57.541 L
673.53 56.33 L
671.47 56.33 L
669.803 57.541 L
669.167 59.5 L
669.803 61.459 L
671.47 62.67 L
673.53 62.67 L
675.197 61.459 L
cp
S
GR
GS
[0.75 0 0 0.75 0 0] CT
1 GC
N
753.833 46.5 M
752.857 44.143 L
750.5 43.167 L
748.143 44.143 L
747.167 46.5 L
748.143 48.857 L
750.5 49.833 L
752.857 48.857 L
753.833 46.5 L
cp
f
GR
GS
[0.75 0 0 0.75 0 0] CT
1 LJ
2 LW
N
753.833 46.5 M
753.197 44.541 L
751.53 43.33 L
749.47 43.33 L
747.803 44.541 L
747.167 46.5 L
747.803 48.459 L
749.47 49.67 L
751.53 49.67 L
753.197 48.459 L
cp
S
GR
GS
[0.75 0 0 0.75 0 0] CT
1 GC
N
68 267 M
68 52 L
161 52 L
161 267 L
cp
f
GR
GS
[0.75 0 0 0.75 78.75 49.125] CT
/Times 18.667 F
GS
[1 0 0 1 0 0] CT
0 6.5 moveto 
1 -1 scale
(LBP) t 
GR
GR
GS
[0.75 0 0 0.75 0 0] CT
1 0.6 0.784 RC
1 LJ
2 LW
N
72 65.5 M
102 65.5 L
S
GR
GS
[0.75 0 0 0.75 0 0] CT
1 GC
N
84.278 61.652 M
90.943 65.5 L
84.278 69.348 L
cp
f
GR
GS
[0.75 0 0 0.75 0 0] CT
1 0.6 0.784 RC
10.0 ML
2 LW
N
84.278 61.652 M
90.943 65.5 L
84.278 69.348 L
cp
S
GR
GS
[0.75 0 0 0.75 78.75 66.75] CT
/Times 18.667 F
GS
[1 0 0 1 0 0] CT
0 6.5 moveto 
1 -1 scale
(LTP) t 
GR
GR
GS
[0.75 0 0 0.75 0 0] CT
0.6 0.2 0 RC
1 LJ
2 LW
N
72 89 M
102 89 L
S
GR
GS
[0.75 0 0 0.75 0 0] CT
1 GC
N
82.057 89.5 M
88.722 85.652 L
88.722 93.348 L
cp
f
GR
GS
[0.75 0 0 0.75 0 0] CT
0.6 0.2 0 RC
10.0 ML
2 LW
N
82.057 89.5 M
88.722 85.652 L
88.722 93.348 L
cp
S
GR
GS
[0.75 0 0 0.75 78.75 84.37501] CT
/Times 18.667 F
GS
[1 0 0 1 0 0] CT
0 6.5 moveto 
1 -1 scale
(LDP) t 
GR
GR
GS
[0.75 0 0 0.75 0 0] CT
0.929 0.694 0.125 RC
1 LJ
2 LW
N
72 112.5 M
102 112.5 L
S
GR
GS
[0.75 0 0 0.75 0 0] CT
1 GC
N
83.33 111.47 M
85.716 111.47 L
86.5 109.167 L
87.284 111.47 L
89.67 111.47 L
87.768 112.912 L
88.459 115.197 L
86.5 113.833 L
84.541 115.197 L
85.232 112.912 L
83.33 111.47 L
cp
f
GR
GS
[0.75 0 0 0.75 0 0] CT
0.929 0.694 0.125 RC
10.0 ML
2 LW
N
83.33 111.47 M
85.716 111.47 L
86.5 109.167 L
87.284 111.47 L
89.67 111.47 L
87.768 112.912 L
88.459 115.197 L
86.5 113.833 L
84.541 115.197 L
85.232 112.912 L
cp
S
GR
GS
[0.75 0 0 0.75 78.75 102] CT
/Times 18.667 F
GS
[1 0 0 1 0 0] CT
0 6.5 moveto 
1 -1 scale
(LDN) t 
GR
GR
GS
[0.75 0 0 0.75 0 0] CT
0 1 1 RC
1 LJ
2 LW
N
72 136 M
102 136 L
S
GR
GS
[0.75 0 0 0.75 0 0] CT
1 GC
N
86.5 139.943 M
89.833 135.5 L
86.5 131.057 L
83.167 135.5 L
cp
f
GR
GS
[0.75 0 0 0.75 0 0] CT
0 1 1 RC
10.0 ML
2 LW
N
86.5 139.943 M
89.833 135.5 L
86.5 131.057 L
83.167 135.5 L
cp
S
GR
GS
[0.75 0 0 0.75 78.75 119.625] CT
/Times 18.667 F
GS
[1 0 0 1 0 0] CT
0 6.5 moveto 
1 -1 scale
(LVP) t 
GR
GR
GS
[0.75 0 0 0.75 0 0] CT
0 1 0 RC
1 LJ
2 LW
N
72 159.5 M
102 159.5 L
S
GR
GS
[0.75 0 0 0.75 0 0] CT
1 GC
N
83.9 162.1 M
83.9 156.9 L
89.1 156.9 L
89.1 162.1 L
cp
f
GR
GS
[0.75 0 0 0.75 0 0] CT
0 1 0 RC
10.0 ML
2 LW
N
83.9 162.1 M
83.9 156.9 L
89.1 156.9 L
89.1 162.1 L
cp
S
GR
GS
[0.75 0 0 0.75 78.75 137.25] CT
/Times 18.667 F
GS
[1 0 0 1 0 0] CT
0 6.5 moveto 
1 -1 scale
(LDGP) t 
GR
GR
GS
[0.75 0 0 0.75 0 0] CT
0 0 1 RC
1 LJ
2 LW
N
72 183 M
102 183 L
S
GR
GS
[0.75 0 0 0.75 0 0] CT
1 GC
N
82.057 182.5 M
88.722 178.652 L
88.722 186.348 L
cp
f
GR
GS
[0.75 0 0 0.75 0 0] CT
0 0 1 RC
10.0 ML
2 LW
N
82.057 182.5 M
88.722 178.652 L
88.722 186.348 L
cp
S
GR
GS
[0.75 0 0 0.75 78.75 154.875] CT
/Times 18.667 F
GS
[1 0 0 1 0 0] CT
0 6.5 moveto 
1 -1 scale
(DCP) t 
GR
GR
GS
[0.75 0 0 0.75 0 0] CT
1 0 1 RC
1 LJ
2 LW
N
72 206.5 M
102 206.5 L
S
GR
GS
[0.75 0 0 0.75 0 0] CT
1 0 1 RC
1 LJ
2 LW
N
83 206.5 M
90 206.5 L
S
GR
GS
[0.75 0 0 0.75 0 0] CT
1 0 1 RC
1 LJ
2 LW
N
86.5 210 M
86.5 203 L
S
GR
GS
[0.75 0 0 0.75 78.75 172.5] CT
/Times 18.667 F
GS
[1 0 0 1 0 0] CT
0 6.5 moveto 
1 -1 scale
(LGHP) t 
GR
GR
GS
[0.75 0 0 0.75 0 0] CT
1 0 0 RC
1 LJ
2 LW
N
72 230 M
102 230 L
S
GR
GS
[0.75 0 0 0.75 0 0] CT
1 GC
N
83.9 233.1 M
83.9 227.9 L
89.1 227.9 L
89.1 233.1 L
cp
f
GR
GS
[0.75 0 0 0.75 0 0] CT
1 0 0 RC
10.0 ML
2 LW
N
83.9 233.1 M
83.9 227.9 L
89.1 227.9 L
89.1 233.1 L
cp
S
GR
GS
[0.75 0 0 0.75 78.75 190.125] CT
/Times 18.667 F
GS
[1 0 0 1 0 0] CT
0 6.5 moveto 
1 -1 scale
(LDRP) t 
GR
GR
GS
[0.75 0 0 0.75 0 0] CT
1 LJ
2 LW
N
72 253.5 M
102 253.5 L
S
GR
GS
[0.75 0 0 0.75 0 0] CT
1 GC
N
89.833 253.5 M
88.857 251.143 L
86.5 250.167 L
84.143 251.143 L
83.167 253.5 L
84.143 255.857 L
86.5 256.833 L
88.857 255.857 L
89.833 253.5 L
cp
f
GR
GS
[0.75 0 0 0.75 0 0] CT
1 LJ
2 LW
N
89.833 253.5 M
89.197 251.541 L
87.53 250.33 L
85.47 250.33 L
83.803 251.541 L
83.167 253.5 L
83.803 255.459 L
85.47 256.67 L
87.53 256.67 L
89.197 255.459 L
cp
S
GR
GS
[0.75 0 0 0.75 0 0] CT
0.149 GC
10.0 ML
0.667 LW
N
68 267 M
68 52 L
161 52 L
161 267 L
cp
S
GR
%%Trailer
%%Pages: 1
%%EOF
