%!PS-Adobe-3.0 EPSF-3.0
%%Creator: (MATLAB, The Mathworks, Inc. Version 9.0.0.341360 \(R2016a\). Operating System: Linux)
%%Title: (/home/shivram/main/Work/1. Research/1. Ongoing/5. LDRP Face/2. Exp/1. Results/PubFigDev/pubfig-anmrr.eps)
%%CreationDate: 2017-08-16T15:35:31
%%Pages: (atend)
%%BoundingBox: 0 0 573 384
%%LanguageLevel: 3
%%EndComments
%%BeginProlog
%%BeginResource: procset (Apache XML Graphics Std ProcSet) 1.2 0
%%Version: 1.2 0
%%Copyright: (Copyright 2001-2003,2010 The Apache Software Foundation. License terms: http://www.apache.org/licenses/LICENSE-2.0)
/bd{bind def}bind def
/ld{load def}bd
/GR/grestore ld
/M/moveto ld
/LJ/setlinejoin ld
/C/curveto ld
/f/fill ld
/LW/setlinewidth ld
/GC/setgray ld
/t/show ld
/N/newpath ld
/CT/concat ld
/cp/closepath ld
/S/stroke ld
/L/lineto ld
/CC/setcmykcolor ld
/A/ashow ld
/GS/gsave ld
/RC/setrgbcolor ld
/RM/rmoveto ld
/ML/setmiterlimit ld
/re {4 2 roll M
1 index 0 rlineto
0 exch rlineto
neg 0 rlineto
cp } bd
/_ctm matrix def
/_tm matrix def
/BT { _ctm currentmatrix pop matrix _tm copy pop 0 0 moveto } bd
/ET { _ctm setmatrix } bd
/iTm { _ctm setmatrix _tm concat } bd
/Tm { _tm astore pop iTm 0 0 moveto } bd
/ux 0.0 def
/uy 0.0 def
/F {
  /Tp exch def
  /Tf exch def
  Tf findfont Tp scalefont setfont
  /cf Tf def  /cs Tp def
} bd
/ULS {currentpoint /uy exch def /ux exch def} bd
/ULE {
  /Tcx currentpoint pop def
  gsave
  newpath
  cf findfont cs scalefont dup
  /FontMatrix get 0 get /Ts exch def /FontInfo get dup
  /UnderlinePosition get Ts mul /To exch def
  /UnderlineThickness get Ts mul /Tt exch def
  ux uy To add moveto  Tcx uy To add lineto
  Tt setlinewidth stroke
  grestore
} bd
/OLE {
  /Tcx currentpoint pop def
  gsave
  newpath
  cf findfont cs scalefont dup
  /FontMatrix get 0 get /Ts exch def /FontInfo get dup
  /UnderlinePosition get Ts mul /To exch def
  /UnderlineThickness get Ts mul /Tt exch def
  ux uy To add cs add moveto Tcx uy To add cs add lineto
  Tt setlinewidth stroke
  grestore
} bd
/SOE {
  /Tcx currentpoint pop def
  gsave
  newpath
  cf findfont cs scalefont dup
  /FontMatrix get 0 get /Ts exch def /FontInfo get dup
  /UnderlinePosition get Ts mul /To exch def
  /UnderlineThickness get Ts mul /Tt exch def
  ux uy To add cs 10 mul 26 idiv add moveto Tcx uy To add cs 10 mul 26 idiv add lineto
  Tt setlinewidth stroke
  grestore
} bd
/QT {
/Y22 exch store
/X22 exch store
/Y21 exch store
/X21 exch store
currentpoint
/Y21 load 2 mul add 3 div exch
/X21 load 2 mul add 3 div exch
/X21 load 2 mul /X22 load add 3 div
/Y21 load 2 mul /Y22 load add 3 div
/X22 load /Y22 load curveto
} bd
/SSPD {
dup length /d exch dict def
{
/v exch def
/k exch def
currentpagedevice k known {
/cpdv currentpagedevice k get def
v cpdv ne {
/upd false def
/nullv v type /nulltype eq def
/nullcpdv cpdv type /nulltype eq def
nullv nullcpdv or
{
/upd true def
} {
/sametype v type cpdv type eq def
sametype {
v type /arraytype eq {
/vlen v length def
/cpdvlen cpdv length def
vlen cpdvlen eq {
0 1 vlen 1 sub {
/i exch def
/obj v i get def
/cpdobj cpdv i get def
obj cpdobj ne {
/upd true def
exit
} if
} for
} {
/upd true def
} ifelse
} {
v type /dicttype eq {
v {
/dv exch def
/dk exch def
/cpddv cpdv dk get def
dv cpddv ne {
/upd true def
exit
} if
} forall
} {
/upd true def
} ifelse
} ifelse
} if
} ifelse
upd true eq {
d k v put
} if
} if
} if
} forall
d length 0 gt {
d setpagedevice
} if
} bd
%%EndResource
%%BeginResource: procset (Apache XML Graphics EPS ProcSet) 1.0 0
%%Version: 1.0 0
%%Copyright: (Copyright 2002-2003 The Apache Software Foundation. License terms: http://www.apache.org/licenses/LICENSE-2.0)
/BeginEPSF { %def
/b4_Inc_state save def         % Save state for cleanup
/dict_count countdictstack def % Count objects on dict stack
/op_count count 1 sub def      % Count objects on operand stack
userdict begin                 % Push userdict on dict stack
/showpage { } def              % Redefine showpage, { } = null proc
0 setgray 0 setlinecap         % Prepare graphics state
1 setlinewidth 0 setlinejoin
10 setmiterlimit [ ] 0 setdash newpath
/languagelevel where           % If level not equal to 1 then
{pop languagelevel             % set strokeadjust and
1 ne                           % overprint to their defaults.
{false setstrokeadjust false setoverprint
} if
} if
} bd
/EndEPSF { %def
count op_count sub {pop} repeat            % Clean up stacks
countdictstack dict_count sub {end} repeat
b4_Inc_state restore
} bd
%%EndResource
%FOPBeginFontDict
%%IncludeResource: font Courier-Bold
%%IncludeResource: font Helvetica
%%IncludeResource: font Courier-BoldOblique
%%IncludeResource: font Courier-Oblique
%%IncludeResource: font Times-Roman
%%IncludeResource: font Helvetica-BoldOblique
%%IncludeResource: font Helvetica-Bold
%%IncludeResource: font Helvetica-Oblique
%%IncludeResource: font Times-BoldItalic
%%IncludeResource: font Courier
%%IncludeResource: font Times-Italic
%%IncludeResource: font Times-Bold
%%IncludeResource: font Symbol
%%IncludeResource: font ZapfDingbats
%FOPEndFontDict
%%BeginResource: encoding WinAnsiEncoding
/WinAnsiEncoding [
/.notdef /.notdef /.notdef /.notdef /.notdef
/.notdef /.notdef /.notdef /.notdef /.notdef
/.notdef /.notdef /.notdef /.notdef /.notdef
/.notdef /.notdef /.notdef /.notdef /.notdef
/.notdef /.notdef /.notdef /.notdef /.notdef
/.notdef /.notdef /.notdef /.notdef /.notdef
/.notdef /.notdef /space /exclam /quotedbl
/numbersign /dollar /percent /ampersand /quotesingle
/parenleft /parenright /asterisk /plus /comma
/hyphen /period /slash /zero /one
/two /three /four /five /six
/seven /eight /nine /colon /semicolon
/less /equal /greater /question /at
/A /B /C /D /E
/F /G /H /I /J
/K /L /M /N /O
/P /Q /R /S /T
/U /V /W /X /Y
/Z /bracketleft /backslash /bracketright /asciicircum
/underscore /quoteleft /a /b /c
/d /e /f /g /h
/i /j /k /l /m
/n /o /p /q /r
/s /t /u /v /w
/x /y /z /braceleft /bar
/braceright /asciitilde /bullet /Euro /bullet
/quotesinglbase /florin /quotedblbase /ellipsis /dagger
/daggerdbl /circumflex /perthousand /Scaron /guilsinglleft
/OE /bullet /Zcaron /bullet /bullet
/quoteleft /quoteright /quotedblleft /quotedblright /bullet
/endash /emdash /asciitilde /trademark /scaron
/guilsinglright /oe /bullet /zcaron /Ydieresis
/space /exclamdown /cent /sterling /currency
/yen /brokenbar /section /dieresis /copyright
/ordfeminine /guillemotleft /logicalnot /sfthyphen /registered
/macron /degree /plusminus /twosuperior /threesuperior
/acute /mu /paragraph /middot /cedilla
/onesuperior /ordmasculine /guillemotright /onequarter /onehalf
/threequarters /questiondown /Agrave /Aacute /Acircumflex
/Atilde /Adieresis /Aring /AE /Ccedilla
/Egrave /Eacute /Ecircumflex /Edieresis /Igrave
/Iacute /Icircumflex /Idieresis /Eth /Ntilde
/Ograve /Oacute /Ocircumflex /Otilde /Odieresis
/multiply /Oslash /Ugrave /Uacute /Ucircumflex
/Udieresis /Yacute /Thorn /germandbls /agrave
/aacute /acircumflex /atilde /adieresis /aring
/ae /ccedilla /egrave /eacute /ecircumflex
/edieresis /igrave /iacute /icircumflex /idieresis
/eth /ntilde /ograve /oacute /ocircumflex
/otilde /odieresis /divide /oslash /ugrave
/uacute /ucircumflex /udieresis /yacute /thorn
/ydieresis
] def
%%EndResource
%FOPBeginFontReencode
/Courier-Bold findfont
dup length dict begin
  {1 index /FID ne {def} {pop pop} ifelse} forall
  /Encoding WinAnsiEncoding def
  currentdict
end
/Courier-Bold exch definefont pop
/Helvetica findfont
dup length dict begin
  {1 index /FID ne {def} {pop pop} ifelse} forall
  /Encoding WinAnsiEncoding def
  currentdict
end
/Helvetica exch definefont pop
/Courier-BoldOblique findfont
dup length dict begin
  {1 index /FID ne {def} {pop pop} ifelse} forall
  /Encoding WinAnsiEncoding def
  currentdict
end
/Courier-BoldOblique exch definefont pop
/Courier-Oblique findfont
dup length dict begin
  {1 index /FID ne {def} {pop pop} ifelse} forall
  /Encoding WinAnsiEncoding def
  currentdict
end
/Courier-Oblique exch definefont pop
/Times-Roman findfont
dup length dict begin
  {1 index /FID ne {def} {pop pop} ifelse} forall
  /Encoding WinAnsiEncoding def
  currentdict
end
/Times-Roman exch definefont pop
/Helvetica-BoldOblique findfont
dup length dict begin
  {1 index /FID ne {def} {pop pop} ifelse} forall
  /Encoding WinAnsiEncoding def
  currentdict
end
/Helvetica-BoldOblique exch definefont pop
/Helvetica-Bold findfont
dup length dict begin
  {1 index /FID ne {def} {pop pop} ifelse} forall
  /Encoding WinAnsiEncoding def
  currentdict
end
/Helvetica-Bold exch definefont pop
/Helvetica-Oblique findfont
dup length dict begin
  {1 index /FID ne {def} {pop pop} ifelse} forall
  /Encoding WinAnsiEncoding def
  currentdict
end
/Helvetica-Oblique exch definefont pop
/Times-BoldItalic findfont
dup length dict begin
  {1 index /FID ne {def} {pop pop} ifelse} forall
  /Encoding WinAnsiEncoding def
  currentdict
end
/Times-BoldItalic exch definefont pop
/Courier findfont
dup length dict begin
  {1 index /FID ne {def} {pop pop} ifelse} forall
  /Encoding WinAnsiEncoding def
  currentdict
end
/Courier exch definefont pop
/Times-Italic findfont
dup length dict begin
  {1 index /FID ne {def} {pop pop} ifelse} forall
  /Encoding WinAnsiEncoding def
  currentdict
end
/Times-Italic exch definefont pop
/Times-Bold findfont
dup length dict begin
  {1 index /FID ne {def} {pop pop} ifelse} forall
  /Encoding WinAnsiEncoding def
  currentdict
end
/Times-Bold exch definefont pop
%FOPEndFontReencode
%%EndProlog
%%Page: 1 1
%%PageBoundingBox: 0 0 573 384
%%BeginPageSetup
[1 0 0 -1 0 384] CT
%%EndPageSetup
GS
[0.75 0 0 0.75 0 0] CT
1 GC
N
0 0 764 512 re
f
GR
GS
[0.75 0 0 0.75 0 0] CT
1 GC
N
0 0 764 512 re
f
GR
GS
[0.75 0 0 0.75 0 0] CT
1 GC
N
71 442 M
749 442 L
749 39 L
71 39 L
cp
f
GR
GS
[0.75 0 0 0.75 0 0] CT
0.149 GC
2 setlinecap
1 LJ
0.667 LW
N
71 442 M
749 442 L
S
GR
GS
[0.75 0 0 0.75 0 0] CT
0.149 GC
2 setlinecap
1 LJ
0.667 LW
N
71 39 M
749 39 L
S
GR
GS
[0.75 0 0 0.75 0 0] CT
0.149 GC
2 setlinecap
1 LJ
0.667 LW
N
71 442 M
71 435.22 L
S
GR
GS
[0.75 0 0 0.75 0 0] CT
0.149 GC
2 setlinecap
1 LJ
0.667 LW
N
146.333 442 M
146.333 435.22 L
S
GR
GS
[0.75 0 0 0.75 0 0] CT
0.149 GC
2 setlinecap
1 LJ
0.667 LW
N
221.667 442 M
221.667 435.22 L
S
GR
GS
[0.75 0 0 0.75 0 0] CT
0.149 GC
2 setlinecap
1 LJ
0.667 LW
N
297 442 M
297 435.22 L
S
GR
GS
[0.75 0 0 0.75 0 0] CT
0.149 GC
2 setlinecap
1 LJ
0.667 LW
N
372.333 442 M
372.333 435.22 L
S
GR
GS
[0.75 0 0 0.75 0 0] CT
0.149 GC
2 setlinecap
1 LJ
0.667 LW
N
447.667 442 M
447.667 435.22 L
S
GR
GS
[0.75 0 0 0.75 0 0] CT
0.149 GC
2 setlinecap
1 LJ
0.667 LW
N
523 442 M
523 435.22 L
S
GR
GS
[0.75 0 0 0.75 0 0] CT
0.149 GC
2 setlinecap
1 LJ
0.667 LW
N
598.333 442 M
598.333 435.22 L
S
GR
GS
[0.75 0 0 0.75 0 0] CT
0.149 GC
2 setlinecap
1 LJ
0.667 LW
N
673.667 442 M
673.667 435.22 L
S
GR
GS
[0.75 0 0 0.75 0 0] CT
0.149 GC
2 setlinecap
1 LJ
0.667 LW
N
749 442 M
749 435.22 L
S
GR
GS
[0.75 0 0 0.75 0 0] CT
0.149 GC
2 setlinecap
1 LJ
0.667 LW
N
71 39 M
71 45.78 L
S
GR
GS
[0.75 0 0 0.75 0 0] CT
0.149 GC
2 setlinecap
1 LJ
0.667 LW
N
146.333 39 M
146.333 45.78 L
S
GR
GS
[0.75 0 0 0.75 0 0] CT
0.149 GC
2 setlinecap
1 LJ
0.667 LW
N
221.667 39 M
221.667 45.78 L
S
GR
GS
[0.75 0 0 0.75 0 0] CT
0.149 GC
2 setlinecap
1 LJ
0.667 LW
N
297 39 M
297 45.78 L
S
GR
GS
[0.75 0 0 0.75 0 0] CT
0.149 GC
2 setlinecap
1 LJ
0.667 LW
N
372.333 39 M
372.333 45.78 L
S
GR
GS
[0.75 0 0 0.75 0 0] CT
0.149 GC
2 setlinecap
1 LJ
0.667 LW
N
447.667 39 M
447.667 45.78 L
S
GR
GS
[0.75 0 0 0.75 0 0] CT
0.149 GC
2 setlinecap
1 LJ
0.667 LW
N
523 39 M
523 45.78 L
S
GR
GS
[0.75 0 0 0.75 0 0] CT
0.149 GC
2 setlinecap
1 LJ
0.667 LW
N
598.333 39 M
598.333 45.78 L
S
GR
GS
[0.75 0 0 0.75 0 0] CT
0.149 GC
2 setlinecap
1 LJ
0.667 LW
N
673.667 39 M
673.667 45.78 L
S
GR
GS
[0.75 0 0 0.75 0 0] CT
0.149 GC
2 setlinecap
1 LJ
0.667 LW
N
749 39 M
749 45.78 L
S
GR
GS
[0.75 0 0 0.75 53.25 337.10001] CT
0.149 GC
/Times 24 F
GS
[1 0 0 1 0 0] CT
-8 23 moveto 
1 -1 scale
(1) t 
GR
GR
GS
[0.75 0 0 0.75 109.75 337.10001] CT
0.149 GC
/Times 24 F
GS
[1 0 0 1 0 0] CT
-8 23 moveto 
1 -1 scale
(2) t 
GR
GR
GS
[0.75 0 0 0.75 166.25 337.10001] CT
0.149 GC
/Times 24 F
GS
[1 0 0 1 0 0] CT
-8 23 moveto 
1 -1 scale
(3) t 
GR
GR
GS
[0.75 0 0 0.75 222.75 337.10001] CT
0.149 GC
/Times 24 F
GS
[1 0 0 1 0 0] CT
-8 23 moveto 
1 -1 scale
(4) t 
GR
GR
GS
[0.75 0 0 0.75 279.25001 337.10001] CT
0.149 GC
/Times 24 F
GS
[1 0 0 1 0 0] CT
-8 23 moveto 
1 -1 scale
(5) t 
GR
GR
GS
[0.75 0 0 0.75 335.74999 337.10001] CT
0.149 GC
/Times 24 F
GS
[1 0 0 1 0 0] CT
-8 23 moveto 
1 -1 scale
(6) t 
GR
GR
GS
[0.75 0 0 0.75 392.25 337.10001] CT
0.149 GC
/Times 24 F
GS
[1 0 0 1 0 0] CT
-8 23 moveto 
1 -1 scale
(7) t 
GR
GR
GS
[0.75 0 0 0.75 448.74998 337.10001] CT
0.149 GC
/Times 24 F
GS
[1 0 0 1 0 0] CT
-8 23 moveto 
1 -1 scale
(8) t 
GR
GR
GS
[0.75 0 0 0.75 505.25002 337.10001] CT
0.149 GC
/Times 24 F
GS
[1 0 0 1 0 0] CT
-8 23 moveto 
1 -1 scale
(9) t 
GR
GR
GS
[0.75 0 0 0.75 561.75 337.10001] CT
0.149 GC
/Times 24 F
GS
[1 0 0 1 0 0] CT
-15.5 23 moveto 
1 -1 scale
(10) t 
GR
GR
GS
[0.75 0 0 0.75 307.50025 359.84999] CT
0.149 GC
/Times 26.4 F
GS
[1 0 0 1 0 0] CT
-156 25 moveto 
1 -1 scale
(Number of Top Matches) t 
GR
GR
GS
[0.75 0 0 0.75 0 0] CT
0.149 GC
2 setlinecap
1 LJ
0.667 LW
N
71 442 M
71 39 L
S
GR
GS
[0.75 0 0 0.75 0 0] CT
0.149 GC
2 setlinecap
1 LJ
0.667 LW
N
749 442 M
749 39 L
S
GR
GS
[0.75 0 0 0.75 0 0] CT
0.149 GC
2 setlinecap
1 LJ
0.667 LW
N
71 442 M
77.78 442 L
S
GR
GS
[0.75 0 0 0.75 0 0] CT
0.149 GC
2 setlinecap
1 LJ
0.667 LW
N
71 391.625 M
77.78 391.625 L
S
GR
GS
[0.75 0 0 0.75 0 0] CT
0.149 GC
2 setlinecap
1 LJ
0.667 LW
N
71 341.25 M
77.78 341.25 L
S
GR
GS
[0.75 0 0 0.75 0 0] CT
0.149 GC
2 setlinecap
1 LJ
0.667 LW
N
71 290.875 M
77.78 290.875 L
S
GR
GS
[0.75 0 0 0.75 0 0] CT
0.149 GC
2 setlinecap
1 LJ
0.667 LW
N
71 240.5 M
77.78 240.5 L
S
GR
GS
[0.75 0 0 0.75 0 0] CT
0.149 GC
2 setlinecap
1 LJ
0.667 LW
N
71 190.125 M
77.78 190.125 L
S
GR
GS
[0.75 0 0 0.75 0 0] CT
0.149 GC
2 setlinecap
1 LJ
0.667 LW
N
71 139.75 M
77.78 139.75 L
S
GR
GS
[0.75 0 0 0.75 0 0] CT
0.149 GC
2 setlinecap
1 LJ
0.667 LW
N
71 89.375 M
77.78 89.375 L
S
GR
GS
[0.75 0 0 0.75 0 0] CT
0.149 GC
2 setlinecap
1 LJ
0.667 LW
N
71 39 M
77.78 39 L
S
GR
GS
[0.75 0 0 0.75 0 0] CT
0.149 GC
2 setlinecap
1 LJ
0.667 LW
N
749 442 M
742.22 442 L
S
GR
GS
[0.75 0 0 0.75 0 0] CT
0.149 GC
2 setlinecap
1 LJ
0.667 LW
N
749 391.625 M
742.22 391.625 L
S
GR
GS
[0.75 0 0 0.75 0 0] CT
0.149 GC
2 setlinecap
1 LJ
0.667 LW
N
749 341.25 M
742.22 341.25 L
S
GR
GS
[0.75 0 0 0.75 0 0] CT
0.149 GC
2 setlinecap
1 LJ
0.667 LW
N
749 290.875 M
742.22 290.875 L
S
GR
GS
[0.75 0 0 0.75 0 0] CT
0.149 GC
2 setlinecap
1 LJ
0.667 LW
N
749 240.5 M
742.22 240.5 L
S
GR
GS
[0.75 0 0 0.75 0 0] CT
0.149 GC
2 setlinecap
1 LJ
0.667 LW
N
749 190.125 M
742.22 190.125 L
S
GR
GS
[0.75 0 0 0.75 0 0] CT
0.149 GC
2 setlinecap
1 LJ
0.667 LW
N
749 139.75 M
742.22 139.75 L
S
GR
GS
[0.75 0 0 0.75 0 0] CT
0.149 GC
2 setlinecap
1 LJ
0.667 LW
N
749 89.375 M
742.22 89.375 L
S
GR
GS
[0.75 0 0 0.75 0 0] CT
0.149 GC
2 setlinecap
1 LJ
0.667 LW
N
749 39 M
742.22 39 L
S
GR
GS
[0.75 0 0 0.75 47.65 331.5] CT
0.149 GC
/Times 24 F
GS
[1 0 0 1 0 0] CT
-16 8.5 moveto 
1 -1 scale
(0) t 
GR
GR
GS
[0.75 0 0 0.75 47.65 293.71875] CT
0.149 GC
/Times 24 F
GS
[1 0 0 1 0 0] CT
-31 8.5 moveto 
1 -1 scale
(10) t 
GR
GR
GS
[0.75 0 0 0.75 47.65 255.9375] CT
0.149 GC
/Times 24 F
GS
[1 0 0 1 0 0] CT
-31 8.5 moveto 
1 -1 scale
(20) t 
GR
GR
GS
[0.75 0 0 0.75 47.65 218.15625] CT
0.149 GC
/Times 24 F
GS
[1 0 0 1 0 0] CT
-31 8.5 moveto 
1 -1 scale
(30) t 
GR
GR
GS
[0.75 0 0 0.75 47.65 180.375] CT
0.149 GC
/Times 24 F
GS
[1 0 0 1 0 0] CT
-31 8.5 moveto 
1 -1 scale
(40) t 
GR
GR
GS
[0.75 0 0 0.75 47.65 142.59375] CT
0.149 GC
/Times 24 F
GS
[1 0 0 1 0 0] CT
-31 8.5 moveto 
1 -1 scale
(50) t 
GR
GR
GS
[0.75 0 0 0.75 47.65 104.8125] CT
0.149 GC
/Times 24 F
GS
[1 0 0 1 0 0] CT
-31 8.5 moveto 
1 -1 scale
(60) t 
GR
GR
GS
[0.75 0 0 0.75 47.65 67.03125] CT
0.149 GC
/Times 24 F
GS
[1 0 0 1 0 0] CT
-31 8.5 moveto 
1 -1 scale
(70) t 
GR
GR
GS
[0.75 0 0 0.75 47.65 29.25] CT
0.149 GC
/Times 24 F
GS
[1 0 0 1 0 0] CT
-31 8.5 moveto 
1 -1 scale
(80) t 
GR
GR
GS
[0 -0.75 0.75 0 21.4 180.37485] CT
0.149 GC
/Times 26.4 F
GS
[1 0 0 1 0 0] CT
-75 -7 moveto 
1 -1 scale
(ANMRR \(%\)) t 
GR
GR
GS
[0.75 0 0 0.75 307.5003 25.53751] CT
/Times-Bold 26.4 F
GS
[1 0 0 1 0 0] CT
-124.5 -7 moveto 
1 -1 scale
(PubFig Database) t 
GR
GR
GS
[0.75 0 0 0.75 0 0] CT
1 0.6 0.784 RC
1 LJ
2 LW
N
71 442 M
146.333 302.86 L
221.667 214.069 L
297 165.346 L
372.333 133.88 L
447.667 112.104 L
523 95.579 L
598.333 82.972 L
673.667 72.347 L
749 63.895 L
S
GR
GS
[0.75 0 0 0.75 0 0] CT
1 GC
N
69.278 437.652 M
75.943 441.5 L
69.278 445.348 L
cp
f
GR
GS
[0.75 0 0 0.75 0 0] CT
1 0.6 0.784 RC
10.0 ML
2 LW
N
69.278 437.652 M
75.943 441.5 L
69.278 445.348 L
cp
S
GR
GS
[0.75 0 0 0.75 0 0] CT
1 GC
N
144.278 298.652 M
150.943 302.5 L
144.278 306.348 L
cp
f
GR
GS
[0.75 0 0 0.75 0 0] CT
1 0.6 0.784 RC
10.0 ML
2 LW
N
144.278 298.652 M
150.943 302.5 L
144.278 306.348 L
cp
S
GR
GS
[0.75 0 0 0.75 0 0] CT
1 GC
N
219.278 210.652 M
225.943 214.5 L
219.278 218.348 L
cp
f
GR
GS
[0.75 0 0 0.75 0 0] CT
1 0.6 0.784 RC
10.0 ML
2 LW
N
219.278 210.652 M
225.943 214.5 L
219.278 218.348 L
cp
S
GR
GS
[0.75 0 0 0.75 0 0] CT
1 GC
N
294.278 161.652 M
300.943 165.5 L
294.278 169.348 L
cp
f
GR
GS
[0.75 0 0 0.75 0 0] CT
1 0.6 0.784 RC
10.0 ML
2 LW
N
294.278 161.652 M
300.943 165.5 L
294.278 169.348 L
cp
S
GR
GS
[0.75 0 0 0.75 0 0] CT
1 GC
N
370.278 129.652 M
376.943 133.5 L
370.278 137.348 L
cp
f
GR
GS
[0.75 0 0 0.75 0 0] CT
1 0.6 0.784 RC
10.0 ML
2 LW
N
370.278 129.652 M
376.943 133.5 L
370.278 137.348 L
cp
S
GR
GS
[0.75 0 0 0.75 0 0] CT
1 GC
N
445.278 108.652 M
451.943 112.5 L
445.278 116.348 L
cp
f
GR
GS
[0.75 0 0 0.75 0 0] CT
1 0.6 0.784 RC
10.0 ML
2 LW
N
445.278 108.652 M
451.943 112.5 L
445.278 116.348 L
cp
S
GR
GS
[0.75 0 0 0.75 0 0] CT
1 GC
N
521.278 91.652 M
527.943 95.5 L
521.278 99.348 L
cp
f
GR
GS
[0.75 0 0 0.75 0 0] CT
1 0.6 0.784 RC
10.0 ML
2 LW
N
521.278 91.652 M
527.943 95.5 L
521.278 99.348 L
cp
S
GR
GS
[0.75 0 0 0.75 0 0] CT
1 GC
N
596.278 78.652 M
602.943 82.5 L
596.278 86.348 L
cp
f
GR
GS
[0.75 0 0 0.75 0 0] CT
1 0.6 0.784 RC
10.0 ML
2 LW
N
596.278 78.652 M
602.943 82.5 L
596.278 86.348 L
cp
S
GR
GS
[0.75 0 0 0.75 0 0] CT
1 GC
N
671.278 68.652 M
677.943 72.5 L
671.278 76.348 L
cp
f
GR
GS
[0.75 0 0 0.75 0 0] CT
1 0.6 0.784 RC
10.0 ML
2 LW
N
671.278 68.652 M
677.943 72.5 L
671.278 76.348 L
cp
S
GR
GS
[0.75 0 0 0.75 0 0] CT
1 GC
N
747.278 59.652 M
753.943 63.5 L
747.278 67.348 L
cp
f
GR
GS
[0.75 0 0 0.75 0 0] CT
1 0.6 0.784 RC
10.0 ML
2 LW
N
747.278 59.652 M
753.943 63.5 L
747.278 67.348 L
cp
S
GR
GS
[0.75 0 0 0.75 0 0] CT
0.6 0.2 0 RC
1 LJ
2 LW
N
71 442 M
146.333 303.372 L
221.667 216.218 L
297 166.674 L
372.333 134.804 L
447.667 112.85 L
523 95.966 L
598.333 83.015 L
673.667 72.725 L
749 64.027 L
S
GR
GS
[0.75 0 0 0.75 0 0] CT
1 GC
N
67.057 441.5 M
73.722 437.652 L
73.722 445.348 L
cp
f
GR
GS
[0.75 0 0 0.75 0 0] CT
0.6 0.2 0 RC
10.0 ML
2 LW
N
67.057 441.5 M
73.722 437.652 L
73.722 445.348 L
cp
S
GR
GS
[0.75 0 0 0.75 0 0] CT
1 GC
N
142.057 303.5 M
148.722 299.652 L
148.722 307.348 L
cp
f
GR
GS
[0.75 0 0 0.75 0 0] CT
0.6 0.2 0 RC
10.0 ML
2 LW
N
142.057 303.5 M
148.722 299.652 L
148.722 307.348 L
cp
S
GR
GS
[0.75 0 0 0.75 0 0] CT
1 GC
N
217.057 216.5 M
223.722 212.652 L
223.722 220.348 L
cp
f
GR
GS
[0.75 0 0 0.75 0 0] CT
0.6 0.2 0 RC
10.0 ML
2 LW
N
217.057 216.5 M
223.722 212.652 L
223.722 220.348 L
cp
S
GR
GS
[0.75 0 0 0.75 0 0] CT
1 GC
N
292.057 166.5 M
298.722 162.652 L
298.722 170.348 L
cp
f
GR
GS
[0.75 0 0 0.75 0 0] CT
0.6 0.2 0 RC
10.0 ML
2 LW
N
292.057 166.5 M
298.722 162.652 L
298.722 170.348 L
cp
S
GR
GS
[0.75 0 0 0.75 0 0] CT
1 GC
N
368.057 134.5 M
374.722 130.652 L
374.722 138.348 L
cp
f
GR
GS
[0.75 0 0 0.75 0 0] CT
0.6 0.2 0 RC
10.0 ML
2 LW
N
368.057 134.5 M
374.722 130.652 L
374.722 138.348 L
cp
S
GR
GS
[0.75 0 0 0.75 0 0] CT
1 GC
N
443.057 112.5 M
449.722 108.652 L
449.722 116.348 L
cp
f
GR
GS
[0.75 0 0 0.75 0 0] CT
0.6 0.2 0 RC
10.0 ML
2 LW
N
443.057 112.5 M
449.722 108.652 L
449.722 116.348 L
cp
S
GR
GS
[0.75 0 0 0.75 0 0] CT
1 GC
N
519.057 95.5 M
525.722 91.652 L
525.722 99.348 L
cp
f
GR
GS
[0.75 0 0 0.75 0 0] CT
0.6 0.2 0 RC
10.0 ML
2 LW
N
519.057 95.5 M
525.722 91.652 L
525.722 99.348 L
cp
S
GR
GS
[0.75 0 0 0.75 0 0] CT
1 GC
N
594.057 83.5 M
600.722 79.652 L
600.722 87.348 L
cp
f
GR
GS
[0.75 0 0 0.75 0 0] CT
0.6 0.2 0 RC
10.0 ML
2 LW
N
594.057 83.5 M
600.722 79.652 L
600.722 87.348 L
cp
S
GR
GS
[0.75 0 0 0.75 0 0] CT
1 GC
N
669.057 72.5 M
675.722 68.652 L
675.722 76.348 L
cp
f
GR
GS
[0.75 0 0 0.75 0 0] CT
0.6 0.2 0 RC
10.0 ML
2 LW
N
669.057 72.5 M
675.722 68.652 L
675.722 76.348 L
cp
S
GR
GS
[0.75 0 0 0.75 0 0] CT
1 GC
N
745.057 64.5 M
751.722 60.652 L
751.722 68.348 L
cp
f
GR
GS
[0.75 0 0 0.75 0 0] CT
0.6 0.2 0 RC
10.0 ML
2 LW
N
745.057 64.5 M
751.722 60.652 L
751.722 68.348 L
cp
S
GR
GS
[0.75 0 0 0.75 0 0] CT
0.929 0.694 0.125 RC
1 LJ
2 LW
N
71 442 M
146.333 287.878 L
221.667 199.825 L
297 152.309 L
372.333 123.134 L
447.667 103.172 L
523 87.254 L
598.333 74.763 L
673.667 64.758 L
749 56.024 L
S
GR
GS
[0.75 0 0 0.75 0 0] CT
1 GC
N
68.33 440.47 M
70.716 440.47 L
71.5 438.167 L
72.284 440.47 L
74.67 440.47 L
72.768 441.912 L
73.459 444.197 L
71.5 442.833 L
69.541 444.197 L
70.232 441.912 L
68.33 440.47 L
cp
f
GR
GS
[0.75 0 0 0.75 0 0] CT
0.929 0.694 0.125 RC
10.0 ML
2 LW
N
68.33 440.47 M
70.716 440.47 L
71.5 438.167 L
72.284 440.47 L
74.67 440.47 L
72.768 441.912 L
73.459 444.197 L
71.5 442.833 L
69.541 444.197 L
70.232 441.912 L
cp
S
GR
GS
[0.75 0 0 0.75 0 0] CT
1 GC
N
143.33 286.47 M
145.716 286.47 L
146.5 284.167 L
147.284 286.47 L
149.67 286.47 L
147.768 287.912 L
148.459 290.197 L
146.5 288.833 L
144.541 290.197 L
145.232 287.912 L
143.33 286.47 L
cp
f
GR
GS
[0.75 0 0 0.75 0 0] CT
0.929 0.694 0.125 RC
10.0 ML
2 LW
N
143.33 286.47 M
145.716 286.47 L
146.5 284.167 L
147.284 286.47 L
149.67 286.47 L
147.768 287.912 L
148.459 290.197 L
146.5 288.833 L
144.541 290.197 L
145.232 287.912 L
cp
S
GR
GS
[0.75 0 0 0.75 0 0] CT
1 GC
N
218.33 198.47 M
220.716 198.47 L
221.5 196.167 L
222.284 198.47 L
224.67 198.47 L
222.768 199.912 L
223.459 202.197 L
221.5 200.833 L
219.541 202.197 L
220.232 199.912 L
218.33 198.47 L
cp
f
GR
GS
[0.75 0 0 0.75 0 0] CT
0.929 0.694 0.125 RC
10.0 ML
2 LW
N
218.33 198.47 M
220.716 198.47 L
221.5 196.167 L
222.284 198.47 L
224.67 198.47 L
222.768 199.912 L
223.459 202.197 L
221.5 200.833 L
219.541 202.197 L
220.232 199.912 L
cp
S
GR
GS
[0.75 0 0 0.75 0 0] CT
1 GC
N
293.33 151.47 M
295.716 151.47 L
296.5 149.167 L
297.284 151.47 L
299.67 151.47 L
297.768 152.912 L
298.459 155.197 L
296.5 153.833 L
294.541 155.197 L
295.232 152.912 L
293.33 151.47 L
cp
f
GR
GS
[0.75 0 0 0.75 0 0] CT
0.929 0.694 0.125 RC
10.0 ML
2 LW
N
293.33 151.47 M
295.716 151.47 L
296.5 149.167 L
297.284 151.47 L
299.67 151.47 L
297.768 152.912 L
298.459 155.197 L
296.5 153.833 L
294.541 155.197 L
295.232 152.912 L
cp
S
GR
GS
[0.75 0 0 0.75 0 0] CT
1 GC
N
369.33 122.47 M
371.716 122.47 L
372.5 120.167 L
373.284 122.47 L
375.67 122.47 L
373.768 123.912 L
374.459 126.197 L
372.5 124.833 L
370.541 126.197 L
371.232 123.912 L
369.33 122.47 L
cp
f
GR
GS
[0.75 0 0 0.75 0 0] CT
0.929 0.694 0.125 RC
10.0 ML
2 LW
N
369.33 122.47 M
371.716 122.47 L
372.5 120.167 L
373.284 122.47 L
375.67 122.47 L
373.768 123.912 L
374.459 126.197 L
372.5 124.833 L
370.541 126.197 L
371.232 123.912 L
cp
S
GR
GS
[0.75 0 0 0.75 0 0] CT
1 GC
N
444.33 102.47 M
446.716 102.47 L
447.5 100.167 L
448.284 102.47 L
450.67 102.47 L
448.768 103.912 L
449.459 106.197 L
447.5 104.833 L
445.541 106.197 L
446.232 103.912 L
444.33 102.47 L
cp
f
GR
GS
[0.75 0 0 0.75 0 0] CT
0.929 0.694 0.125 RC
10.0 ML
2 LW
N
444.33 102.47 M
446.716 102.47 L
447.5 100.167 L
448.284 102.47 L
450.67 102.47 L
448.768 103.912 L
449.459 106.197 L
447.5 104.833 L
445.541 106.197 L
446.232 103.912 L
cp
S
GR
GS
[0.75 0 0 0.75 0 0] CT
1 GC
N
520.33 86.47 M
522.716 86.47 L
523.5 84.167 L
524.284 86.47 L
526.67 86.47 L
524.768 87.912 L
525.459 90.197 L
523.5 88.833 L
521.541 90.197 L
522.232 87.912 L
520.33 86.47 L
cp
f
GR
GS
[0.75 0 0 0.75 0 0] CT
0.929 0.694 0.125 RC
10.0 ML
2 LW
N
520.33 86.47 M
522.716 86.47 L
523.5 84.167 L
524.284 86.47 L
526.67 86.47 L
524.768 87.912 L
525.459 90.197 L
523.5 88.833 L
521.541 90.197 L
522.232 87.912 L
cp
S
GR
GS
[0.75 0 0 0.75 0 0] CT
1 GC
N
595.33 73.47 M
597.716 73.47 L
598.5 71.167 L
599.284 73.47 L
601.67 73.47 L
599.768 74.912 L
600.459 77.197 L
598.5 75.833 L
596.541 77.197 L
597.232 74.912 L
595.33 73.47 L
cp
f
GR
GS
[0.75 0 0 0.75 0 0] CT
0.929 0.694 0.125 RC
10.0 ML
2 LW
N
595.33 73.47 M
597.716 73.47 L
598.5 71.167 L
599.284 73.47 L
601.67 73.47 L
599.768 74.912 L
600.459 77.197 L
598.5 75.833 L
596.541 77.197 L
597.232 74.912 L
cp
S
GR
GS
[0.75 0 0 0.75 0 0] CT
1 GC
N
670.33 63.47 M
672.716 63.47 L
673.5 61.167 L
674.284 63.47 L
676.67 63.47 L
674.768 64.912 L
675.459 67.197 L
673.5 65.833 L
671.541 67.197 L
672.232 64.912 L
670.33 63.47 L
cp
f
GR
GS
[0.75 0 0 0.75 0 0] CT
0.929 0.694 0.125 RC
10.0 ML
2 LW
N
670.33 63.47 M
672.716 63.47 L
673.5 61.167 L
674.284 63.47 L
676.67 63.47 L
674.768 64.912 L
675.459 67.197 L
673.5 65.833 L
671.541 67.197 L
672.232 64.912 L
cp
S
GR
GS
[0.75 0 0 0.75 0 0] CT
1 GC
N
746.33 55.47 M
748.716 55.47 L
749.5 53.167 L
750.284 55.47 L
752.67 55.47 L
750.768 56.912 L
751.459 59.197 L
749.5 57.833 L
747.541 59.197 L
748.232 56.912 L
746.33 55.47 L
cp
f
GR
GS
[0.75 0 0 0.75 0 0] CT
0.929 0.694 0.125 RC
10.0 ML
2 LW
N
746.33 55.47 M
748.716 55.47 L
749.5 53.167 L
750.284 55.47 L
752.67 55.47 L
750.768 56.912 L
751.459 59.197 L
749.5 57.833 L
747.541 59.197 L
748.232 56.912 L
cp
S
GR
GS
[0.75 0 0 0.75 0 0] CT
0 1 1 RC
1 LJ
2 LW
N
71 442 M
146.333 292.21 L
221.667 203.783 L
297 154.357 L
372.333 123.999 L
447.667 101.808 L
523 85.217 L
598.333 72.084 L
673.667 61.903 L
749 53.218 L
S
GR
GS
[0.75 0 0 0.75 0 0] CT
1 GC
N
71.5 445.943 M
74.833 441.5 L
71.5 437.057 L
68.167 441.5 L
cp
f
GR
GS
[0.75 0 0 0.75 0 0] CT
0 1 1 RC
10.0 ML
2 LW
N
71.5 445.943 M
74.833 441.5 L
71.5 437.057 L
68.167 441.5 L
cp
S
GR
GS
[0.75 0 0 0.75 0 0] CT
1 GC
N
146.5 296.943 M
149.833 292.5 L
146.5 288.057 L
143.167 292.5 L
cp
f
GR
GS
[0.75 0 0 0.75 0 0] CT
0 1 1 RC
10.0 ML
2 LW
N
146.5 296.943 M
149.833 292.5 L
146.5 288.057 L
143.167 292.5 L
cp
S
GR
GS
[0.75 0 0 0.75 0 0] CT
1 GC
N
221.5 207.943 M
224.833 203.5 L
221.5 199.057 L
218.167 203.5 L
cp
f
GR
GS
[0.75 0 0 0.75 0 0] CT
0 1 1 RC
10.0 ML
2 LW
N
221.5 207.943 M
224.833 203.5 L
221.5 199.057 L
218.167 203.5 L
cp
S
GR
GS
[0.75 0 0 0.75 0 0] CT
1 GC
N
296.5 158.943 M
299.833 154.5 L
296.5 150.057 L
293.167 154.5 L
cp
f
GR
GS
[0.75 0 0 0.75 0 0] CT
0 1 1 RC
10.0 ML
2 LW
N
296.5 158.943 M
299.833 154.5 L
296.5 150.057 L
293.167 154.5 L
cp
S
GR
GS
[0.75 0 0 0.75 0 0] CT
1 GC
N
372.5 127.943 M
375.833 123.5 L
372.5 119.057 L
369.167 123.5 L
cp
f
GR
GS
[0.75 0 0 0.75 0 0] CT
0 1 1 RC
10.0 ML
2 LW
N
372.5 127.943 M
375.833 123.5 L
372.5 119.057 L
369.167 123.5 L
cp
S
GR
GS
[0.75 0 0 0.75 0 0] CT
1 GC
N
447.5 105.943 M
450.833 101.5 L
447.5 97.057 L
444.167 101.5 L
cp
f
GR
GS
[0.75 0 0 0.75 0 0] CT
0 1 1 RC
10.0 ML
2 LW
N
447.5 105.943 M
450.833 101.5 L
447.5 97.057 L
444.167 101.5 L
cp
S
GR
GS
[0.75 0 0 0.75 0 0] CT
1 GC
N
523.5 89.943 M
526.833 85.5 L
523.5 81.057 L
520.167 85.5 L
cp
f
GR
GS
[0.75 0 0 0.75 0 0] CT
0 1 1 RC
10.0 ML
2 LW
N
523.5 89.943 M
526.833 85.5 L
523.5 81.057 L
520.167 85.5 L
cp
S
GR
GS
[0.75 0 0 0.75 0 0] CT
1 GC
N
598.5 76.943 M
601.833 72.5 L
598.5 68.057 L
595.167 72.5 L
cp
f
GR
GS
[0.75 0 0 0.75 0 0] CT
0 1 1 RC
10.0 ML
2 LW
N
598.5 76.943 M
601.833 72.5 L
598.5 68.057 L
595.167 72.5 L
cp
S
GR
GS
[0.75 0 0 0.75 0 0] CT
1 GC
N
673.5 65.943 M
676.833 61.5 L
673.5 57.057 L
670.167 61.5 L
cp
f
GR
GS
[0.75 0 0 0.75 0 0] CT
0 1 1 RC
10.0 ML
2 LW
N
673.5 65.943 M
676.833 61.5 L
673.5 57.057 L
670.167 61.5 L
cp
S
GR
GS
[0.75 0 0 0.75 0 0] CT
1 GC
N
749.5 57.943 M
752.833 53.5 L
749.5 49.057 L
746.167 53.5 L
cp
f
GR
GS
[0.75 0 0 0.75 0 0] CT
0 1 1 RC
10.0 ML
2 LW
N
749.5 57.943 M
752.833 53.5 L
749.5 49.057 L
746.167 53.5 L
cp
S
GR
GS
[0.75 0 0 0.75 0 0] CT
0 1 0 RC
1 LJ
2 LW
N
71 442 M
146.333 323.341 L
221.667 236.926 L
297 188.036 L
372.333 156.566 L
447.667 133.754 L
523 116.596 L
598.333 102.361 L
673.667 90.825 L
749 81.694 L
S
GR
GS
[0.75 0 0 0.75 0 0] CT
1 GC
N
68.9 444.1 M
68.9 438.9 L
74.1 438.9 L
74.1 444.1 L
cp
f
GR
GS
[0.75 0 0 0.75 0 0] CT
0 1 0 RC
10.0 ML
2 LW
N
68.9 444.1 M
68.9 438.9 L
74.1 438.9 L
74.1 444.1 L
cp
S
GR
GS
[0.75 0 0 0.75 0 0] CT
1 GC
N
143.9 326.1 M
143.9 320.9 L
149.1 320.9 L
149.1 326.1 L
cp
f
GR
GS
[0.75 0 0 0.75 0 0] CT
0 1 0 RC
10.0 ML
2 LW
N
143.9 326.1 M
143.9 320.9 L
149.1 320.9 L
149.1 326.1 L
cp
S
GR
GS
[0.75 0 0 0.75 0 0] CT
1 GC
N
218.9 239.1 M
218.9 233.9 L
224.1 233.9 L
224.1 239.1 L
cp
f
GR
GS
[0.75 0 0 0.75 0 0] CT
0 1 0 RC
10.0 ML
2 LW
N
218.9 239.1 M
218.9 233.9 L
224.1 233.9 L
224.1 239.1 L
cp
S
GR
GS
[0.75 0 0 0.75 0 0] CT
1 GC
N
293.9 191.1 M
293.9 185.9 L
299.1 185.9 L
299.1 191.1 L
cp
f
GR
GS
[0.75 0 0 0.75 0 0] CT
0 1 0 RC
10.0 ML
2 LW
N
293.9 191.1 M
293.9 185.9 L
299.1 185.9 L
299.1 191.1 L
cp
S
GR
GS
[0.75 0 0 0.75 0 0] CT
1 GC
N
369.9 159.1 M
369.9 153.9 L
375.1 153.9 L
375.1 159.1 L
cp
f
GR
GS
[0.75 0 0 0.75 0 0] CT
0 1 0 RC
10.0 ML
2 LW
N
369.9 159.1 M
369.9 153.9 L
375.1 153.9 L
375.1 159.1 L
cp
S
GR
GS
[0.75 0 0 0.75 0 0] CT
1 GC
N
444.9 136.1 M
444.9 130.9 L
450.1 130.9 L
450.1 136.1 L
cp
f
GR
GS
[0.75 0 0 0.75 0 0] CT
0 1 0 RC
10.0 ML
2 LW
N
444.9 136.1 M
444.9 130.9 L
450.1 130.9 L
450.1 136.1 L
cp
S
GR
GS
[0.75 0 0 0.75 0 0] CT
1 GC
N
520.9 119.1 M
520.9 113.9 L
526.1 113.9 L
526.1 119.1 L
cp
f
GR
GS
[0.75 0 0 0.75 0 0] CT
0 1 0 RC
10.0 ML
2 LW
N
520.9 119.1 M
520.9 113.9 L
526.1 113.9 L
526.1 119.1 L
cp
S
GR
GS
[0.75 0 0 0.75 0 0] CT
1 GC
N
595.9 105.1 M
595.9 99.9 L
601.1 99.9 L
601.1 105.1 L
cp
f
GR
GS
[0.75 0 0 0.75 0 0] CT
0 1 0 RC
10.0 ML
2 LW
N
595.9 105.1 M
595.9 99.9 L
601.1 99.9 L
601.1 105.1 L
cp
S
GR
GS
[0.75 0 0 0.75 0 0] CT
1 GC
N
670.9 93.1 M
670.9 87.9 L
676.1 87.9 L
676.1 93.1 L
cp
f
GR
GS
[0.75 0 0 0.75 0 0] CT
0 1 0 RC
10.0 ML
2 LW
N
670.9 93.1 M
670.9 87.9 L
676.1 87.9 L
676.1 93.1 L
cp
S
GR
GS
[0.75 0 0 0.75 0 0] CT
1 GC
N
746.9 84.1 M
746.9 78.9 L
752.1 78.9 L
752.1 84.1 L
cp
f
GR
GS
[0.75 0 0 0.75 0 0] CT
0 1 0 RC
10.0 ML
2 LW
N
746.9 84.1 M
746.9 78.9 L
752.1 78.9 L
752.1 84.1 L
cp
S
GR
GS
[0.75 0 0 0.75 0 0] CT
0 0 1 RC
1 LJ
2 LW
N
71 442 M
146.333 275.784 L
221.667 185.008 L
297 136.501 L
372.333 106.982 L
447.667 86.278 L
523 70.953 L
598.333 58.82 L
673.667 49.396 L
749 41.735 L
S
GR
GS
[0.75 0 0 0.75 0 0] CT
1 GC
N
67.057 441.5 M
73.722 437.652 L
73.722 445.348 L
cp
f
GR
GS
[0.75 0 0 0.75 0 0] CT
0 0 1 RC
10.0 ML
2 LW
N
67.057 441.5 M
73.722 437.652 L
73.722 445.348 L
cp
S
GR
GS
[0.75 0 0 0.75 0 0] CT
1 GC
N
142.057 275.5 M
148.722 271.652 L
148.722 279.348 L
cp
f
GR
GS
[0.75 0 0 0.75 0 0] CT
0 0 1 RC
10.0 ML
2 LW
N
142.057 275.5 M
148.722 271.652 L
148.722 279.348 L
cp
S
GR
GS
[0.75 0 0 0.75 0 0] CT
1 GC
N
217.057 185.5 M
223.722 181.652 L
223.722 189.348 L
cp
f
GR
GS
[0.75 0 0 0.75 0 0] CT
0 0 1 RC
10.0 ML
2 LW
N
217.057 185.5 M
223.722 181.652 L
223.722 189.348 L
cp
S
GR
GS
[0.75 0 0 0.75 0 0] CT
1 GC
N
292.057 136.5 M
298.722 132.652 L
298.722 140.348 L
cp
f
GR
GS
[0.75 0 0 0.75 0 0] CT
0 0 1 RC
10.0 ML
2 LW
N
292.057 136.5 M
298.722 132.652 L
298.722 140.348 L
cp
S
GR
GS
[0.75 0 0 0.75 0 0] CT
1 GC
N
368.057 106.5 M
374.722 102.652 L
374.722 110.348 L
cp
f
GR
GS
[0.75 0 0 0.75 0 0] CT
0 0 1 RC
10.0 ML
2 LW
N
368.057 106.5 M
374.722 102.652 L
374.722 110.348 L
cp
S
GR
GS
[0.75 0 0 0.75 0 0] CT
1 GC
N
443.057 86.5 M
449.722 82.652 L
449.722 90.348 L
cp
f
GR
GS
[0.75 0 0 0.75 0 0] CT
0 0 1 RC
10.0 ML
2 LW
N
443.057 86.5 M
449.722 82.652 L
449.722 90.348 L
cp
S
GR
GS
[0.75 0 0 0.75 0 0] CT
1 GC
N
519.057 70.5 M
525.722 66.652 L
525.722 74.348 L
cp
f
GR
GS
[0.75 0 0 0.75 0 0] CT
0 0 1 RC
10.0 ML
2 LW
N
519.057 70.5 M
525.722 66.652 L
525.722 74.348 L
cp
S
GR
GS
[0.75 0 0 0.75 0 0] CT
1 GC
N
594.057 58.5 M
600.722 54.652 L
600.722 62.348 L
cp
f
GR
GS
[0.75 0 0 0.75 0 0] CT
0 0 1 RC
10.0 ML
2 LW
N
594.057 58.5 M
600.722 54.652 L
600.722 62.348 L
cp
S
GR
GS
[0.75 0 0 0.75 0 0] CT
1 GC
N
669.057 49.5 M
675.722 45.652 L
675.722 53.348 L
cp
f
GR
GS
[0.75 0 0 0.75 0 0] CT
0 0 1 RC
10.0 ML
2 LW
N
669.057 49.5 M
675.722 45.652 L
675.722 53.348 L
cp
S
GR
GS
[0.75 0 0 0.75 0 0] CT
1 GC
N
745.057 41.5 M
751.722 37.652 L
751.722 45.348 L
cp
f
GR
GS
[0.75 0 0 0.75 0 0] CT
0 0 1 RC
10.0 ML
2 LW
N
745.057 41.5 M
751.722 37.652 L
751.722 45.348 L
cp
S
GR
GS
[0.75 0 0 0.75 0 0] CT
1 0 1 RC
1 LJ
2 LW
N
71 442 M
146.333 331.31 L
221.667 246.572 L
297 196.266 L
372.333 163.584 L
447.667 140.717 L
523 122.396 L
598.333 108.207 L
673.667 96.894 L
749 87.228 L
S
GR
GS
[0.75 0 0 0.75 0 0] CT
1 0 1 RC
1 LJ
2 LW
N
68 441.5 M
75 441.5 L
S
GR
GS
[0.75 0 0 0.75 0 0] CT
1 0 1 RC
1 LJ
2 LW
N
71.5 445 M
71.5 438 L
S
GR
GS
[0.75 0 0 0.75 0 0] CT
1 0 1 RC
1 LJ
2 LW
N
143 331.5 M
150 331.5 L
S
GR
GS
[0.75 0 0 0.75 0 0] CT
1 0 1 RC
1 LJ
2 LW
N
146.5 335 M
146.5 328 L
S
GR
GS
[0.75 0 0 0.75 0 0] CT
1 0 1 RC
1 LJ
2 LW
N
218 246.5 M
225 246.5 L
S
GR
GS
[0.75 0 0 0.75 0 0] CT
1 0 1 RC
1 LJ
2 LW
N
221.5 250 M
221.5 243 L
S
GR
GS
[0.75 0 0 0.75 0 0] CT
1 0 1 RC
1 LJ
2 LW
N
293 196.5 M
300 196.5 L
S
GR
GS
[0.75 0 0 0.75 0 0] CT
1 0 1 RC
1 LJ
2 LW
N
296.5 200 M
296.5 193 L
S
GR
GS
[0.75 0 0 0.75 0 0] CT
1 0 1 RC
1 LJ
2 LW
N
369 163.5 M
376 163.5 L
S
GR
GS
[0.75 0 0 0.75 0 0] CT
1 0 1 RC
1 LJ
2 LW
N
372.5 167 M
372.5 160 L
S
GR
GS
[0.75 0 0 0.75 0 0] CT
1 0 1 RC
1 LJ
2 LW
N
444 140.5 M
451 140.5 L
S
GR
GS
[0.75 0 0 0.75 0 0] CT
1 0 1 RC
1 LJ
2 LW
N
447.5 144 M
447.5 137 L
S
GR
GS
[0.75 0 0 0.75 0 0] CT
1 0 1 RC
1 LJ
2 LW
N
520 122.5 M
527 122.5 L
S
GR
GS
[0.75 0 0 0.75 0 0] CT
1 0 1 RC
1 LJ
2 LW
N
523.5 126 M
523.5 119 L
S
GR
GS
[0.75 0 0 0.75 0 0] CT
1 0 1 RC
1 LJ
2 LW
N
595 108.5 M
602 108.5 L
S
GR
GS
[0.75 0 0 0.75 0 0] CT
1 0 1 RC
1 LJ
2 LW
N
598.5 112 M
598.5 105 L
S
GR
GS
[0.75 0 0 0.75 0 0] CT
1 0 1 RC
1 LJ
2 LW
N
670 96.5 M
677 96.5 L
S
GR
GS
[0.75 0 0 0.75 0 0] CT
1 0 1 RC
1 LJ
2 LW
N
673.5 100 M
673.5 93 L
S
GR
GS
[0.75 0 0 0.75 0 0] CT
1 0 1 RC
1 LJ
2 LW
N
746 87.5 M
753 87.5 L
S
GR
GS
[0.75 0 0 0.75 0 0] CT
1 0 1 RC
1 LJ
2 LW
N
749.5 91 M
749.5 84 L
S
GR
GS
[0.75 0 0 0.75 0 0] CT
1 0 0 RC
1 LJ
2 LW
N
71 442 M
146.333 364.802 L
221.667 289.253 L
297 240.445 L
372.333 207.225 L
447.667 183.281 L
523 163.857 L
598.333 148.176 L
673.667 135.198 L
749 124.37 L
S
GR
GS
[0.75 0 0 0.75 0 0] CT
1 GC
N
68.9 444.1 M
68.9 438.9 L
74.1 438.9 L
74.1 444.1 L
cp
f
GR
GS
[0.75 0 0 0.75 0 0] CT
1 0 0 RC
10.0 ML
2 LW
N
68.9 444.1 M
68.9 438.9 L
74.1 438.9 L
74.1 444.1 L
cp
S
GR
GS
[0.75 0 0 0.75 0 0] CT
1 GC
N
143.9 367.1 M
143.9 361.9 L
149.1 361.9 L
149.1 367.1 L
cp
f
GR
GS
[0.75 0 0 0.75 0 0] CT
1 0 0 RC
10.0 ML
2 LW
N
143.9 367.1 M
143.9 361.9 L
149.1 361.9 L
149.1 367.1 L
cp
S
GR
GS
[0.75 0 0 0.75 0 0] CT
1 GC
N
218.9 292.1 M
218.9 286.9 L
224.1 286.9 L
224.1 292.1 L
cp
f
GR
GS
[0.75 0 0 0.75 0 0] CT
1 0 0 RC
10.0 ML
2 LW
N
218.9 292.1 M
218.9 286.9 L
224.1 286.9 L
224.1 292.1 L
cp
S
GR
GS
[0.75 0 0 0.75 0 0] CT
1 GC
N
293.9 243.1 M
293.9 237.9 L
299.1 237.9 L
299.1 243.1 L
cp
f
GR
GS
[0.75 0 0 0.75 0 0] CT
1 0 0 RC
10.0 ML
2 LW
N
293.9 243.1 M
293.9 237.9 L
299.1 237.9 L
299.1 243.1 L
cp
S
GR
GS
[0.75 0 0 0.75 0 0] CT
1 GC
N
369.9 210.1 M
369.9 204.9 L
375.1 204.9 L
375.1 210.1 L
cp
f
GR
GS
[0.75 0 0 0.75 0 0] CT
1 0 0 RC
10.0 ML
2 LW
N
369.9 210.1 M
369.9 204.9 L
375.1 204.9 L
375.1 210.1 L
cp
S
GR
GS
[0.75 0 0 0.75 0 0] CT
1 GC
N
444.9 186.1 M
444.9 180.9 L
450.1 180.9 L
450.1 186.1 L
cp
f
GR
GS
[0.75 0 0 0.75 0 0] CT
1 0 0 RC
10.0 ML
2 LW
N
444.9 186.1 M
444.9 180.9 L
450.1 180.9 L
450.1 186.1 L
cp
S
GR
GS
[0.75 0 0 0.75 0 0] CT
1 GC
N
520.9 166.1 M
520.9 160.9 L
526.1 160.9 L
526.1 166.1 L
cp
f
GR
GS
[0.75 0 0 0.75 0 0] CT
1 0 0 RC
10.0 ML
2 LW
N
520.9 166.1 M
520.9 160.9 L
526.1 160.9 L
526.1 166.1 L
cp
S
GR
GS
[0.75 0 0 0.75 0 0] CT
1 GC
N
595.9 151.1 M
595.9 145.9 L
601.1 145.9 L
601.1 151.1 L
cp
f
GR
GS
[0.75 0 0 0.75 0 0] CT
1 0 0 RC
10.0 ML
2 LW
N
595.9 151.1 M
595.9 145.9 L
601.1 145.9 L
601.1 151.1 L
cp
S
GR
GS
[0.75 0 0 0.75 0 0] CT
1 GC
N
670.9 138.1 M
670.9 132.9 L
676.1 132.9 L
676.1 138.1 L
cp
f
GR
GS
[0.75 0 0 0.75 0 0] CT
1 0 0 RC
10.0 ML
2 LW
N
670.9 138.1 M
670.9 132.9 L
676.1 132.9 L
676.1 138.1 L
cp
S
GR
GS
[0.75 0 0 0.75 0 0] CT
1 GC
N
746.9 127.1 M
746.9 121.9 L
752.1 121.9 L
752.1 127.1 L
cp
f
GR
GS
[0.75 0 0 0.75 0 0] CT
1 0 0 RC
10.0 ML
2 LW
N
746.9 127.1 M
746.9 121.9 L
752.1 121.9 L
752.1 127.1 L
cp
S
GR
GS
[0.75 0 0 0.75 0 0] CT
1 LJ
2 LW
N
71 442 M
146.333 368.346 L
221.667 292.698 L
297 244.133 L
372.333 211.54 L
447.667 185.704 L
523 165.638 L
598.333 149.692 L
673.667 136.277 L
749 125.359 L
S
GR
GS
[0.75 0 0 0.75 0 0] CT
1 GC
N
74.833 441.5 M
73.857 439.143 L
71.5 438.167 L
69.143 439.143 L
68.167 441.5 L
69.143 443.857 L
71.5 444.833 L
73.857 443.857 L
74.833 441.5 L
cp
f
GR
GS
[0.75 0 0 0.75 0 0] CT
1 LJ
2 LW
N
74.833 441.5 M
74.197 439.541 L
72.53 438.33 L
70.47 438.33 L
68.803 439.541 L
68.167 441.5 L
68.803 443.459 L
70.47 444.67 L
72.53 444.67 L
74.197 443.459 L
cp
S
GR
GS
[0.75 0 0 0.75 0 0] CT
1 GC
N
149.833 368.5 M
148.857 366.143 L
146.5 365.167 L
144.143 366.143 L
143.167 368.5 L
144.143 370.857 L
146.5 371.833 L
148.857 370.857 L
149.833 368.5 L
cp
f
GR
GS
[0.75 0 0 0.75 0 0] CT
1 LJ
2 LW
N
149.833 368.5 M
149.197 366.541 L
147.53 365.33 L
145.47 365.33 L
143.803 366.541 L
143.167 368.5 L
143.803 370.459 L
145.47 371.67 L
147.53 371.67 L
149.197 370.459 L
cp
S
GR
GS
[0.75 0 0 0.75 0 0] CT
1 GC
N
224.833 292.5 M
223.857 290.143 L
221.5 289.167 L
219.143 290.143 L
218.167 292.5 L
219.143 294.857 L
221.5 295.833 L
223.857 294.857 L
224.833 292.5 L
cp
f
GR
GS
[0.75 0 0 0.75 0 0] CT
1 LJ
2 LW
N
224.833 292.5 M
224.197 290.541 L
222.53 289.33 L
220.47 289.33 L
218.803 290.541 L
218.167 292.5 L
218.803 294.459 L
220.47 295.67 L
222.53 295.67 L
224.197 294.459 L
cp
S
GR
GS
[0.75 0 0 0.75 0 0] CT
1 GC
N
299.833 244.5 M
298.857 242.143 L
296.5 241.167 L
294.143 242.143 L
293.167 244.5 L
294.143 246.857 L
296.5 247.833 L
298.857 246.857 L
299.833 244.5 L
cp
f
GR
GS
[0.75 0 0 0.75 0 0] CT
1 LJ
2 LW
N
299.833 244.5 M
299.197 242.541 L
297.53 241.33 L
295.47 241.33 L
293.803 242.541 L
293.167 244.5 L
293.803 246.459 L
295.47 247.67 L
297.53 247.67 L
299.197 246.459 L
cp
S
GR
GS
[0.75 0 0 0.75 0 0] CT
1 GC
N
375.833 211.5 M
374.857 209.143 L
372.5 208.167 L
370.143 209.143 L
369.167 211.5 L
370.143 213.857 L
372.5 214.833 L
374.857 213.857 L
375.833 211.5 L
cp
f
GR
GS
[0.75 0 0 0.75 0 0] CT
1 LJ
2 LW
N
375.833 211.5 M
375.197 209.541 L
373.53 208.33 L
371.47 208.33 L
369.803 209.541 L
369.167 211.5 L
369.803 213.459 L
371.47 214.67 L
373.53 214.67 L
375.197 213.459 L
cp
S
GR
GS
[0.75 0 0 0.75 0 0] CT
1 GC
N
450.833 185.5 M
449.857 183.143 L
447.5 182.167 L
445.143 183.143 L
444.167 185.5 L
445.143 187.857 L
447.5 188.833 L
449.857 187.857 L
450.833 185.5 L
cp
f
GR
GS
[0.75 0 0 0.75 0 0] CT
1 LJ
2 LW
N
450.833 185.5 M
450.197 183.541 L
448.53 182.33 L
446.47 182.33 L
444.803 183.541 L
444.167 185.5 L
444.803 187.459 L
446.47 188.67 L
448.53 188.67 L
450.197 187.459 L
cp
S
GR
GS
[0.75 0 0 0.75 0 0] CT
1 GC
N
526.833 165.5 M
525.857 163.143 L
523.5 162.167 L
521.143 163.143 L
520.167 165.5 L
521.143 167.857 L
523.5 168.833 L
525.857 167.857 L
526.833 165.5 L
cp
f
GR
GS
[0.75 0 0 0.75 0 0] CT
1 LJ
2 LW
N
526.833 165.5 M
526.197 163.541 L
524.53 162.33 L
522.47 162.33 L
520.803 163.541 L
520.167 165.5 L
520.803 167.459 L
522.47 168.67 L
524.53 168.67 L
526.197 167.459 L
cp
S
GR
GS
[0.75 0 0 0.75 0 0] CT
1 GC
N
601.833 149.5 M
600.857 147.143 L
598.5 146.167 L
596.143 147.143 L
595.167 149.5 L
596.143 151.857 L
598.5 152.833 L
600.857 151.857 L
601.833 149.5 L
cp
f
GR
GS
[0.75 0 0 0.75 0 0] CT
1 LJ
2 LW
N
601.833 149.5 M
601.197 147.541 L
599.53 146.33 L
597.47 146.33 L
595.803 147.541 L
595.167 149.5 L
595.803 151.459 L
597.47 152.67 L
599.53 152.67 L
601.197 151.459 L
cp
S
GR
GS
[0.75 0 0 0.75 0 0] CT
1 GC
N
676.833 136.5 M
675.857 134.143 L
673.5 133.167 L
671.143 134.143 L
670.167 136.5 L
671.143 138.857 L
673.5 139.833 L
675.857 138.857 L
676.833 136.5 L
cp
f
GR
GS
[0.75 0 0 0.75 0 0] CT
1 LJ
2 LW
N
676.833 136.5 M
676.197 134.541 L
674.53 133.33 L
672.47 133.33 L
670.803 134.541 L
670.167 136.5 L
670.803 138.459 L
672.47 139.67 L
674.53 139.67 L
676.197 138.459 L
cp
S
GR
GS
[0.75 0 0 0.75 0 0] CT
1 GC
N
752.833 125.5 M
751.857 123.143 L
749.5 122.167 L
747.143 123.143 L
746.167 125.5 L
747.143 127.857 L
749.5 128.833 L
751.857 127.857 L
752.833 125.5 L
cp
f
GR
GS
[0.75 0 0 0.75 0 0] CT
1 LJ
2 LW
N
752.833 125.5 M
752.197 123.541 L
750.53 122.33 L
748.47 122.33 L
746.803 123.541 L
746.167 125.5 L
746.803 127.459 L
748.47 128.67 L
750.53 128.67 L
752.197 127.459 L
cp
S
GR
GS
[0.75 0 0 0.75 0 0] CT
1 GC
N
643 429 M
643 214 L
736 214 L
736 429 L
cp
f
GR
GS
[0.75 0 0 0.75 510 170.625] CT
/Times 18.667 F
GS
[1 0 0 1 0 0] CT
0 6.5 moveto 
1 -1 scale
(LBP) t 
GR
GR
GS
[0.75 0 0 0.75 0 0] CT
1 0.6 0.784 RC
1 LJ
2 LW
N
647 227.5 M
677 227.5 L
S
GR
GS
[0.75 0 0 0.75 0 0] CT
1 GC
N
659.278 223.652 M
665.943 227.5 L
659.278 231.348 L
cp
f
GR
GS
[0.75 0 0 0.75 0 0] CT
1 0.6 0.784 RC
10.0 ML
2 LW
N
659.278 223.652 M
665.943 227.5 L
659.278 231.348 L
cp
S
GR
GS
[0.75 0 0 0.75 510 188.25] CT
/Times 18.667 F
GS
[1 0 0 1 0 0] CT
0 6.5 moveto 
1 -1 scale
(LTP) t 
GR
GR
GS
[0.75 0 0 0.75 0 0] CT
0.6 0.2 0 RC
1 LJ
2 LW
N
647 251 M
677 251 L
S
GR
GS
[0.75 0 0 0.75 0 0] CT
1 GC
N
657.057 251.5 M
663.722 247.652 L
663.722 255.348 L
cp
f
GR
GS
[0.75 0 0 0.75 0 0] CT
0.6 0.2 0 RC
10.0 ML
2 LW
N
657.057 251.5 M
663.722 247.652 L
663.722 255.348 L
cp
S
GR
GS
[0.75 0 0 0.75 510 205.875] CT
/Times 18.667 F
GS
[1 0 0 1 0 0] CT
0 6.5 moveto 
1 -1 scale
(LDP) t 
GR
GR
GS
[0.75 0 0 0.75 0 0] CT
0.929 0.694 0.125 RC
1 LJ
2 LW
N
647 274.5 M
677 274.5 L
S
GR
GS
[0.75 0 0 0.75 0 0] CT
1 GC
N
658.33 273.47 M
660.716 273.47 L
661.5 271.167 L
662.284 273.47 L
664.67 273.47 L
662.768 274.912 L
663.459 277.197 L
661.5 275.833 L
659.541 277.197 L
660.232 274.912 L
658.33 273.47 L
cp
f
GR
GS
[0.75 0 0 0.75 0 0] CT
0.929 0.694 0.125 RC
10.0 ML
2 LW
N
658.33 273.47 M
660.716 273.47 L
661.5 271.167 L
662.284 273.47 L
664.67 273.47 L
662.768 274.912 L
663.459 277.197 L
661.5 275.833 L
659.541 277.197 L
660.232 274.912 L
cp
S
GR
GS
[0.75 0 0 0.75 510 223.5] CT
/Times 18.667 F
GS
[1 0 0 1 0 0] CT
0 6.5 moveto 
1 -1 scale
(LDN) t 
GR
GR
GS
[0.75 0 0 0.75 0 0] CT
0 1 1 RC
1 LJ
2 LW
N
647 298 M
677 298 L
S
GR
GS
[0.75 0 0 0.75 0 0] CT
1 GC
N
661.5 301.943 M
664.833 297.5 L
661.5 293.057 L
658.167 297.5 L
cp
f
GR
GS
[0.75 0 0 0.75 0 0] CT
0 1 1 RC
10.0 ML
2 LW
N
661.5 301.943 M
664.833 297.5 L
661.5 293.057 L
658.167 297.5 L
cp
S
GR
GS
[0.75 0 0 0.75 510 241.125] CT
/Times 18.667 F
GS
[1 0 0 1 0 0] CT
0 6.5 moveto 
1 -1 scale
(LVP) t 
GR
GR
GS
[0.75 0 0 0.75 0 0] CT
0 1 0 RC
1 LJ
2 LW
N
647 321.5 M
677 321.5 L
S
GR
GS
[0.75 0 0 0.75 0 0] CT
1 GC
N
658.9 324.1 M
658.9 318.9 L
664.1 318.9 L
664.1 324.1 L
cp
f
GR
GS
[0.75 0 0 0.75 0 0] CT
0 1 0 RC
10.0 ML
2 LW
N
658.9 324.1 M
658.9 318.9 L
664.1 318.9 L
664.1 324.1 L
cp
S
GR
GS
[0.75 0 0 0.75 510 258.75] CT
/Times 18.667 F
GS
[1 0 0 1 0 0] CT
0 6.5 moveto 
1 -1 scale
(LDGP) t 
GR
GR
GS
[0.75 0 0 0.75 0 0] CT
0 0 1 RC
1 LJ
2 LW
N
647 345 M
677 345 L
S
GR
GS
[0.75 0 0 0.75 0 0] CT
1 GC
N
657.057 344.5 M
663.722 340.652 L
663.722 348.348 L
cp
f
GR
GS
[0.75 0 0 0.75 0 0] CT
0 0 1 RC
10.0 ML
2 LW
N
657.057 344.5 M
663.722 340.652 L
663.722 348.348 L
cp
S
GR
GS
[0.75 0 0 0.75 510 276.375] CT
/Times 18.667 F
GS
[1 0 0 1 0 0] CT
0 6.5 moveto 
1 -1 scale
(DCP) t 
GR
GR
GS
[0.75 0 0 0.75 0 0] CT
1 0 1 RC
1 LJ
2 LW
N
647 368.5 M
677 368.5 L
S
GR
GS
[0.75 0 0 0.75 0 0] CT
1 0 1 RC
1 LJ
2 LW
N
658 368.5 M
665 368.5 L
S
GR
GS
[0.75 0 0 0.75 0 0] CT
1 0 1 RC
1 LJ
2 LW
N
661.5 372 M
661.5 365 L
S
GR
GS
[0.75 0 0 0.75 510 294] CT
/Times 18.667 F
GS
[1 0 0 1 0 0] CT
0 6.5 moveto 
1 -1 scale
(LGHP) t 
GR
GR
GS
[0.75 0 0 0.75 0 0] CT
1 0 0 RC
1 LJ
2 LW
N
647 392 M
677 392 L
S
GR
GS
[0.75 0 0 0.75 0 0] CT
1 GC
N
658.9 395.1 M
658.9 389.9 L
664.1 389.9 L
664.1 395.1 L
cp
f
GR
GS
[0.75 0 0 0.75 0 0] CT
1 0 0 RC
10.0 ML
2 LW
N
658.9 395.1 M
658.9 389.9 L
664.1 389.9 L
664.1 395.1 L
cp
S
GR
GS
[0.75 0 0 0.75 510 311.625] CT
/Times 18.667 F
GS
[1 0 0 1 0 0] CT
0 6.5 moveto 
1 -1 scale
(LDRP) t 
GR
GR
GS
[0.75 0 0 0.75 0 0] CT
1 LJ
2 LW
N
647 415.5 M
677 415.5 L
S
GR
GS
[0.75 0 0 0.75 0 0] CT
1 GC
N
664.833 415.5 M
663.857 413.143 L
661.5 412.167 L
659.143 413.143 L
658.167 415.5 L
659.143 417.857 L
661.5 418.833 L
663.857 417.857 L
664.833 415.5 L
cp
f
GR
GS
[0.75 0 0 0.75 0 0] CT
1 LJ
2 LW
N
664.833 415.5 M
664.197 413.541 L
662.53 412.33 L
660.47 412.33 L
658.803 413.541 L
658.167 415.5 L
658.803 417.459 L
660.47 418.67 L
662.53 418.67 L
664.197 417.459 L
cp
S
GR
GS
[0.75 0 0 0.75 0 0] CT
0.149 GC
10.0 ML
0.667 LW
N
643 429 M
643 214 L
736 214 L
736 429 L
cp
S
GR
%%Trailer
%%Pages: 1
%%EOF
