%!PS-Adobe-3.0 EPSF-3.0
%%Creator: (MATLAB, The Mathworks, Inc. Version 9.0.0.341360 \(R2016a\). Operating System: Linux)
%%Title: (/home/shivram/main/Work/1. Research/1. Ongoing/5. LDRP Face/2. Exp/1. Results/PubFigDev/pubfig-arp.eps)
%%CreationDate: 2017-08-16T15:34:59
%%Pages: (atend)
%%BoundingBox: 0 0 573 384
%%LanguageLevel: 3
%%EndComments
%%BeginProlog
%%BeginResource: procset (Apache XML Graphics Std ProcSet) 1.2 0
%%Version: 1.2 0
%%Copyright: (Copyright 2001-2003,2010 The Apache Software Foundation. License terms: http://www.apache.org/licenses/LICENSE-2.0)
/bd{bind def}bind def
/ld{load def}bd
/GR/grestore ld
/M/moveto ld
/LJ/setlinejoin ld
/C/curveto ld
/f/fill ld
/LW/setlinewidth ld
/GC/setgray ld
/t/show ld
/N/newpath ld
/CT/concat ld
/cp/closepath ld
/S/stroke ld
/L/lineto ld
/CC/setcmykcolor ld
/A/ashow ld
/GS/gsave ld
/RC/setrgbcolor ld
/RM/rmoveto ld
/ML/setmiterlimit ld
/re {4 2 roll M
1 index 0 rlineto
0 exch rlineto
neg 0 rlineto
cp } bd
/_ctm matrix def
/_tm matrix def
/BT { _ctm currentmatrix pop matrix _tm copy pop 0 0 moveto } bd
/ET { _ctm setmatrix } bd
/iTm { _ctm setmatrix _tm concat } bd
/Tm { _tm astore pop iTm 0 0 moveto } bd
/ux 0.0 def
/uy 0.0 def
/F {
  /Tp exch def
  /Tf exch def
  Tf findfont Tp scalefont setfont
  /cf Tf def  /cs Tp def
} bd
/ULS {currentpoint /uy exch def /ux exch def} bd
/ULE {
  /Tcx currentpoint pop def
  gsave
  newpath
  cf findfont cs scalefont dup
  /FontMatrix get 0 get /Ts exch def /FontInfo get dup
  /UnderlinePosition get Ts mul /To exch def
  /UnderlineThickness get Ts mul /Tt exch def
  ux uy To add moveto  Tcx uy To add lineto
  Tt setlinewidth stroke
  grestore
} bd
/OLE {
  /Tcx currentpoint pop def
  gsave
  newpath
  cf findfont cs scalefont dup
  /FontMatrix get 0 get /Ts exch def /FontInfo get dup
  /UnderlinePosition get Ts mul /To exch def
  /UnderlineThickness get Ts mul /Tt exch def
  ux uy To add cs add moveto Tcx uy To add cs add lineto
  Tt setlinewidth stroke
  grestore
} bd
/SOE {
  /Tcx currentpoint pop def
  gsave
  newpath
  cf findfont cs scalefont dup
  /FontMatrix get 0 get /Ts exch def /FontInfo get dup
  /UnderlinePosition get Ts mul /To exch def
  /UnderlineThickness get Ts mul /Tt exch def
  ux uy To add cs 10 mul 26 idiv add moveto Tcx uy To add cs 10 mul 26 idiv add lineto
  Tt setlinewidth stroke
  grestore
} bd
/QT {
/Y22 exch store
/X22 exch store
/Y21 exch store
/X21 exch store
currentpoint
/Y21 load 2 mul add 3 div exch
/X21 load 2 mul add 3 div exch
/X21 load 2 mul /X22 load add 3 div
/Y21 load 2 mul /Y22 load add 3 div
/X22 load /Y22 load curveto
} bd
/SSPD {
dup length /d exch dict def
{
/v exch def
/k exch def
currentpagedevice k known {
/cpdv currentpagedevice k get def
v cpdv ne {
/upd false def
/nullv v type /nulltype eq def
/nullcpdv cpdv type /nulltype eq def
nullv nullcpdv or
{
/upd true def
} {
/sametype v type cpdv type eq def
sametype {
v type /arraytype eq {
/vlen v length def
/cpdvlen cpdv length def
vlen cpdvlen eq {
0 1 vlen 1 sub {
/i exch def
/obj v i get def
/cpdobj cpdv i get def
obj cpdobj ne {
/upd true def
exit
} if
} for
} {
/upd true def
} ifelse
} {
v type /dicttype eq {
v {
/dv exch def
/dk exch def
/cpddv cpdv dk get def
dv cpddv ne {
/upd true def
exit
} if
} forall
} {
/upd true def
} ifelse
} ifelse
} if
} ifelse
upd true eq {
d k v put
} if
} if
} if
} forall
d length 0 gt {
d setpagedevice
} if
} bd
%%EndResource
%%BeginResource: procset (Apache XML Graphics EPS ProcSet) 1.0 0
%%Version: 1.0 0
%%Copyright: (Copyright 2002-2003 The Apache Software Foundation. License terms: http://www.apache.org/licenses/LICENSE-2.0)
/BeginEPSF { %def
/b4_Inc_state save def         % Save state for cleanup
/dict_count countdictstack def % Count objects on dict stack
/op_count count 1 sub def      % Count objects on operand stack
userdict begin                 % Push userdict on dict stack
/showpage { } def              % Redefine showpage, { } = null proc
0 setgray 0 setlinecap         % Prepare graphics state
1 setlinewidth 0 setlinejoin
10 setmiterlimit [ ] 0 setdash newpath
/languagelevel where           % If level not equal to 1 then
{pop languagelevel             % set strokeadjust and
1 ne                           % overprint to their defaults.
{false setstrokeadjust false setoverprint
} if
} if
} bd
/EndEPSF { %def
count op_count sub {pop} repeat            % Clean up stacks
countdictstack dict_count sub {end} repeat
b4_Inc_state restore
} bd
%%EndResource
%FOPBeginFontDict
%%IncludeResource: font Courier-Bold
%%IncludeResource: font Helvetica
%%IncludeResource: font Courier-BoldOblique
%%IncludeResource: font Courier-Oblique
%%IncludeResource: font Times-Roman
%%IncludeResource: font Helvetica-BoldOblique
%%IncludeResource: font Helvetica-Bold
%%IncludeResource: font Helvetica-Oblique
%%IncludeResource: font Times-BoldItalic
%%IncludeResource: font Courier
%%IncludeResource: font Times-Italic
%%IncludeResource: font Times-Bold
%%IncludeResource: font Symbol
%%IncludeResource: font ZapfDingbats
%FOPEndFontDict
%%BeginResource: encoding WinAnsiEncoding
/WinAnsiEncoding [
/.notdef /.notdef /.notdef /.notdef /.notdef
/.notdef /.notdef /.notdef /.notdef /.notdef
/.notdef /.notdef /.notdef /.notdef /.notdef
/.notdef /.notdef /.notdef /.notdef /.notdef
/.notdef /.notdef /.notdef /.notdef /.notdef
/.notdef /.notdef /.notdef /.notdef /.notdef
/.notdef /.notdef /space /exclam /quotedbl
/numbersign /dollar /percent /ampersand /quotesingle
/parenleft /parenright /asterisk /plus /comma
/hyphen /period /slash /zero /one
/two /three /four /five /six
/seven /eight /nine /colon /semicolon
/less /equal /greater /question /at
/A /B /C /D /E
/F /G /H /I /J
/K /L /M /N /O
/P /Q /R /S /T
/U /V /W /X /Y
/Z /bracketleft /backslash /bracketright /asciicircum
/underscore /quoteleft /a /b /c
/d /e /f /g /h
/i /j /k /l /m
/n /o /p /q /r
/s /t /u /v /w
/x /y /z /braceleft /bar
/braceright /asciitilde /bullet /Euro /bullet
/quotesinglbase /florin /quotedblbase /ellipsis /dagger
/daggerdbl /circumflex /perthousand /Scaron /guilsinglleft
/OE /bullet /Zcaron /bullet /bullet
/quoteleft /quoteright /quotedblleft /quotedblright /bullet
/endash /emdash /asciitilde /trademark /scaron
/guilsinglright /oe /bullet /zcaron /Ydieresis
/space /exclamdown /cent /sterling /currency
/yen /brokenbar /section /dieresis /copyright
/ordfeminine /guillemotleft /logicalnot /sfthyphen /registered
/macron /degree /plusminus /twosuperior /threesuperior
/acute /mu /paragraph /middot /cedilla
/onesuperior /ordmasculine /guillemotright /onequarter /onehalf
/threequarters /questiondown /Agrave /Aacute /Acircumflex
/Atilde /Adieresis /Aring /AE /Ccedilla
/Egrave /Eacute /Ecircumflex /Edieresis /Igrave
/Iacute /Icircumflex /Idieresis /Eth /Ntilde
/Ograve /Oacute /Ocircumflex /Otilde /Odieresis
/multiply /Oslash /Ugrave /Uacute /Ucircumflex
/Udieresis /Yacute /Thorn /germandbls /agrave
/aacute /acircumflex /atilde /adieresis /aring
/ae /ccedilla /egrave /eacute /ecircumflex
/edieresis /igrave /iacute /icircumflex /idieresis
/eth /ntilde /ograve /oacute /ocircumflex
/otilde /odieresis /divide /oslash /ugrave
/uacute /ucircumflex /udieresis /yacute /thorn
/ydieresis
] def
%%EndResource
%FOPBeginFontReencode
/Courier-Bold findfont
dup length dict begin
  {1 index /FID ne {def} {pop pop} ifelse} forall
  /Encoding WinAnsiEncoding def
  currentdict
end
/Courier-Bold exch definefont pop
/Helvetica findfont
dup length dict begin
  {1 index /FID ne {def} {pop pop} ifelse} forall
  /Encoding WinAnsiEncoding def
  currentdict
end
/Helvetica exch definefont pop
/Courier-BoldOblique findfont
dup length dict begin
  {1 index /FID ne {def} {pop pop} ifelse} forall
  /Encoding WinAnsiEncoding def
  currentdict
end
/Courier-BoldOblique exch definefont pop
/Courier-Oblique findfont
dup length dict begin
  {1 index /FID ne {def} {pop pop} ifelse} forall
  /Encoding WinAnsiEncoding def
  currentdict
end
/Courier-Oblique exch definefont pop
/Times-Roman findfont
dup length dict begin
  {1 index /FID ne {def} {pop pop} ifelse} forall
  /Encoding WinAnsiEncoding def
  currentdict
end
/Times-Roman exch definefont pop
/Helvetica-BoldOblique findfont
dup length dict begin
  {1 index /FID ne {def} {pop pop} ifelse} forall
  /Encoding WinAnsiEncoding def
  currentdict
end
/Helvetica-BoldOblique exch definefont pop
/Helvetica-Bold findfont
dup length dict begin
  {1 index /FID ne {def} {pop pop} ifelse} forall
  /Encoding WinAnsiEncoding def
  currentdict
end
/Helvetica-Bold exch definefont pop
/Helvetica-Oblique findfont
dup length dict begin
  {1 index /FID ne {def} {pop pop} ifelse} forall
  /Encoding WinAnsiEncoding def
  currentdict
end
/Helvetica-Oblique exch definefont pop
/Times-BoldItalic findfont
dup length dict begin
  {1 index /FID ne {def} {pop pop} ifelse} forall
  /Encoding WinAnsiEncoding def
  currentdict
end
/Times-BoldItalic exch definefont pop
/Courier findfont
dup length dict begin
  {1 index /FID ne {def} {pop pop} ifelse} forall
  /Encoding WinAnsiEncoding def
  currentdict
end
/Courier exch definefont pop
/Times-Italic findfont
dup length dict begin
  {1 index /FID ne {def} {pop pop} ifelse} forall
  /Encoding WinAnsiEncoding def
  currentdict
end
/Times-Italic exch definefont pop
/Times-Bold findfont
dup length dict begin
  {1 index /FID ne {def} {pop pop} ifelse} forall
  /Encoding WinAnsiEncoding def
  currentdict
end
/Times-Bold exch definefont pop
%FOPEndFontReencode
%%EndProlog
%%Page: 1 1
%%PageBoundingBox: 0 0 573 384
%%BeginPageSetup
[1 0 0 -1 0 384] CT
%%EndPageSetup
GS
[0.75 0 0 0.75 0 0] CT
1 GC
N
0 0 764 512 re
f
GR
GS
[0.75 0 0 0.75 0 0] CT
1 GC
N
0 0 764 512 re
f
GR
GS
[0.75 0 0 0.75 0 0] CT
1 GC
N
84 442 M
748 442 L
748 39 L
84 39 L
cp
f
GR
GS
[0.75 0 0 0.75 0 0] CT
0.149 GC
2 setlinecap
1 LJ
0.667 LW
N
84 442 M
748 442 L
S
GR
GS
[0.75 0 0 0.75 0 0] CT
0.149 GC
2 setlinecap
1 LJ
0.667 LW
N
84 39 M
748 39 L
S
GR
GS
[0.75 0 0 0.75 0 0] CT
0.149 GC
2 setlinecap
1 LJ
0.667 LW
N
84 442 M
84 435.36 L
S
GR
GS
[0.75 0 0 0.75 0 0] CT
0.149 GC
2 setlinecap
1 LJ
0.667 LW
N
157.778 442 M
157.778 435.36 L
S
GR
GS
[0.75 0 0 0.75 0 0] CT
0.149 GC
2 setlinecap
1 LJ
0.667 LW
N
231.556 442 M
231.556 435.36 L
S
GR
GS
[0.75 0 0 0.75 0 0] CT
0.149 GC
2 setlinecap
1 LJ
0.667 LW
N
305.333 442 M
305.333 435.36 L
S
GR
GS
[0.75 0 0 0.75 0 0] CT
0.149 GC
2 setlinecap
1 LJ
0.667 LW
N
379.111 442 M
379.111 435.36 L
S
GR
GS
[0.75 0 0 0.75 0 0] CT
0.149 GC
2 setlinecap
1 LJ
0.667 LW
N
452.889 442 M
452.889 435.36 L
S
GR
GS
[0.75 0 0 0.75 0 0] CT
0.149 GC
2 setlinecap
1 LJ
0.667 LW
N
526.667 442 M
526.667 435.36 L
S
GR
GS
[0.75 0 0 0.75 0 0] CT
0.149 GC
2 setlinecap
1 LJ
0.667 LW
N
600.444 442 M
600.444 435.36 L
S
GR
GS
[0.75 0 0 0.75 0 0] CT
0.149 GC
2 setlinecap
1 LJ
0.667 LW
N
674.222 442 M
674.222 435.36 L
S
GR
GS
[0.75 0 0 0.75 0 0] CT
0.149 GC
2 setlinecap
1 LJ
0.667 LW
N
748 442 M
748 435.36 L
S
GR
GS
[0.75 0 0 0.75 0 0] CT
0.149 GC
2 setlinecap
1 LJ
0.667 LW
N
84 39 M
84 45.64 L
S
GR
GS
[0.75 0 0 0.75 0 0] CT
0.149 GC
2 setlinecap
1 LJ
0.667 LW
N
157.778 39 M
157.778 45.64 L
S
GR
GS
[0.75 0 0 0.75 0 0] CT
0.149 GC
2 setlinecap
1 LJ
0.667 LW
N
231.556 39 M
231.556 45.64 L
S
GR
GS
[0.75 0 0 0.75 0 0] CT
0.149 GC
2 setlinecap
1 LJ
0.667 LW
N
305.333 39 M
305.333 45.64 L
S
GR
GS
[0.75 0 0 0.75 0 0] CT
0.149 GC
2 setlinecap
1 LJ
0.667 LW
N
379.111 39 M
379.111 45.64 L
S
GR
GS
[0.75 0 0 0.75 0 0] CT
0.149 GC
2 setlinecap
1 LJ
0.667 LW
N
452.889 39 M
452.889 45.64 L
S
GR
GS
[0.75 0 0 0.75 0 0] CT
0.149 GC
2 setlinecap
1 LJ
0.667 LW
N
526.667 39 M
526.667 45.64 L
S
GR
GS
[0.75 0 0 0.75 0 0] CT
0.149 GC
2 setlinecap
1 LJ
0.667 LW
N
600.444 39 M
600.444 45.64 L
S
GR
GS
[0.75 0 0 0.75 0 0] CT
0.149 GC
2 setlinecap
1 LJ
0.667 LW
N
674.222 39 M
674.222 45.64 L
S
GR
GS
[0.75 0 0 0.75 0 0] CT
0.149 GC
2 setlinecap
1 LJ
0.667 LW
N
748 39 M
748 45.64 L
S
GR
GS
[0.75 0 0 0.75 63 337.10001] CT
0.149 GC
/Times 24 F
GS
[1 0 0 1 0 0] CT
-8 23 moveto 
1 -1 scale
(1) t 
GR
GR
GS
[0.75 0 0 0.75 118.33333 337.10001] CT
0.149 GC
/Times 24 F
GS
[1 0 0 1 0 0] CT
-8 23 moveto 
1 -1 scale
(2) t 
GR
GR
GS
[0.75 0 0 0.75 173.66667 337.10001] CT
0.149 GC
/Times 24 F
GS
[1 0 0 1 0 0] CT
-8 23 moveto 
1 -1 scale
(3) t 
GR
GR
GS
[0.75 0 0 0.75 229.00001 337.10001] CT
0.149 GC
/Times 24 F
GS
[1 0 0 1 0 0] CT
-8 23 moveto 
1 -1 scale
(4) t 
GR
GR
GS
[0.75 0 0 0.75 284.33334 337.10001] CT
0.149 GC
/Times 24 F
GS
[1 0 0 1 0 0] CT
-8 23 moveto 
1 -1 scale
(5) t 
GR
GR
GS
[0.75 0 0 0.75 339.66666 337.10001] CT
0.149 GC
/Times 24 F
GS
[1 0 0 1 0 0] CT
-8 23 moveto 
1 -1 scale
(6) t 
GR
GR
GS
[0.75 0 0 0.75 395.00002 337.10001] CT
0.149 GC
/Times 24 F
GS
[1 0 0 1 0 0] CT
-8 23 moveto 
1 -1 scale
(7) t 
GR
GR
GS
[0.75 0 0 0.75 450.33334 337.10001] CT
0.149 GC
/Times 24 F
GS
[1 0 0 1 0 0] CT
-8 23 moveto 
1 -1 scale
(8) t 
GR
GR
GS
[0.75 0 0 0.75 505.66667 337.10001] CT
0.149 GC
/Times 24 F
GS
[1 0 0 1 0 0] CT
-8 23 moveto 
1 -1 scale
(9) t 
GR
GR
GS
[0.75 0 0 0.75 561 337.10001] CT
0.149 GC
/Times 24 F
GS
[1 0 0 1 0 0] CT
-15.5 23 moveto 
1 -1 scale
(10) t 
GR
GR
GS
[0.75 0 0 0.75 312.00023 359.84999] CT
0.149 GC
/Times 26.4 F
GS
[1 0 0 1 0 0] CT
-156 25 moveto 
1 -1 scale
(Number of Top Matches) t 
GR
GR
GS
[0.75 0 0 0.75 0 0] CT
0.149 GC
2 setlinecap
1 LJ
0.667 LW
N
84 442 M
84 39 L
S
GR
GS
[0.75 0 0 0.75 0 0] CT
0.149 GC
2 setlinecap
1 LJ
0.667 LW
N
748 442 M
748 39 L
S
GR
GS
[0.75 0 0 0.75 0 0] CT
0.149 GC
2 setlinecap
1 LJ
0.667 LW
N
84 422.81 M
90.64 422.81 L
S
GR
GS
[0.75 0 0 0.75 0 0] CT
0.149 GC
2 setlinecap
1 LJ
0.667 LW
N
84 326.857 M
90.64 326.857 L
S
GR
GS
[0.75 0 0 0.75 0 0] CT
0.149 GC
2 setlinecap
1 LJ
0.667 LW
N
84 230.905 M
90.64 230.905 L
S
GR
GS
[0.75 0 0 0.75 0 0] CT
0.149 GC
2 setlinecap
1 LJ
0.667 LW
N
84 134.952 M
90.64 134.952 L
S
GR
GS
[0.75 0 0 0.75 0 0] CT
0.149 GC
2 setlinecap
1 LJ
0.667 LW
N
84 39 M
90.64 39 L
S
GR
GS
[0.75 0 0 0.75 0 0] CT
0.149 GC
2 setlinecap
1 LJ
0.667 LW
N
748 422.81 M
741.36 422.81 L
S
GR
GS
[0.75 0 0 0.75 0 0] CT
0.149 GC
2 setlinecap
1 LJ
0.667 LW
N
748 326.857 M
741.36 326.857 L
S
GR
GS
[0.75 0 0 0.75 0 0] CT
0.149 GC
2 setlinecap
1 LJ
0.667 LW
N
748 230.905 M
741.36 230.905 L
S
GR
GS
[0.75 0 0 0.75 0 0] CT
0.149 GC
2 setlinecap
1 LJ
0.667 LW
N
748 134.952 M
741.36 134.952 L
S
GR
GS
[0.75 0 0 0.75 0 0] CT
0.149 GC
2 setlinecap
1 LJ
0.667 LW
N
748 39 M
741.36 39 L
S
GR
GS
[0.75 0 0 0.75 57.4 317.10713] CT
0.149 GC
/Times 24 F
GS
[1 0 0 1 0 0] CT
-31 8.5 moveto 
1 -1 scale
(20) t 
GR
GR
GS
[0.75 0 0 0.75 57.4 245.14286] CT
0.149 GC
/Times 24 F
GS
[1 0 0 1 0 0] CT
-31 8.5 moveto 
1 -1 scale
(40) t 
GR
GR
GS
[0.75 0 0 0.75 57.4 173.17857] CT
0.149 GC
/Times 24 F
GS
[1 0 0 1 0 0] CT
-31 8.5 moveto 
1 -1 scale
(60) t 
GR
GR
GS
[0.75 0 0 0.75 57.4 101.21428] CT
0.149 GC
/Times 24 F
GS
[1 0 0 1 0 0] CT
-31 8.5 moveto 
1 -1 scale
(80) t 
GR
GR
GS
[0.75 0 0 0.75 57.4 29.25] CT
0.149 GC
/Times 24 F
GS
[1 0 0 1 0 0] CT
-46 8.5 moveto 
1 -1 scale
(100) t 
GR
GR
GS
[0 -0.75 0.75 0 19.9 180.37486] CT
0.149 GC
/Times 26.4 F
GS
[1 0 0 1 0 0] CT
-52.5 -7 moveto 
1 -1 scale
(ARP \(%\)) t 
GR
GR
GS
[0.75 0 0 0.75 312.0003 25.5375] CT
/Times-Bold 26.4 F
GS
[1 0 0 1 0 0] CT
-124.5 -7 moveto 
1 -1 scale
(PubFig Database) t 
GR
GR
GS
[0.75 0 0 0.75 0 0] CT
1 0.6 0.784 RC
1 LJ
2 LW
N
84 39 M
157.778 213.906 L
231.556 288.56 L
305.333 329.525 L
379.111 355.72 L
452.889 373.767 L
526.667 387.537 L
600.444 398.022 L
674.222 406.861 L
748 413.878 L
S
GR
GS
[0.75 0 0 0.75 0 0] CT
1 GC
N
82.278 34.652 M
88.943 38.5 L
82.278 42.348 L
cp
f
GR
GS
[0.75 0 0 0.75 0 0] CT
1 0.6 0.784 RC
10.0 ML
2 LW
N
82.278 34.652 M
88.943 38.5 L
82.278 42.348 L
cp
S
GR
GS
[0.75 0 0 0.75 0 0] CT
1 GC
N
155.278 209.652 M
161.943 213.5 L
155.278 217.348 L
cp
f
GR
GS
[0.75 0 0 0.75 0 0] CT
1 0.6 0.784 RC
10.0 ML
2 LW
N
155.278 209.652 M
161.943 213.5 L
155.278 217.348 L
cp
S
GR
GS
[0.75 0 0 0.75 0 0] CT
1 GC
N
229.278 284.652 M
235.943 288.5 L
229.278 292.348 L
cp
f
GR
GS
[0.75 0 0 0.75 0 0] CT
1 0.6 0.784 RC
10.0 ML
2 LW
N
229.278 284.652 M
235.943 288.5 L
229.278 292.348 L
cp
S
GR
GS
[0.75 0 0 0.75 0 0] CT
1 GC
N
303.278 325.652 M
309.943 329.5 L
303.278 333.348 L
cp
f
GR
GS
[0.75 0 0 0.75 0 0] CT
1 0.6 0.784 RC
10.0 ML
2 LW
N
303.278 325.652 M
309.943 329.5 L
303.278 333.348 L
cp
S
GR
GS
[0.75 0 0 0.75 0 0] CT
1 GC
N
377.278 351.652 M
383.943 355.5 L
377.278 359.348 L
cp
f
GR
GS
[0.75 0 0 0.75 0 0] CT
1 0.6 0.784 RC
10.0 ML
2 LW
N
377.278 351.652 M
383.943 355.5 L
377.278 359.348 L
cp
S
GR
GS
[0.75 0 0 0.75 0 0] CT
1 GC
N
450.278 369.652 M
456.943 373.5 L
450.278 377.348 L
cp
f
GR
GS
[0.75 0 0 0.75 0 0] CT
1 0.6 0.784 RC
10.0 ML
2 LW
N
450.278 369.652 M
456.943 373.5 L
450.278 377.348 L
cp
S
GR
GS
[0.75 0 0 0.75 0 0] CT
1 GC
N
524.278 383.652 M
530.943 387.5 L
524.278 391.348 L
cp
f
GR
GS
[0.75 0 0 0.75 0 0] CT
1 0.6 0.784 RC
10.0 ML
2 LW
N
524.278 383.652 M
530.943 387.5 L
524.278 391.348 L
cp
S
GR
GS
[0.75 0 0 0.75 0 0] CT
1 GC
N
598.278 394.652 M
604.943 398.5 L
598.278 402.348 L
cp
f
GR
GS
[0.75 0 0 0.75 0 0] CT
1 0.6 0.784 RC
10.0 ML
2 LW
N
598.278 394.652 M
604.943 398.5 L
598.278 402.348 L
cp
S
GR
GS
[0.75 0 0 0.75 0 0] CT
1 GC
N
672.278 402.652 M
678.943 406.5 L
672.278 410.348 L
cp
f
GR
GS
[0.75 0 0 0.75 0 0] CT
1 0.6 0.784 RC
10.0 ML
2 LW
N
672.278 402.652 M
678.943 406.5 L
672.278 410.348 L
cp
S
GR
GS
[0.75 0 0 0.75 0 0] CT
1 GC
N
746.278 409.652 M
752.943 413.5 L
746.278 417.348 L
cp
f
GR
GS
[0.75 0 0 0.75 0 0] CT
1 0.6 0.784 RC
10.0 ML
2 LW
N
746.278 409.652 M
752.943 413.5 L
746.278 417.348 L
cp
S
GR
GS
[0.75 0 0 0.75 0 0] CT
0.6 0.2 0 RC
1 LJ
2 LW
N
84 39 M
157.778 213.475 L
231.556 286.69 L
305.333 328.321 L
379.111 354.967 L
452.889 373.172 L
526.667 387.245 L
600.444 398.022 L
674.222 406.581 L
748 413.811 L
S
GR
GS
[0.75 0 0 0.75 0 0] CT
1 GC
N
80.057 38.5 M
86.722 34.652 L
86.722 42.348 L
cp
f
GR
GS
[0.75 0 0 0.75 0 0] CT
0.6 0.2 0 RC
10.0 ML
2 LW
N
80.057 38.5 M
86.722 34.652 L
86.722 42.348 L
cp
S
GR
GS
[0.75 0 0 0.75 0 0] CT
1 GC
N
153.057 213.5 M
159.722 209.652 L
159.722 217.348 L
cp
f
GR
GS
[0.75 0 0 0.75 0 0] CT
0.6 0.2 0 RC
10.0 ML
2 LW
N
153.057 213.5 M
159.722 209.652 L
159.722 217.348 L
cp
S
GR
GS
[0.75 0 0 0.75 0 0] CT
1 GC
N
227.057 286.5 M
233.722 282.652 L
233.722 290.348 L
cp
f
GR
GS
[0.75 0 0 0.75 0 0] CT
0.6 0.2 0 RC
10.0 ML
2 LW
N
227.057 286.5 M
233.722 282.652 L
233.722 290.348 L
cp
S
GR
GS
[0.75 0 0 0.75 0 0] CT
1 GC
N
301.057 328.5 M
307.722 324.652 L
307.722 332.348 L
cp
f
GR
GS
[0.75 0 0 0.75 0 0] CT
0.6 0.2 0 RC
10.0 ML
2 LW
N
301.057 328.5 M
307.722 324.652 L
307.722 332.348 L
cp
S
GR
GS
[0.75 0 0 0.75 0 0] CT
1 GC
N
375.057 354.5 M
381.722 350.652 L
381.722 358.348 L
cp
f
GR
GS
[0.75 0 0 0.75 0 0] CT
0.6 0.2 0 RC
10.0 ML
2 LW
N
375.057 354.5 M
381.722 350.652 L
381.722 358.348 L
cp
S
GR
GS
[0.75 0 0 0.75 0 0] CT
1 GC
N
448.057 373.5 M
454.722 369.652 L
454.722 377.348 L
cp
f
GR
GS
[0.75 0 0 0.75 0 0] CT
0.6 0.2 0 RC
10.0 ML
2 LW
N
448.057 373.5 M
454.722 369.652 L
454.722 377.348 L
cp
S
GR
GS
[0.75 0 0 0.75 0 0] CT
1 GC
N
522.057 387.5 M
528.722 383.652 L
528.722 391.348 L
cp
f
GR
GS
[0.75 0 0 0.75 0 0] CT
0.6 0.2 0 RC
10.0 ML
2 LW
N
522.057 387.5 M
528.722 383.652 L
528.722 391.348 L
cp
S
GR
GS
[0.75 0 0 0.75 0 0] CT
1 GC
N
596.057 398.5 M
602.722 394.652 L
602.722 402.348 L
cp
f
GR
GS
[0.75 0 0 0.75 0 0] CT
0.6 0.2 0 RC
10.0 ML
2 LW
N
596.057 398.5 M
602.722 394.652 L
602.722 402.348 L
cp
S
GR
GS
[0.75 0 0 0.75 0 0] CT
1 GC
N
670.057 406.5 M
676.722 402.652 L
676.722 410.348 L
cp
f
GR
GS
[0.75 0 0 0.75 0 0] CT
0.6 0.2 0 RC
10.0 ML
2 LW
N
670.057 406.5 M
676.722 402.652 L
676.722 410.348 L
cp
S
GR
GS
[0.75 0 0 0.75 0 0] CT
1 GC
N
744.057 413.5 M
750.722 409.652 L
750.722 417.348 L
cp
f
GR
GS
[0.75 0 0 0.75 0 0] CT
0.6 0.2 0 RC
10.0 ML
2 LW
N
744.057 413.5 M
750.722 409.652 L
750.722 417.348 L
cp
S
GR
GS
[0.75 0 0 0.75 0 0] CT
0.929 0.694 0.125 RC
1 LJ
2 LW
N
84 39 M
157.778 226.496 L
231.556 300.497 L
305.333 340.392 L
379.111 364.794 L
452.889 381.347 L
526.667 394.611 L
600.444 405.01 L
674.222 413.326 L
748 420.606 L
S
GR
GS
[0.75 0 0 0.75 0 0] CT
1 GC
N
81.33 37.47 M
83.716 37.47 L
84.5 35.167 L
85.284 37.47 L
87.67 37.47 L
85.768 38.912 L
86.459 41.197 L
84.5 39.833 L
82.541 41.197 L
83.232 38.912 L
81.33 37.47 L
cp
f
GR
GS
[0.75 0 0 0.75 0 0] CT
0.929 0.694 0.125 RC
10.0 ML
2 LW
N
81.33 37.47 M
83.716 37.47 L
84.5 35.167 L
85.284 37.47 L
87.67 37.47 L
85.768 38.912 L
86.459 41.197 L
84.5 39.833 L
82.541 41.197 L
83.232 38.912 L
cp
S
GR
GS
[0.75 0 0 0.75 0 0] CT
1 GC
N
154.33 225.47 M
156.716 225.47 L
157.5 223.167 L
158.284 225.47 L
160.67 225.47 L
158.768 226.912 L
159.459 229.197 L
157.5 227.833 L
155.541 229.197 L
156.232 226.912 L
154.33 225.47 L
cp
f
GR
GS
[0.75 0 0 0.75 0 0] CT
0.929 0.694 0.125 RC
10.0 ML
2 LW
N
154.33 225.47 M
156.716 225.47 L
157.5 223.167 L
158.284 225.47 L
160.67 225.47 L
158.768 226.912 L
159.459 229.197 L
157.5 227.833 L
155.541 229.197 L
156.232 226.912 L
cp
S
GR
GS
[0.75 0 0 0.75 0 0] CT
1 GC
N
228.33 299.47 M
230.716 299.47 L
231.5 297.167 L
232.284 299.47 L
234.67 299.47 L
232.768 300.912 L
233.459 303.197 L
231.5 301.833 L
229.541 303.197 L
230.232 300.912 L
228.33 299.47 L
cp
f
GR
GS
[0.75 0 0 0.75 0 0] CT
0.929 0.694 0.125 RC
10.0 ML
2 LW
N
228.33 299.47 M
230.716 299.47 L
231.5 297.167 L
232.284 299.47 L
234.67 299.47 L
232.768 300.912 L
233.459 303.197 L
231.5 301.833 L
229.541 303.197 L
230.232 300.912 L
cp
S
GR
GS
[0.75 0 0 0.75 0 0] CT
1 GC
N
302.33 339.47 M
304.716 339.47 L
305.5 337.167 L
306.284 339.47 L
308.67 339.47 L
306.768 340.912 L
307.459 343.197 L
305.5 341.833 L
303.541 343.197 L
304.232 340.912 L
302.33 339.47 L
cp
f
GR
GS
[0.75 0 0 0.75 0 0] CT
0.929 0.694 0.125 RC
10.0 ML
2 LW
N
302.33 339.47 M
304.716 339.47 L
305.5 337.167 L
306.284 339.47 L
308.67 339.47 L
306.768 340.912 L
307.459 343.197 L
305.5 341.833 L
303.541 343.197 L
304.232 340.912 L
cp
S
GR
GS
[0.75 0 0 0.75 0 0] CT
1 GC
N
376.33 363.47 M
378.716 363.47 L
379.5 361.167 L
380.284 363.47 L
382.67 363.47 L
380.768 364.912 L
381.459 367.197 L
379.5 365.833 L
377.541 367.197 L
378.232 364.912 L
376.33 363.47 L
cp
f
GR
GS
[0.75 0 0 0.75 0 0] CT
0.929 0.694 0.125 RC
10.0 ML
2 LW
N
376.33 363.47 M
378.716 363.47 L
379.5 361.167 L
380.284 363.47 L
382.67 363.47 L
380.768 364.912 L
381.459 367.197 L
379.5 365.833 L
377.541 367.197 L
378.232 364.912 L
cp
S
GR
GS
[0.75 0 0 0.75 0 0] CT
1 GC
N
449.33 380.47 M
451.716 380.47 L
452.5 378.167 L
453.284 380.47 L
455.67 380.47 L
453.768 381.912 L
454.459 384.197 L
452.5 382.833 L
450.541 384.197 L
451.232 381.912 L
449.33 380.47 L
cp
f
GR
GS
[0.75 0 0 0.75 0 0] CT
0.929 0.694 0.125 RC
10.0 ML
2 LW
N
449.33 380.47 M
451.716 380.47 L
452.5 378.167 L
453.284 380.47 L
455.67 380.47 L
453.768 381.912 L
454.459 384.197 L
452.5 382.833 L
450.541 384.197 L
451.232 381.912 L
cp
S
GR
GS
[0.75 0 0 0.75 0 0] CT
1 GC
N
523.33 393.47 M
525.716 393.47 L
526.5 391.167 L
527.284 393.47 L
529.67 393.47 L
527.768 394.912 L
528.459 397.197 L
526.5 395.833 L
524.541 397.197 L
525.232 394.912 L
523.33 393.47 L
cp
f
GR
GS
[0.75 0 0 0.75 0 0] CT
0.929 0.694 0.125 RC
10.0 ML
2 LW
N
523.33 393.47 M
525.716 393.47 L
526.5 391.167 L
527.284 393.47 L
529.67 393.47 L
527.768 394.912 L
528.459 397.197 L
526.5 395.833 L
524.541 397.197 L
525.232 394.912 L
cp
S
GR
GS
[0.75 0 0 0.75 0 0] CT
1 GC
N
597.33 404.47 M
599.716 404.47 L
600.5 402.167 L
601.284 404.47 L
603.67 404.47 L
601.768 405.912 L
602.459 408.197 L
600.5 406.833 L
598.541 408.197 L
599.232 405.912 L
597.33 404.47 L
cp
f
GR
GS
[0.75 0 0 0.75 0 0] CT
0.929 0.694 0.125 RC
10.0 ML
2 LW
N
597.33 404.47 M
599.716 404.47 L
600.5 402.167 L
601.284 404.47 L
603.67 404.47 L
601.768 405.912 L
602.459 408.197 L
600.5 406.833 L
598.541 408.197 L
599.232 405.912 L
cp
S
GR
GS
[0.75 0 0 0.75 0 0] CT
1 GC
N
671.33 412.47 M
673.716 412.47 L
674.5 410.167 L
675.284 412.47 L
677.67 412.47 L
675.768 413.912 L
676.459 416.197 L
674.5 414.833 L
672.541 416.197 L
673.232 413.912 L
671.33 412.47 L
cp
f
GR
GS
[0.75 0 0 0.75 0 0] CT
0.929 0.694 0.125 RC
10.0 ML
2 LW
N
671.33 412.47 M
673.716 412.47 L
674.5 410.167 L
675.284 412.47 L
677.67 412.47 L
675.768 413.912 L
676.459 416.197 L
674.5 414.833 L
672.541 416.197 L
673.232 413.912 L
cp
S
GR
GS
[0.75 0 0 0.75 0 0] CT
1 GC
N
745.33 419.47 M
747.716 419.47 L
748.5 417.167 L
749.284 419.47 L
751.67 419.47 L
749.768 420.912 L
750.459 423.197 L
748.5 421.833 L
746.541 423.197 L
747.232 420.912 L
745.33 419.47 L
cp
f
GR
GS
[0.75 0 0 0.75 0 0] CT
0.929 0.694 0.125 RC
10.0 ML
2 LW
N
745.33 419.47 M
747.716 419.47 L
748.5 417.167 L
749.284 419.47 L
751.67 419.47 L
749.768 420.912 L
750.459 423.197 L
748.5 421.833 L
746.541 423.197 L
747.232 420.912 L
cp
S
GR
GS
[0.75 0 0 0.75 0 0] CT
0 1 1 RC
1 LJ
2 LW
N
84 39 M
157.778 223.029 L
231.556 297.49 L
305.333 338.735 L
379.111 363.95 L
452.889 382.396 L
526.667 396.228 L
600.444 407.177 L
674.222 415.652 L
748 422.884 L
S
GR
GS
[0.75 0 0 0.75 0 0] CT
1 GC
N
84.5 42.943 M
87.833 38.5 L
84.5 34.057 L
81.167 38.5 L
cp
f
GR
GS
[0.75 0 0 0.75 0 0] CT
0 1 1 RC
10.0 ML
2 LW
N
84.5 42.943 M
87.833 38.5 L
84.5 34.057 L
81.167 38.5 L
cp
S
GR
GS
[0.75 0 0 0.75 0 0] CT
1 GC
N
157.5 227.943 M
160.833 223.5 L
157.5 219.057 L
154.167 223.5 L
cp
f
GR
GS
[0.75 0 0 0.75 0 0] CT
0 1 1 RC
10.0 ML
2 LW
N
157.5 227.943 M
160.833 223.5 L
157.5 219.057 L
154.167 223.5 L
cp
S
GR
GS
[0.75 0 0 0.75 0 0] CT
1 GC
N
231.5 301.943 M
234.833 297.5 L
231.5 293.057 L
228.167 297.5 L
cp
f
GR
GS
[0.75 0 0 0.75 0 0] CT
0 1 1 RC
10.0 ML
2 LW
N
231.5 301.943 M
234.833 297.5 L
231.5 293.057 L
228.167 297.5 L
cp
S
GR
GS
[0.75 0 0 0.75 0 0] CT
1 GC
N
305.5 342.943 M
308.833 338.5 L
305.5 334.057 L
302.167 338.5 L
cp
f
GR
GS
[0.75 0 0 0.75 0 0] CT
0 1 1 RC
10.0 ML
2 LW
N
305.5 342.943 M
308.833 338.5 L
305.5 334.057 L
302.167 338.5 L
cp
S
GR
GS
[0.75 0 0 0.75 0 0] CT
1 GC
N
379.5 367.943 M
382.833 363.5 L
379.5 359.057 L
376.167 363.5 L
cp
f
GR
GS
[0.75 0 0 0.75 0 0] CT
0 1 1 RC
10.0 ML
2 LW
N
379.5 367.943 M
382.833 363.5 L
379.5 359.057 L
376.167 363.5 L
cp
S
GR
GS
[0.75 0 0 0.75 0 0] CT
1 GC
N
452.5 386.943 M
455.833 382.5 L
452.5 378.057 L
449.167 382.5 L
cp
f
GR
GS
[0.75 0 0 0.75 0 0] CT
0 1 1 RC
10.0 ML
2 LW
N
452.5 386.943 M
455.833 382.5 L
452.5 378.057 L
449.167 382.5 L
cp
S
GR
GS
[0.75 0 0 0.75 0 0] CT
1 GC
N
526.5 400.943 M
529.833 396.5 L
526.5 392.057 L
523.167 396.5 L
cp
f
GR
GS
[0.75 0 0 0.75 0 0] CT
0 1 1 RC
10.0 ML
2 LW
N
526.5 400.943 M
529.833 396.5 L
526.5 392.057 L
523.167 396.5 L
cp
S
GR
GS
[0.75 0 0 0.75 0 0] CT
1 GC
N
600.5 411.943 M
603.833 407.5 L
600.5 403.057 L
597.167 407.5 L
cp
f
GR
GS
[0.75 0 0 0.75 0 0] CT
0 1 1 RC
10.0 ML
2 LW
N
600.5 411.943 M
603.833 407.5 L
600.5 403.057 L
597.167 407.5 L
cp
S
GR
GS
[0.75 0 0 0.75 0 0] CT
1 GC
N
674.5 419.943 M
677.833 415.5 L
674.5 411.057 L
671.167 415.5 L
cp
f
GR
GS
[0.75 0 0 0.75 0 0] CT
0 1 1 RC
10.0 ML
2 LW
N
674.5 419.943 M
677.833 415.5 L
674.5 411.057 L
671.167 415.5 L
cp
S
GR
GS
[0.75 0 0 0.75 0 0] CT
1 GC
N
748.5 426.943 M
751.833 422.5 L
748.5 418.057 L
745.167 422.5 L
cp
f
GR
GS
[0.75 0 0 0.75 0 0] CT
0 1 1 RC
10.0 ML
2 LW
N
748.5 426.943 M
751.833 422.5 L
748.5 418.057 L
745.167 422.5 L
cp
S
GR
GS
[0.75 0 0 0.75 0 0] CT
0 1 0 RC
1 LJ
2 LW
N
84 39 M
157.778 196.561 L
231.556 269.062 L
305.333 310.064 L
379.111 336.462 L
452.889 355.615 L
526.667 369.894 L
600.444 381.759 L
674.222 391.368 L
748 398.902 L
S
GR
GS
[0.75 0 0 0.75 0 0] CT
1 GC
N
81.9 41.1 M
81.9 35.9 L
87.1 35.9 L
87.1 41.1 L
cp
f
GR
GS
[0.75 0 0 0.75 0 0] CT
0 1 0 RC
10.0 ML
2 LW
N
81.9 41.1 M
81.9 35.9 L
87.1 35.9 L
87.1 41.1 L
cp
S
GR
GS
[0.75 0 0 0.75 0 0] CT
1 GC
N
154.9 199.1 M
154.9 193.9 L
160.1 193.9 L
160.1 199.1 L
cp
f
GR
GS
[0.75 0 0 0.75 0 0] CT
0 1 0 RC
10.0 ML
2 LW
N
154.9 199.1 M
154.9 193.9 L
160.1 193.9 L
160.1 199.1 L
cp
S
GR
GS
[0.75 0 0 0.75 0 0] CT
1 GC
N
228.9 272.1 M
228.9 266.9 L
234.1 266.9 L
234.1 272.1 L
cp
f
GR
GS
[0.75 0 0 0.75 0 0] CT
0 1 0 RC
10.0 ML
2 LW
N
228.9 272.1 M
228.9 266.9 L
234.1 266.9 L
234.1 272.1 L
cp
S
GR
GS
[0.75 0 0 0.75 0 0] CT
1 GC
N
302.9 313.1 M
302.9 307.9 L
308.1 307.9 L
308.1 313.1 L
cp
f
GR
GS
[0.75 0 0 0.75 0 0] CT
0 1 0 RC
10.0 ML
2 LW
N
302.9 313.1 M
302.9 307.9 L
308.1 307.9 L
308.1 313.1 L
cp
S
GR
GS
[0.75 0 0 0.75 0 0] CT
1 GC
N
376.9 339.1 M
376.9 333.9 L
382.1 333.9 L
382.1 339.1 L
cp
f
GR
GS
[0.75 0 0 0.75 0 0] CT
0 1 0 RC
10.0 ML
2 LW
N
376.9 339.1 M
376.9 333.9 L
382.1 333.9 L
382.1 339.1 L
cp
S
GR
GS
[0.75 0 0 0.75 0 0] CT
1 GC
N
449.9 358.1 M
449.9 352.9 L
455.1 352.9 L
455.1 358.1 L
cp
f
GR
GS
[0.75 0 0 0.75 0 0] CT
0 1 0 RC
10.0 ML
2 LW
N
449.9 358.1 M
449.9 352.9 L
455.1 352.9 L
455.1 358.1 L
cp
S
GR
GS
[0.75 0 0 0.75 0 0] CT
1 GC
N
523.9 372.1 M
523.9 366.9 L
529.1 366.9 L
529.1 372.1 L
cp
f
GR
GS
[0.75 0 0 0.75 0 0] CT
0 1 0 RC
10.0 ML
2 LW
N
523.9 372.1 M
523.9 366.9 L
529.1 366.9 L
529.1 372.1 L
cp
S
GR
GS
[0.75 0 0 0.75 0 0] CT
1 GC
N
597.9 384.1 M
597.9 378.9 L
603.1 378.9 L
603.1 384.1 L
cp
f
GR
GS
[0.75 0 0 0.75 0 0] CT
0 1 0 RC
10.0 ML
2 LW
N
597.9 384.1 M
597.9 378.9 L
603.1 378.9 L
603.1 384.1 L
cp
S
GR
GS
[0.75 0 0 0.75 0 0] CT
1 GC
N
671.9 394.1 M
671.9 388.9 L
677.1 388.9 L
677.1 394.1 L
cp
f
GR
GS
[0.75 0 0 0.75 0 0] CT
0 1 0 RC
10.0 ML
2 LW
N
671.9 394.1 M
671.9 388.9 L
677.1 388.9 L
677.1 394.1 L
cp
S
GR
GS
[0.75 0 0 0.75 0 0] CT
1 GC
N
745.9 401.1 M
745.9 395.9 L
751.1 395.9 L
751.1 401.1 L
cp
f
GR
GS
[0.75 0 0 0.75 0 0] CT
0 1 0 RC
10.0 ML
2 LW
N
745.9 401.1 M
745.9 395.9 L
751.1 395.9 L
751.1 401.1 L
cp
S
GR
GS
[0.75 0 0 0.75 0 0] CT
0 0 1 RC
1 LJ
2 LW
N
84 39 M
157.778 236.968 L
231.556 313.314 L
305.333 353.701 L
379.111 378.254 L
452.889 395.441 L
526.667 408.214 L
600.444 418.315 L
674.222 426.155 L
748 432.516 L
S
GR
GS
[0.75 0 0 0.75 0 0] CT
1 GC
N
80.057 38.5 M
86.722 34.652 L
86.722 42.348 L
cp
f
GR
GS
[0.75 0 0 0.75 0 0] CT
0 0 1 RC
10.0 ML
2 LW
N
80.057 38.5 M
86.722 34.652 L
86.722 42.348 L
cp
S
GR
GS
[0.75 0 0 0.75 0 0] CT
1 GC
N
153.057 236.5 M
159.722 232.652 L
159.722 240.348 L
cp
f
GR
GS
[0.75 0 0 0.75 0 0] CT
0 0 1 RC
10.0 ML
2 LW
N
153.057 236.5 M
159.722 232.652 L
159.722 240.348 L
cp
S
GR
GS
[0.75 0 0 0.75 0 0] CT
1 GC
N
227.057 313.5 M
233.722 309.652 L
233.722 317.348 L
cp
f
GR
GS
[0.75 0 0 0.75 0 0] CT
0 0 1 RC
10.0 ML
2 LW
N
227.057 313.5 M
233.722 309.652 L
233.722 317.348 L
cp
S
GR
GS
[0.75 0 0 0.75 0 0] CT
1 GC
N
301.057 353.5 M
307.722 349.652 L
307.722 357.348 L
cp
f
GR
GS
[0.75 0 0 0.75 0 0] CT
0 0 1 RC
10.0 ML
2 LW
N
301.057 353.5 M
307.722 349.652 L
307.722 357.348 L
cp
S
GR
GS
[0.75 0 0 0.75 0 0] CT
1 GC
N
375.057 378.5 M
381.722 374.652 L
381.722 382.348 L
cp
f
GR
GS
[0.75 0 0 0.75 0 0] CT
0 0 1 RC
10.0 ML
2 LW
N
375.057 378.5 M
381.722 374.652 L
381.722 382.348 L
cp
S
GR
GS
[0.75 0 0 0.75 0 0] CT
1 GC
N
448.057 395.5 M
454.722 391.652 L
454.722 399.348 L
cp
f
GR
GS
[0.75 0 0 0.75 0 0] CT
0 0 1 RC
10.0 ML
2 LW
N
448.057 395.5 M
454.722 391.652 L
454.722 399.348 L
cp
S
GR
GS
[0.75 0 0 0.75 0 0] CT
1 GC
N
522.057 408.5 M
528.722 404.652 L
528.722 412.348 L
cp
f
GR
GS
[0.75 0 0 0.75 0 0] CT
0 0 1 RC
10.0 ML
2 LW
N
522.057 408.5 M
528.722 404.652 L
528.722 412.348 L
cp
S
GR
GS
[0.75 0 0 0.75 0 0] CT
1 GC
N
596.057 418.5 M
602.722 414.652 L
602.722 422.348 L
cp
f
GR
GS
[0.75 0 0 0.75 0 0] CT
0 0 1 RC
10.0 ML
2 LW
N
596.057 418.5 M
602.722 414.652 L
602.722 422.348 L
cp
S
GR
GS
[0.75 0 0 0.75 0 0] CT
1 GC
N
670.057 426.5 M
676.722 422.652 L
676.722 430.348 L
cp
f
GR
GS
[0.75 0 0 0.75 0 0] CT
0 0 1 RC
10.0 ML
2 LW
N
670.057 426.5 M
676.722 422.652 L
676.722 430.348 L
cp
S
GR
GS
[0.75 0 0 0.75 0 0] CT
1 GC
N
744.057 432.5 M
750.722 428.652 L
750.722 436.348 L
cp
f
GR
GS
[0.75 0 0 0.75 0 0] CT
0 0 1 RC
10.0 ML
2 LW
N
744.057 432.5 M
750.722 428.652 L
750.722 436.348 L
cp
S
GR
GS
[0.75 0 0 0.75 0 0] CT
1 0 1 RC
1 LJ
2 LW
N
84 39 M
157.778 189.739 L
231.556 260.84 L
305.333 303.116 L
379.111 330.568 L
452.889 349.73 L
526.667 365.037 L
600.444 376.844 L
674.222 386.248 L
748 394.28 L
S
GR
GS
[0.75 0 0 0.75 0 0] CT
1 0 1 RC
1 LJ
2 LW
N
81 38.5 M
88 38.5 L
S
GR
GS
[0.75 0 0 0.75 0 0] CT
1 0 1 RC
1 LJ
2 LW
N
84.5 42 M
84.5 35 L
S
GR
GS
[0.75 0 0 0.75 0 0] CT
1 0 1 RC
1 LJ
2 LW
N
154 189.5 M
161 189.5 L
S
GR
GS
[0.75 0 0 0.75 0 0] CT
1 0 1 RC
1 LJ
2 LW
N
157.5 193 M
157.5 186 L
S
GR
GS
[0.75 0 0 0.75 0 0] CT
1 0 1 RC
1 LJ
2 LW
N
228 260.5 M
235 260.5 L
S
GR
GS
[0.75 0 0 0.75 0 0] CT
1 0 1 RC
1 LJ
2 LW
N
231.5 264 M
231.5 257 L
S
GR
GS
[0.75 0 0 0.75 0 0] CT
1 0 1 RC
1 LJ
2 LW
N
302 303.5 M
309 303.5 L
S
GR
GS
[0.75 0 0 0.75 0 0] CT
1 0 1 RC
1 LJ
2 LW
N
305.5 307 M
305.5 300 L
S
GR
GS
[0.75 0 0 0.75 0 0] CT
1 0 1 RC
1 LJ
2 LW
N
376 330.5 M
383 330.5 L
S
GR
GS
[0.75 0 0 0.75 0 0] CT
1 0 1 RC
1 LJ
2 LW
N
379.5 334 M
379.5 327 L
S
GR
GS
[0.75 0 0 0.75 0 0] CT
1 0 1 RC
1 LJ
2 LW
N
449 349.5 M
456 349.5 L
S
GR
GS
[0.75 0 0 0.75 0 0] CT
1 0 1 RC
1 LJ
2 LW
N
452.5 353 M
452.5 346 L
S
GR
GS
[0.75 0 0 0.75 0 0] CT
1 0 1 RC
1 LJ
2 LW
N
523 365.5 M
530 365.5 L
S
GR
GS
[0.75 0 0 0.75 0 0] CT
1 0 1 RC
1 LJ
2 LW
N
526.5 369 M
526.5 362 L
S
GR
GS
[0.75 0 0 0.75 0 0] CT
1 0 1 RC
1 LJ
2 LW
N
597 376.5 M
604 376.5 L
S
GR
GS
[0.75 0 0 0.75 0 0] CT
1 0 1 RC
1 LJ
2 LW
N
600.5 380 M
600.5 373 L
S
GR
GS
[0.75 0 0 0.75 0 0] CT
1 0 1 RC
1 LJ
2 LW
N
671 386.5 M
678 386.5 L
S
GR
GS
[0.75 0 0 0.75 0 0] CT
1 0 1 RC
1 LJ
2 LW
N
674.5 390 M
674.5 383 L
S
GR
GS
[0.75 0 0 0.75 0 0] CT
1 0 1 RC
1 LJ
2 LW
N
745 394.5 M
752 394.5 L
S
GR
GS
[0.75 0 0 0.75 0 0] CT
1 0 1 RC
1 LJ
2 LW
N
748.5 398 M
748.5 391 L
S
GR
GS
[0.75 0 0 0.75 0 0] CT
1 0 0 RC
1 LJ
2 LW
N
84 39 M
157.778 161.411 L
231.556 224.487 L
305.333 265.312 L
379.111 293.038 L
452.889 313.03 L
526.667 329.332 L
600.444 342.492 L
674.222 353.367 L
748 362.43 L
S
GR
GS
[0.75 0 0 0.75 0 0] CT
1 GC
N
81.9 41.1 M
81.9 35.9 L
87.1 35.9 L
87.1 41.1 L
cp
f
GR
GS
[0.75 0 0 0.75 0 0] CT
1 0 0 RC
10.0 ML
2 LW
N
81.9 41.1 M
81.9 35.9 L
87.1 35.9 L
87.1 41.1 L
cp
S
GR
GS
[0.75 0 0 0.75 0 0] CT
1 GC
N
154.9 164.1 M
154.9 158.9 L
160.1 158.9 L
160.1 164.1 L
cp
f
GR
GS
[0.75 0 0 0.75 0 0] CT
1 0 0 RC
10.0 ML
2 LW
N
154.9 164.1 M
154.9 158.9 L
160.1 158.9 L
160.1 164.1 L
cp
S
GR
GS
[0.75 0 0 0.75 0 0] CT
1 GC
N
228.9 227.1 M
228.9 221.9 L
234.1 221.9 L
234.1 227.1 L
cp
f
GR
GS
[0.75 0 0 0.75 0 0] CT
1 0 0 RC
10.0 ML
2 LW
N
228.9 227.1 M
228.9 221.9 L
234.1 221.9 L
234.1 227.1 L
cp
S
GR
GS
[0.75 0 0 0.75 0 0] CT
1 GC
N
302.9 268.1 M
302.9 262.9 L
308.1 262.9 L
308.1 268.1 L
cp
f
GR
GS
[0.75 0 0 0.75 0 0] CT
1 0 0 RC
10.0 ML
2 LW
N
302.9 268.1 M
302.9 262.9 L
308.1 262.9 L
308.1 268.1 L
cp
S
GR
GS
[0.75 0 0 0.75 0 0] CT
1 GC
N
376.9 296.1 M
376.9 290.9 L
382.1 290.9 L
382.1 296.1 L
cp
f
GR
GS
[0.75 0 0 0.75 0 0] CT
1 0 0 RC
10.0 ML
2 LW
N
376.9 296.1 M
376.9 290.9 L
382.1 290.9 L
382.1 296.1 L
cp
S
GR
GS
[0.75 0 0 0.75 0 0] CT
1 GC
N
449.9 316.1 M
449.9 310.9 L
455.1 310.9 L
455.1 316.1 L
cp
f
GR
GS
[0.75 0 0 0.75 0 0] CT
1 0 0 RC
10.0 ML
2 LW
N
449.9 316.1 M
449.9 310.9 L
455.1 310.9 L
455.1 316.1 L
cp
S
GR
GS
[0.75 0 0 0.75 0 0] CT
1 GC
N
523.9 332.1 M
523.9 326.9 L
529.1 326.9 L
529.1 332.1 L
cp
f
GR
GS
[0.75 0 0 0.75 0 0] CT
1 0 0 RC
10.0 ML
2 LW
N
523.9 332.1 M
523.9 326.9 L
529.1 326.9 L
529.1 332.1 L
cp
S
GR
GS
[0.75 0 0 0.75 0 0] CT
1 GC
N
597.9 345.1 M
597.9 339.9 L
603.1 339.9 L
603.1 345.1 L
cp
f
GR
GS
[0.75 0 0 0.75 0 0] CT
1 0 0 RC
10.0 ML
2 LW
N
597.9 345.1 M
597.9 339.9 L
603.1 339.9 L
603.1 345.1 L
cp
S
GR
GS
[0.75 0 0 0.75 0 0] CT
1 GC
N
671.9 356.1 M
671.9 350.9 L
677.1 350.9 L
677.1 356.1 L
cp
f
GR
GS
[0.75 0 0 0.75 0 0] CT
1 0 0 RC
10.0 ML
2 LW
N
671.9 356.1 M
671.9 350.9 L
677.1 350.9 L
677.1 356.1 L
cp
S
GR
GS
[0.75 0 0 0.75 0 0] CT
1 GC
N
745.9 365.1 M
745.9 359.9 L
751.1 359.9 L
751.1 365.1 L
cp
f
GR
GS
[0.75 0 0 0.75 0 0] CT
1 0 0 RC
10.0 ML
2 LW
N
745.9 365.1 M
745.9 359.9 L
751.1 359.9 L
751.1 365.1 L
cp
S
GR
GS
[0.75 0 0 0.75 0 0] CT
1 LJ
2 LW
N
84 39 M
157.778 158.196 L
231.556 221.724 L
305.333 262.359 L
379.111 289.61 L
452.889 311.219 L
526.667 328.057 L
600.444 341.441 L
674.222 352.67 L
748 361.791 L
S
GR
GS
[0.75 0 0 0.75 0 0] CT
1 GC
N
87.833 38.5 M
86.857 36.143 L
84.5 35.167 L
82.143 36.143 L
81.167 38.5 L
82.143 40.857 L
84.5 41.833 L
86.857 40.857 L
87.833 38.5 L
cp
f
GR
GS
[0.75 0 0 0.75 0 0] CT
1 LJ
2 LW
N
87.833 38.5 M
87.197 36.541 L
85.53 35.33 L
83.47 35.33 L
81.803 36.541 L
81.167 38.5 L
81.803 40.459 L
83.47 41.67 L
85.53 41.67 L
87.197 40.459 L
cp
S
GR
GS
[0.75 0 0 0.75 0 0] CT
1 GC
N
160.833 158.5 M
159.857 156.143 L
157.5 155.167 L
155.143 156.143 L
154.167 158.5 L
155.143 160.857 L
157.5 161.833 L
159.857 160.857 L
160.833 158.5 L
cp
f
GR
GS
[0.75 0 0 0.75 0 0] CT
1 LJ
2 LW
N
160.833 158.5 M
160.197 156.541 L
158.53 155.33 L
156.47 155.33 L
154.803 156.541 L
154.167 158.5 L
154.803 160.459 L
156.47 161.67 L
158.53 161.67 L
160.197 160.459 L
cp
S
GR
GS
[0.75 0 0 0.75 0 0] CT
1 GC
N
234.833 221.5 M
233.857 219.143 L
231.5 218.167 L
229.143 219.143 L
228.167 221.5 L
229.143 223.857 L
231.5 224.833 L
233.857 223.857 L
234.833 221.5 L
cp
f
GR
GS
[0.75 0 0 0.75 0 0] CT
1 LJ
2 LW
N
234.833 221.5 M
234.197 219.541 L
232.53 218.33 L
230.47 218.33 L
228.803 219.541 L
228.167 221.5 L
228.803 223.459 L
230.47 224.67 L
232.53 224.67 L
234.197 223.459 L
cp
S
GR
GS
[0.75 0 0 0.75 0 0] CT
1 GC
N
308.833 262.5 M
307.857 260.143 L
305.5 259.167 L
303.143 260.143 L
302.167 262.5 L
303.143 264.857 L
305.5 265.833 L
307.857 264.857 L
308.833 262.5 L
cp
f
GR
GS
[0.75 0 0 0.75 0 0] CT
1 LJ
2 LW
N
308.833 262.5 M
308.197 260.541 L
306.53 259.33 L
304.47 259.33 L
302.803 260.541 L
302.167 262.5 L
302.803 264.459 L
304.47 265.67 L
306.53 265.67 L
308.197 264.459 L
cp
S
GR
GS
[0.75 0 0 0.75 0 0] CT
1 GC
N
382.833 289.5 M
381.857 287.143 L
379.5 286.167 L
377.143 287.143 L
376.167 289.5 L
377.143 291.857 L
379.5 292.833 L
381.857 291.857 L
382.833 289.5 L
cp
f
GR
GS
[0.75 0 0 0.75 0 0] CT
1 LJ
2 LW
N
382.833 289.5 M
382.197 287.541 L
380.53 286.33 L
378.47 286.33 L
376.803 287.541 L
376.167 289.5 L
376.803 291.459 L
378.47 292.67 L
380.53 292.67 L
382.197 291.459 L
cp
S
GR
GS
[0.75 0 0 0.75 0 0] CT
1 GC
N
455.833 311.5 M
454.857 309.143 L
452.5 308.167 L
450.143 309.143 L
449.167 311.5 L
450.143 313.857 L
452.5 314.833 L
454.857 313.857 L
455.833 311.5 L
cp
f
GR
GS
[0.75 0 0 0.75 0 0] CT
1 LJ
2 LW
N
455.833 311.5 M
455.197 309.541 L
453.53 308.33 L
451.47 308.33 L
449.803 309.541 L
449.167 311.5 L
449.803 313.459 L
451.47 314.67 L
453.53 314.67 L
455.197 313.459 L
cp
S
GR
GS
[0.75 0 0 0.75 0 0] CT
1 GC
N
529.833 328.5 M
528.857 326.143 L
526.5 325.167 L
524.143 326.143 L
523.167 328.5 L
524.143 330.857 L
526.5 331.833 L
528.857 330.857 L
529.833 328.5 L
cp
f
GR
GS
[0.75 0 0 0.75 0 0] CT
1 LJ
2 LW
N
529.833 328.5 M
529.197 326.541 L
527.53 325.33 L
525.47 325.33 L
523.803 326.541 L
523.167 328.5 L
523.803 330.459 L
525.47 331.67 L
527.53 331.67 L
529.197 330.459 L
cp
S
GR
GS
[0.75 0 0 0.75 0 0] CT
1 GC
N
603.833 341.5 M
602.857 339.143 L
600.5 338.167 L
598.143 339.143 L
597.167 341.5 L
598.143 343.857 L
600.5 344.833 L
602.857 343.857 L
603.833 341.5 L
cp
f
GR
GS
[0.75 0 0 0.75 0 0] CT
1 LJ
2 LW
N
603.833 341.5 M
603.197 339.541 L
601.53 338.33 L
599.47 338.33 L
597.803 339.541 L
597.167 341.5 L
597.803 343.459 L
599.47 344.67 L
601.53 344.67 L
603.197 343.459 L
cp
S
GR
GS
[0.75 0 0 0.75 0 0] CT
1 GC
N
677.833 352.5 M
676.857 350.143 L
674.5 349.167 L
672.143 350.143 L
671.167 352.5 L
672.143 354.857 L
674.5 355.833 L
676.857 354.857 L
677.833 352.5 L
cp
f
GR
GS
[0.75 0 0 0.75 0 0] CT
1 LJ
2 LW
N
677.833 352.5 M
677.197 350.541 L
675.53 349.33 L
673.47 349.33 L
671.803 350.541 L
671.167 352.5 L
671.803 354.459 L
673.47 355.67 L
675.53 355.67 L
677.197 354.459 L
cp
S
GR
GS
[0.75 0 0 0.75 0 0] CT
1 GC
N
751.833 361.5 M
750.857 359.143 L
748.5 358.167 L
746.143 359.143 L
745.167 361.5 L
746.143 363.857 L
748.5 364.833 L
750.857 363.857 L
751.833 361.5 L
cp
f
GR
GS
[0.75 0 0 0.75 0 0] CT
1 LJ
2 LW
N
751.833 361.5 M
751.197 359.541 L
749.53 358.33 L
747.47 358.33 L
745.803 359.541 L
745.167 361.5 L
745.803 363.459 L
747.47 364.67 L
749.53 364.67 L
751.197 363.459 L
cp
S
GR
GS
[0.75 0 0 0.75 0 0] CT
1 GC
N
642 267 M
642 52 L
735 52 L
735 267 L
cp
f
GR
GS
[0.75 0 0 0.75 509.25 49.125] CT
/Times 18.667 F
GS
[1 0 0 1 0 0] CT
0 6.5 moveto 
1 -1 scale
(LBP) t 
GR
GR
GS
[0.75 0 0 0.75 0 0] CT
1 0.6 0.784 RC
1 LJ
2 LW
N
646 65.5 M
676 65.5 L
S
GR
GS
[0.75 0 0 0.75 0 0] CT
1 GC
N
658.278 61.652 M
664.943 65.5 L
658.278 69.348 L
cp
f
GR
GS
[0.75 0 0 0.75 0 0] CT
1 0.6 0.784 RC
10.0 ML
2 LW
N
658.278 61.652 M
664.943 65.5 L
658.278 69.348 L
cp
S
GR
GS
[0.75 0 0 0.75 509.25 66.75] CT
/Times 18.667 F
GS
[1 0 0 1 0 0] CT
0 6.5 moveto 
1 -1 scale
(LTP) t 
GR
GR
GS
[0.75 0 0 0.75 0 0] CT
0.6 0.2 0 RC
1 LJ
2 LW
N
646 89 M
676 89 L
S
GR
GS
[0.75 0 0 0.75 0 0] CT
1 GC
N
656.057 89.5 M
662.722 85.652 L
662.722 93.348 L
cp
f
GR
GS
[0.75 0 0 0.75 0 0] CT
0.6 0.2 0 RC
10.0 ML
2 LW
N
656.057 89.5 M
662.722 85.652 L
662.722 93.348 L
cp
S
GR
GS
[0.75 0 0 0.75 509.25 84.37501] CT
/Times 18.667 F
GS
[1 0 0 1 0 0] CT
0 6.5 moveto 
1 -1 scale
(LDP) t 
GR
GR
GS
[0.75 0 0 0.75 0 0] CT
0.929 0.694 0.125 RC
1 LJ
2 LW
N
646 112.5 M
676 112.5 L
S
GR
GS
[0.75 0 0 0.75 0 0] CT
1 GC
N
657.33 111.47 M
659.716 111.47 L
660.5 109.167 L
661.284 111.47 L
663.67 111.47 L
661.768 112.912 L
662.459 115.197 L
660.5 113.833 L
658.541 115.197 L
659.232 112.912 L
657.33 111.47 L
cp
f
GR
GS
[0.75 0 0 0.75 0 0] CT
0.929 0.694 0.125 RC
10.0 ML
2 LW
N
657.33 111.47 M
659.716 111.47 L
660.5 109.167 L
661.284 111.47 L
663.67 111.47 L
661.768 112.912 L
662.459 115.197 L
660.5 113.833 L
658.541 115.197 L
659.232 112.912 L
cp
S
GR
GS
[0.75 0 0 0.75 509.25 102] CT
/Times 18.667 F
GS
[1 0 0 1 0 0] CT
0 6.5 moveto 
1 -1 scale
(LDN) t 
GR
GR
GS
[0.75 0 0 0.75 0 0] CT
0 1 1 RC
1 LJ
2 LW
N
646 136 M
676 136 L
S
GR
GS
[0.75 0 0 0.75 0 0] CT
1 GC
N
660.5 139.943 M
663.833 135.5 L
660.5 131.057 L
657.167 135.5 L
cp
f
GR
GS
[0.75 0 0 0.75 0 0] CT
0 1 1 RC
10.0 ML
2 LW
N
660.5 139.943 M
663.833 135.5 L
660.5 131.057 L
657.167 135.5 L
cp
S
GR
GS
[0.75 0 0 0.75 509.25 119.625] CT
/Times 18.667 F
GS
[1 0 0 1 0 0] CT
0 6.5 moveto 
1 -1 scale
(LVP) t 
GR
GR
GS
[0.75 0 0 0.75 0 0] CT
0 1 0 RC
1 LJ
2 LW
N
646 159.5 M
676 159.5 L
S
GR
GS
[0.75 0 0 0.75 0 0] CT
1 GC
N
657.9 162.1 M
657.9 156.9 L
663.1 156.9 L
663.1 162.1 L
cp
f
GR
GS
[0.75 0 0 0.75 0 0] CT
0 1 0 RC
10.0 ML
2 LW
N
657.9 162.1 M
657.9 156.9 L
663.1 156.9 L
663.1 162.1 L
cp
S
GR
GS
[0.75 0 0 0.75 509.25 137.25] CT
/Times 18.667 F
GS
[1 0 0 1 0 0] CT
0 6.5 moveto 
1 -1 scale
(LDGP) t 
GR
GR
GS
[0.75 0 0 0.75 0 0] CT
0 0 1 RC
1 LJ
2 LW
N
646 183 M
676 183 L
S
GR
GS
[0.75 0 0 0.75 0 0] CT
1 GC
N
656.057 182.5 M
662.722 178.652 L
662.722 186.348 L
cp
f
GR
GS
[0.75 0 0 0.75 0 0] CT
0 0 1 RC
10.0 ML
2 LW
N
656.057 182.5 M
662.722 178.652 L
662.722 186.348 L
cp
S
GR
GS
[0.75 0 0 0.75 509.25 154.875] CT
/Times 18.667 F
GS
[1 0 0 1 0 0] CT
0 6.5 moveto 
1 -1 scale
(DCP) t 
GR
GR
GS
[0.75 0 0 0.75 0 0] CT
1 0 1 RC
1 LJ
2 LW
N
646 206.5 M
676 206.5 L
S
GR
GS
[0.75 0 0 0.75 0 0] CT
1 0 1 RC
1 LJ
2 LW
N
657 206.5 M
664 206.5 L
S
GR
GS
[0.75 0 0 0.75 0 0] CT
1 0 1 RC
1 LJ
2 LW
N
660.5 210 M
660.5 203 L
S
GR
GS
[0.75 0 0 0.75 509.25 172.5] CT
/Times 18.667 F
GS
[1 0 0 1 0 0] CT
0 6.5 moveto 
1 -1 scale
(LGHP) t 
GR
GR
GS
[0.75 0 0 0.75 0 0] CT
1 0 0 RC
1 LJ
2 LW
N
646 230 M
676 230 L
S
GR
GS
[0.75 0 0 0.75 0 0] CT
1 GC
N
657.9 233.1 M
657.9 227.9 L
663.1 227.9 L
663.1 233.1 L
cp
f
GR
GS
[0.75 0 0 0.75 0 0] CT
1 0 0 RC
10.0 ML
2 LW
N
657.9 233.1 M
657.9 227.9 L
663.1 227.9 L
663.1 233.1 L
cp
S
GR
GS
[0.75 0 0 0.75 509.25 190.125] CT
/Times 18.667 F
GS
[1 0 0 1 0 0] CT
0 6.5 moveto 
1 -1 scale
(LDRP) t 
GR
GR
GS
[0.75 0 0 0.75 0 0] CT
1 LJ
2 LW
N
646 253.5 M
676 253.5 L
S
GR
GS
[0.75 0 0 0.75 0 0] CT
1 GC
N
663.833 253.5 M
662.857 251.143 L
660.5 250.167 L
658.143 251.143 L
657.167 253.5 L
658.143 255.857 L
660.5 256.833 L
662.857 255.857 L
663.833 253.5 L
cp
f
GR
GS
[0.75 0 0 0.75 0 0] CT
1 LJ
2 LW
N
663.833 253.5 M
663.197 251.541 L
661.53 250.33 L
659.47 250.33 L
657.803 251.541 L
657.167 253.5 L
657.803 255.459 L
659.47 256.67 L
661.53 256.67 L
663.197 255.459 L
cp
S
GR
GS
[0.75 0 0 0.75 0 0] CT
0.149 GC
10.0 ML
0.667 LW
N
642 267 M
642 52 L
735 52 L
735 267 L
cp
S
GR
%%Trailer
%%Pages: 1
%%EOF
