%!PS-Adobe-3.0 EPSF-3.0
%%Creator: (MATLAB, The Mathworks, Inc. Version 9.0.0.341360 \(R2016a\). Operating System: Linux)
%%Title: (/home/shivram/main/Work/1. Research/1. Ongoing/5. LDRP Face/2. Exp/1. Results/PubFigDev/pubfig-arr.eps)
%%CreationDate: 2017-08-16T15:35:12
%%Pages: (atend)
%%BoundingBox: 0 0 573 384
%%LanguageLevel: 3
%%EndComments
%%BeginProlog
%%BeginResource: procset (Apache XML Graphics Std ProcSet) 1.2 0
%%Version: 1.2 0
%%Copyright: (Copyright 2001-2003,2010 The Apache Software Foundation. License terms: http://www.apache.org/licenses/LICENSE-2.0)
/bd{bind def}bind def
/ld{load def}bd
/GR/grestore ld
/M/moveto ld
/LJ/setlinejoin ld
/C/curveto ld
/f/fill ld
/LW/setlinewidth ld
/GC/setgray ld
/t/show ld
/N/newpath ld
/CT/concat ld
/cp/closepath ld
/S/stroke ld
/L/lineto ld
/CC/setcmykcolor ld
/A/ashow ld
/GS/gsave ld
/RC/setrgbcolor ld
/RM/rmoveto ld
/ML/setmiterlimit ld
/re {4 2 roll M
1 index 0 rlineto
0 exch rlineto
neg 0 rlineto
cp } bd
/_ctm matrix def
/_tm matrix def
/BT { _ctm currentmatrix pop matrix _tm copy pop 0 0 moveto } bd
/ET { _ctm setmatrix } bd
/iTm { _ctm setmatrix _tm concat } bd
/Tm { _tm astore pop iTm 0 0 moveto } bd
/ux 0.0 def
/uy 0.0 def
/F {
  /Tp exch def
  /Tf exch def
  Tf findfont Tp scalefont setfont
  /cf Tf def  /cs Tp def
} bd
/ULS {currentpoint /uy exch def /ux exch def} bd
/ULE {
  /Tcx currentpoint pop def
  gsave
  newpath
  cf findfont cs scalefont dup
  /FontMatrix get 0 get /Ts exch def /FontInfo get dup
  /UnderlinePosition get Ts mul /To exch def
  /UnderlineThickness get Ts mul /Tt exch def
  ux uy To add moveto  Tcx uy To add lineto
  Tt setlinewidth stroke
  grestore
} bd
/OLE {
  /Tcx currentpoint pop def
  gsave
  newpath
  cf findfont cs scalefont dup
  /FontMatrix get 0 get /Ts exch def /FontInfo get dup
  /UnderlinePosition get Ts mul /To exch def
  /UnderlineThickness get Ts mul /Tt exch def
  ux uy To add cs add moveto Tcx uy To add cs add lineto
  Tt setlinewidth stroke
  grestore
} bd
/SOE {
  /Tcx currentpoint pop def
  gsave
  newpath
  cf findfont cs scalefont dup
  /FontMatrix get 0 get /Ts exch def /FontInfo get dup
  /UnderlinePosition get Ts mul /To exch def
  /UnderlineThickness get Ts mul /Tt exch def
  ux uy To add cs 10 mul 26 idiv add moveto Tcx uy To add cs 10 mul 26 idiv add lineto
  Tt setlinewidth stroke
  grestore
} bd
/QT {
/Y22 exch store
/X22 exch store
/Y21 exch store
/X21 exch store
currentpoint
/Y21 load 2 mul add 3 div exch
/X21 load 2 mul add 3 div exch
/X21 load 2 mul /X22 load add 3 div
/Y21 load 2 mul /Y22 load add 3 div
/X22 load /Y22 load curveto
} bd
/SSPD {
dup length /d exch dict def
{
/v exch def
/k exch def
currentpagedevice k known {
/cpdv currentpagedevice k get def
v cpdv ne {
/upd false def
/nullv v type /nulltype eq def
/nullcpdv cpdv type /nulltype eq def
nullv nullcpdv or
{
/upd true def
} {
/sametype v type cpdv type eq def
sametype {
v type /arraytype eq {
/vlen v length def
/cpdvlen cpdv length def
vlen cpdvlen eq {
0 1 vlen 1 sub {
/i exch def
/obj v i get def
/cpdobj cpdv i get def
obj cpdobj ne {
/upd true def
exit
} if
} for
} {
/upd true def
} ifelse
} {
v type /dicttype eq {
v {
/dv exch def
/dk exch def
/cpddv cpdv dk get def
dv cpddv ne {
/upd true def
exit
} if
} forall
} {
/upd true def
} ifelse
} ifelse
} if
} ifelse
upd true eq {
d k v put
} if
} if
} if
} forall
d length 0 gt {
d setpagedevice
} if
} bd
%%EndResource
%%BeginResource: procset (Apache XML Graphics EPS ProcSet) 1.0 0
%%Version: 1.0 0
%%Copyright: (Copyright 2002-2003 The Apache Software Foundation. License terms: http://www.apache.org/licenses/LICENSE-2.0)
/BeginEPSF { %def
/b4_Inc_state save def         % Save state for cleanup
/dict_count countdictstack def % Count objects on dict stack
/op_count count 1 sub def      % Count objects on operand stack
userdict begin                 % Push userdict on dict stack
/showpage { } def              % Redefine showpage, { } = null proc
0 setgray 0 setlinecap         % Prepare graphics state
1 setlinewidth 0 setlinejoin
10 setmiterlimit [ ] 0 setdash newpath
/languagelevel where           % If level not equal to 1 then
{pop languagelevel             % set strokeadjust and
1 ne                           % overprint to their defaults.
{false setstrokeadjust false setoverprint
} if
} if
} bd
/EndEPSF { %def
count op_count sub {pop} repeat            % Clean up stacks
countdictstack dict_count sub {end} repeat
b4_Inc_state restore
} bd
%%EndResource
%FOPBeginFontDict
%%IncludeResource: font Courier-Bold
%%IncludeResource: font Helvetica
%%IncludeResource: font Courier-BoldOblique
%%IncludeResource: font Courier-Oblique
%%IncludeResource: font Times-Roman
%%IncludeResource: font Helvetica-BoldOblique
%%IncludeResource: font Helvetica-Bold
%%IncludeResource: font Helvetica-Oblique
%%IncludeResource: font Times-BoldItalic
%%IncludeResource: font Courier
%%IncludeResource: font Times-Italic
%%IncludeResource: font Times-Bold
%%IncludeResource: font Symbol
%%IncludeResource: font ZapfDingbats
%FOPEndFontDict
%%BeginResource: encoding WinAnsiEncoding
/WinAnsiEncoding [
/.notdef /.notdef /.notdef /.notdef /.notdef
/.notdef /.notdef /.notdef /.notdef /.notdef
/.notdef /.notdef /.notdef /.notdef /.notdef
/.notdef /.notdef /.notdef /.notdef /.notdef
/.notdef /.notdef /.notdef /.notdef /.notdef
/.notdef /.notdef /.notdef /.notdef /.notdef
/.notdef /.notdef /space /exclam /quotedbl
/numbersign /dollar /percent /ampersand /quotesingle
/parenleft /parenright /asterisk /plus /comma
/hyphen /period /slash /zero /one
/two /three /four /five /six
/seven /eight /nine /colon /semicolon
/less /equal /greater /question /at
/A /B /C /D /E
/F /G /H /I /J
/K /L /M /N /O
/P /Q /R /S /T
/U /V /W /X /Y
/Z /bracketleft /backslash /bracketright /asciicircum
/underscore /quoteleft /a /b /c
/d /e /f /g /h
/i /j /k /l /m
/n /o /p /q /r
/s /t /u /v /w
/x /y /z /braceleft /bar
/braceright /asciitilde /bullet /Euro /bullet
/quotesinglbase /florin /quotedblbase /ellipsis /dagger
/daggerdbl /circumflex /perthousand /Scaron /guilsinglleft
/OE /bullet /Zcaron /bullet /bullet
/quoteleft /quoteright /quotedblleft /quotedblright /bullet
/endash /emdash /asciitilde /trademark /scaron
/guilsinglright /oe /bullet /zcaron /Ydieresis
/space /exclamdown /cent /sterling /currency
/yen /brokenbar /section /dieresis /copyright
/ordfeminine /guillemotleft /logicalnot /sfthyphen /registered
/macron /degree /plusminus /twosuperior /threesuperior
/acute /mu /paragraph /middot /cedilla
/onesuperior /ordmasculine /guillemotright /onequarter /onehalf
/threequarters /questiondown /Agrave /Aacute /Acircumflex
/Atilde /Adieresis /Aring /AE /Ccedilla
/Egrave /Eacute /Ecircumflex /Edieresis /Igrave
/Iacute /Icircumflex /Idieresis /Eth /Ntilde
/Ograve /Oacute /Ocircumflex /Otilde /Odieresis
/multiply /Oslash /Ugrave /Uacute /Ucircumflex
/Udieresis /Yacute /Thorn /germandbls /agrave
/aacute /acircumflex /atilde /adieresis /aring
/ae /ccedilla /egrave /eacute /ecircumflex
/edieresis /igrave /iacute /icircumflex /idieresis
/eth /ntilde /ograve /oacute /ocircumflex
/otilde /odieresis /divide /oslash /ugrave
/uacute /ucircumflex /udieresis /yacute /thorn
/ydieresis
] def
%%EndResource
%FOPBeginFontReencode
/Courier-Bold findfont
dup length dict begin
  {1 index /FID ne {def} {pop pop} ifelse} forall
  /Encoding WinAnsiEncoding def
  currentdict
end
/Courier-Bold exch definefont pop
/Helvetica findfont
dup length dict begin
  {1 index /FID ne {def} {pop pop} ifelse} forall
  /Encoding WinAnsiEncoding def
  currentdict
end
/Helvetica exch definefont pop
/Courier-BoldOblique findfont
dup length dict begin
  {1 index /FID ne {def} {pop pop} ifelse} forall
  /Encoding WinAnsiEncoding def
  currentdict
end
/Courier-BoldOblique exch definefont pop
/Courier-Oblique findfont
dup length dict begin
  {1 index /FID ne {def} {pop pop} ifelse} forall
  /Encoding WinAnsiEncoding def
  currentdict
end
/Courier-Oblique exch definefont pop
/Times-Roman findfont
dup length dict begin
  {1 index /FID ne {def} {pop pop} ifelse} forall
  /Encoding WinAnsiEncoding def
  currentdict
end
/Times-Roman exch definefont pop
/Helvetica-BoldOblique findfont
dup length dict begin
  {1 index /FID ne {def} {pop pop} ifelse} forall
  /Encoding WinAnsiEncoding def
  currentdict
end
/Helvetica-BoldOblique exch definefont pop
/Helvetica-Bold findfont
dup length dict begin
  {1 index /FID ne {def} {pop pop} ifelse} forall
  /Encoding WinAnsiEncoding def
  currentdict
end
/Helvetica-Bold exch definefont pop
/Helvetica-Oblique findfont
dup length dict begin
  {1 index /FID ne {def} {pop pop} ifelse} forall
  /Encoding WinAnsiEncoding def
  currentdict
end
/Helvetica-Oblique exch definefont pop
/Times-BoldItalic findfont
dup length dict begin
  {1 index /FID ne {def} {pop pop} ifelse} forall
  /Encoding WinAnsiEncoding def
  currentdict
end
/Times-BoldItalic exch definefont pop
/Courier findfont
dup length dict begin
  {1 index /FID ne {def} {pop pop} ifelse} forall
  /Encoding WinAnsiEncoding def
  currentdict
end
/Courier exch definefont pop
/Times-Italic findfont
dup length dict begin
  {1 index /FID ne {def} {pop pop} ifelse} forall
  /Encoding WinAnsiEncoding def
  currentdict
end
/Times-Italic exch definefont pop
/Times-Bold findfont
dup length dict begin
  {1 index /FID ne {def} {pop pop} ifelse} forall
  /Encoding WinAnsiEncoding def
  currentdict
end
/Times-Bold exch definefont pop
%FOPEndFontReencode
%%EndProlog
%%Page: 1 1
%%PageBoundingBox: 0 0 573 384
%%BeginPageSetup
[1 0 0 -1 0 384] CT
%%EndPageSetup
GS
[0.75 0 0 0.75 0 0] CT
1 GC
N
0 0 764 512 re
f
GR
GS
[0.75 0 0 0.75 0 0] CT
1 GC
N
0 0 764 512 re
f
GR
GS
[0.75 0 0 0.75 0 0] CT
1 GC
N
55 442 M
750 442 L
750 39 L
55 39 L
cp
f
GR
GS
[0.75 0 0 0.75 0 0] CT
0.149 GC
2 setlinecap
1 LJ
0.667 LW
N
55 442 M
750 442 L
S
GR
GS
[0.75 0 0 0.75 0 0] CT
0.149 GC
2 setlinecap
1 LJ
0.667 LW
N
55 39 M
750 39 L
S
GR
GS
[0.75 0 0 0.75 0 0] CT
0.149 GC
2 setlinecap
1 LJ
0.667 LW
N
55 442 M
55 435.05 L
S
GR
GS
[0.75 0 0 0.75 0 0] CT
0.149 GC
2 setlinecap
1 LJ
0.667 LW
N
132.222 442 M
132.222 435.05 L
S
GR
GS
[0.75 0 0 0.75 0 0] CT
0.149 GC
2 setlinecap
1 LJ
0.667 LW
N
209.444 442 M
209.444 435.05 L
S
GR
GS
[0.75 0 0 0.75 0 0] CT
0.149 GC
2 setlinecap
1 LJ
0.667 LW
N
286.667 442 M
286.667 435.05 L
S
GR
GS
[0.75 0 0 0.75 0 0] CT
0.149 GC
2 setlinecap
1 LJ
0.667 LW
N
363.889 442 M
363.889 435.05 L
S
GR
GS
[0.75 0 0 0.75 0 0] CT
0.149 GC
2 setlinecap
1 LJ
0.667 LW
N
441.111 442 M
441.111 435.05 L
S
GR
GS
[0.75 0 0 0.75 0 0] CT
0.149 GC
2 setlinecap
1 LJ
0.667 LW
N
518.333 442 M
518.333 435.05 L
S
GR
GS
[0.75 0 0 0.75 0 0] CT
0.149 GC
2 setlinecap
1 LJ
0.667 LW
N
595.556 442 M
595.556 435.05 L
S
GR
GS
[0.75 0 0 0.75 0 0] CT
0.149 GC
2 setlinecap
1 LJ
0.667 LW
N
672.778 442 M
672.778 435.05 L
S
GR
GS
[0.75 0 0 0.75 0 0] CT
0.149 GC
2 setlinecap
1 LJ
0.667 LW
N
750 442 M
750 435.05 L
S
GR
GS
[0.75 0 0 0.75 0 0] CT
0.149 GC
2 setlinecap
1 LJ
0.667 LW
N
55 39 M
55 45.95 L
S
GR
GS
[0.75 0 0 0.75 0 0] CT
0.149 GC
2 setlinecap
1 LJ
0.667 LW
N
132.222 39 M
132.222 45.95 L
S
GR
GS
[0.75 0 0 0.75 0 0] CT
0.149 GC
2 setlinecap
1 LJ
0.667 LW
N
209.444 39 M
209.444 45.95 L
S
GR
GS
[0.75 0 0 0.75 0 0] CT
0.149 GC
2 setlinecap
1 LJ
0.667 LW
N
286.667 39 M
286.667 45.95 L
S
GR
GS
[0.75 0 0 0.75 0 0] CT
0.149 GC
2 setlinecap
1 LJ
0.667 LW
N
363.889 39 M
363.889 45.95 L
S
GR
GS
[0.75 0 0 0.75 0 0] CT
0.149 GC
2 setlinecap
1 LJ
0.667 LW
N
441.111 39 M
441.111 45.95 L
S
GR
GS
[0.75 0 0 0.75 0 0] CT
0.149 GC
2 setlinecap
1 LJ
0.667 LW
N
518.333 39 M
518.333 45.95 L
S
GR
GS
[0.75 0 0 0.75 0 0] CT
0.149 GC
2 setlinecap
1 LJ
0.667 LW
N
595.556 39 M
595.556 45.95 L
S
GR
GS
[0.75 0 0 0.75 0 0] CT
0.149 GC
2 setlinecap
1 LJ
0.667 LW
N
672.778 39 M
672.778 45.95 L
S
GR
GS
[0.75 0 0 0.75 0 0] CT
0.149 GC
2 setlinecap
1 LJ
0.667 LW
N
750 39 M
750 45.95 L
S
GR
GS
[0.75 0 0 0.75 41.25 337.10001] CT
0.149 GC
/Times 24 F
GS
[1 0 0 1 0 0] CT
-8 23 moveto 
1 -1 scale
(1) t 
GR
GR
GS
[0.75 0 0 0.75 99.16667 337.10001] CT
0.149 GC
/Times 24 F
GS
[1 0 0 1 0 0] CT
-8 23 moveto 
1 -1 scale
(2) t 
GR
GR
GS
[0.75 0 0 0.75 157.08333 337.10001] CT
0.149 GC
/Times 24 F
GS
[1 0 0 1 0 0] CT
-8 23 moveto 
1 -1 scale
(3) t 
GR
GR
GS
[0.75 0 0 0.75 214.99999 337.10001] CT
0.149 GC
/Times 24 F
GS
[1 0 0 1 0 0] CT
-8 23 moveto 
1 -1 scale
(4) t 
GR
GR
GS
[0.75 0 0 0.75 272.91666 337.10001] CT
0.149 GC
/Times 24 F
GS
[1 0 0 1 0 0] CT
-8 23 moveto 
1 -1 scale
(5) t 
GR
GR
GS
[0.75 0 0 0.75 330.83334 337.10001] CT
0.149 GC
/Times 24 F
GS
[1 0 0 1 0 0] CT
-8 23 moveto 
1 -1 scale
(6) t 
GR
GR
GS
[0.75 0 0 0.75 388.74998 337.10001] CT
0.149 GC
/Times 24 F
GS
[1 0 0 1 0 0] CT
-8 23 moveto 
1 -1 scale
(7) t 
GR
GR
GS
[0.75 0 0 0.75 446.66666 337.10001] CT
0.149 GC
/Times 24 F
GS
[1 0 0 1 0 0] CT
-8 23 moveto 
1 -1 scale
(8) t 
GR
GR
GS
[0.75 0 0 0.75 504.58333 337.10001] CT
0.149 GC
/Times 24 F
GS
[1 0 0 1 0 0] CT
-8 23 moveto 
1 -1 scale
(9) t 
GR
GR
GS
[0.75 0 0 0.75 562.5 337.10001] CT
0.149 GC
/Times 24 F
GS
[1 0 0 1 0 0] CT
-15.5 23 moveto 
1 -1 scale
(10) t 
GR
GR
GS
[0.75 0 0 0.75 301.87525 359.84999] CT
0.149 GC
/Times 26.4 F
GS
[1 0 0 1 0 0] CT
-156 25 moveto 
1 -1 scale
(Number of Top Matches) t 
GR
GR
GS
[0.75 0 0 0.75 0 0] CT
0.149 GC
2 setlinecap
1 LJ
0.667 LW
N
55 442 M
55 39 L
S
GR
GS
[0.75 0 0 0.75 0 0] CT
0.149 GC
2 setlinecap
1 LJ
0.667 LW
N
750 442 M
750 39 L
S
GR
GS
[0.75 0 0 0.75 0 0] CT
0.149 GC
2 setlinecap
1 LJ
0.667 LW
N
55 417.576 M
61.95 417.576 L
S
GR
GS
[0.75 0 0 0.75 0 0] CT
0.149 GC
2 setlinecap
1 LJ
0.667 LW
N
55 295.455 M
61.95 295.455 L
S
GR
GS
[0.75 0 0 0.75 0 0] CT
0.149 GC
2 setlinecap
1 LJ
0.667 LW
N
55 173.333 M
61.95 173.333 L
S
GR
GS
[0.75 0 0 0.75 0 0] CT
0.149 GC
2 setlinecap
1 LJ
0.667 LW
N
55 51.212 M
61.95 51.212 L
S
GR
GS
[0.75 0 0 0.75 0 0] CT
0.149 GC
2 setlinecap
1 LJ
0.667 LW
N
55 39 M
61.95 39 L
S
GR
GS
[0.75 0 0 0.75 0 0] CT
0.149 GC
2 setlinecap
1 LJ
0.667 LW
N
750 417.576 M
743.05 417.576 L
S
GR
GS
[0.75 0 0 0.75 0 0] CT
0.149 GC
2 setlinecap
1 LJ
0.667 LW
N
750 295.455 M
743.05 295.455 L
S
GR
GS
[0.75 0 0 0.75 0 0] CT
0.149 GC
2 setlinecap
1 LJ
0.667 LW
N
750 173.333 M
743.05 173.333 L
S
GR
GS
[0.75 0 0 0.75 0 0] CT
0.149 GC
2 setlinecap
1 LJ
0.667 LW
N
750 51.212 M
743.05 51.212 L
S
GR
GS
[0.75 0 0 0.75 0 0] CT
0.149 GC
2 setlinecap
1 LJ
0.667 LW
N
750 39 M
743.05 39 L
S
GR
GS
[0.75 0 0 0.75 35.65 313.18181] CT
0.149 GC
/Times 24 F
GS
[1 0 0 1 0 0] CT
-16 8.5 moveto 
1 -1 scale
(2) t 
GR
GR
GS
[0.75 0 0 0.75 35.65 221.59092] CT
0.149 GC
/Times 24 F
GS
[1 0 0 1 0 0] CT
-16 8.5 moveto 
1 -1 scale
(3) t 
GR
GR
GS
[0.75 0 0 0.75 35.65 130] CT
0.149 GC
/Times 24 F
GS
[1 0 0 1 0 0] CT
-16 8.5 moveto 
1 -1 scale
(4) t 
GR
GR
GS
[0.75 0 0 0.75 35.65 38.40909] CT
0.149 GC
/Times 24 F
GS
[1 0 0 1 0 0] CT
-16 8.5 moveto 
1 -1 scale
(5) t 
GR
GR
GS
[0 -0.75 0.75 0 20.65 180.37486] CT
0.149 GC
/Times 26.4 F
GS
[1 0 0 1 0 0] CT
-54 -7 moveto 
1 -1 scale
(ARR \(%\)) t 
GR
GR
GS
[0.75 0 0 0.75 301.87527 25.53751] CT
/Times-Bold 26.4 F
GS
[1 0 0 1 0 0] CT
-124.5 -7 moveto 
1 -1 scale
(PubFig Database) t 
GR
GR
GS
[0.75 0 0 0.75 0 0] CT
1 0.6 0.784 RC
1 LJ
2 LW
N
55 433.19 M
132.222 380.399 L
209.444 347.028 L
286.667 321.732 L
363.889 298.032 L
441.111 272.513 L
518.333 259.337 L
595.556 245.933 L
672.778 234.339 L
750 222.635 L
S
GR
GS
[0.75 0 0 0.75 0 0] CT
1 GC
N
53.278 429.652 M
59.943 433.5 L
53.278 437.348 L
cp
f
GR
GS
[0.75 0 0 0.75 0 0] CT
1 0.6 0.784 RC
10.0 ML
2 LW
N
53.278 429.652 M
59.943 433.5 L
53.278 437.348 L
cp
S
GR
GS
[0.75 0 0 0.75 0 0] CT
1 GC
N
130.278 376.652 M
136.943 380.5 L
130.278 384.348 L
cp
f
GR
GS
[0.75 0 0 0.75 0 0] CT
1 0.6 0.784 RC
10.0 ML
2 LW
N
130.278 376.652 M
136.943 380.5 L
130.278 384.348 L
cp
S
GR
GS
[0.75 0 0 0.75 0 0] CT
1 GC
N
207.278 343.652 M
213.943 347.5 L
207.278 351.348 L
cp
f
GR
GS
[0.75 0 0 0.75 0 0] CT
1 0.6 0.784 RC
10.0 ML
2 LW
N
207.278 343.652 M
213.943 347.5 L
207.278 351.348 L
cp
S
GR
GS
[0.75 0 0 0.75 0 0] CT
1 GC
N
284.278 317.652 M
290.943 321.5 L
284.278 325.348 L
cp
f
GR
GS
[0.75 0 0 0.75 0 0] CT
1 0.6 0.784 RC
10.0 ML
2 LW
N
284.278 317.652 M
290.943 321.5 L
284.278 325.348 L
cp
S
GR
GS
[0.75 0 0 0.75 0 0] CT
1 GC
N
361.278 294.652 M
367.943 298.5 L
361.278 302.348 L
cp
f
GR
GS
[0.75 0 0 0.75 0 0] CT
1 0.6 0.784 RC
10.0 ML
2 LW
N
361.278 294.652 M
367.943 298.5 L
361.278 302.348 L
cp
S
GR
GS
[0.75 0 0 0.75 0 0] CT
1 GC
N
439.278 268.652 M
445.943 272.5 L
439.278 276.348 L
cp
f
GR
GS
[0.75 0 0 0.75 0 0] CT
1 0.6 0.784 RC
10.0 ML
2 LW
N
439.278 268.652 M
445.943 272.5 L
439.278 276.348 L
cp
S
GR
GS
[0.75 0 0 0.75 0 0] CT
1 GC
N
516.278 255.652 M
522.943 259.5 L
516.278 263.348 L
cp
f
GR
GS
[0.75 0 0 0.75 0 0] CT
1 0.6 0.784 RC
10.0 ML
2 LW
N
516.278 255.652 M
522.943 259.5 L
516.278 263.348 L
cp
S
GR
GS
[0.75 0 0 0.75 0 0] CT
1 GC
N
593.278 241.652 M
599.943 245.5 L
593.278 249.348 L
cp
f
GR
GS
[0.75 0 0 0.75 0 0] CT
1 0.6 0.784 RC
10.0 ML
2 LW
N
593.278 241.652 M
599.943 245.5 L
593.278 249.348 L
cp
S
GR
GS
[0.75 0 0 0.75 0 0] CT
1 GC
N
670.278 230.652 M
676.943 234.5 L
670.278 238.348 L
cp
f
GR
GS
[0.75 0 0 0.75 0 0] CT
1 0.6 0.784 RC
10.0 ML
2 LW
N
670.278 230.652 M
676.943 234.5 L
670.278 238.348 L
cp
S
GR
GS
[0.75 0 0 0.75 0 0] CT
1 GC
N
748.278 218.652 M
754.943 222.5 L
748.278 226.348 L
cp
f
GR
GS
[0.75 0 0 0.75 0 0] CT
1 0.6 0.784 RC
10.0 ML
2 LW
N
748.278 218.652 M
754.943 222.5 L
748.278 226.348 L
cp
S
GR
GS
[0.75 0 0 0.75 0 0] CT
0.6 0.2 0 RC
1 LJ
2 LW
N
55 433.19 M
132.222 381.736 L
209.444 345.383 L
286.667 320.474 L
363.889 297.48 L
441.111 273.643 L
518.333 260.674 L
595.556 248.349 L
672.778 236.628 L
750 225.894 L
S
GR
GS
[0.75 0 0 0.75 0 0] CT
1 GC
N
51.057 433.5 M
57.722 429.652 L
57.722 437.348 L
cp
f
GR
GS
[0.75 0 0 0.75 0 0] CT
0.6 0.2 0 RC
10.0 ML
2 LW
N
51.057 433.5 M
57.722 429.652 L
57.722 437.348 L
cp
S
GR
GS
[0.75 0 0 0.75 0 0] CT
1 GC
N
128.057 381.5 M
134.722 377.652 L
134.722 385.348 L
cp
f
GR
GS
[0.75 0 0 0.75 0 0] CT
0.6 0.2 0 RC
10.0 ML
2 LW
N
128.057 381.5 M
134.722 377.652 L
134.722 385.348 L
cp
S
GR
GS
[0.75 0 0 0.75 0 0] CT
1 GC
N
205.057 345.5 M
211.722 341.652 L
211.722 349.348 L
cp
f
GR
GS
[0.75 0 0 0.75 0 0] CT
0.6 0.2 0 RC
10.0 ML
2 LW
N
205.057 345.5 M
211.722 341.652 L
211.722 349.348 L
cp
S
GR
GS
[0.75 0 0 0.75 0 0] CT
1 GC
N
282.057 320.5 M
288.722 316.652 L
288.722 324.348 L
cp
f
GR
GS
[0.75 0 0 0.75 0 0] CT
0.6 0.2 0 RC
10.0 ML
2 LW
N
282.057 320.5 M
288.722 316.652 L
288.722 324.348 L
cp
S
GR
GS
[0.75 0 0 0.75 0 0] CT
1 GC
N
359.057 297.5 M
365.722 293.652 L
365.722 301.348 L
cp
f
GR
GS
[0.75 0 0 0.75 0 0] CT
0.6 0.2 0 RC
10.0 ML
2 LW
N
359.057 297.5 M
365.722 293.652 L
365.722 301.348 L
cp
S
GR
GS
[0.75 0 0 0.75 0 0] CT
1 GC
N
437.057 273.5 M
443.722 269.652 L
443.722 277.348 L
cp
f
GR
GS
[0.75 0 0 0.75 0 0] CT
0.6 0.2 0 RC
10.0 ML
2 LW
N
437.057 273.5 M
443.722 269.652 L
443.722 277.348 L
cp
S
GR
GS
[0.75 0 0 0.75 0 0] CT
1 GC
N
514.057 260.5 M
520.722 256.652 L
520.722 264.348 L
cp
f
GR
GS
[0.75 0 0 0.75 0 0] CT
0.6 0.2 0 RC
10.0 ML
2 LW
N
514.057 260.5 M
520.722 256.652 L
520.722 264.348 L
cp
S
GR
GS
[0.75 0 0 0.75 0 0] CT
1 GC
N
591.057 248.5 M
597.722 244.652 L
597.722 252.348 L
cp
f
GR
GS
[0.75 0 0 0.75 0 0] CT
0.6 0.2 0 RC
10.0 ML
2 LW
N
591.057 248.5 M
597.722 244.652 L
597.722 252.348 L
cp
S
GR
GS
[0.75 0 0 0.75 0 0] CT
1 GC
N
668.057 236.5 M
674.722 232.652 L
674.722 240.348 L
cp
f
GR
GS
[0.75 0 0 0.75 0 0] CT
0.6 0.2 0 RC
10.0 ML
2 LW
N
668.057 236.5 M
674.722 232.652 L
674.722 240.348 L
cp
S
GR
GS
[0.75 0 0 0.75 0 0] CT
1 GC
N
746.057 225.5 M
752.722 221.652 L
752.722 229.348 L
cp
f
GR
GS
[0.75 0 0 0.75 0 0] CT
0.6 0.2 0 RC
10.0 ML
2 LW
N
746.057 225.5 M
752.722 221.652 L
752.722 229.348 L
cp
S
GR
GS
[0.75 0 0 0.75 0 0] CT
0.929 0.694 0.125 RC
1 LJ
2 LW
N
55 433.19 M
132.222 394.788 L
209.444 366.966 L
286.667 343.6 L
363.889 321.202 L
441.111 298.787 L
518.333 286.54 L
595.556 274.486 L
672.778 263.33 L
750 255.457 L
S
GR
GS
[0.75 0 0 0.75 0 0] CT
1 GC
N
52.33 432.47 M
54.716 432.47 L
55.5 430.167 L
56.284 432.47 L
58.67 432.47 L
56.768 433.912 L
57.459 436.197 L
55.5 434.833 L
53.541 436.197 L
54.232 433.912 L
52.33 432.47 L
cp
f
GR
GS
[0.75 0 0 0.75 0 0] CT
0.929 0.694 0.125 RC
10.0 ML
2 LW
N
52.33 432.47 M
54.716 432.47 L
55.5 430.167 L
56.284 432.47 L
58.67 432.47 L
56.768 433.912 L
57.459 436.197 L
55.5 434.833 L
53.541 436.197 L
54.232 433.912 L
cp
S
GR
GS
[0.75 0 0 0.75 0 0] CT
1 GC
N
129.33 393.47 M
131.716 393.47 L
132.5 391.167 L
133.284 393.47 L
135.67 393.47 L
133.768 394.912 L
134.459 397.197 L
132.5 395.833 L
130.541 397.197 L
131.232 394.912 L
129.33 393.47 L
cp
f
GR
GS
[0.75 0 0 0.75 0 0] CT
0.929 0.694 0.125 RC
10.0 ML
2 LW
N
129.33 393.47 M
131.716 393.47 L
132.5 391.167 L
133.284 393.47 L
135.67 393.47 L
133.768 394.912 L
134.459 397.197 L
132.5 395.833 L
130.541 397.197 L
131.232 394.912 L
cp
S
GR
GS
[0.75 0 0 0.75 0 0] CT
1 GC
N
206.33 365.47 M
208.716 365.47 L
209.5 363.167 L
210.284 365.47 L
212.67 365.47 L
210.768 366.912 L
211.459 369.197 L
209.5 367.833 L
207.541 369.197 L
208.232 366.912 L
206.33 365.47 L
cp
f
GR
GS
[0.75 0 0 0.75 0 0] CT
0.929 0.694 0.125 RC
10.0 ML
2 LW
N
206.33 365.47 M
208.716 365.47 L
209.5 363.167 L
210.284 365.47 L
212.67 365.47 L
210.768 366.912 L
211.459 369.197 L
209.5 367.833 L
207.541 369.197 L
208.232 366.912 L
cp
S
GR
GS
[0.75 0 0 0.75 0 0] CT
1 GC
N
283.33 342.47 M
285.716 342.47 L
286.5 340.167 L
287.284 342.47 L
289.67 342.47 L
287.768 343.912 L
288.459 346.197 L
286.5 344.833 L
284.541 346.197 L
285.232 343.912 L
283.33 342.47 L
cp
f
GR
GS
[0.75 0 0 0.75 0 0] CT
0.929 0.694 0.125 RC
10.0 ML
2 LW
N
283.33 342.47 M
285.716 342.47 L
286.5 340.167 L
287.284 342.47 L
289.67 342.47 L
287.768 343.912 L
288.459 346.197 L
286.5 344.833 L
284.541 346.197 L
285.232 343.912 L
cp
S
GR
GS
[0.75 0 0 0.75 0 0] CT
1 GC
N
360.33 320.47 M
362.716 320.47 L
363.5 318.167 L
364.284 320.47 L
366.67 320.47 L
364.768 321.912 L
365.459 324.197 L
363.5 322.833 L
361.541 324.197 L
362.232 321.912 L
360.33 320.47 L
cp
f
GR
GS
[0.75 0 0 0.75 0 0] CT
0.929 0.694 0.125 RC
10.0 ML
2 LW
N
360.33 320.47 M
362.716 320.47 L
363.5 318.167 L
364.284 320.47 L
366.67 320.47 L
364.768 321.912 L
365.459 324.197 L
363.5 322.833 L
361.541 324.197 L
362.232 321.912 L
cp
S
GR
GS
[0.75 0 0 0.75 0 0] CT
1 GC
N
438.33 297.47 M
440.716 297.47 L
441.5 295.167 L
442.284 297.47 L
444.67 297.47 L
442.768 298.912 L
443.459 301.197 L
441.5 299.833 L
439.541 301.197 L
440.232 298.912 L
438.33 297.47 L
cp
f
GR
GS
[0.75 0 0 0.75 0 0] CT
0.929 0.694 0.125 RC
10.0 ML
2 LW
N
438.33 297.47 M
440.716 297.47 L
441.5 295.167 L
442.284 297.47 L
444.67 297.47 L
442.768 298.912 L
443.459 301.197 L
441.5 299.833 L
439.541 301.197 L
440.232 298.912 L
cp
S
GR
GS
[0.75 0 0 0.75 0 0] CT
1 GC
N
515.33 285.47 M
517.716 285.47 L
518.5 283.167 L
519.284 285.47 L
521.67 285.47 L
519.768 286.912 L
520.459 289.197 L
518.5 287.833 L
516.541 289.197 L
517.232 286.912 L
515.33 285.47 L
cp
f
GR
GS
[0.75 0 0 0.75 0 0] CT
0.929 0.694 0.125 RC
10.0 ML
2 LW
N
515.33 285.47 M
517.716 285.47 L
518.5 283.167 L
519.284 285.47 L
521.67 285.47 L
519.768 286.912 L
520.459 289.197 L
518.5 287.833 L
516.541 289.197 L
517.232 286.912 L
cp
S
GR
GS
[0.75 0 0 0.75 0 0] CT
1 GC
N
592.33 273.47 M
594.716 273.47 L
595.5 271.167 L
596.284 273.47 L
598.67 273.47 L
596.768 274.912 L
597.459 277.197 L
595.5 275.833 L
593.541 277.197 L
594.232 274.912 L
592.33 273.47 L
cp
f
GR
GS
[0.75 0 0 0.75 0 0] CT
0.929 0.694 0.125 RC
10.0 ML
2 LW
N
592.33 273.47 M
594.716 273.47 L
595.5 271.167 L
596.284 273.47 L
598.67 273.47 L
596.768 274.912 L
597.459 277.197 L
595.5 275.833 L
593.541 277.197 L
594.232 274.912 L
cp
S
GR
GS
[0.75 0 0 0.75 0 0] CT
1 GC
N
669.33 262.47 M
671.716 262.47 L
672.5 260.167 L
673.284 262.47 L
675.67 262.47 L
673.768 263.912 L
674.459 266.197 L
672.5 264.833 L
670.541 266.197 L
671.232 263.912 L
669.33 262.47 L
cp
f
GR
GS
[0.75 0 0 0.75 0 0] CT
0.929 0.694 0.125 RC
10.0 ML
2 LW
N
669.33 262.47 M
671.716 262.47 L
672.5 260.167 L
673.284 262.47 L
675.67 262.47 L
673.768 263.912 L
674.459 266.197 L
672.5 264.833 L
670.541 266.197 L
671.232 263.912 L
cp
S
GR
GS
[0.75 0 0 0.75 0 0] CT
1 GC
N
747.33 254.47 M
749.716 254.47 L
750.5 252.167 L
751.284 254.47 L
753.67 254.47 L
751.768 255.912 L
752.459 258.197 L
750.5 256.833 L
748.541 258.197 L
749.232 255.912 L
747.33 254.47 L
cp
f
GR
GS
[0.75 0 0 0.75 0 0] CT
0.929 0.694 0.125 RC
10.0 ML
2 LW
N
747.33 254.47 M
749.716 254.47 L
750.5 252.167 L
751.284 254.47 L
753.67 254.47 L
751.768 255.912 L
752.459 258.197 L
750.5 256.833 L
748.541 258.197 L
749.232 255.912 L
cp
S
GR
GS
[0.75 0 0 0.75 0 0] CT
0 1 1 RC
1 LJ
2 LW
N
55 433.19 M
132.222 386.811 L
209.444 357.71 L
286.667 334.901 L
363.889 311.434 L
441.111 292.614 L
518.333 282.037 L
595.556 273.321 L
672.778 264.298 L
750 256.872 L
S
GR
GS
[0.75 0 0 0.75 0 0] CT
1 GC
N
55.5 437.943 M
58.833 433.5 L
55.5 429.057 L
52.167 433.5 L
cp
f
GR
GS
[0.75 0 0 0.75 0 0] CT
0 1 1 RC
10.0 ML
2 LW
N
55.5 437.943 M
58.833 433.5 L
55.5 429.057 L
52.167 433.5 L
cp
S
GR
GS
[0.75 0 0 0.75 0 0] CT
1 GC
N
132.5 390.943 M
135.833 386.5 L
132.5 382.057 L
129.167 386.5 L
cp
f
GR
GS
[0.75 0 0 0.75 0 0] CT
0 1 1 RC
10.0 ML
2 LW
N
132.5 390.943 M
135.833 386.5 L
132.5 382.057 L
129.167 386.5 L
cp
S
GR
GS
[0.75 0 0 0.75 0 0] CT
1 GC
N
209.5 361.943 M
212.833 357.5 L
209.5 353.057 L
206.167 357.5 L
cp
f
GR
GS
[0.75 0 0 0.75 0 0] CT
0 1 1 RC
10.0 ML
2 LW
N
209.5 361.943 M
212.833 357.5 L
209.5 353.057 L
206.167 357.5 L
cp
S
GR
GS
[0.75 0 0 0.75 0 0] CT
1 GC
N
286.5 338.943 M
289.833 334.5 L
286.5 330.057 L
283.167 334.5 L
cp
f
GR
GS
[0.75 0 0 0.75 0 0] CT
0 1 1 RC
10.0 ML
2 LW
N
286.5 338.943 M
289.833 334.5 L
286.5 330.057 L
283.167 334.5 L
cp
S
GR
GS
[0.75 0 0 0.75 0 0] CT
1 GC
N
363.5 315.943 M
366.833 311.5 L
363.5 307.057 L
360.167 311.5 L
cp
f
GR
GS
[0.75 0 0 0.75 0 0] CT
0 1 1 RC
10.0 ML
2 LW
N
363.5 315.943 M
366.833 311.5 L
363.5 307.057 L
360.167 311.5 L
cp
S
GR
GS
[0.75 0 0 0.75 0 0] CT
1 GC
N
441.5 296.943 M
444.833 292.5 L
441.5 288.057 L
438.167 292.5 L
cp
f
GR
GS
[0.75 0 0 0.75 0 0] CT
0 1 1 RC
10.0 ML
2 LW
N
441.5 296.943 M
444.833 292.5 L
441.5 288.057 L
438.167 292.5 L
cp
S
GR
GS
[0.75 0 0 0.75 0 0] CT
1 GC
N
518.5 286.943 M
521.833 282.5 L
518.5 278.057 L
515.167 282.5 L
cp
f
GR
GS
[0.75 0 0 0.75 0 0] CT
0 1 1 RC
10.0 ML
2 LW
N
518.5 286.943 M
521.833 282.5 L
518.5 278.057 L
515.167 282.5 L
cp
S
GR
GS
[0.75 0 0 0.75 0 0] CT
1 GC
N
595.5 277.943 M
598.833 273.5 L
595.5 269.057 L
592.167 273.5 L
cp
f
GR
GS
[0.75 0 0 0.75 0 0] CT
0 1 1 RC
10.0 ML
2 LW
N
595.5 277.943 M
598.833 273.5 L
595.5 269.057 L
592.167 273.5 L
cp
S
GR
GS
[0.75 0 0 0.75 0 0] CT
1 GC
N
672.5 268.943 M
675.833 264.5 L
672.5 260.057 L
669.167 264.5 L
cp
f
GR
GS
[0.75 0 0 0.75 0 0] CT
0 1 1 RC
10.0 ML
2 LW
N
672.5 268.943 M
675.833 264.5 L
672.5 260.057 L
669.167 264.5 L
cp
S
GR
GS
[0.75 0 0 0.75 0 0] CT
1 GC
N
750.5 260.943 M
753.833 256.5 L
750.5 252.057 L
747.167 256.5 L
cp
f
GR
GS
[0.75 0 0 0.75 0 0] CT
0 1 1 RC
10.0 ML
2 LW
N
750.5 260.943 M
753.833 256.5 L
750.5 252.057 L
747.167 256.5 L
cp
S
GR
GS
[0.75 0 0 0.75 0 0] CT
0 1 0 RC
1 LJ
2 LW
N
55 433.19 M
132.222 367.416 L
209.444 324.587 L
286.667 291.488 L
363.889 259.389 L
441.111 234.152 L
518.333 215.752 L
595.556 201.491 L
672.778 188.621 L
750 169.519 L
S
GR
GS
[0.75 0 0 0.75 0 0] CT
1 GC
N
52.9 436.1 M
52.9 430.9 L
58.1 430.9 L
58.1 436.1 L
cp
f
GR
GS
[0.75 0 0 0.75 0 0] CT
0 1 0 RC
10.0 ML
2 LW
N
52.9 436.1 M
52.9 430.9 L
58.1 430.9 L
58.1 436.1 L
cp
S
GR
GS
[0.75 0 0 0.75 0 0] CT
1 GC
N
129.9 370.1 M
129.9 364.9 L
135.1 364.9 L
135.1 370.1 L
cp
f
GR
GS
[0.75 0 0 0.75 0 0] CT
0 1 0 RC
10.0 ML
2 LW
N
129.9 370.1 M
129.9 364.9 L
135.1 364.9 L
135.1 370.1 L
cp
S
GR
GS
[0.75 0 0 0.75 0 0] CT
1 GC
N
206.9 327.1 M
206.9 321.9 L
212.1 321.9 L
212.1 327.1 L
cp
f
GR
GS
[0.75 0 0 0.75 0 0] CT
0 1 0 RC
10.0 ML
2 LW
N
206.9 327.1 M
206.9 321.9 L
212.1 321.9 L
212.1 327.1 L
cp
S
GR
GS
[0.75 0 0 0.75 0 0] CT
1 GC
N
283.9 294.1 M
283.9 288.9 L
289.1 288.9 L
289.1 294.1 L
cp
f
GR
GS
[0.75 0 0 0.75 0 0] CT
0 1 0 RC
10.0 ML
2 LW
N
283.9 294.1 M
283.9 288.9 L
289.1 288.9 L
289.1 294.1 L
cp
S
GR
GS
[0.75 0 0 0.75 0 0] CT
1 GC
N
360.9 262.1 M
360.9 256.9 L
366.1 256.9 L
366.1 262.1 L
cp
f
GR
GS
[0.75 0 0 0.75 0 0] CT
0 1 0 RC
10.0 ML
2 LW
N
360.9 262.1 M
360.9 256.9 L
366.1 256.9 L
366.1 262.1 L
cp
S
GR
GS
[0.75 0 0 0.75 0 0] CT
1 GC
N
438.9 237.1 M
438.9 231.9 L
444.1 231.9 L
444.1 237.1 L
cp
f
GR
GS
[0.75 0 0 0.75 0 0] CT
0 1 0 RC
10.0 ML
2 LW
N
438.9 237.1 M
438.9 231.9 L
444.1 231.9 L
444.1 237.1 L
cp
S
GR
GS
[0.75 0 0 0.75 0 0] CT
1 GC
N
515.9 218.1 M
515.9 212.9 L
521.1 212.9 L
521.1 218.1 L
cp
f
GR
GS
[0.75 0 0 0.75 0 0] CT
0 1 0 RC
10.0 ML
2 LW
N
515.9 218.1 M
515.9 212.9 L
521.1 212.9 L
521.1 218.1 L
cp
S
GR
GS
[0.75 0 0 0.75 0 0] CT
1 GC
N
592.9 204.1 M
592.9 198.9 L
598.1 198.9 L
598.1 204.1 L
cp
f
GR
GS
[0.75 0 0 0.75 0 0] CT
0 1 0 RC
10.0 ML
2 LW
N
592.9 204.1 M
592.9 198.9 L
598.1 198.9 L
598.1 204.1 L
cp
S
GR
GS
[0.75 0 0 0.75 0 0] CT
1 GC
N
669.9 191.1 M
669.9 185.9 L
675.1 185.9 L
675.1 191.1 L
cp
f
GR
GS
[0.75 0 0 0.75 0 0] CT
0 1 0 RC
10.0 ML
2 LW
N
669.9 191.1 M
669.9 185.9 L
675.1 185.9 L
675.1 191.1 L
cp
S
GR
GS
[0.75 0 0 0.75 0 0] CT
1 GC
N
747.9 172.1 M
747.9 166.9 L
753.1 166.9 L
753.1 172.1 L
cp
f
GR
GS
[0.75 0 0 0.75 0 0] CT
0 1 0 RC
10.0 ML
2 LW
N
747.9 172.1 M
747.9 166.9 L
753.1 166.9 L
753.1 172.1 L
cp
S
GR
GS
[0.75 0 0 0.75 0 0] CT
0 0 1 RC
1 LJ
2 LW
N
55 433.19 M
132.222 397.391 L
209.444 375.383 L
286.667 356.556 L
363.889 339.462 L
441.111 322.562 L
518.333 313.728 L
595.556 305.029 L
672.778 296.768 L
750 288.205 L
S
GR
GS
[0.75 0 0 0.75 0 0] CT
1 GC
N
51.057 433.5 M
57.722 429.652 L
57.722 437.348 L
cp
f
GR
GS
[0.75 0 0 0.75 0 0] CT
0 0 1 RC
10.0 ML
2 LW
N
51.057 433.5 M
57.722 429.652 L
57.722 437.348 L
cp
S
GR
GS
[0.75 0 0 0.75 0 0] CT
1 GC
N
128.057 397.5 M
134.722 393.652 L
134.722 401.348 L
cp
f
GR
GS
[0.75 0 0 0.75 0 0] CT
0 0 1 RC
10.0 ML
2 LW
N
128.057 397.5 M
134.722 393.652 L
134.722 401.348 L
cp
S
GR
GS
[0.75 0 0 0.75 0 0] CT
1 GC
N
205.057 375.5 M
211.722 371.652 L
211.722 379.348 L
cp
f
GR
GS
[0.75 0 0 0.75 0 0] CT
0 0 1 RC
10.0 ML
2 LW
N
205.057 375.5 M
211.722 371.652 L
211.722 379.348 L
cp
S
GR
GS
[0.75 0 0 0.75 0 0] CT
1 GC
N
282.057 356.5 M
288.722 352.652 L
288.722 360.348 L
cp
f
GR
GS
[0.75 0 0 0.75 0 0] CT
0 0 1 RC
10.0 ML
2 LW
N
282.057 356.5 M
288.722 352.652 L
288.722 360.348 L
cp
S
GR
GS
[0.75 0 0 0.75 0 0] CT
1 GC
N
359.057 339.5 M
365.722 335.652 L
365.722 343.348 L
cp
f
GR
GS
[0.75 0 0 0.75 0 0] CT
0 0 1 RC
10.0 ML
2 LW
N
359.057 339.5 M
365.722 335.652 L
365.722 343.348 L
cp
S
GR
GS
[0.75 0 0 0.75 0 0] CT
1 GC
N
437.057 322.5 M
443.722 318.652 L
443.722 326.348 L
cp
f
GR
GS
[0.75 0 0 0.75 0 0] CT
0 0 1 RC
10.0 ML
2 LW
N
437.057 322.5 M
443.722 318.652 L
443.722 326.348 L
cp
S
GR
GS
[0.75 0 0 0.75 0 0] CT
1 GC
N
514.057 313.5 M
520.722 309.652 L
520.722 317.348 L
cp
f
GR
GS
[0.75 0 0 0.75 0 0] CT
0 0 1 RC
10.0 ML
2 LW
N
514.057 313.5 M
520.722 309.652 L
520.722 317.348 L
cp
S
GR
GS
[0.75 0 0 0.75 0 0] CT
1 GC
N
591.057 305.5 M
597.722 301.652 L
597.722 309.348 L
cp
f
GR
GS
[0.75 0 0 0.75 0 0] CT
0 0 1 RC
10.0 ML
2 LW
N
591.057 305.5 M
597.722 301.652 L
597.722 309.348 L
cp
S
GR
GS
[0.75 0 0 0.75 0 0] CT
1 GC
N
668.057 296.5 M
674.722 292.652 L
674.722 300.348 L
cp
f
GR
GS
[0.75 0 0 0.75 0 0] CT
0 0 1 RC
10.0 ML
2 LW
N
668.057 296.5 M
674.722 292.652 L
674.722 300.348 L
cp
S
GR
GS
[0.75 0 0 0.75 0 0] CT
1 GC
N
746.057 288.5 M
752.722 284.652 L
752.722 292.348 L
cp
f
GR
GS
[0.75 0 0 0.75 0 0] CT
0 0 1 RC
10.0 ML
2 LW
N
746.057 288.5 M
752.722 284.652 L
752.722 292.348 L
cp
S
GR
GS
[0.75 0 0 0.75 0 0] CT
1 0 1 RC
1 LJ
2 LW
N
55 433.19 M
132.222 355.893 L
209.444 310.869 L
286.667 277.711 L
363.889 248.065 L
441.111 219.307 L
518.333 202.292 L
595.556 185.855 L
672.778 170.509 L
750 156.559 L
S
GR
GS
[0.75 0 0 0.75 0 0] CT
1 0 1 RC
1 LJ
2 LW
N
52 433.5 M
59 433.5 L
S
GR
GS
[0.75 0 0 0.75 0 0] CT
1 0 1 RC
1 LJ
2 LW
N
55.5 437 M
55.5 430 L
S
GR
GS
[0.75 0 0 0.75 0 0] CT
1 0 1 RC
1 LJ
2 LW
N
129 355.5 M
136 355.5 L
S
GR
GS
[0.75 0 0 0.75 0 0] CT
1 0 1 RC
1 LJ
2 LW
N
132.5 359 M
132.5 352 L
S
GR
GS
[0.75 0 0 0.75 0 0] CT
1 0 1 RC
1 LJ
2 LW
N
206 310.5 M
213 310.5 L
S
GR
GS
[0.75 0 0 0.75 0 0] CT
1 0 1 RC
1 LJ
2 LW
N
209.5 314 M
209.5 307 L
S
GR
GS
[0.75 0 0 0.75 0 0] CT
1 0 1 RC
1 LJ
2 LW
N
283 277.5 M
290 277.5 L
S
GR
GS
[0.75 0 0 0.75 0 0] CT
1 0 1 RC
1 LJ
2 LW
N
286.5 281 M
286.5 274 L
S
GR
GS
[0.75 0 0 0.75 0 0] CT
1 0 1 RC
1 LJ
2 LW
N
360 248.5 M
367 248.5 L
S
GR
GS
[0.75 0 0 0.75 0 0] CT
1 0 1 RC
1 LJ
2 LW
N
363.5 252 M
363.5 245 L
S
GR
GS
[0.75 0 0 0.75 0 0] CT
1 0 1 RC
1 LJ
2 LW
N
438 219.5 M
445 219.5 L
S
GR
GS
[0.75 0 0 0.75 0 0] CT
1 0 1 RC
1 LJ
2 LW
N
441.5 223 M
441.5 216 L
S
GR
GS
[0.75 0 0 0.75 0 0] CT
1 0 1 RC
1 LJ
2 LW
N
515 202.5 M
522 202.5 L
S
GR
GS
[0.75 0 0 0.75 0 0] CT
1 0 1 RC
1 LJ
2 LW
N
518.5 206 M
518.5 199 L
S
GR
GS
[0.75 0 0 0.75 0 0] CT
1 0 1 RC
1 LJ
2 LW
N
592 185.5 M
599 185.5 L
S
GR
GS
[0.75 0 0 0.75 0 0] CT
1 0 1 RC
1 LJ
2 LW
N
595.5 189 M
595.5 182 L
S
GR
GS
[0.75 0 0 0.75 0 0] CT
1 0 1 RC
1 LJ
2 LW
N
669 170.5 M
676 170.5 L
S
GR
GS
[0.75 0 0 0.75 0 0] CT
1 0 1 RC
1 LJ
2 LW
N
672.5 174 M
672.5 167 L
S
GR
GS
[0.75 0 0 0.75 0 0] CT
1 0 1 RC
1 LJ
2 LW
N
747 156.5 M
754 156.5 L
S
GR
GS
[0.75 0 0 0.75 0 0] CT
1 0 1 RC
1 LJ
2 LW
N
750.5 160 M
750.5 153 L
S
GR
GS
[0.75 0 0 0.75 0 0] CT
1 0 0 RC
1 LJ
2 LW
N
55 433.19 M
132.222 337.725 L
209.444 269.544 L
286.667 220.852 L
363.889 178.469 L
441.111 137.264 L
518.333 110.983 L
595.556 87.016 L
672.778 64.578 L
750 43.421 L
S
GR
GS
[0.75 0 0 0.75 0 0] CT
1 GC
N
52.9 436.1 M
52.9 430.9 L
58.1 430.9 L
58.1 436.1 L
cp
f
GR
GS
[0.75 0 0 0.75 0 0] CT
1 0 0 RC
10.0 ML
2 LW
N
52.9 436.1 M
52.9 430.9 L
58.1 430.9 L
58.1 436.1 L
cp
S
GR
GS
[0.75 0 0 0.75 0 0] CT
1 GC
N
129.9 340.1 M
129.9 334.9 L
135.1 334.9 L
135.1 340.1 L
cp
f
GR
GS
[0.75 0 0 0.75 0 0] CT
1 0 0 RC
10.0 ML
2 LW
N
129.9 340.1 M
129.9 334.9 L
135.1 334.9 L
135.1 340.1 L
cp
S
GR
GS
[0.75 0 0 0.75 0 0] CT
1 GC
N
206.9 272.1 M
206.9 266.9 L
212.1 266.9 L
212.1 272.1 L
cp
f
GR
GS
[0.75 0 0 0.75 0 0] CT
1 0 0 RC
10.0 ML
2 LW
N
206.9 272.1 M
206.9 266.9 L
212.1 266.9 L
212.1 272.1 L
cp
S
GR
GS
[0.75 0 0 0.75 0 0] CT
1 GC
N
283.9 223.1 M
283.9 217.9 L
289.1 217.9 L
289.1 223.1 L
cp
f
GR
GS
[0.75 0 0 0.75 0 0] CT
1 0 0 RC
10.0 ML
2 LW
N
283.9 223.1 M
283.9 217.9 L
289.1 217.9 L
289.1 223.1 L
cp
S
GR
GS
[0.75 0 0 0.75 0 0] CT
1 GC
N
360.9 181.1 M
360.9 175.9 L
366.1 175.9 L
366.1 181.1 L
cp
f
GR
GS
[0.75 0 0 0.75 0 0] CT
1 0 0 RC
10.0 ML
2 LW
N
360.9 181.1 M
360.9 175.9 L
366.1 175.9 L
366.1 181.1 L
cp
S
GR
GS
[0.75 0 0 0.75 0 0] CT
1 GC
N
438.9 140.1 M
438.9 134.9 L
444.1 134.9 L
444.1 140.1 L
cp
f
GR
GS
[0.75 0 0 0.75 0 0] CT
1 0 0 RC
10.0 ML
2 LW
N
438.9 140.1 M
438.9 134.9 L
444.1 134.9 L
444.1 140.1 L
cp
S
GR
GS
[0.75 0 0 0.75 0 0] CT
1 GC
N
515.9 113.1 M
515.9 107.9 L
521.1 107.9 L
521.1 113.1 L
cp
f
GR
GS
[0.75 0 0 0.75 0 0] CT
1 0 0 RC
10.0 ML
2 LW
N
515.9 113.1 M
515.9 107.9 L
521.1 107.9 L
521.1 113.1 L
cp
S
GR
GS
[0.75 0 0 0.75 0 0] CT
1 GC
N
592.9 90.1 M
592.9 84.9 L
598.1 84.9 L
598.1 90.1 L
cp
f
GR
GS
[0.75 0 0 0.75 0 0] CT
1 0 0 RC
10.0 ML
2 LW
N
592.9 90.1 M
592.9 84.9 L
598.1 84.9 L
598.1 90.1 L
cp
S
GR
GS
[0.75 0 0 0.75 0 0] CT
1 GC
N
669.9 67.1 M
669.9 61.9 L
675.1 61.9 L
675.1 67.1 L
cp
f
GR
GS
[0.75 0 0 0.75 0 0] CT
1 0 0 RC
10.0 ML
2 LW
N
669.9 67.1 M
669.9 61.9 L
675.1 61.9 L
675.1 67.1 L
cp
S
GR
GS
[0.75 0 0 0.75 0 0] CT
1 GC
N
747.9 46.1 M
747.9 40.9 L
753.1 40.9 L
753.1 46.1 L
cp
f
GR
GS
[0.75 0 0 0.75 0 0] CT
1 0 0 RC
10.0 ML
2 LW
N
747.9 46.1 M
747.9 40.9 L
753.1 40.9 L
753.1 46.1 L
cp
S
GR
GS
[0.75 0 0 0.75 0 0] CT
1 LJ
2 LW
N
55 433.19 M
132.222 329.697 L
209.444 265.871 L
286.667 214.856 L
363.889 169.871 L
441.111 133.412 L
518.333 107.628 L
595.556 83.802 L
672.778 62.211 L
750 41.469 L
S
GR
GS
[0.75 0 0 0.75 0 0] CT
1 GC
N
58.833 433.5 M
57.857 431.143 L
55.5 430.167 L
53.143 431.143 L
52.167 433.5 L
53.143 435.857 L
55.5 436.833 L
57.857 435.857 L
58.833 433.5 L
cp
f
GR
GS
[0.75 0 0 0.75 0 0] CT
1 LJ
2 LW
N
58.833 433.5 M
58.197 431.541 L
56.53 430.33 L
54.47 430.33 L
52.803 431.541 L
52.167 433.5 L
52.803 435.459 L
54.47 436.67 L
56.53 436.67 L
58.197 435.459 L
cp
S
GR
GS
[0.75 0 0 0.75 0 0] CT
1 GC
N
135.833 329.5 M
134.857 327.143 L
132.5 326.167 L
130.143 327.143 L
129.167 329.5 L
130.143 331.857 L
132.5 332.833 L
134.857 331.857 L
135.833 329.5 L
cp
f
GR
GS
[0.75 0 0 0.75 0 0] CT
1 LJ
2 LW
N
135.833 329.5 M
135.197 327.541 L
133.53 326.33 L
131.47 326.33 L
129.803 327.541 L
129.167 329.5 L
129.803 331.459 L
131.47 332.67 L
133.53 332.67 L
135.197 331.459 L
cp
S
GR
GS
[0.75 0 0 0.75 0 0] CT
1 GC
N
212.833 265.5 M
211.857 263.143 L
209.5 262.167 L
207.143 263.143 L
206.167 265.5 L
207.143 267.857 L
209.5 268.833 L
211.857 267.857 L
212.833 265.5 L
cp
f
GR
GS
[0.75 0 0 0.75 0 0] CT
1 LJ
2 LW
N
212.833 265.5 M
212.197 263.541 L
210.53 262.33 L
208.47 262.33 L
206.803 263.541 L
206.167 265.5 L
206.803 267.459 L
208.47 268.67 L
210.53 268.67 L
212.197 267.459 L
cp
S
GR
GS
[0.75 0 0 0.75 0 0] CT
1 GC
N
289.833 214.5 M
288.857 212.143 L
286.5 211.167 L
284.143 212.143 L
283.167 214.5 L
284.143 216.857 L
286.5 217.833 L
288.857 216.857 L
289.833 214.5 L
cp
f
GR
GS
[0.75 0 0 0.75 0 0] CT
1 LJ
2 LW
N
289.833 214.5 M
289.197 212.541 L
287.53 211.33 L
285.47 211.33 L
283.803 212.541 L
283.167 214.5 L
283.803 216.459 L
285.47 217.67 L
287.53 217.67 L
289.197 216.459 L
cp
S
GR
GS
[0.75 0 0 0.75 0 0] CT
1 GC
N
366.833 169.5 M
365.857 167.143 L
363.5 166.167 L
361.143 167.143 L
360.167 169.5 L
361.143 171.857 L
363.5 172.833 L
365.857 171.857 L
366.833 169.5 L
cp
f
GR
GS
[0.75 0 0 0.75 0 0] CT
1 LJ
2 LW
N
366.833 169.5 M
366.197 167.541 L
364.53 166.33 L
362.47 166.33 L
360.803 167.541 L
360.167 169.5 L
360.803 171.459 L
362.47 172.67 L
364.53 172.67 L
366.197 171.459 L
cp
S
GR
GS
[0.75 0 0 0.75 0 0] CT
1 GC
N
444.833 133.5 M
443.857 131.143 L
441.5 130.167 L
439.143 131.143 L
438.167 133.5 L
439.143 135.857 L
441.5 136.833 L
443.857 135.857 L
444.833 133.5 L
cp
f
GR
GS
[0.75 0 0 0.75 0 0] CT
1 LJ
2 LW
N
444.833 133.5 M
444.197 131.541 L
442.53 130.33 L
440.47 130.33 L
438.803 131.541 L
438.167 133.5 L
438.803 135.459 L
440.47 136.67 L
442.53 136.67 L
444.197 135.459 L
cp
S
GR
GS
[0.75 0 0 0.75 0 0] CT
1 GC
N
521.833 107.5 M
520.857 105.143 L
518.5 104.167 L
516.143 105.143 L
515.167 107.5 L
516.143 109.857 L
518.5 110.833 L
520.857 109.857 L
521.833 107.5 L
cp
f
GR
GS
[0.75 0 0 0.75 0 0] CT
1 LJ
2 LW
N
521.833 107.5 M
521.197 105.541 L
519.53 104.33 L
517.47 104.33 L
515.803 105.541 L
515.167 107.5 L
515.803 109.459 L
517.47 110.67 L
519.53 110.67 L
521.197 109.459 L
cp
S
GR
GS
[0.75 0 0 0.75 0 0] CT
1 GC
N
598.833 83.5 M
597.857 81.143 L
595.5 80.167 L
593.143 81.143 L
592.167 83.5 L
593.143 85.857 L
595.5 86.833 L
597.857 85.857 L
598.833 83.5 L
cp
f
GR
GS
[0.75 0 0 0.75 0 0] CT
1 LJ
2 LW
N
598.833 83.5 M
598.197 81.541 L
596.53 80.33 L
594.47 80.33 L
592.803 81.541 L
592.167 83.5 L
592.803 85.459 L
594.47 86.67 L
596.53 86.67 L
598.197 85.459 L
cp
S
GR
GS
[0.75 0 0 0.75 0 0] CT
1 GC
N
675.833 62.5 M
674.857 60.143 L
672.5 59.167 L
670.143 60.143 L
669.167 62.5 L
670.143 64.857 L
672.5 65.833 L
674.857 64.857 L
675.833 62.5 L
cp
f
GR
GS
[0.75 0 0 0.75 0 0] CT
1 LJ
2 LW
N
675.833 62.5 M
675.197 60.541 L
673.53 59.33 L
671.47 59.33 L
669.803 60.541 L
669.167 62.5 L
669.803 64.459 L
671.47 65.67 L
673.53 65.67 L
675.197 64.459 L
cp
S
GR
GS
[0.75 0 0 0.75 0 0] CT
1 GC
N
753.833 41.5 M
752.857 39.143 L
750.5 38.167 L
748.143 39.143 L
747.167 41.5 L
748.143 43.857 L
750.5 44.833 L
752.857 43.857 L
753.833 41.5 L
cp
f
GR
GS
[0.75 0 0 0.75 0 0] CT
1 LJ
2 LW
N
753.833 41.5 M
753.197 39.541 L
751.53 38.33 L
749.47 38.33 L
747.803 39.541 L
747.167 41.5 L
747.803 43.459 L
749.47 44.67 L
751.53 44.67 L
753.197 43.459 L
cp
S
GR
GS
[0.75 0 0 0.75 0 0] CT
1 GC
N
68 267 M
68 52 L
161 52 L
161 267 L
cp
f
GR
GS
[0.75 0 0 0.75 78.75 49.125] CT
/Times 18.667 F
GS
[1 0 0 1 0 0] CT
0 6.5 moveto 
1 -1 scale
(LBP) t 
GR
GR
GS
[0.75 0 0 0.75 0 0] CT
1 0.6 0.784 RC
1 LJ
2 LW
N
72 65.5 M
102 65.5 L
S
GR
GS
[0.75 0 0 0.75 0 0] CT
1 GC
N
84.278 61.652 M
90.943 65.5 L
84.278 69.348 L
cp
f
GR
GS
[0.75 0 0 0.75 0 0] CT
1 0.6 0.784 RC
10.0 ML
2 LW
N
84.278 61.652 M
90.943 65.5 L
84.278 69.348 L
cp
S
GR
GS
[0.75 0 0 0.75 78.75 66.75] CT
/Times 18.667 F
GS
[1 0 0 1 0 0] CT
0 6.5 moveto 
1 -1 scale
(LTP) t 
GR
GR
GS
[0.75 0 0 0.75 0 0] CT
0.6 0.2 0 RC
1 LJ
2 LW
N
72 89 M
102 89 L
S
GR
GS
[0.75 0 0 0.75 0 0] CT
1 GC
N
82.057 89.5 M
88.722 85.652 L
88.722 93.348 L
cp
f
GR
GS
[0.75 0 0 0.75 0 0] CT
0.6 0.2 0 RC
10.0 ML
2 LW
N
82.057 89.5 M
88.722 85.652 L
88.722 93.348 L
cp
S
GR
GS
[0.75 0 0 0.75 78.75 84.37501] CT
/Times 18.667 F
GS
[1 0 0 1 0 0] CT
0 6.5 moveto 
1 -1 scale
(LDP) t 
GR
GR
GS
[0.75 0 0 0.75 0 0] CT
0.929 0.694 0.125 RC
1 LJ
2 LW
N
72 112.5 M
102 112.5 L
S
GR
GS
[0.75 0 0 0.75 0 0] CT
1 GC
N
83.33 111.47 M
85.716 111.47 L
86.5 109.167 L
87.284 111.47 L
89.67 111.47 L
87.768 112.912 L
88.459 115.197 L
86.5 113.833 L
84.541 115.197 L
85.232 112.912 L
83.33 111.47 L
cp
f
GR
GS
[0.75 0 0 0.75 0 0] CT
0.929 0.694 0.125 RC
10.0 ML
2 LW
N
83.33 111.47 M
85.716 111.47 L
86.5 109.167 L
87.284 111.47 L
89.67 111.47 L
87.768 112.912 L
88.459 115.197 L
86.5 113.833 L
84.541 115.197 L
85.232 112.912 L
cp
S
GR
GS
[0.75 0 0 0.75 78.75 102] CT
/Times 18.667 F
GS
[1 0 0 1 0 0] CT
0 6.5 moveto 
1 -1 scale
(LDN) t 
GR
GR
GS
[0.75 0 0 0.75 0 0] CT
0 1 1 RC
1 LJ
2 LW
N
72 136 M
102 136 L
S
GR
GS
[0.75 0 0 0.75 0 0] CT
1 GC
N
86.5 139.943 M
89.833 135.5 L
86.5 131.057 L
83.167 135.5 L
cp
f
GR
GS
[0.75 0 0 0.75 0 0] CT
0 1 1 RC
10.0 ML
2 LW
N
86.5 139.943 M
89.833 135.5 L
86.5 131.057 L
83.167 135.5 L
cp
S
GR
GS
[0.75 0 0 0.75 78.75 119.625] CT
/Times 18.667 F
GS
[1 0 0 1 0 0] CT
0 6.5 moveto 
1 -1 scale
(LVP) t 
GR
GR
GS
[0.75 0 0 0.75 0 0] CT
0 1 0 RC
1 LJ
2 LW
N
72 159.5 M
102 159.5 L
S
GR
GS
[0.75 0 0 0.75 0 0] CT
1 GC
N
83.9 162.1 M
83.9 156.9 L
89.1 156.9 L
89.1 162.1 L
cp
f
GR
GS
[0.75 0 0 0.75 0 0] CT
0 1 0 RC
10.0 ML
2 LW
N
83.9 162.1 M
83.9 156.9 L
89.1 156.9 L
89.1 162.1 L
cp
S
GR
GS
[0.75 0 0 0.75 78.75 137.25] CT
/Times 18.667 F
GS
[1 0 0 1 0 0] CT
0 6.5 moveto 
1 -1 scale
(LDGP) t 
GR
GR
GS
[0.75 0 0 0.75 0 0] CT
0 0 1 RC
1 LJ
2 LW
N
72 183 M
102 183 L
S
GR
GS
[0.75 0 0 0.75 0 0] CT
1 GC
N
82.057 182.5 M
88.722 178.652 L
88.722 186.348 L
cp
f
GR
GS
[0.75 0 0 0.75 0 0] CT
0 0 1 RC
10.0 ML
2 LW
N
82.057 182.5 M
88.722 178.652 L
88.722 186.348 L
cp
S
GR
GS
[0.75 0 0 0.75 78.75 154.875] CT
/Times 18.667 F
GS
[1 0 0 1 0 0] CT
0 6.5 moveto 
1 -1 scale
(DCP) t 
GR
GR
GS
[0.75 0 0 0.75 0 0] CT
1 0 1 RC
1 LJ
2 LW
N
72 206.5 M
102 206.5 L
S
GR
GS
[0.75 0 0 0.75 0 0] CT
1 0 1 RC
1 LJ
2 LW
N
83 206.5 M
90 206.5 L
S
GR
GS
[0.75 0 0 0.75 0 0] CT
1 0 1 RC
1 LJ
2 LW
N
86.5 210 M
86.5 203 L
S
GR
GS
[0.75 0 0 0.75 78.75 172.5] CT
/Times 18.667 F
GS
[1 0 0 1 0 0] CT
0 6.5 moveto 
1 -1 scale
(LGHP) t 
GR
GR
GS
[0.75 0 0 0.75 0 0] CT
1 0 0 RC
1 LJ
2 LW
N
72 230 M
102 230 L
S
GR
GS
[0.75 0 0 0.75 0 0] CT
1 GC
N
83.9 233.1 M
83.9 227.9 L
89.1 227.9 L
89.1 233.1 L
cp
f
GR
GS
[0.75 0 0 0.75 0 0] CT
1 0 0 RC
10.0 ML
2 LW
N
83.9 233.1 M
83.9 227.9 L
89.1 227.9 L
89.1 233.1 L
cp
S
GR
GS
[0.75 0 0 0.75 78.75 190.125] CT
/Times 18.667 F
GS
[1 0 0 1 0 0] CT
0 6.5 moveto 
1 -1 scale
(LDRP) t 
GR
GR
GS
[0.75 0 0 0.75 0 0] CT
1 LJ
2 LW
N
72 253.5 M
102 253.5 L
S
GR
GS
[0.75 0 0 0.75 0 0] CT
1 GC
N
89.833 253.5 M
88.857 251.143 L
86.5 250.167 L
84.143 251.143 L
83.167 253.5 L
84.143 255.857 L
86.5 256.833 L
88.857 255.857 L
89.833 253.5 L
cp
f
GR
GS
[0.75 0 0 0.75 0 0] CT
1 LJ
2 LW
N
89.833 253.5 M
89.197 251.541 L
87.53 250.33 L
85.47 250.33 L
83.803 251.541 L
83.167 253.5 L
83.803 255.459 L
85.47 256.67 L
87.53 256.67 L
89.197 255.459 L
cp
S
GR
GS
[0.75 0 0 0.75 0 0] CT
0.149 GC
10.0 ML
0.667 LW
N
68 267 M
68 52 L
161 52 L
161 267 L
cp
S
GR
%%Trailer
%%Pages: 1
%%EOF
